 Total leads: 23022
 + ---- + ------------------ + --------- + ------ + ------- + 
 | Rank | Pokemon            | Usage %   | Raw    | %       | 
 + ---- + ------------------ + --------- + ------ + ------- + 
 | 1    | Azelf              |  7.17574% | 1652   |  7.176% | 
 | 2    | Machamp            |  5.41656% | 1247   |  5.417% | 
 | 3    | Jirachi            |  4.73460% | 1090   |  4.735% | 
 | 4    | Infernape          |  4.46964% | 1029   |  4.470% | 
 | 5    | Aerodactyl         |  4.06133% | 935    |  4.061% | 
 | 6    | Swampert           |  3.39675% | 782    |  3.397% | 
 | 7    | Heatran            |  3.13613% | 722    |  3.136% | 
 | 8    | Dragonite          |  2.90157% | 668    |  2.902% | 
 | 9    | Tyranitar          |  2.86248% | 659    |  2.862% | 
 | 10   | Metagross          |  2.74954% | 633    |  2.750% | 
 | 11   | Hippowdon          |  2.61055% | 601    |  2.611% | 
 | 12   | Zapdos             |  2.39336% | 551    |  2.393% | 
 | 13   | Bronzong           |  2.27608% | 524    |  2.276% | 
 | 14   | Empoleon           |  2.22396% | 512    |  2.224% | 
 | 15   | Gengar             |  2.00243% | 461    |  2.002% | 
 | 16   | Skarmory           |  1.79828% | 414    |  1.798% | 
 | 17   | Alakazam           |  1.78959% | 412    |  1.790% | 
 | 18   | Ninjask            |  1.74181% | 401    |  1.742% | 
 | 19   | Forretress         |  1.71575% | 395    |  1.716% | 
 | 20   | Gliscor            |  1.58110% | 364    |  1.581% | 
 | 21   | Uxie               |  1.56807% | 361    |  1.568% | 
 | 22   | Roserade           |  1.55503% | 358    |  1.555% | 
 | 23   | Flygon             |  1.45513% | 335    |  1.455% | 
 | 24   | Gyarados           |  1.41604% | 326    |  1.416% | 
 | 25   | Smeargle           |  1.27704% | 294    |  1.277% | 
 | 26   | Starmie            |  1.25098% | 288    |  1.251% | 
 | 27   | Crobat             |  1.19885% | 276    |  1.199% | 
 | 28   | Breloom            |  1.18582% | 273    |  1.186% | 
 | 29   | Jolteon            |  1.12935% | 260    |  1.129% | 
 | 30   | Mamoswine          |  1.08157% | 249    |  1.082% | 
 | 31   | Scizor             |  1.02511% | 236    |  1.025% | 
 | 32   | Yanmega            |  0.99904% | 230    |  0.999% | 
 | 33   | Porygon-Z          |  0.96864% | 223    |  0.969% | 
 | 34   | Celebi             |  0.92520% | 213    |  0.925% | 
 | 35   | Nidoqueen          |  0.85136% | 196    |  0.851% | 
 | 36   | Espeon             |  0.77317% | 178    |  0.773% | 
 | 37   | Heracross          |  0.76014% | 175    |  0.760% | 
 | 38   | Lucario            |  0.63418% | 146    |  0.634% | 
 | 39   | Electivire         |  0.62549% | 144    |  0.625% | 
 | 40   | Weavile            |  0.58640% | 135    |  0.586% | 
 | 41   | Charizard          |  0.58205% | 134    |  0.582% | 
 | 42   | Torterra           |  0.54730% | 126    |  0.547% | 
 | 43   | Tentacruel         |  0.53862% | 124    |  0.539% | 
 | 44   | Blastoise          |  0.52124% | 120    |  0.521% | 
 | 45   | Pikachu            |  0.49518% | 114    |  0.495% | 
 | 46   | Electrode          |  0.47780% | 110    |  0.478% | 
 | 47   | Clefable           |  0.41265% | 95     |  0.413% | 
 | 48   | Togekiss           |  0.40831% | 94     |  0.408% | 
 | 49   | Ambipom            |  0.39962% | 92     |  0.400% | 
 | 50   | Blissey            |  0.36487% | 84     |  0.365% | 
 | 51   | Kingdra            |  0.35618% | 82     |  0.356% | 
 | 52   | Dusknoir           |  0.34749% | 80     |  0.347% | 
 | 53   | Snorlax            |  0.33881% | 78     |  0.339% | 
 | 54   | Slaking            |  0.31709% | 73     |  0.317% | 
 | 55   | Mesprit            |  0.31274% | 72     |  0.313% | 
 | 56   | Honchkrow          |  0.31274% | 72     |  0.313% | 
 | 57   | Abomasnow          |  0.30840% | 71     |  0.308% | 
 | 58   | Typhlosion         |  0.29971% | 69     |  0.300% | 
 | 59   | Staraptor          |  0.26931% | 62     |  0.269% | 
 | 60   | Girafarig          |  0.25628% | 59     |  0.256% | 
 | 61   | Lanturn            |  0.25193% | 58     |  0.252% | 
 | 62   | Cloyster           |  0.23890% | 55     |  0.239% | 
 | 63   | Umbreon            |  0.23890% | 55     |  0.239% | 
 | 64   | Azumarill          |  0.21718% | 50     |  0.217% | 
 | 65   | Gallade            |  0.21284% | 49     |  0.213% | 
 | 66   | Absol              |  0.19981% | 46     |  0.200% | 
 | 67   | Sceptile           |  0.19981% | 46     |  0.200% | 
 | 68   | Drapion            |  0.19112% | 44     |  0.191% | 
 | 69   | Rotom-Wash         |  0.18678% | 43     |  0.187% | 
 | 70   | Feraligatr         |  0.18678% | 43     |  0.187% | 
 | 71   | Butterfree         |  0.18243% | 42     |  0.182% | 
 | 72   | Cresselia          |  0.18243% | 42     |  0.182% | 
 | 73   | Venusaur           |  0.17809% | 41     |  0.178% | 
 | 74   | Sudowoodo          |  0.16072% | 37     |  0.161% | 
 | 75   | Nidoking           |  0.15637% | 36     |  0.156% | 
 | 76   | Mismagius          |  0.15203% | 35     |  0.152% | 
 | 77   | Raichu             |  0.15203% | 35     |  0.152% | 
 | 78   | Shuckle            |  0.15203% | 35     |  0.152% | 
 | 79   | Camerupt           |  0.15203% | 35     |  0.152% | 
 | 80   | Rhyperior          |  0.14768% | 34     |  0.148% | 
 | 81   | Shaymin            |  0.14334% | 33     |  0.143% | 
 | 82   | Hariyama           |  0.13900% | 32     |  0.139% | 
 | 83   | Qwilfish           |  0.13900% | 32     |  0.139% | 
 | 84   | Aggron             |  0.13465% | 31     |  0.135% | 
 | 85   | Manectric          |  0.13465% | 31     |  0.135% | 
 | 86   | Arcanine           |  0.13031% | 30     |  0.130% | 
 | 87   | Gardevoir          |  0.13031% | 30     |  0.130% | 
 | 88   | Dugtrio            |  0.12162% | 28     |  0.122% | 
 | 89   | Shiftry            |  0.12162% | 28     |  0.122% | 
 | 90   | Magnezone          |  0.11294% | 26     |  0.113% | 
 | 91   | Jumpluff           |  0.11294% | 26     |  0.113% | 
 | 92   | Ludicolo           |  0.11294% | 26     |  0.113% | 
 | 93   | Raikou             |  0.10859% | 25     |  0.109% | 
 | 94   | Donphan            |  0.10859% | 25     |  0.109% | 
 | 95   | Regigigas          |  0.10859% | 25     |  0.109% | 
 | 96   | Luxray             |  0.10859% | 25     |  0.109% | 
 | 97   | Vaporeon           |  0.10425% | 24     |  0.104% | 
 | 98   | Ursaring           |  0.10425% | 24     |  0.104% | 
 | 99   | Carnivine          |  0.09990% | 23     |  0.100% | 
 | 100  | Exeggutor          |  0.09556% | 22     |  0.096% | 
 | 101  | Banette            |  0.09556% | 22     |  0.096% | 
 | 102  | Milotic            |  0.08687% | 20     |  0.087% | 
 | 103  | Furret             |  0.08687% | 20     |  0.087% | 
 | 104  | Shedinja           |  0.08687% | 20     |  0.087% | 
 | 105  | Houndoom           |  0.08253% | 19     |  0.083% | 
 | 106  | Spiritomb          |  0.07819% | 18     |  0.078% | 
 | 107  | Bibarel            |  0.07819% | 18     |  0.078% | 
 | 108  | Hitmonlee          |  0.07384% | 17     |  0.074% | 
 | 109  | Golem              |  0.07384% | 17     |  0.074% | 
 | 110  | Rotom-Heat         |  0.07384% | 17     |  0.074% | 
 | 111  | Suicune            |  0.06950% | 16     |  0.069% | 
 | 112  | Blaziken           |  0.06516% | 15     |  0.065% | 
 | 113  | Mr. Mime           |  0.06516% | 15     |  0.065% | 
 | 114  | Slowbro            |  0.06516% | 15     |  0.065% | 
 | 115  | Pelipper           |  0.06516% | 15     |  0.065% | 
 | 116  | Slowking           |  0.06516% | 15     |  0.065% | 
 | 117  | Lopunny            |  0.06516% | 15     |  0.065% | 
 | 118  | Lapras             |  0.06081% | 14     |  0.061% | 
 | 119  | Primeape           |  0.06081% | 14     |  0.061% | 
 | 120  | Kingler            |  0.05647% | 13     |  0.056% | 
 | 121  | Bastiodon          |  0.05647% | 13     |  0.056% | 
 | 122  | Claydol            |  0.05647% | 13     |  0.056% | 
 | 123  | Castform           |  0.05212% | 12     |  0.052% | 
 | 124  | Moltres            |  0.05212% | 12     |  0.052% | 
 | 125  | Registeel          |  0.05212% | 12     |  0.052% | 
 | 126  | Muk                |  0.05212% | 12     |  0.052% | 
 | 127  | Swellow            |  0.04778% | 11     |  0.048% | 
 | 128  | Steelix            |  0.04778% | 11     |  0.048% | 
 | 129  | Rampardos          |  0.04778% | 11     |  0.048% | 
 | 130  | Skuntank           |  0.04778% | 11     |  0.048% | 
 | 131  | Scyther            |  0.04778% | 11     |  0.048% | 
 | 132  | Pidgeot            |  0.04778% | 11     |  0.048% | 
 | 133  | Magmortar          |  0.04778% | 11     |  0.048% | 
 | 134  | Hypno              |  0.04344% | 10     |  0.043% | 
 | 135  | Dodrio             |  0.04344% | 10     |  0.043% | 
 | 136  | Venomoth           |  0.04344% | 10     |  0.043% | 
 | 137  | Leafeon            |  0.03909% | 9      |  0.039% | 
 | 138  | Granbull           |  0.03909% | 9      |  0.039% | 
 | 139  | Haunter            |  0.03909% | 9      |  0.039% | 
 | 140  | Medicham           |  0.03909% | 9      |  0.039% | 
 | 141  | Solrock            |  0.03909% | 9      |  0.039% | 
 | 142  | Kangaskhan         |  0.03475% | 8      |  0.035% | 
 | 143  | Toxicroak          |  0.03475% | 8      |  0.035% | 
 | 144  | Ditto              |  0.03475% | 8      |  0.035% | 
 | 145  | Rotom-Frost        |  0.03475% | 8      |  0.035% | 
 | 146  | Hitmontop          |  0.03475% | 8      |  0.035% | 
 | 147  | Linoone            |  0.03041% | 7      |  0.030% | 
 | 148  | Ampharos           |  0.03041% | 7      |  0.030% | 
 | 149  | Pinsir             |  0.03041% | 7      |  0.030% | 
 | 150  | Rotom-Mow          |  0.03041% | 7      |  0.030% | 
 | 151  | Torkoal            |  0.03041% | 7      |  0.030% | 
 | 152  | Rapidash           |  0.03041% | 7      |  0.030% | 
 | 153  | Kecleon            |  0.02606% | 6      |  0.026% | 
 | 154  | Kabutops           |  0.02606% | 6      |  0.026% | 
 | 155  | Politoed           |  0.02606% | 6      |  0.026% | 
 | 156  | Cradily            |  0.02606% | 6      |  0.026% | 
 | 157  | Pichu              |  0.02606% | 6      |  0.026% | 
 | 158  | Gastrodon          |  0.02606% | 6      |  0.026% | 
 | 159  | Ariados            |  0.02606% | 6      |  0.026% | 
 | 160  | Omastar            |  0.02172% | 5      |  0.022% | 
 | 161  | Sableye            |  0.02172% | 5      |  0.022% | 
 | 162  | Miltank            |  0.02172% | 5      |  0.022% | 
 | 163  | Entei              |  0.02172% | 5      |  0.022% | 
 | 164  | Tangrowth          |  0.02172% | 5      |  0.022% | 
 | 165  | Hitmonchan         |  0.01737% | 4      |  0.017% | 
 | 166  | Altaria            |  0.01737% | 4      |  0.017% | 
 | 167  | Sharpedo           |  0.01737% | 4      |  0.017% | 
 | 168  | Tauros             |  0.01737% | 4      |  0.017% | 
 | 169  | Turtwig            |  0.01737% | 4      |  0.017% | 
 | 170  | Mightyena          |  0.01303% | 3      |  0.013% | 
 | 171  | Poliwrath          |  0.01303% | 3      |  0.013% | 
 | 172  | Raticate           |  0.01303% | 3      |  0.013% | 
 | 173  | Chansey            |  0.01303% | 3      |  0.013% | 
 | 174  | Vileplume          |  0.01303% | 3      |  0.013% | 
 | 175  | Probopass          |  0.01303% | 3      |  0.013% | 
 | 176  | Golbat             |  0.01303% | 3      |  0.013% | 
 | 177  | Articuno           |  0.01303% | 3      |  0.013% | 
 | 178  | Charmander         |  0.01303% | 3      |  0.013% | 
 | 179  | Jynx               |  0.01303% | 3      |  0.013% | 
 | 180  | Quilava            |  0.01303% | 3      |  0.013% | 
 | 181  | Glalie             |  0.01303% | 3      |  0.013% | 
 | 182  | Volbeat            |  0.01303% | 3      |  0.013% | 
 | 183  | Weezing            |  0.00869% | 2      |  0.009% | 
 | 184  | Aron               |  0.00869% | 2      |  0.009% | 
 | 185  | Tangela            |  0.00869% | 2      |  0.009% | 
 | 186  | Farfetch'd         |  0.00869% | 2      |  0.009% | 
 | 187  | Piplup             |  0.00869% | 2      |  0.009% | 
 | 188  | Marowak            |  0.00869% | 2      |  0.009% | 
 | 189  | Crawdaunt          |  0.00869% | 2      |  0.009% | 
 | 190  | Croconaw           |  0.00869% | 2      |  0.009% | 
 | 191  | Bellossom          |  0.00869% | 2      |  0.009% | 
 | 192  | Croagunk           |  0.00869% | 2      |  0.009% | 
 | 193  | Walrein            |  0.00869% | 2      |  0.009% | 
 | 194  | Misdreavus         |  0.00869% | 2      |  0.009% | 
 | 195  | Aipom              |  0.00869% | 2      |  0.009% | 
 | 196  | Meganium           |  0.00869% | 2      |  0.009% | 
 | 197  | Tropius            |  0.00869% | 2      |  0.009% | 
 | 198  | Victreebel         |  0.00869% | 2      |  0.009% | 
 | 199  | Lickilicky         |  0.00869% | 2      |  0.009% | 
 | 200  | Flareon            |  0.00869% | 2      |  0.009% | 
 | 201  | Dewgong            |  0.00869% | 2      |  0.009% | 
 | 202  | Ninetales          |  0.00869% | 2      |  0.009% | 
 | 203  | Floatzel           |  0.00869% | 2      |  0.009% | 
 | 204  | Dusclops           |  0.00869% | 2      |  0.009% | 
 | 205  | Magmar             |  0.00869% | 2      |  0.009% | 
 | 206  | Sunflora           |  0.00869% | 2      |  0.009% | 
 | 207  | Caterpie           |  0.00434% | 1      |  0.004% | 
 | 208  | Rhydon             |  0.00434% | 1      |  0.004% | 
 | 209  | Gligar             |  0.00434% | 1      |  0.004% | 
 | 210  | Charmeleon         |  0.00434% | 1      |  0.004% | 
 | 211  | Skorupi            |  0.00434% | 1      |  0.004% | 
 | 212  | Pineco             |  0.00434% | 1      |  0.004% | 
 | 213  | Hippopotas         |  0.00434% | 1      |  0.004% | 
 | 214  | Regice             |  0.00434% | 1      |  0.004% | 
 | 215  | Bulbasaur          |  0.00434% | 1      |  0.004% | 
 | 216  | Arbok              |  0.00434% | 1      |  0.004% | 
 | 217  | Wartortle          |  0.00434% | 1      |  0.004% | 
 | 218  | Wigglytuff         |  0.00434% | 1      |  0.004% | 
 | 219  | Magikarp           |  0.00434% | 1      |  0.004% | 
 | 220  | Happiny            |  0.00434% | 1      |  0.004% | 
 | 221  | Rattata            |  0.00434% | 1      |  0.004% | 
 | 222  | Squirtle           |  0.00434% | 1      |  0.004% | 
 | 223  | Exploud            |  0.00434% | 1      |  0.004% | 
 | 224  | Meowth             |  0.00434% | 1      |  0.004% | 
 | 225  | Bayleef            |  0.00434% | 1      |  0.004% | 
 | 226  | Phione             |  0.00434% | 1      |  0.004% | 
 | 227  | Magcargo           |  0.00434% | 1      |  0.004% | 
 | 228  | Gastly             |  0.00434% | 1      |  0.004% | 
 | 229  | Drifblim           |  0.00434% | 1      |  0.004% | 
 | 230  | Combusken          |  0.00434% | 1      |  0.004% | 
 | 231  | Spinda             |  0.00434% | 1      |  0.004% | 
 | 232  | Chikorita          |  0.00434% | 1      |  0.004% | 
 | 233  | Persian            |  0.00434% | 1      |  0.004% | 
 | 234  | Vespiquen          |  0.00434% | 1      |  0.004% | 
 | 235  | Grumpig            |  0.00434% | 1      |  0.004% | 
 | 236  | Xatu               |  0.00434% | 1      |  0.004% | 
 | 237  | Delibird           |  0.00434% | 1      |  0.004% | 
 | 238  | Clamperl           |  0.00434% | 1      |  0.004% | 
 | 239  | Glameow            |  0.00434% | 1      |  0.004% | 
 | 240  | Electabuzz         |  0.00434% | 1      |  0.004% | 
 | 241  | Weedle             |  0.00434% | 1      |  0.004% | 
 | 242  | Kricketune         |  0.00434% | 1      |  0.004% | 
 | 243  | Chimchar           |  0.00434% | 1      |  0.004% | 
 | 244  | Zigzagoon          |  0.00434% | 1      |  0.004% | 
 | 245  | Onix               |  0.00434% | 1      |  0.004% | 
 + ---- + ------------------ + --------- + ------ + ------- + 
