 Total leads: 2
 + ---- + ------------------ + --------- + ------ + ------- + 
 | Rank | Pokemon            | Usage %   | Raw    | %       | 
 + ---- + ------------------ + --------- + ------ + ------- + 
 | 1    | Onix               |  0.00000% | 1      | 50.000% | 
 | 2    | Machop             |  0.00000% | 1      | 50.000% | 
 + ---- + ------------------ + --------- + ------ + ------- + 
