 +----------------------------------------+ 
 | Geodude                                | 
 +----------------------------------------+ 
 | Raw count: 4                           | 
 | Avg. weight: 0.761667037386            | 
 +----------------------------------------+ 
 | Abilities                              | 
 | Sturdy 100.000%                        | 
 +----------------------------------------+ 
 | Items                                  | 
 | Salac Berry 100.000%                   | 
 +----------------------------------------+ 
 | Spreads                                | 
 | Impish:252/4/196/0/0/0 100.000%        | 
 +----------------------------------------+ 
 | Moves                                  | 
 | Toxic 100.000%                         | 
 | Stealth Rock 100.000%                  | 
 | Earthquake 100.000%                    | 
 | Stone Edge 100.000%                    | 
 +----------------------------------------+ 
 | Teammates                              | 
 +----------------------------------------+ 
 | Checks and Counters                    | 
 +----------------------------------------+ 
 +----------------------------------------+ 
 | Gastly                                 | 
 +----------------------------------------+ 
 | Raw count: 4                           | 
 | Avg. weight: 0.761667037386            | 
 +----------------------------------------+ 
 | Abilities                              | 
 | Levitate 100.000%                      | 
 +----------------------------------------+ 
 | Items                                  | 
 | Choice Specs 100.000%                  | 
 +----------------------------------------+ 
 | Spreads                                | 
 | Timid:0/0/0/252/0/252 100.000%         | 
 +----------------------------------------+ 
 | Moves                                  | 
 | Sludge Bomb 100.000%                   | 
 | Shadow Ball 100.000%                   | 
 | Thunderbolt 100.000%                   | 
 | Energy Ball 100.000%                   | 
 +----------------------------------------+ 
 | Teammates                              | 
 +----------------------------------------+ 
 | Checks and Counters                    | 
 +----------------------------------------+ 
 +----------------------------------------+ 
 | Cranidos                               | 
 +----------------------------------------+ 
 | Raw count: 4                           | 
 | Avg. weight: 0.761667037386            | 
 +----------------------------------------+ 
 | Abilities                              | 
 | Mold Breaker 100.000%                  | 
 +----------------------------------------+ 
 | Items                                  | 
 | Focus Sash 100.000%                    | 
 +----------------------------------------+ 
 | Spreads                                | 
 | Adamant:0/252/0/0/0/252 100.000%       | 
 +----------------------------------------+ 
 | Moves                                  | 
 | Crunch 100.000%                        | 
 | Rock Polish 100.000%                   | 
 | Earthquake 100.000%                    | 
 | Rock Slide 100.000%                    | 
 +----------------------------------------+ 
 | Teammates                              | 
 +----------------------------------------+ 
 | Checks and Counters                    | 
 +----------------------------------------+ 
 +----------------------------------------+ 
 | Buneary                                | 
 +----------------------------------------+ 
 | Raw count: 4                           | 
 | Avg. weight: 0.277610728845            | 
 +----------------------------------------+ 
 | Abilities                              | 
 | Run Away 100.000%                      | 
 +----------------------------------------+ 
 | Items                                  | 
 | BrightPowder 57.548%                   | 
 | Leftovers 42.452%                      | 
 +----------------------------------------+ 
 | Spreads                                | 
 | Jolly:0/252/0/0/4/252 100.000%         | 
 +----------------------------------------+ 
 | Moves                                  | 
 | Quick Attack 57.548%                   | 
 | Fake Out 57.548%                       | 
 | Magic Coat 57.548%                     | 
 | Endeavor 57.548%                       | 
 | Protect 42.452%                        | 
 | Return 42.452%                         | 
 | Toxic 42.452%                          | 
 | Substitute 42.452%                     | 
 +----------------------------------------+ 
 | Teammates                              | 
 +----------------------------------------+ 
 | Checks and Counters                    | 
 +----------------------------------------+ 
