 sun...........................57.42547%
 rain..........................47.62179%
 offense.......................38.96980%
 stall.........................25.79382%
 balance.......................23.41781%
 sunstall......................18.44592%
 multiweather..................17.81758%
 dragmag.......................10.92160%
 weatherless................... 7.84867%
 hyperoffense.................. 6.67011%
 rainstall..................... 6.24789%
 semistall..................... 5.14846%
 sand.......................... 4.92166%
 batonpass..................... 3.63908%
 sunoffense.................... 1.04518%
 sandoffense................... 0.00000%
 monowater..................... 0.00000%
 hail.......................... 0.00000%
 rainoffense................... 0.00000%
 monotype...................... 0.00000%
 monobug....................... 0.00000%
 monopsychic................... 0.00000%
 monosteel..................... 0.00000%
 monorock...................... 0.00000%
 monofire...................... 0.00000%
 choice........................ 0.00000%
 monodark...................... 0.00000%
 monodragon.................... 0.00000%

 Stalliness (mean:  0.333)
 -3.0|
     |
 -2.5|
     |
 -2.0|
     |
 -1.5|
     |##########
 -1.0|###############
     |########################
 -0.5|###################
     |##########
  0.0|#########
     |#####
 +0.5|################
     |#############
 +1.0|#
     |###
 +1.5|#######
     |##############################
 +2.0|
 more negative = more offensive, more positive = more stall
 one # =  0.57%
