 weatherless...................94.71092%
 offense.......................57.67155%
 hyperoffense..................30.20811%
 balance.......................12.12034%
 choice........................10.64953%
 dragmag....................... 6.68922%
 sun........................... 5.28908%

 Stalliness (mean: -0.679)
 -1.6|####################
     |################
 -1.2|
     |########
 -0.8|
     |##############################
 -0.4|########
     |#################
  0.0|#####
     |#####
 +0.4|
     |#####
 more negative = more offensive, more positive = more stall
 one # =  0.85%
