 weatherless...................49.06575%
 offense.......................46.31280%
 rain..........................44.54440%
 hyperoffense..................30.64976%
 rainoffense...................24.25991%
 balance.......................23.03744%
 sun...........................20.28449%
 multiweather..................20.28449%
 sandoffense................... 6.38985%
 sand.......................... 6.38985%
 dragmag....................... 1.45658%
 batonpass..................... 1.45658%
 semistall..................... 0.00000%
 monotype...................... 0.00000%
 monopsychic................... 0.00000%
 monofire...................... 0.00000%
 monoflying.................... 0.00000%

 Stalliness (mean: -0.583)
     |
 -1.5|
     |##############################
 -1.0|####
     |######
 -0.5|###################
     |################
  0.0|
     |#######################
 +0.5|
     |
 +1.0|
     |
 more negative = more offensive, more positive = more stall
 one # =  1.02%
