 weatherless...................71.61471%
 hyperoffense..................71.33347%
 sun...........................28.38529%
 offense.......................28.38529%
 rain.......................... 7.08921%
 multiweather.................. 7.08921%
 balance....................... 0.28123%
 sandoffense................... 0.00000%
 sand.......................... 0.00000%

 Stalliness (mean: -0.998)
     |
 -1.6|
     |##########
 -1.2|##############################
     |
 -0.8|
     |####
 -0.4|############
     |
  0.0|
     |
 more negative = more offensive, more positive = more stall
 one # =  1.78%
