 weatherless...................100.00000%
 offense.......................96.17555%
 semistall..................... 2.96796%
 balance....................... 0.82058%
 hyperoffense.................. 0.03591%
 trickroom..................... 0.00000%
 sun........................... 0.00000%
 batonpass..................... 0.00000%
 rain.......................... 0.00000%
 choice........................ 0.00000%
 stall......................... 0.00000%
 mononormal.................... 0.00000%
 monotype...................... 0.00000%

 Stalliness (mean:  0.009)
     |
 -1.5|
     |
 -1.0|
     |
 -0.5|
     |
  0.0|##############################
     |
 +0.5|
     |
 +1.0|
     |
 +1.5|#
     |
 +2.0|
     |
 more negative = more offensive, more positive = more stall
 one # =  3.16%
