 weatherless...................55.67271%
 offense.......................41.84251%
 sand..........................38.64068%
 hyperoffense..................30.83065%
 balance.......................18.00941%
 sandoffense...................11.44391%
 stall......................... 5.11115%
 semistall..................... 4.20628%
 rain.......................... 4.01742%
 sandstall..................... 3.96639%
 rainoffense................... 2.26421%
 hail.......................... 1.93947%
 dragmag....................... 1.92990%
 voltturn...................... 1.83397%
 choice........................ 1.66470%
 multiweather.................. 0.54767%
 trickroom..................... 0.49009%
 monotype...................... 0.41476%
 hailstall..................... 0.41149%
 sun........................... 0.27739%
 monosteel..................... 0.10985%
 tricksand..................... 0.10763%
 sunoffense.................... 0.08966%
 monowater..................... 0.07487%
 gravity....................... 0.07103%
 monoice....................... 0.05688%
 hailoffense................... 0.04579%
 monoelectric.................. 0.03058%
 monofighting.................. 0.02639%
 monorock...................... 0.02395%
 monopsychic................... 0.02355%
 monofire...................... 0.02084%
 monoground.................... 0.01775%
 monopoison.................... 0.01261%
 monobug....................... 0.00675%
 monograss..................... 0.00603%
 monoflying.................... 0.00566%
 monodark...................... 0.00351%
 trapper....................... 0.00331%
 monodragon.................... 0.00289%
 monoghost..................... 0.00289%
 mononormal.................... 0.00099%
 tailwind...................... 0.00000%

 Stalliness (mean: -0.398)
     |##########
 -1.5|#################
     |######################
 -1.0|##############################
     |########################
 -0.5|####################
     |######################
  0.0|##############
     |############
 +0.5|#######
     |##########
 +1.0|#####
     |###
 +1.5|####
     |###
 +2.0|###
     |##
 +2.5|##
 more negative = more offensive, more positive = more stall
 one # =  0.48%
