 weatherless...................53.98830%
 hyperoffense..................50.43263%
 offense.......................32.73584%
 rain..........................25.58268%
 sun...........................24.81516%
 balance.......................16.83153%
 multiweather.................. 8.74905%
 sandoffense................... 4.36291%
 sand.......................... 4.36291%

 Stalliness (mean: -0.760)
     |####
 -1.6|
     |############
 -1.2|##############################
     |
 -0.8|
     |#########
 -0.4|###############
     |###
  0.0|##########
     |#######
 more negative = more offensive, more positive = more stall
 one # =  1.10%
