 Total battles: 65
 Avg. weight/team: 0.619
 + ---- + ------------------ + --------- + ------ + ------- + ------ + ------- + 
 | Rank | Pokemon            | Usage %   | Raw    | %       | Real   | %       | 
 + ---- + ------------------ + --------- + ------ + ------- + ------ + ------- + 
 | 1    | Rhyperior          | 48.38755% | 45     | 34.615% | 37     | 33.893% | 
 | 2    | Lanturn            | 45.09402% | 44     | 33.846% | 29     | 26.565% | 
 | 3    | Venusaur           | 41.67158% | 37     | 28.462% | 28     | 25.649% | 
 | 4    | Milotic            | 30.97647% | 34     | 26.154% | 26     | 23.817% | 
 | 5    | Spiritomb          | 30.41934% | 35     | 26.923% | 29     | 26.565% | 
 | 6    | Blaziken           | 30.22231% | 35     | 26.923% | 32     | 29.313% | 
 | 7    | Absol              | 30.12403% | 29     | 22.308% | 15     | 13.740% | 
 | 8    | Registeel          | 27.97459% | 27     | 20.769% | 25     | 22.901% | 
 | 9    | Weezing            | 17.24514% | 16     | 12.308% | 14     | 12.824% | 
 | 10   | Clefable           | 14.81181% | 19     | 14.615% | 16     | 14.656% | 
 | 11   | Alakazam           | 14.59589% | 23     | 17.692% | 20     | 18.321% | 
 | 12   | Ambipom            | 13.04086% | 22     | 16.923% | 22     | 20.153% | 
 | 13   | Mismagius          | 10.65335% | 17     | 13.077% | 14     | 12.824% | 
 | 14   | Hitmontop          | 10.34117% | 15     | 11.538% | 15     | 13.740% | 
 | 15   | Drapion            |  9.51758% | 15     | 11.538% | 11     | 10.076% | 
 | 16   | Sceptile           |  9.09399% | 10     |  7.692% | 10     |  9.160% | 
 | 17   | Slowbro            |  8.75875% | 9      |  6.923% | 8      |  7.328% | 
 | 18   | Claydol            |  8.37865% | 11     |  8.462% | 11     | 10.076% | 
 | 19   | Ludicolo           |  8.13699% | 12     |  9.231% | 10     |  9.160% | 
 | 20   | Nidoqueen          |  8.04371% | 14     | 10.769% | 13     | 11.908% | 
 | 21   | Leafeon            |  7.90795% | 14     | 10.769% | 12     | 10.992% | 
 | 22   | Arcanine           |  7.35331% | 10     |  7.692% | 9      |  8.244% | 
 | 23   | Altaria            |  6.31961% | 11     |  8.462% | 10     |  9.160% | 
 | 24   | Uxie               |  6.28053% | 11     |  8.462% | 11     | 10.076% | 
 | 25   | Ursaring           |  6.22974% | 7      |  5.385% | 6      |  5.496% | 
 | 26   | Cloyster           |  5.80970% | 10     |  7.692% | 8      |  7.328% | 
 | 27   | Mesprit            |  4.88931% | 8      |  6.154% | 8      |  7.328% | 
 | 28   | Dugtrio            |  4.83932% | 8      |  6.154% | 7      |  6.412% | 
 | 29   | Primeape           |  4.78727% | 8      |  6.154% | 6      |  5.496% | 
 | 30   | Tangrowth          |  4.69903% | 6      |  4.615% | 6      |  5.496% | 
 | 31   | Blastoise          |  4.59969% | 8      |  6.154% | 6      |  5.496% | 
 | 32   | Jumpluff           |  4.43387% | 6      |  4.615% | 6      |  5.496% | 
 | 33   | Moltres            |  4.10119% | 8      |  6.154% | 6      |  5.496% | 
 | 34   | Hariyama           |  3.78387% | 6      |  4.615% | 6      |  5.496% | 
 | 35   | Ampharos           |  3.69991% | 6      |  4.615% | 6      |  5.496% | 
 | 36   | Exeggutor          |  3.67678% | 5      |  3.846% | 5      |  4.580% | 
 | 37   | Swellow            |  3.64363% | 5      |  3.846% | 3      |  2.748% | 
 | 38   | Steelix            |  3.55303% | 7      |  5.385% | 6      |  5.496% | 
 | 39   | Kabutops           |  3.39791% | 5      |  3.846% | 5      |  4.580% | 
 | 40   | Donphan            |  3.36473% | 6      |  4.615% | 6      |  5.496% | 
 | 41   | Gardevoir          |  3.31562% | 5      |  3.846% | 4      |  3.664% | 
 | 42   | Chansey            |  3.23922% | 7      |  5.385% | 6      |  5.496% | 
 | 43   | Scyther            |  2.85045% | 4      |  3.077% | 3      |  2.748% | 
 | 44   | Aggron             |  2.75172% | 5      |  3.846% | 5      |  4.580% | 
 | 45   | Azumarill          |  2.67102% | 5      |  3.846% | 4      |  3.664% | 
 | 46   | Miltank            |  2.53589% | 4      |  3.077% | 3      |  2.748% | 
 | 47   | Rotom              |  2.51827% | 4      |  3.077% | 3      |  2.748% | 
 | 48   | Kangaskhan         |  2.45978% | 2      |  1.538% | 1      |  0.916% | 
 | 49   | Magmortar          |  2.44871% | 3      |  2.308% | 3      |  2.748% | 
 | 50   | Nidoking           |  2.32610% | 4      |  3.077% | 2      |  1.832% | 
 | 51   | Torterra           |  2.21564% | 4      |  3.077% | 4      |  3.664% | 
 | 52   | Lopunny            |  2.05615% | 3      |  2.308% | 3      |  2.748% | 
 | 53   | Toxicroak          |  1.98335% | 4      |  3.077% | 3      |  2.748% | 
 | 54   | Walrein            |  1.85235% | 4      |  3.077% | 2      |  1.832% | 
 | 55   | Snover             |  1.85235% | 4      |  3.077% | 4      |  3.664% | 
 | 56   | Vileplume          |  1.84939% | 3      |  2.308% | 3      |  2.748% | 
 | 57   | Feraligatr         |  1.77080% | 4      |  3.077% | 4      |  3.664% | 
 | 58   | Chatot             |  1.73388% | 4      |  3.077% | 4      |  3.664% | 
 | 59   | Houndoom           |  1.45600% | 3      |  2.308% | 2      |  1.832% | 
 | 60   | Luxray             |  1.43684% | 3      |  2.308% | 3      |  2.748% | 
 | 61   | Poliwrath          |  1.41818% | 2      |  1.538% | 2      |  1.832% | 
 | 62   | Kingler            |  1.41818% | 2      |  1.538% | 2      |  1.832% | 
 | 63   | Mantine            |  1.40187% | 2      |  1.538% | 2      |  1.832% | 
 | 64   | Crawdaunt          |  1.40187% | 2      |  1.538% | 2      |  1.832% | 
 | 65   | Qwilfish           |  1.31149% | 2      |  1.538% | 2      |  1.832% | 
 | 66   | Lapras             |  1.28704% | 2      |  1.538% | 2      |  1.832% | 
 | 67   | Hitmonlee          |  1.28002% | 2      |  1.538% | 2      |  1.832% | 
 | 68   | Omastar            |  1.25897% | 2      |  1.538% | 2      |  1.832% | 
 | 69   | Beedrill           |  1.25623% | 3      |  2.308% | 3      |  2.748% | 
 | 70   | Raichu             |  1.24266% | 2      |  1.538% | 2      |  1.832% | 
 | 71   | Gastrodon          |  1.14093% | 2      |  1.538% | 2      |  1.832% | 
 | 72   | Dustox             |  1.00307% | 2      |  1.538% | 1      |  0.916% | 
 | 73   | Magneton           |  0.89028% | 2      |  1.538% | 2      |  1.832% | 
 | 74   | Dragonair          |  0.84818% | 1      |  0.769% | 1      |  0.916% | 
 | 75   | Mawile             |  0.84818% | 1      |  0.769% | 1      |  0.916% | 
 | 76   | Lickilicky         |  0.84431% | 2      |  1.538% | 2      |  1.832% | 
 | 77   | Quagsire           |  0.84030% | 1      |  0.769% | 0      |  0.000% | 
 | 78   | Grumpig            |  0.78054% | 1      |  0.769% | 1      |  0.916% | 
 | 79   | Flareon            |  0.78054% | 1      |  0.769% | 1      |  0.916% | 
 | 80   | Electabuzz         |  0.78054% | 1      |  0.769% | 1      |  0.916% | 
 | 81   | Armaldo            |  0.78054% | 1      |  0.769% | 1      |  0.916% | 
 | 82   | Gligar             |  0.55808% | 1      |  0.769% | 1      |  0.916% | 
 | 83   | Politoed           |  0.55808% | 1      |  0.769% | 1      |  0.916% | 
 | 84   | Skuntank           |  0.55808% | 1      |  0.769% | 1      |  0.916% | 
 | 85   | Entei              |  0.55808% | 1      |  0.769% | 0      |  0.000% | 
 | 86   | Espeon             |  0.55808% | 1      |  0.769% | 1      |  0.916% | 
 | 87   | Buizel             |  0.50966% | 1      |  0.769% | 1      |  0.916% | 
 | 88   | Linoone            |  0.50650% | 1      |  0.769% | 1      |  0.916% | 
 | 89   | Bastiodon          |  0.50650% | 1      |  0.769% | 1      |  0.916% | 
 | 90   | Spinda             |  0.49882% | 1      |  0.769% | 1      |  0.916% | 
 | 91   | Skiploom           |  0.49882% | 1      |  0.769% | 1      |  0.916% | 
 | 92   | Masquerain         |  0.49882% | 1      |  0.769% | 1      |  0.916% | 
 | 93   | Lickitung          |  0.49882% | 1      |  0.769% | 1      |  0.916% | 
 | 94   | Weepinbell         |  0.49882% | 1      |  0.769% | 1      |  0.916% | 
 | 95   | Sableye            |  0.49438% | 1      |  0.769% | 0      |  0.000% | 
 | 96   | Hitmonchan         |  0.49438% | 1      |  0.769% | 1      |  0.916% | 
 | 97   | Cradily            |  0.47765% | 1      |  0.769% | 1      |  0.916% | 
 | 98   | Eevee              |  0.47765% | 1      |  0.769% | 1      |  0.916% | 
 | 99   | Shedinja           |  0.47765% | 1      |  0.769% | 1      |  0.916% | 
 | 100  | Raticate           |  0.46212% | 1      |  0.769% | 1      |  0.916% | 
 | 101  | Bibarel            |  0.46212% | 1      |  0.769% | 1      |  0.916% | 
 | 102  | Golem              |  0.46212% | 1      |  0.769% | 1      |  0.916% | 
 | 103  | Meganium           |  0.46212% | 1      |  0.769% | 1      |  0.916% | 
 | 104  | Victreebel         |  0.46212% | 1      |  0.769% | 1      |  0.916% | 
 | 105  | Pidgeot            |  0.46212% | 1      |  0.769% | 1      |  0.916% | 
 | 106  | Zangoose           |  0.44752% | 1      |  0.769% | 1      |  0.916% | 
 | 107  | Manectric          |  0.44752% | 1      |  0.769% | 1      |  0.916% | 
 | 108  | Rhydon             |  0.44246% | 1      |  0.769% | 1      |  0.916% | 
 | 109  | Huntail            |  0.16343% | 2      |  1.538% | 2      |  1.832% | 
 | 110  | Beautifly          |  0.16343% | 2      |  1.538% | 2      |  1.832% | 
 | 111  | Regice             |  0.16343% | 2      |  1.538% | 1      |  0.916% | 
 | 112  | Ariados            |  0.16343% | 2      |  1.538% | 2      |  1.832% | 
 + ---- + ------------------ + --------- + ------ + ------- + ------ + ------- + 
