 weatherless...................100.00000%
 offense.......................47.73346%
 stall.........................26.99029%
 balance.......................25.27626%
 trickroom.....................19.50595%
 semistall..................... 0.00000%
 sun........................... 0.00000%
 hail.......................... 0.00000%
 choice........................ 0.00000%
 hyperoffense.................. 0.00000%
 sand.......................... 0.00000%
 sandstall..................... 0.00000%
 hailstall..................... 0.00000%
 rain.......................... 0.00000%

 Stalliness (mean:  0.534)
 -1.5|
     |
 -1.0|
     |######################
 -0.5|#
     |#####
  0.0|############################
     |
 +0.5|
     |###########################
 +1.0|
     |
 +1.5|
     |##############################
 +2.0|
 more negative = more offensive, more positive = more stall
 one # =  0.90%
