 balance.......................100.00000%
 weatherless...................100.00000%

 Stalliness (mean:  0.320)
  0.0|
     |
 +0.1|
     |##############################
 +0.2|
     |
     |
     |
     |
 more negative = more offensive, more positive = more stall
 one # =  1.67%
