 +----------------------------------------+ 
 | Buneary                                | 
 +----------------------------------------+ 
 | Raw count: 10                          | 
 | Avg. weight: 0.168230223082            | 
 | Viability Ceiling: 69                  | 
 +----------------------------------------+ 
 | Abilities                              | 
 | Run Away 100.000%                      | 
 +----------------------------------------+ 
 | Items                                  | 
 | Focus Sash 100.000%                    | 
 | Other  0.000%                          | 
 +----------------------------------------+ 
 | Spreads                                | 
 | Jolly:0/228/4/0/0/236 100.000%         | 
 | Other  0.000%                          | 
 +----------------------------------------+ 
 | Moves                                  | 
 | Ice Punch 100.000%                     | 
 | Fake Out 100.000%                      | 
 | Endeavor 100.000%                      | 
 | Quick Attack 100.000%                  | 
 | Other  0.000%                          | 
 +----------------------------------------+ 
 | Teammates                              | 
 +----------------------------------------+ 
 | Checks and Counters                    | 
 +----------------------------------------+ 
 +----------------------------------------+ 
 | Swinub                                 | 
 +----------------------------------------+ 
 | Raw count: 9                           | 
 | Avg. weight: 0.186922470091            | 
 | Viability Ceiling: 69                  | 
 +----------------------------------------+ 
 | Abilities                              | 
 | Oblivious 100.000%                     | 
 +----------------------------------------+ 
 | Items                                  | 
 | Focus Sash 100.000%                    | 
 +----------------------------------------+ 
 | Spreads                                | 
 | Adamant:0/196/116/0/196/0 100.000%     | 
 +----------------------------------------+ 
 | Moves                                  | 
 | Protect 100.000%                       | 
 | Ice Shard 100.000%                     | 
 | Earthquake 100.000%                    | 
 | Superpower 100.000%                    | 
 +----------------------------------------+ 
 | Teammates                              | 
 +----------------------------------------+ 
 | Checks and Counters                    | 
 +----------------------------------------+ 
 +----------------------------------------+ 
 | Goldeen                                | 
 +----------------------------------------+ 
 | Raw count: 9                           | 
 | Avg. weight: 0.186922470091            | 
 | Viability Ceiling: 69                  | 
 +----------------------------------------+ 
 | Abilities                              | 
 | Swift Swim 100.000%                    | 
 +----------------------------------------+ 
 | Items                                  | 
 | Oran Berry 100.000%                    | 
 | Other  0.000%                          | 
 +----------------------------------------+ 
 | Spreads                                | 
 | Adamant:0/220/0/0/36/252 100.000%      | 
 | Other  0.000%                          | 
 +----------------------------------------+ 
 | Moves                                  | 
 | Megahorn 100.000%                      | 
 | Rain Dance 100.000%                    | 
 | Waterfall 100.000%                     | 
 | Return 100.000%                        | 
 +----------------------------------------+ 
 | Teammates                              | 
 +----------------------------------------+ 
 | Checks and Counters                    | 
 +----------------------------------------+ 
 +----------------------------------------+ 
 | Porygon                                | 
 +----------------------------------------+ 
 | Raw count: 12                          | 
 | Avg. weight: 0.140191852568            | 
 | Viability Ceiling: 69                  | 
 +----------------------------------------+ 
 | Abilities                              | 
 | Trace 100.000%                         | 
 +----------------------------------------+ 
 | Items                                  | 
 | Leftovers 100.000%                     | 
 | Other  0.000%                          | 
 +----------------------------------------+ 
 | Spreads                                | 
 | Calm:236/0/196/0/76/0 100.000%         | 
 | Other  0.000%                          | 
 +----------------------------------------+ 
 | Moves                                  | 
 | Tri Attack 100.000%                    | 
 | Thunder Wave 100.000%                  | 
 | Ice Beam 100.000%                      | 
 | Recover 100.000%                       | 
 | Other  0.000%                          | 
 +----------------------------------------+ 
 | Teammates                              | 
 +----------------------------------------+ 
 | Checks and Counters                    | 
 +----------------------------------------+ 
 +----------------------------------------+ 
 | Meowth                                 | 
 +----------------------------------------+ 
 | Raw count: 11                          | 
 | Avg. weight: 0.152936566438            | 
 | Viability Ceiling: 69                  | 
 +----------------------------------------+ 
 | Abilities                              | 
 | Technician 100.000%                    | 
 +----------------------------------------+ 
 | Items                                  | 
 | Focus Sash 100.000%                    | 
 | Other  0.000%                          | 
 +----------------------------------------+ 
 | Spreads                                | 
 | Jolly:0/236/76/0/0/196 100.000%        | 
 | Other  0.000%                          | 
 +----------------------------------------+ 
 | Moves                                  | 
 | Return 100.000%                        | 
 | Taunt 100.000%                         | 
 | Bite 100.000%                          | 
 | Fake Out 100.000%                      | 
 | Other  0.000%                          | 
 +----------------------------------------+ 
 | Teammates                              | 
 +----------------------------------------+ 
 | Checks and Counters                    | 
 +----------------------------------------+ 
 +----------------------------------------+ 
 | Bronzor                                | 
 +----------------------------------------+ 
 | Raw count: 17                          | 
 | Avg. weight: 0.0989589547541           | 
 | Viability Ceiling: 69                  | 
 +----------------------------------------+ 
 | Abilities                              | 
 | Levitate 100.000%                      | 
 +----------------------------------------+ 
 | Items                                  | 
 | Oran Berry 100.000%                    | 
 | Other  0.000%                          | 
 +----------------------------------------+ 
 | Spreads                                | 
 | Careful:60/4/228/4/148/12 100.000%     | 
 | Other  0.000%                          | 
 +----------------------------------------+ 
 | Moves                                  | 
 | Psychic 100.000%                       | 
 | Stealth Rock 100.000%                  | 
 | Recycle 100.000%                       | 
 | Earthquake 100.000%                    | 
 | Other  0.000%                          | 
 +----------------------------------------+ 
 | Teammates                              | 
 +----------------------------------------+ 
 | Checks and Counters                    | 
 +----------------------------------------+ 
