 +----------------------------------------+ 
 | Munchlax                               | 
 +----------------------------------------+ 
 | Raw count: 33                          | 
 | Avg. weight: 0.11123553802             | 
 | Viability Ceiling: 79                  | 
 +----------------------------------------+ 
 | Abilities                              | 
 | Thick Fat 100.000%                     | 
 +----------------------------------------+ 
 | Items                                  | 
 | Oran Berry 100.000%                    | 
 +----------------------------------------+ 
 | Spreads                                | 
 | Adamant:0/236/36/0/236/0 100.000%      | 
 +----------------------------------------+ 
 | Moves                                  | 
 | Fire Punch 100.000%                    | 
 | Return 100.000%                        | 
 | Pursuit 100.000%                       | 
 | Earthquake 100.000%                    | 
 +----------------------------------------+ 
 | Teammates                              | 
 +----------------------------------------+ 
 | Checks and Counters                    | 
 +----------------------------------------+ 
 +----------------------------------------+ 
 | Machop                                 | 
 +----------------------------------------+ 
 | Raw count: 33                          | 
 | Avg. weight: 0.11123553802             | 
 | Viability Ceiling: 79                  | 
 +----------------------------------------+ 
 | Abilities                              | 
 | No Guard 100.000%                      | 
 +----------------------------------------+ 
 | Items                                  | 
 | Choice Scarf 100.000%                  | 
 +----------------------------------------+ 
 | Spreads                                | 
 | Jolly:36/196/36/0/0/236 100.000%       | 
 +----------------------------------------+ 
 | Moves                                  | 
 | Payback 100.000%                       | 
 | Dynamic Punch 100.000%                 | 
 | Ice Punch 100.000%                     | 
 | Bullet Punch 100.000%                  | 
 +----------------------------------------+ 
 | Teammates                              | 
 +----------------------------------------+ 
 | Checks and Counters                    | 
 +----------------------------------------+ 
 +----------------------------------------+ 
 | Gligar                                 | 
 +----------------------------------------+ 
 | Raw count: 33                          | 
 | Avg. weight: 0.11123553802             | 
 | Viability Ceiling: 79                  | 
 +----------------------------------------+ 
 | Abilities                              | 
 | Sand Veil 100.000%                     | 
 +----------------------------------------+ 
 | Items                                  | 
 | Oran Berry 100.000%                    | 
 +----------------------------------------+ 
 | Spreads                                | 
 | Jolly:0/236/0/0/0/236 100.000%         | 
 +----------------------------------------+ 
 | Moves                                  | 
 | Stealth Rock 100.000%                  | 
 | Roost 100.000%                         | 
 | Earthquake 100.000%                    | 
 | Aqua Tail 100.000%                     | 
 +----------------------------------------+ 
 | Teammates                              | 
 +----------------------------------------+ 
 | Checks and Counters                    | 
 +----------------------------------------+ 
 +----------------------------------------+ 
 | Croagunk                               | 
 +----------------------------------------+ 
 | Raw count: 34                          | 
 | Avg. weight: 0.107963904549            | 
 | Viability Ceiling: 79                  | 
 +----------------------------------------+ 
 | Abilities                              | 
 | Dry Skin 100.000%                      | 
 +----------------------------------------+ 
 | Items                                  | 
 | Life Orb 100.000%                      | 
 +----------------------------------------+ 
 | Spreads                                | 
 | Lonely:0/188/0/188/0/116 100.000%      | 
 +----------------------------------------+ 
 | Moves                                  | 
 | Sucker Punch 100.000%                  | 
 | Ice Punch 100.000%                     | 
 | Vacuum Wave 100.000%                   | 
 | Fake Out 100.000%                      | 
 | Other  0.000%                          | 
 +----------------------------------------+ 
 | Teammates                              | 
 +----------------------------------------+ 
 | Checks and Counters                    | 
 +----------------------------------------+ 
 +----------------------------------------+ 
 | Dratini                                | 
 +----------------------------------------+ 
 | Raw count: 19                          | 
 | Avg. weight: 0.193198566036            | 
 | Viability Ceiling: 79                  | 
 +----------------------------------------+ 
 | Abilities                              | 
 | Shed Skin 100.000%                     | 
 +----------------------------------------+ 
 | Items                                  | 
 | Life Orb 100.000%                      | 
 | Other  0.000%                          | 
 +----------------------------------------+ 
 | Spreads                                | 
 | Hardy:28/244/0/0/36/196 100.000%       | 
 | Other  0.000%                          | 
 +----------------------------------------+ 
 | Moves                                  | 
 | Dragon Dance 100.000%                  | 
 | Extreme Speed 100.000%                 | 
 | Waterfall 100.000%                     | 
 | Outrage 100.000%                       | 
 | Other  0.000%                          | 
 +----------------------------------------+ 
 | Teammates                              | 
 +----------------------------------------+ 
 | Checks and Counters                    | 
 +----------------------------------------+ 
 +----------------------------------------+ 
 | Houndour                               | 
 +----------------------------------------+ 
 | Raw count: 36                          | 
 | Avg. weight: 0.101965909852            | 
 | Viability Ceiling: 79                  | 
 +----------------------------------------+ 
 | Abilities                              | 
 | Early Bird 100.000%                    | 
 | Flash Fire  0.000%                     | 
 +----------------------------------------+ 
 | Items                                  | 
 | Focus Sash 100.000%                    | 
 | Other  0.000%                          | 
 +----------------------------------------+ 
 | Spreads                                | 
 | Lonely:0/196/0/196/36/76 100.000%      | 
 | Other  0.000%                          | 
 +----------------------------------------+ 
 | Moves                                  | 
 | Protect 100.000%                       | 
 | Overheat 100.000%                      | 
 | Sucker Punch 100.000%                  | 
 | Reversal 100.000%                      | 
 | Other  0.000%                          | 
 +----------------------------------------+ 
 | Teammates                              | 
 +----------------------------------------+ 
 | Checks and Counters                    | 
 +----------------------------------------+ 
