 +----------------------------------------+ 
 | Mimikyu                                | 
 +----------------------------------------+ 
 | Raw count: 21831                       | 
 | Avg. weight: 0.027143616484            | 
 | Viability Ceiling: 87                  | 
 +----------------------------------------+ 
 | Abilities                              | 
 | Disguise 100.000%                      | 
 +----------------------------------------+ 
 | Items                                  | 
 | Life Orb 85.948%                       | 
 | Red Card  8.130%                       | 
 | Spooky Plate  2.133%                   | 
 | Other  3.789%                          | 
 +----------------------------------------+ 
 | Spreads                                | 
 | Jolly:0/252/0/0/4/252 66.576%          | 
 | Adamant:0/252/0/0/4/252 28.457%        | 
 | Other  4.967%                          | 
 +----------------------------------------+ 
 | Moves                                  | 
 | Swords Dance 99.159%                   | 
 | Shadow Sneak 98.692%                   | 
 | Play Rough 98.530%                     | 
 | Shadow Claw 54.731%                    | 
 | Drain Punch 45.301%                    | 
 | Other  3.588%                          | 
 +----------------------------------------+ 
 | Teammates                              | 
 +----------------------------------------+ 
 | Checks and Counters                    | 
 +----------------------------------------+ 
 +----------------------------------------+ 
 | Grimmsnarl                             | 
 +----------------------------------------+ 
 | Raw count: 23778                       | 
 | Avg. weight: 0.0244343452508           | 
 | Viability Ceiling: 87                  | 
 +----------------------------------------+ 
 | Abilities                              | 
 | Prankster 99.064%                      | 
 | Frisk  0.848%                          | 
 | Pickpocket  0.088%                     | 
 +----------------------------------------+ 
 | Items                                  | 
 | Light Clay 46.352%                     | 
 | Dread Plate 31.322%                    | 
 | Leftovers 11.056%                      | 
 | Focus Sash  4.683%                     | 
 | Life Orb  2.590%                       | 
 | Other  3.997%                          | 
 +----------------------------------------+ 
 | Spreads                                | 
 | Adamant:252/252/0/0/4/0 35.349%        | 
 | Adamant:0/252/0/0/4/252 13.453%        | 
 | Adamant:200/252/0/0/0/56 13.237%       | 
 | Calm:252/0/4/0/252/0  6.614%           | 
 | Careful:252/4/0/0/252/0  6.044%        | 
 | Adamant:92/252/0/0/0/164  4.378%       | 
 | Other 20.924%                          | 
 +----------------------------------------+ 
 | Moves                                  | 
 | Sucker Punch 69.923%                   | 
 | Darkest Lariat 51.920%                 | 
 | Spirit Break 47.795%                   | 
 | Reflect 46.682%                        | 
 | Light Screen 46.487%                   | 
 | Drain Punch 42.148%                    | 
 | Substitute 36.721%                     | 
 | Thunder Wave 19.739%                   | 
 | Bulk Up 13.339%                        | 
 | Taunt  7.452%                          | 
 | Other 17.794%                          | 
 +----------------------------------------+ 
 | Teammates                              | 
 +----------------------------------------+ 
 | Checks and Counters                    | 
 +----------------------------------------+ 
 +----------------------------------------+ 
 | Togekiss                               | 
 +----------------------------------------+ 
 | Raw count: 21570                       | 
 | Avg. weight: 0.0274502653692           | 
 | Viability Ceiling: 87                  | 
 +----------------------------------------+ 
 | Abilities                              | 
 | Serene Grace 98.525%                   | 
 | Super Luck  0.939%                     | 
 | Hustle  0.536%                         | 
 +----------------------------------------+ 
 | Items                                  | 
 | Babiri Berry 42.688%                   | 
 | Choice Scarf 25.979%                   | 
 | Leftovers 20.174%                      | 
 | Heavy-Duty Boots  5.119%               | 
 | Weakness Policy  3.534%                | 
 | Other  2.506%                          | 
 +----------------------------------------+ 
 | Spreads                                | 
 | Timid:0/0/0/252/4/252 79.425%          | 
 | Timid:200/0/0/56/0/252  5.541%         | 
 | Modest:0/0/0/252/4/252  3.071%         | 
 | Timid:252/0/0/4/0/252  2.312%          | 
 | Timid:0/0/4/252/0/252  2.105%          | 
 | Timid:252/0/0/0/4/252  1.300%          | 
 | Other  6.245%                          | 
 +----------------------------------------+ 
 | Moves                                  | 
 | Air Slash 99.958%                      | 
 | Flamethrower 81.339%                   | 
 | Dazzling Gleam 75.914%                 | 
 | Nasty Plot 71.663%                     | 
 | Trick 20.305%                          | 
 | Morning Sun 14.924%                    | 
 | Aura Sphere 11.215%                    | 
 | Fire Blast 11.109%                     | 
 | Other 13.572%                          | 
 +----------------------------------------+ 
 | Teammates                              | 
 +----------------------------------------+ 
 | Checks and Counters                    | 
 +----------------------------------------+ 
 +----------------------------------------+ 
 | Hatterene                              | 
 +----------------------------------------+ 
 | Raw count: 18630                       | 
 | Avg. weight: 0.0274464048413           | 
 | Viability Ceiling: 87                  | 
 +----------------------------------------+ 
 | Abilities                              | 
 | Magic Bounce 99.676%                   | 
 | Healer  0.323%                         | 
 | Anticipation  0.001%                   | 
 +----------------------------------------+ 
 | Items                                  | 
 | Leftovers 35.305%                      | 
 | Life Orb 31.424%                       | 
 | Choice Specs 23.967%                   | 
 | Sitrus Berry  3.409%                   | 
 | Assault Vest  3.178%                   | 
 | Other  2.717%                          | 
 +----------------------------------------+ 
 | Spreads                                | 
 | Quiet:252/0/0/252/4/0 55.543%          | 
 | Modest:252/0/0/252/4/0 21.171%         | 
 | Quiet:248/0/0/252/8/0  9.305%          | 
 | Quiet:252/4/0/252/0/0  6.824%          | 
 | Modest:0/0/252/252/4/0  2.218%         | 
 | Other  4.938%                          | 
 +----------------------------------------+ 
 | Moves                                  | 
 | Mystical Fire 92.988%                  | 
 | Dazzling Gleam 70.122%                 | 
 | Trick Room 68.392%                     | 
 | Psychic 65.156%                        | 
 | Giga Drain 48.273%                     | 
 | Psyshock 33.806%                       | 
 | Draining Kiss  9.546%                  | 
 | Other 11.717%                          | 
 +----------------------------------------+ 
 | Teammates                              | 
 | Mawile +2.747%                         | 
 | Gardevoir +2.420%                      | 
 +----------------------------------------+ 
 | Checks and Counters                    | 
 +----------------------------------------+ 
 +----------------------------------------+ 
 | Gardevoir                              | 
 +----------------------------------------+ 
 | Raw count: 12048                       | 
 | Avg. weight: 0.0301682585859           | 
 | Viability Ceiling: 87                  | 
 +----------------------------------------+ 
 | Abilities                              | 
 | Trace 99.234%                          | 
 | Synchronize  0.688%                    | 
 | Telepathy  0.078%                      | 
 +----------------------------------------+ 
 | Items                                  | 
 | Choice Scarf 72.811%                   | 
 | Choice Specs 26.184%                   | 
 | Other  1.005%                          | 
 +----------------------------------------+ 
 | Spreads                                | 
 | Timid:0/0/0/252/4/252 92.025%          | 
 | Timid:0/0/4/252/0/252  2.660%          | 
 | Modest:252/0/0/252/4/0  2.414%         | 
 | Other  2.901%                          | 
 +----------------------------------------+ 
 | Moves                                  | 
 | Moonblast 93.802%                      | 
 | Psychic 85.456%                        | 
 | Mystical Fire 75.601%                  | 
 | Trick 44.530%                          | 
 | Energy Ball 39.521%                    | 
 | Focus Blast 19.237%                    | 
 | Psyshock 13.939%                       | 
 | Thunderbolt  9.082%                    | 
 | Other 18.831%                          | 
 +----------------------------------------+ 
 | Teammates                              | 
 | Mawile +13.535%                        | 
 | Hatterene +3.430%                      | 
 +----------------------------------------+ 
 | Checks and Counters                    | 
 +----------------------------------------+ 
 +----------------------------------------+ 
 | Ribombee                               | 
 +----------------------------------------+ 
 | Raw count: 11368                       | 
 | Avg. weight: 0.0282311243051           | 
 | Viability Ceiling: 87                  | 
 +----------------------------------------+ 
 | Abilities                              | 
 | Shield Dust 96.319%                    | 
 | Sweet Veil  3.192%                     | 
 | Honey Gather  0.489%                   | 
 +----------------------------------------+ 
 | Items                                  | 
 | Focus Sash 97.548%                     | 
 | Other  2.452%                          | 
 +----------------------------------------+ 
 | Spreads                                | 
 | Timid:0/0/0/252/4/252 87.699%          | 
 | Timid:0/0/4/252/0/252  3.629%          | 
 | Modest:0/0/0/252/4/252  2.989%         | 
 | Timid:248/0/0/8/0/252  2.131%          | 
 | Other  3.552%                          | 
 +----------------------------------------+ 
 | Moves                                  | 
 | Sticky Web 99.089%                     | 
 | Moonblast 95.493%                      | 
 | Bug Buzz 82.420%                       | 
 | Stun Spore 76.984%                     | 
 | Psychic 22.554%                        | 
 | Quiver Dance  8.111%                   | 
 | Other 15.348%                          | 
 +----------------------------------------+ 
 | Teammates                              | 
 | Clefable +7.493%                       | 
 | Rapidash-Galar +1.122%                 | 
 +----------------------------------------+ 
 | Checks and Counters                    | 
 +----------------------------------------+ 
 +----------------------------------------+ 
 | Clefable                               | 
 +----------------------------------------+ 
 | Raw count: 12207                       | 
 | Avg. weight: 0.0232127176723           | 
 | Viability Ceiling: 85                  | 
 +----------------------------------------+ 
 | Abilities                              | 
 | Magic Guard 99.372%                    | 
 | Cute Charm  0.628%                     | 
 +----------------------------------------+ 
 | Items                                  | 
 | Leftovers 68.339%                      | 
 | Life Orb 20.338%                       | 
 | Babiri Berry  6.049%                   | 
 | Assault Vest  2.574%                   | 
 | Other  2.700%                          | 
 +----------------------------------------+ 
 | Spreads                                | 
 | Bold:252/0/252/0/4/0 49.039%           | 
 | Modest:252/0/0/252/4/0 14.007%         | 
 | Bold:252/0/252/4/0/0  6.269%           | 
 | Modest:248/0/72/188/0/0  6.216%        | 
 | Calm:252/0/160/0/96/0  3.503%          | 
 | Modest:196/0/0/252/0/60  2.343%        | 
 | Other 18.623%                          | 
 +----------------------------------------+ 
 | Moves                                  | 
 | Moonblast 96.504%                      | 
 | Moonlight 78.872%                      | 
 | Flamethrower 77.148%                   | 
 | Calm Mind 55.693%                      | 
 | Thunderbolt 21.967%                    | 
 | Stealth Rock 21.558%                   | 
 | Fire Blast 12.077%                     | 
 | Ice Beam  9.965%                       | 
 | Grass Knot  6.328%                     | 
 | Other 19.890%                          | 
 +----------------------------------------+ 
 | Teammates                              | 
 | Ribombee +7.993%                       | 
 | Weezing-Galar +7.418%                  | 
 | Whimsicott +2.967%                     | 
 | Rapidash-Galar +2.079%                 | 
 +----------------------------------------+ 
 | Checks and Counters                    | 
 +----------------------------------------+ 
 +----------------------------------------+ 
 | Mawile                                 | 
 +----------------------------------------+ 
 | Raw count: 6752                        | 
 | Avg. weight: 0.0314893013448           | 
 | Viability Ceiling: 86                  | 
 +----------------------------------------+ 
 | Abilities                              | 
 | Intimidate 98.417%                     | 
 | Sheer Force  1.438%                    | 
 | Hyper Cutter  0.145%                   | 
 +----------------------------------------+ 
 | Items                                  | 
 | Rocky Helmet 75.616%                   | 
 | Shuca Berry 10.533%                    | 
 | Focus Sash  7.450%                     | 
 | Leftovers  4.300%                      | 
 | Other  2.102%                          | 
 +----------------------------------------+ 
 | Spreads                                | 
 | Impish:248/8/252/0/0/0 58.061%         | 
 | Bold:220/0/252/36/0/0 10.857%          | 
 | Impish:248/0/252/0/0/8  9.292%         | 
 | Relaxed:240/0/252/16/0/0  5.301%       | 
 | Impish:252/4/252/0/0/0  5.216%         | 
 | Impish:248/0/252/0/8/0  2.460%         | 
 | Other  8.813%                          | 
 +----------------------------------------+ 
 | Moves                                  | 
 | Stealth Rock 96.713%                   | 
 | Iron Head 86.944%                      | 
 | Foul Play 81.998%                      | 
 | Sucker Punch 77.626%                   | 
 | Rest 16.161%                           | 
 | Fire Blast 10.645%                     | 
 | Focus Blast  5.652%                    | 
 | Play Rough  5.105%                     | 
 | Other 19.155%                          | 
 +----------------------------------------+ 
 | Teammates                              | 
 | Gardevoir +24.631%                     | 
 | Hatterene +6.960%                      | 
 +----------------------------------------+ 
 | Checks and Counters                    | 
 +----------------------------------------+ 
 +----------------------------------------+ 
 | Weezing-Galar                          | 
 +----------------------------------------+ 
 | Raw count: 14756                       | 
 | Avg. weight: 0.006861089851            | 
 | Viability Ceiling: 81                  | 
 +----------------------------------------+ 
 | Abilities                              | 
 | Levitate 70.004%                       | 
 | Neutralizing Gas 27.245%               | 
 | Misty Surge  2.751%                    | 
 +----------------------------------------+ 
 | Items                                  | 
 | Black Sludge 41.190%                   | 
 | Assault Vest 14.839%                   | 
 | Leftovers 11.934%                      | 
 | Sitrus Berry 10.722%                   | 
 | Rocky Helmet  9.358%                   | 
 | Wiki Berry  3.755%                     | 
 | Babiri Berry  3.058%                   | 
 | Choice Specs  2.872%                   | 
 | Other  2.273%                          | 
 +----------------------------------------+ 
 | Spreads                                | 
 | Bold:252/0/252/4/0/0 23.671%           | 
 | Modest:252/0/0/252/4/0 17.880%         | 
 | Calm:252/0/0/4/252/0 12.329%           | 
 | Bold:252/0/252/0/4/0 10.701%           | 
 | Bold:252/0/252/0/0/4  8.145%           | 
 | Bold:252/0/4/0/252/0  7.057%           | 
 | Other 20.216%                          | 
 +----------------------------------------+ 
 | Moves                                  | 
 | Will-O-Wisp 62.574%                    | 
 | Strange Steam 54.758%                  | 
 | Pain Split 48.341%                     | 
 | Defog 46.841%                          | 
 | Sludge Wave 38.122%                    | 
 | Sludge Bomb 28.740%                    | 
 | Fire Blast 26.437%                     | 
 | Toxic Spikes 17.776%                   | 
 | Flamethrower 15.738%                   | 
 | Dark Pulse 13.407%                     | 
 | Clear Smog 13.167%                     | 
 | Haze  9.585%                           | 
 | Thunderbolt  5.193%                    | 
 | Other 19.321%                          | 
 +----------------------------------------+ 
 | Teammates                              | 
 | Clefable +21.616%                      | 
 | Sylveon +12.080%                       | 
 | Rapidash-Galar +3.932%                 | 
 | Shiinotic +3.470%                      | 
 | Alcremie +2.698%                       | 
 | Togetic +2.415%                        | 
 +----------------------------------------+ 
 | Checks and Counters                    | 
 +----------------------------------------+ 
 +----------------------------------------+ 
 | Rapidash-Galar                         | 
 +----------------------------------------+ 
 | Raw count: 10223                       | 
 | Avg. weight: 0.00480429283391          | 
 | Viability Ceiling: 77                  | 
 +----------------------------------------+ 
 | Abilities                              | 
 | Pastel Veil 98.384%                    | 
 | Anticipation  1.164%                   | 
 | Run Away  0.452%                       | 
 +----------------------------------------+ 
 | Items                                  | 
 | Choice Band 68.457%                    | 
 | Life Orb  9.207%                       | 
 | Leftovers  5.531%                      | 
 | Expert Belt  4.354%                    | 
 | Choice Scarf  4.328%                   | 
 | Focus Sash  3.998%                     | 
 | Other  4.125%                          | 
 +----------------------------------------+ 
 | Spreads                                | 
 | Jolly:0/252/0/0/4/252 78.461%          | 
 | Jolly:4/252/0/0/0/252  7.515%          | 
 | Jolly:0/252/4/0/0/252  4.853%          | 
 | Adamant:0/252/0/0/4/252  3.025%        | 
 | Adamant:4/252/0/0/0/252  1.324%        | 
 | Other  4.822%                          | 
 +----------------------------------------+ 
 | Moves                                  | 
 | Play Rough 99.455%                     | 
 | Zen Headbutt 85.823%                   | 
 | Wild Charge 67.092%                    | 
 | Low Kick 36.257%                       | 
 | High Horsepower 30.573%                | 
 | Quick Attack 24.789%                   | 
 | Swords Dance 22.972%                   | 
 | Megahorn 10.990%                       | 
 | Psycho Cut  7.294%                     | 
 | Other 14.755%                          | 
 +----------------------------------------+ 
 | Teammates                              | 
 | Clefable +13.572%                      | 
 | Alcremie +9.779%                       | 
 | Slurpuff +9.776%                       | 
 | Weezing-Galar +8.776%                  | 
 | Ribombee +7.736%                       | 
 | Sylveon +7.185%                        | 
 | Clefairy +0.648%                       | 
 | Aromatisse +0.507%                     | 
 +----------------------------------------+ 
 | Checks and Counters                    | 
 +----------------------------------------+ 
 +----------------------------------------+ 
 | Whimsicott                             | 
 +----------------------------------------+ 
 | Raw count: 4490                        | 
 | Avg. weight: 0.00674577821263          | 
 | Viability Ceiling: 80                  | 
 +----------------------------------------+ 
 | Abilities                              | 
 | Prankster 98.172%                      | 
 | Infiltrator  1.803%                    | 
 | Chlorophyll  0.025%                    | 
 +----------------------------------------+ 
 | Items                                  | 
 | Leftovers 42.265%                      | 
 | Life Orb 40.365%                       | 
 | Focus Sash 11.251%                     | 
 | Pixie Plate  3.877%                    | 
 | Other  2.243%                          | 
 +----------------------------------------+ 
 | Spreads                                | 
 | Modest:0/0/0/252/4/252 40.336%         | 
 | Bold:248/0/252/8/0/0 25.457%           | 
 | Timid:0/0/0/252/4/252 16.005%          | 
 | Timid:0/0/0/252/0/252  8.603%          | 
 | Modest:0/0/4/252/0/252  1.186%         | 
 | Bold:248/0/252/0/8/0  1.095%           | 
 | Other  7.318%                          | 
 +----------------------------------------+ 
 | Moves                                  | 
 | Moonblast 89.687%                      | 
 | Encore 53.824%                         | 
 | Energy Ball 50.775%                    | 
 | Leech Seed 41.044%                     | 
 | Nature Power 40.397%                   | 
 | Substitute 39.547%                     | 
 | Tailwind 33.432%                       | 
 | Giga Drain 17.990%                     | 
 | Taunt  7.984%                          | 
 | Protect  7.005%                        | 
 | Other 18.315%                          | 
 +----------------------------------------+ 
 | Teammates                              | 
 | Clefable +30.184%                      | 
 | Gardevoir +3.793%                      | 
 | Alcremie +0.535%                       | 
 | Aromatisse +0.513%                     | 
 +----------------------------------------+ 
 | Checks and Counters                    | 
 +----------------------------------------+ 
 +----------------------------------------+ 
 | Sylveon                                | 
 +----------------------------------------+ 
 | Raw count: 6921                        | 
 | Avg. weight: 0.00342855960831          | 
 | Viability Ceiling: 76                  | 
 +----------------------------------------+ 
 | Abilities                              | 
 | Pixilate 99.393%                       | 
 | Cute Charm  0.607%                     | 
 +----------------------------------------+ 
 | Items                                  | 
 | Leftovers 37.250%                      | 
 | Choice Specs 30.917%                   | 
 | Pixie Plate 12.163%                    | 
 | Assault Vest  5.986%                   | 
 | Throat Spray  4.739%                   | 
 | Choice Scarf  2.789%                   | 
 | Life Orb  2.539%                       | 
 | Other  3.616%                          | 
 +----------------------------------------+ 
 | Spreads                                | 
 | Modest:252/0/0/252/4/0 23.680%         | 
 | Bold:252/0/252/0/4/0 12.412%           | 
 | Calm:252/0/0/4/252/0 11.735%           | 
 | Bold:252/0/252/4/0/0  8.255%           | 
 | Quiet:252/0/0/252/4/0  5.296%          | 
 | Modest:168/0/0/252/0/88  3.966%        | 
 | Other 34.656%                          | 
 +----------------------------------------+ 
 | Moves                                  | 
 | Hyper Voice 98.028%                    | 
 | Mystical Fire 76.729%                  | 
 | Psyshock 53.720%                       | 
 | Shadow Ball 45.841%                    | 
 | Wish 41.030%                           | 
 | Protect 25.768%                        | 
 | Calm Mind 22.014%                      | 
 | Yawn  7.037%                           | 
 | Quick Attack  6.534%                   | 
 | Hyper Beam  4.645%                     | 
 | Other 18.655%                          | 
 +----------------------------------------+ 
 | Teammates                              | 
 | Weezing-Galar +46.962%                 | 
 | Rapidash-Galar +12.763%                | 
 | Shiinotic +3.077%                      | 
 | Silvally-Fairy +1.647%                 | 
 | Aromatisse +1.605%                     | 
 | Clefairy +1.234%                       | 
 +----------------------------------------+ 
 | Checks and Counters                    | 
 +----------------------------------------+ 
 +----------------------------------------+ 
 | Alcremie                               | 
 +----------------------------------------+ 
 | Raw count: 5585                        | 
 | Avg. weight: 0.00330981776349          | 
 | Viability Ceiling: 76                  | 
 +----------------------------------------+ 
 | Abilities                              | 
 | Aroma Veil 86.982%                     | 
 | Sweet Veil 13.018%                     | 
 +----------------------------------------+ 
 | Items                                  | 
 | Leftovers 84.170%                      | 
 | Kee Berry  7.679%                      | 
 | Life Orb  3.206%                       | 
 | Other  4.944%                          | 
 +----------------------------------------+ 
 | Spreads                                | 
 | Bold:252/0/224/0/28/4 22.011%          | 
 | Modest:252/0/0/252/4/0 20.358%         | 
 | Modest:236/0/0/252/20/0 16.021%        | 
 | Bold:252/0/252/4/0/0 10.392%           | 
 | Calm:252/0/252/0/4/0  7.986%           | 
 | Calm:252/0/88/4/164/0  7.346%          | 
 | Other 15.886%                          | 
 +----------------------------------------+ 
 | Moves                                  | 
 | Calm Mind 93.032%                      | 
 | Mystical Fire 71.374%                  | 
 | Dazzling Gleam 63.778%                 | 
 | Acid Armor 52.491%                     | 
 | Recover 36.296%                        | 
 | Draining Kiss 33.067%                  | 
 | Psyshock 22.157%                       | 
 | Psychic  7.393%                        | 
 | Aromatherapy  4.820%                   | 
 | Other 15.592%                          | 
 +----------------------------------------+ 
 | Teammates                              | 
 | Rapidash-Galar +26.976%                | 
 | Weezing-Galar +16.345%                 | 
 | Slurpuff +8.975%                       | 
 | Clefable +7.523%                       | 
 | Mr. Mime +6.376%                       | 
 | Silvally-Fairy +5.326%                 | 
 | Whimsicott +1.008%                     | 
 +----------------------------------------+ 
 | Checks and Counters                    | 
 +----------------------------------------+ 
 +----------------------------------------+ 
 | Slurpuff                               | 
 +----------------------------------------+ 
 | Raw count: 1243                        | 
 | Avg. weight: 0.00597355824423          | 
 | Viability Ceiling: 77                  | 
 +----------------------------------------+ 
 | Abilities                              | 
 | Unburden 99.913%                       | 
 | Sweet Veil  0.087%                     | 
 +----------------------------------------+ 
 | Items                                  | 
 | Focus Sash 87.989%                     | 
 | Sitrus Berry  6.750%                   | 
 | Red Card  4.361%                       | 
 | Other  0.900%                          | 
 +----------------------------------------+ 
 | Spreads                                | 
 | Modest:0/0/0/252/4/252 44.583%         | 
 | Timid:0/0/0/252/0/252 27.913%          | 
 | Timid:248/0/0/8/0/252 15.665%          | 
 | Hasty:0/0/0/252/0/252  4.825%          | 
 | Hasty:0/252/0/0/0/252  2.993%          | 
 | Other  4.020%                          | 
 +----------------------------------------+ 
 | Moves                                  | 
 | Sticky Web 91.127%                     | 
 | Endeavor 90.786%                       | 
 | Dazzling Gleam 61.277%                 | 
 | Surf 38.183%                           | 
 | Wish 30.226%                           | 
 | Yawn 24.292%                           | 
 | Flamethrower 22.831%                   | 
 | Draining Kiss 18.100%                  | 
 | Calm Mind  8.507%                      | 
 | Other 14.670%                          | 
 +----------------------------------------+ 
 | Teammates                              | 
 | Rapidash-Galar +56.630%                | 
 | Alcremie +18.855%                      | 
 | Clefable +4.318%                       | 
 | Grimmsnarl +1.204%                     | 
 +----------------------------------------+ 
 | Checks and Counters                    | 
 +----------------------------------------+ 
 +----------------------------------------+ 
 | Shiinotic                              | 
 +----------------------------------------+ 
 | Raw count: 1709                        | 
 | Avg. weight: 0.00320939897276          | 
 | Viability Ceiling: 74                  | 
 +----------------------------------------+ 
 | Abilities                              | 
 | Effect Spore 99.469%                   | 
 | Rain Dish  0.433%                      | 
 | Illuminate  0.098%                     | 
 +----------------------------------------+ 
 | Items                                  | 
 | Leftovers 89.707%                      | 
 | Rocky Helmet  2.887%                   | 
 | Focus Sash  1.738%                     | 
 | Mental Herb  1.666%                    | 
 | Other  4.002%                          | 
 +----------------------------------------+ 
 | Spreads                                | 
 | Calm:252/0/0/4/252/0 71.150%           | 
 | Relaxed:252/0/252/4/0/0  8.256%        | 
 | Bold:252/0/252/4/0/0  5.003%           | 
 | Calm:248/0/8/0/252/0  4.892%           | 
 | Modest:100/0/252/56/100/0  4.021%      | 
 | Relaxed:4/0/252/0/252/0  1.666%        | 
 | Other  5.013%                          | 
 +----------------------------------------+ 
 | Moves                                  | 
 | Strength Sap 96.153%                   | 
 | Leech Seed 91.768%                     | 
 | Spore 90.465%                          | 
 | Giga Drain 64.540%                     | 
 | Moonblast 34.401%                      | 
 | Protect  9.714%                        | 
 | Other 12.958%                          | 
 +----------------------------------------+ 
 | Teammates                              | 
 | Weezing-Galar +57.357%                 | 
 | Clefable +13.866%                      | 
 | Sylveon +13.043%                       | 
 | Aromatisse +7.705%                     | 
 | Alcremie +0.543%                       | 
 +----------------------------------------+ 
 | Checks and Counters                    | 
 +----------------------------------------+ 
 +----------------------------------------+ 
 | Togetic                                | 
 +----------------------------------------+ 
 | Raw count: 342                         | 
 | Avg. weight: 0.00632655346476          | 
 | Viability Ceiling: 79                  | 
 +----------------------------------------+ 
 | Abilities                              | 
 | Serene Grace 99.398%                   | 
 | Super Luck  0.595%                     | 
 | Hustle  0.007%                         | 
 +----------------------------------------+ 
 | Items                                  | 
 | Eviolite 99.923%                       | 
 | Other  0.077%                          | 
 +----------------------------------------+ 
 | Spreads                                | 
 | Modest:252/0/124/128/4/0 53.965%       | 
 | Calm:252/0/0/4/252/0 44.781%           | 
 | Other  1.254%                          | 
 +----------------------------------------+ 
 | Moves                                  | 
 | Thunder Wave 99.619%                   | 
 | Dazzling Gleam 98.699%                 | 
 | Flamethrower 85.952%                   | 
 | Trick 54.286%                          | 
 | Wish 44.878%                           | 
 | Other 16.565%                          | 
 +----------------------------------------+ 
 | Teammates                              | 
 | Weezing-Galar +82.220%                 | 
 | Clefable +49.016%                      | 
 | Mawile +10.433%                        | 
 | Ribombee +1.631%                       | 
 | Grimmsnarl +1.358%                     | 
 +----------------------------------------+ 
 | Checks and Counters                    | 
 +----------------------------------------+ 
 +----------------------------------------+ 
 | Silvally-Fairy                         | 
 +----------------------------------------+ 
 | Raw count: 2005                        | 
 | Avg. weight: 0.000947144670233         | 
 | Viability Ceiling: 75                  | 
 +----------------------------------------+ 
 | Abilities                              | 
 | RKS System 100.000%                    | 
 +----------------------------------------+ 
 | Items                                  | 
 | Fairy Memory 100.000%                  | 
 +----------------------------------------+ 
 | Spreads                                | 
 | Jolly:0/252/0/0/4/252 61.876%          | 
 | Jolly:0/252/4/0/0/252 23.079%          | 
 | Hasty:0/252/0/4/0/252  6.933%          | 
 | Timid:0/0/0/252/4/252  4.497%          | 
 | Other  3.615%                          | 
 +----------------------------------------+ 
 | Moves                                  | 
 | Multi-Attack 94.216%                   | 
 | Psychic Fangs 85.830%                  | 
 | Swords Dance 50.329%                   | 
 | Fire Fang 46.090%                      | 
 | Parting Shot 29.196%                   | 
 | Rock Slide 20.244%                     | 
 | Shadow Claw 12.787%                    | 
 | Dragon Claw 12.452%                    | 
 | Flamethrower 11.505%                   | 
 | Iron Head  8.836%                      | 
 | Thunder Wave  5.822%                   | 
 | Ice Beam  5.285%                       | 
 | Other 17.407%                          | 
 +----------------------------------------+ 
 | Teammates                              | 
 | Alcremie +36.887%                      | 
 | Ribombee +29.281%                      | 
 | Sylveon +17.330%                       | 
 | Weezing-Galar +10.157%                 | 
 +----------------------------------------+ 
 | Checks and Counters                    | 
 +----------------------------------------+ 
 +----------------------------------------+ 
 | Aromatisse                             | 
 +----------------------------------------+ 
 | Raw count: 811                         | 
 | Avg. weight: 0.00185012457054          | 
 | Viability Ceiling: 69                  | 
 +----------------------------------------+ 
 | Abilities                              | 
 | Aroma Veil 95.924%                     | 
 | Healer  4.076%                         | 
 +----------------------------------------+ 
 | Items                                  | 
 | Leftovers 53.076%                      | 
 | Quick Claw 28.119%                     | 
 | Light Clay  7.054%                     | 
 | Sitrus Berry  6.129%                   | 
 | Mental Herb  3.817%                    | 
 | Other  1.804%                          | 
 +----------------------------------------+ 
 | Spreads                                | 
 | Quiet:252/0/0/252/4/0 38.428%          | 
 | Modest:0/0/192/252/64/0 28.119%        | 
 | Sassy:252/0/0/4/252/0 12.882%          | 
 | Modest:252/0/0/252/4/0  6.415%         | 
 | Hardy:252/0/252/0/4/0  5.787%          | 
 | Calm:252/0/0/4/252/0  1.538%           | 
 | Other  6.831%                          | 
 +----------------------------------------+ 
 | Moves                                  | 
 | Moonblast 92.195%                      | 
 | Trick Room 54.555%                     | 
 | Nasty Plot 46.434%                     | 
 | Psyshock 38.378%                       | 
 | Psychic 35.449%                        | 
 | Thunderbolt 29.836%                    | 
 | Energy Ball 28.183%                    | 
 | Wish 23.455%                           | 
 | Protect 16.427%                        | 
 | Reflect  7.098%                        | 
 | Light Screen  7.098%                   | 
 | Flash Cannon  6.283%                   | 
 | Other 14.608%                          | 
 +----------------------------------------+ 
 | Teammates                              | 
 | Shiinotic +31.693%                     | 
 | Sylveon +27.989%                       | 
 | Rapidash-Galar +15.356%                | 
 | Whimsicott +9.886%                     | 
 | Weezing-Galar +5.632%                  | 
 | Alcremie +3.735%                       | 
 | Mr. Mime +2.205%                       | 
 +----------------------------------------+ 
 | Checks and Counters                    | 
 +----------------------------------------+ 
 +----------------------------------------+ 
 | Mr. Mime                               | 
 +----------------------------------------+ 
 | Raw count: 546                         | 
 | Avg. weight: 0.00282379760142          | 
 | Viability Ceiling: 70                  | 
 +----------------------------------------+ 
 | Abilities                              | 
 | Technician 94.883%                     | 
 | Filter  4.465%                         | 
 | Soundproof  0.652%                     | 
 +----------------------------------------+ 
 | Items                                  | 
 | Choice Specs 92.663%                   | 
 | Leftovers  3.236%                      | 
 | Other  4.101%                          | 
 +----------------------------------------+ 
 | Spreads                                | 
 | Timid:0/0/0/252/4/252 93.848%          | 
 | Bold:0/0/252/156/4/96  1.926%          | 
 | Other  4.226%                          | 
 +----------------------------------------+ 
 | Moves                                  | 
 | Psychic 95.505%                        | 
 | Nasty Plot 94.934%                     | 
 | Shadow Ball 92.689%                    | 
 | Thunderbolt 74.928%                    | 
 | Mystical Fire 18.636%                  | 
 | Dazzling Gleam  3.176%                 | 
 | Stored Power  2.966%                   | 
 | Other 17.166%                          | 
 +----------------------------------------+ 
 | Teammates                              | 
 | Alcremie +80.171%                      | 
 | Clefable +37.924%                      | 
 | Gardevoir +24.516%                     | 
 | Aromatisse +2.385%                     | 
 +----------------------------------------+ 
 | Checks and Counters                    | 
 +----------------------------------------+ 
 +----------------------------------------+ 
 | Clefairy                               | 
 +----------------------------------------+ 
 | Raw count: 116                         | 
 | Avg. weight: 0.00481775594439          | 
 | Viability Ceiling: 71                  | 
 +----------------------------------------+ 
 | Abilities                              | 
 | Magic Guard 99.988%                    | 
 | Cute Charm  0.012%                     | 
 +----------------------------------------+ 
 | Items                                  | 
 | Eviolite 100.000%                      | 
 | Other  0.000%                          | 
 +----------------------------------------+ 
 | Spreads                                | 
 | Calm:252/0/0/4/252/0 84.613%           | 
 | Bold:252/0/252/4/0/0 10.688%           | 
 | Other  4.699%                          | 
 +----------------------------------------+ 
 | Moves                                  | 
 | Calm Mind 95.299%                      | 
 | Moonblast 89.300%                      | 
 | Stealth Rock 89.258%                   | 
 | Thunder Wave 89.258%                   | 
 | Moonlight 15.363%                      | 
 | Ice Beam 10.708%                       | 
 | Other 10.814%                          | 
 +----------------------------------------+ 
 | Teammates                              | 
 | Sylveon +51.801%                       | 
 | Rapidash-Galar +48.298%                | 
 | Gardevoir +1.005%                      | 
 +----------------------------------------+ 
 | Checks and Counters                    | 
 +----------------------------------------+ 
