 +----------------------------------------+ 
 | Ferrothorn                             | 
 +----------------------------------------+ 
 | Raw count: 11366                       | 
 | Avg. weight: 0.00703251802833          | 
 | Viability Ceiling: 84                  | 
 +----------------------------------------+ 
 | Abilities                              | 
 | Iron Barbs 99.998%                     | 
 | Anticipation  0.002%                   | 
 +----------------------------------------+ 
 | Items                                  | 
 | Leftovers 79.398%                      | 
 | Rocky Helmet 12.344%                   | 
 | Occa Berry  7.540%                     | 
 | Other  0.718%                          | 
 +----------------------------------------+ 
 | Spreads                                | 
 | Relaxed:252/0/88/0/168/0 22.122%       | 
 | Relaxed:252/0/168/0/88/0 13.056%       | 
 | Relaxed:248/8/252/0/0/0  9.697%        | 
 | Impish:252/0/252/0/4/0  6.734%         | 
 | Relaxed:252/4/252/0/0/0  6.686%        | 
 | Sassy:252/0/24/0/232/0  6.105%         | 
 | Other 35.600%                          | 
 +----------------------------------------+ 
 | Moves                                  | 
 | Leech Seed 89.990%                     | 
 | Stealth Rock 87.754%                   | 
 | Gyro Ball 72.904%                      | 
 | Protect 57.502%                        | 
 | Spikes 44.157%                         | 
 | Iron Head 23.427%                      | 
 | Thunder Wave 10.846%                   | 
 | Other 13.419%                          | 
 +----------------------------------------+ 
 | Teammates                              | 
 +----------------------------------------+ 
 | Checks and Counters                    | 
 +----------------------------------------+ 
 +----------------------------------------+ 
 | Rotom-Mow                              | 
 +----------------------------------------+ 
 | Raw count: 6971                        | 
 | Avg. weight: 0.00971960774402          | 
 | Viability Ceiling: 84                  | 
 +----------------------------------------+ 
 | Abilities                              | 
 | Levitate 100.000%                      | 
 +----------------------------------------+ 
 | Items                                  | 
 | Choice Scarf 54.368%                   | 
 | Leftovers 18.556%                      | 
 | Choice Specs 17.176%                   | 
 | Light Clay  8.753%                     | 
 | Other  1.147%                          | 
 +----------------------------------------+ 
 | Spreads                                | 
 | Timid:0/0/0/252/4/252 78.195%          | 
 | Timid:248/0/0/0/8/252  6.513%          | 
 | Timid:184/0/0/116/0/208  4.863%        | 
 | Modest:0/0/0/252/4/252  2.761%         | 
 | Timid:4/0/0/252/0/252  2.321%          | 
 | Calm:248/0/8/0/252/0  1.589%           | 
 | Other  3.758%                          | 
 +----------------------------------------+ 
 | Moves                                  | 
 | Volt Switch 82.049%                    | 
 | Leaf Storm 80.595%                     | 
 | Thunderbolt 79.080%                    | 
 | Trick 60.569%                          | 
 | Nasty Plot 19.074%                     | 
 | Substitute 11.487%                     | 
 | Dark Pulse 10.437%                     | 
 | Thunder Wave  9.397%                   | 
 | Light Screen  8.963%                   | 
 | Reflect  8.934%                        | 
 | Shadow Ball  7.604%                    | 
 | Discharge  7.492%                      | 
 | Other 14.319%                          | 
 +----------------------------------------+ 
 | Teammates                              | 
 | Whimsicott +4.068%                     | 
 | Rillaboom +2.180%                      | 
 +----------------------------------------+ 
 | Checks and Counters                    | 
 +----------------------------------------+ 
 +----------------------------------------+ 
 | Whimsicott                             | 
 +----------------------------------------+ 
 | Raw count: 7672                        | 
 | Avg. weight: 0.00860749879595          | 
 | Viability Ceiling: 84                  | 
 +----------------------------------------+ 
 | Abilities                              | 
 | Prankster 98.113%                      | 
 | Infiltrator  1.885%                    | 
 | Chlorophyll  0.002%                    | 
 +----------------------------------------+ 
 | Items                                  | 
 | Leftovers 48.127%                      | 
 | Pixie Plate 30.657%                    | 
 | Focus Sash 11.199%                     | 
 | Heat Rock  5.166%                      | 
 | Other  4.850%                          | 
 +----------------------------------------+ 
 | Spreads                                | 
 | Timid:0/0/0/252/4/252 43.243%          | 
 | Timid:0/0/4/252/0/252 19.851%          | 
 | Timid:4/0/0/252/0/252  9.791%          | 
 | Timid:0/0/0/252/0/252  7.190%          | 
 | Timid:252/0/0/128/0/128  6.303%        | 
 | Timid:148/0/0/252/0/108  4.963%        | 
 | Other  8.660%                          | 
 +----------------------------------------+ 
 | Moves                                  | 
 | Moonblast 99.545%                      | 
 | Encore 74.463%                         | 
 | Substitute 54.029%                     | 
 | Leech Seed 47.740%                     | 
 | U-turn 25.606%                         | 
 | Taunt 21.774%                          | 
 | Tailwind 16.665%                       | 
 | Stun Spore 15.628%                     | 
 | Protect 12.418%                        | 
 | Memento 11.586%                        | 
 | Sunny Day  9.516%                      | 
 | Other 11.030%                          | 
 +----------------------------------------+ 
 | Teammates                              | 
 | Rotom-Mow +4.181%                      | 
 | Rillaboom +2.883%                      | 
 | Shiftry +1.469%                        | 
 +----------------------------------------+ 
 | Checks and Counters                    | 
 +----------------------------------------+ 
 +----------------------------------------+ 
 | Appletun                               | 
 +----------------------------------------+ 
 | Raw count: 7807                        | 
 | Avg. weight: 0.00792319721362          | 
 | Viability Ceiling: 84                  | 
 +----------------------------------------+ 
 | Abilities                              | 
 | Thick Fat 97.235%                      | 
 | Ripen  2.106%                          | 
 | Gluttony  0.658%                       | 
 +----------------------------------------+ 
 | Items                                  | 
 | Leftovers 89.544%                      | 
 | Assault Vest  7.326%                   | 
 | Other  3.130%                          | 
 +----------------------------------------+ 
 | Spreads                                | 
 | Relaxed:248/0/252/0/8/0 21.548%        | 
 | Calm:252/0/48/0/204/4 15.365%          | 
 | Sassy:248/8/0/0/252/0  7.136%          | 
 | Brave:248/252/0/0/8/0  7.096%          | 
 | Sassy:252/0/52/0/202/0  6.015%         | 
 | Careful:252/4/0/0/252/0  5.266%        | 
 | Other 37.575%                          | 
 +----------------------------------------+ 
 | Moves                                  | 
 | Recover 80.476%                        | 
 | Leech Seed 70.648%                     | 
 | Body Press 43.735%                     | 
 | Apple Acid 40.249%                     | 
 | Draco Meteor 32.386%                   | 
 | Protect 27.058%                        | 
 | Dragon Pulse 20.816%                   | 
 | Iron Defense 18.335%                   | 
 | Earthquake 16.300%                     | 
 | Gyro Ball 14.636%                      | 
 | Sucker Punch 13.059%                   | 
 | Outrage  8.212%                        | 
 | Other 14.089%                          | 
 +----------------------------------------+ 
 | Teammates                              | 
 | Rillaboom +5.070%                      | 
 | Ludicolo +2.011%                       | 
 +----------------------------------------+ 
 | Checks and Counters                    | 
 +----------------------------------------+ 
 +----------------------------------------+ 
 | Rillaboom                              | 
 +----------------------------------------+ 
 | Raw count: 6371                        | 
 | Avg. weight: 0.00777501913209          | 
 | Viability Ceiling: 84                  | 
 +----------------------------------------+ 
 | Abilities                              | 
 | Overgrow 100.000%                      | 
 +----------------------------------------+ 
 | Items                                  | 
 | Choice Scarf 40.812%                   | 
 | Choice Band 34.148%                    | 
 | Leftovers 22.594%                      | 
 | Other  2.446%                          | 
 +----------------------------------------+ 
 | Spreads                                | 
 | Jolly:0/252/0/0/4/252 69.964%          | 
 | Adamant:224/144/0/0/0/140  6.858%      | 
 | Jolly:252/4/0/0/0/252  5.980%          | 
 | Jolly:0/252/4/0/0/252  4.250%          | 
 | Jolly:252/0/0/0/42/216  2.802%         | 
 | Adamant:0/252/0/0/4/252  2.511%        | 
 | Other  7.635%                          | 
 +----------------------------------------+ 
 | Moves                                  | 
 | Knock Off 74.743%                      | 
 | U-turn 70.889%                         | 
 | Wood Hammer 70.271%                    | 
 | Superpower 58.397%                     | 
 | Drum Beating 27.046%                   | 
 | Drain Punch 21.992%                    | 
 | Earthquake 21.313%                     | 
 | Substitute 20.193%                     | 
 | Bulk Up 19.219%                        | 
 | Other 15.937%                          | 
 +----------------------------------------+ 
 | Teammates                              | 
 | Ludicolo +11.003%                      | 
 | Appletun +6.430%                       | 
 | Whimsicott +3.469%                     | 
 | Rotom-Mow +2.577%                      | 
 +----------------------------------------+ 
 | Checks and Counters                    | 
 +----------------------------------------+ 
 +----------------------------------------+ 
 | Roserade                               | 
 +----------------------------------------+ 
 | Raw count: 6780                        | 
 | Avg. weight: 0.00679958870888          | 
 | Viability Ceiling: 81                  | 
 +----------------------------------------+ 
 | Abilities                              | 
 | Natural Cure 79.099%                   | 
 | Technician 13.930%                     | 
 | Poison Point  6.971%                   | 
 +----------------------------------------+ 
 | Items                                  | 
 | Choice Scarf 55.339%                   | 
 | Focus Sash 24.001%                     | 
 | Life Orb 14.101%                       | 
 | Black Sludge  2.463%                   | 
 | Other  4.096%                          | 
 +----------------------------------------+ 
 | Spreads                                | 
 | Timid:0/0/0/252/4/252 90.787%          | 
 | Timid:0/0/4/252/0/252  4.130%          | 
 | Timid:4/0/0/252/0/252  2.264%          | 
 | Other  2.819%                          | 
 +----------------------------------------+ 
 | Moves                                  | 
 | Sludge Bomb 97.408%                    | 
 | Leaf Storm 51.269%                     | 
 | Spikes 51.168%                         | 
 | Toxic Spikes 44.983%                   | 
 | Extrasensory 33.634%                   | 
 | Shadow Ball 25.453%                    | 
 | Dazzling Gleam 23.960%                 | 
 | Energy Ball 23.583%                    | 
 | Sleep Powder 20.983%                   | 
 | Giga Drain 14.822%                     | 
 | Other 12.738%                          | 
 +----------------------------------------+ 
 | Teammates                              | 
 | Dhelmise +9.028%                       | 
 | Shiftry +6.624%                        | 
 | Flapple +3.120%                        | 
 | Bellossom +2.464%                      | 
 | Eldegoss +2.325%                       | 
 | Abomasnow +1.017%                      | 
 +----------------------------------------+ 
 | Checks and Counters                    | 
 +----------------------------------------+ 
 +----------------------------------------+ 
 | Ludicolo                               | 
 +----------------------------------------+ 
 | Raw count: 4913                        | 
 | Avg. weight: 0.0072454911874           | 
 | Viability Ceiling: 84                  | 
 +----------------------------------------+ 
 | Abilities                              | 
 | Rain Dish 60.855%                      | 
 | Swift Swim 38.040%                     | 
 | Own Tempo  1.106%                      | 
 +----------------------------------------+ 
 | Items                                  | 
 | Leftovers 59.817%                      | 
 | Life Orb 18.502%                       | 
 | Focus Sash 12.740%                     | 
 | Assault Vest  3.559%                   | 
 | Aguav Berry  2.516%                    | 
 | Other  2.866%                          | 
 +----------------------------------------+ 
 | Spreads                                | 
 | Calm:252/0/0/4/252/0 28.290%           | 
 | Calm:248/0/8/0/252/0 24.233%           | 
 | Timid:0/0/0/252/4/252 13.826%          | 
 | Adamant:0/252/0/0/4/252 10.617%        | 
 | Modest:0/0/0/252/4/252  6.804%         | 
 | Calm:252/0/40/0/216/0  5.209%          | 
 | Other 11.022%                          | 
 +----------------------------------------+ 
 | Moves                                  | 
 | Scald 68.127%                          | 
 | Leech Seed 62.064%                     | 
 | Protect 61.251%                        | 
 | Giga Drain 52.837%                     | 
 | Substitute 29.547%                     | 
 | Hydro Pump 19.466%                     | 
 | Focus Blast 18.202%                    | 
 | Rain Dance 16.703%                     | 
 | Fake Out 15.437%                       | 
 | Ice Beam 14.361%                       | 
 | Counter 12.311%                        | 
 | Knock Off 11.425%                      | 
 | Other 18.269%                          | 
 +----------------------------------------+ 
 | Teammates                              | 
 | Rillaboom +16.095%                     | 
 | Eldegoss +3.049%                       | 
 | Appletun +2.979%                       | 
 | Leafeon +1.208%                        | 
 | Shiinotic +1.031%                      | 
 +----------------------------------------+ 
 | Checks and Counters                    | 
 +----------------------------------------+ 
 +----------------------------------------+ 
 | Shiftry                                | 
 +----------------------------------------+ 
 | Raw count: 3240                        | 
 | Avg. weight: 0.00554261119229          | 
 | Viability Ceiling: 81                  | 
 +----------------------------------------+ 
 | Abilities                              | 
 | Chlorophyll 96.920%                    | 
 | Early Bird  2.796%                     | 
 | Pickpocket  0.283%                     | 
 +----------------------------------------+ 
 | Items                                  | 
 | Life Orb 81.764%                       | 
 | Choice Specs  7.174%                   | 
 | Coba Berry  2.600%                     | 
 | Wiki Berry  2.172%                     | 
 | Focus Sash  2.034%                     | 
 | Other  4.256%                          | 
 +----------------------------------------+ 
 | Spreads                                | 
 | Modest:0/0/0/252/4/252 37.085%         | 
 | Jolly:0/252/0/0/4/252 25.511%          | 
 | Adamant:0/252/0/0/4/252 17.290%        | 
 | Timid:0/0/0/252/4/252 10.383%          | 
 | Serious:0/0/0/252/4/252  3.509%        | 
 | Hasty:0/252/0/4/0/252  2.041%          | 
 | Other  4.180%                          | 
 +----------------------------------------+ 
 | Moves                                  | 
 | Dark Pulse 73.943%                     | 
 | Heat Wave 73.057%                      | 
 | Nasty Plot 60.435%                     | 
 | Giga Drain 38.106%                     | 
 | Energy Ball 26.881%                    | 
 | Swords Dance 21.353%                   | 
 | Rock Slide 16.776%                     | 
 | Leaf Blade 15.404%                     | 
 | Sucker Punch 13.842%                   | 
 | Throat Chop 10.091%                    | 
 | Hurricane  7.263%                      | 
 | Leaf Storm  6.452%                     | 
 | Foul Play  6.035%                      | 
 | Solar Beam  5.182%                     | 
 | Night Slash  4.988%                    | 
 | Seed Bomb  4.293%                      | 
 | Other 15.900%                          | 
 +----------------------------------------+ 
 | Teammates                              | 
 | Flapple +25.904%                       | 
 | Roserade +17.947%                      | 
 | Vileplume +7.323%                      | 
 | Whimsicott +6.836%                     | 
 | Shiinotic +1.548%                      | 
 +----------------------------------------+ 
 | Checks and Counters                    | 
 +----------------------------------------+ 
 +----------------------------------------+ 
 | Flapple                                | 
 +----------------------------------------+ 
 | Raw count: 4713                        | 
 | Avg. weight: 0.00394186970407          | 
 | Viability Ceiling: 81                  | 
 +----------------------------------------+ 
 | Abilities                              | 
 | Hustle 76.361%                         | 
 | Ripen 23.565%                          | 
 | Gluttony  0.075%                       | 
 +----------------------------------------+ 
 | Items                                  | 
 | Life Orb 44.938%                       | 
 | Wide Lens 14.847%                      | 
 | Choice Band  9.108%                    | 
 | Liechi Berry  7.217%                   | 
 | Sitrus Berry  7.072%                   | 
 | Lum Berry  6.356%                      | 
 | Focus Sash  5.012%                     | 
 | Blunder Policy  1.387%                 | 
 | Other  4.063%                          | 
 +----------------------------------------+ 
 | Spreads                                | 
 | Jolly:0/252/0/0/4/252 52.919%          | 
 | Adamant:0/252/0/0/4/252 30.292%        | 
 | Adamant:4/252/0/0/0/252  6.919%        | 
 | Adamant:0/252/4/0/0/252  2.442%        | 
 | Jolly:0/252/4/0/0/252  2.407%          | 
 | Jolly:0/252/0/0/0/252  2.393%          | 
 | Other  2.627%                          | 
 +----------------------------------------+ 
 | Moves                                  | 
 | Dragon Dance 89.309%                   | 
 | Outrage 89.230%                        | 
 | Grav Apple 86.740%                     | 
 | Sucker Punch 65.226%                   | 
 | Wing Attack 16.950%                    | 
 | Acrobatics 16.044%                     | 
 | Fly  9.841%                            | 
 | U-turn  9.306%                         | 
 | Other 17.355%                          | 
 +----------------------------------------+ 
 | Teammates                              | 
 | Shiftry +27.167%                       | 
 | Roserade +9.363%                       | 
 | Bellossom +8.939%                      | 
 | Vileplume +8.786%                      | 
 | Gloom +0.529%                          | 
 +----------------------------------------+ 
 | Checks and Counters                    | 
 +----------------------------------------+ 
 +----------------------------------------+ 
 | Dhelmise                               | 
 +----------------------------------------+ 
 | Raw count: 3061                        | 
 | Avg. weight: 0.00426006887242          | 
 | Viability Ceiling: 77                  | 
 +----------------------------------------+ 
 | Abilities                              | 
 | Steelworker 100.000%                   | 
 +----------------------------------------+ 
 | Items                                  | 
 | Assault Vest 49.757%                   | 
 | Leftovers 39.645%                      | 
 | Choice Band  6.387%                    | 
 | Other  4.210%                          | 
 +----------------------------------------+ 
 | Spreads                                | 
 | Adamant:252/252/0/0/4/0 39.179%        | 
 | Adamant:248/252/0/0/8/0 24.038%        | 
 | Adamant:52/252/0/0/0/204 21.259%       | 
 | Adamant:48/252/0/0/0/208  7.217%       | 
 | Brave:252/252/0/0/0/0  3.385%          | 
 | Other  4.922%                          | 
 +----------------------------------------+ 
 | Moves                                  | 
 | Power Whip 96.837%                     | 
 | Anchor Shot 96.158%                    | 
 | Rapid Spin 94.406%                     | 
 | Earthquake 56.800%                     | 
 | Shadow Claw 35.221%                    | 
 | Rock Slide 10.498%                     | 
 | Other 10.080%                          | 
 +----------------------------------------+ 
 | Teammates                              | 
 | Roserade +31.885%                      | 
 | Eldegoss +24.985%                      | 
 | Bellossom +3.356%                      | 
 | Shiinotic +2.723%                      | 
 +----------------------------------------+ 
 | Checks and Counters                    | 
 +----------------------------------------+ 
 +----------------------------------------+ 
 | Vileplume                              | 
 +----------------------------------------+ 
 | Raw count: 2404                        | 
 | Avg. weight: 0.00288497387002          | 
 | Viability Ceiling: 76                  | 
 +----------------------------------------+ 
 | Abilities                              | 
 | Effect Spore 53.049%                   | 
 | Chlorophyll 46.951%                    | 
 +----------------------------------------+ 
 | Items                                  | 
 | Black Sludge 81.017%                   | 
 | Life Orb  8.362%                       | 
 | Leftovers  5.989%                      | 
 | Other  4.632%                          | 
 +----------------------------------------+ 
 | Spreads                                | 
 | Bold:252/0/252/0/4/0 46.441%           | 
 | Modest:0/0/0/252/4/252 33.806%         | 
 | Timid:252/0/0/4/0/252  5.137%          | 
 | Timid:0/0/0/252/4/252  4.675%          | 
 | Calm:252/0/0/4/252/0  4.037%           | 
 | Timid:28/0/0/252/0/228  1.584%         | 
 | Other  4.321%                          | 
 +----------------------------------------+ 
 | Moves                                  | 
 | Sludge Bomb 85.683%                    | 
 | Moonblast 59.752%                      | 
 | Strength Sap 58.263%                   | 
 | Giga Drain 52.540%                     | 
 | Toxic 34.909%                          | 
 | Sleep Powder 32.813%                   | 
 | Leech Seed 27.047%                     | 
 | Sunny Day 26.414%                      | 
 | Sludge Wave  9.113%                    | 
 | Other 13.466%                          | 
 +----------------------------------------+ 
 | Teammates                              | 
 | Flapple +19.334%                       | 
 | Silvally-Grass +19.023%                | 
 | Shiftry +16.671%                       | 
 | Maractus +4.593%                       | 
 | Trevenant +1.951%                      | 
 +----------------------------------------+ 
 | Checks and Counters                    | 
 +----------------------------------------+ 
 +----------------------------------------+ 
 | Eldegoss                               | 
 +----------------------------------------+ 
 | Raw count: 2503                        | 
 | Avg. weight: 0.00270691584184          | 
 | Viability Ceiling: 76                  | 
 +----------------------------------------+ 
 | Abilities                              | 
 | Regenerator 94.517%                    | 
 | Cotton Down  5.378%                    | 
 | Effect Spore  0.105%                   | 
 +----------------------------------------+ 
 | Items                                  | 
 | Assault Vest 65.354%                   | 
 | Leftovers 25.355%                      | 
 | Heavy-Duty Boots  4.830%               | 
 | Other  4.461%                          | 
 +----------------------------------------+ 
 | Spreads                                | 
 | Modest:252/0/0/252/4/0 66.975%         | 
 | Calm:252/0/0/4/252/0 18.316%           | 
 | Calm:252/0/4/0/252/0  5.012%           | 
 | Bold:252/0/252/0/4/0  3.555%           | 
 | Calm:252/0/0/0/192/4  1.604%           | 
 | Other  4.538%                          | 
 +----------------------------------------+ 
 | Moves                                  | 
 | Rapid Spin 94.425%                     | 
 | Giga Drain 90.570%                     | 
 | Pollen Puff 70.440%                    | 
 | Hyper Voice 57.663%                    | 
 | Sleep Powder 14.677%                   | 
 | Leech Seed 14.015%                     | 
 | Aromatherapy 13.826%                   | 
 | Cotton Guard 12.030%                   | 
 | Leaf Storm  9.668%                     | 
 | Synthesis  8.079%                      | 
 | Other 14.607%                          | 
 +----------------------------------------+ 
 | Teammates                              | 
 | Dhelmise +47.104%                      | 
 | Ludicolo +13.154%                      | 
 | Roserade +13.046%                      | 
 | Maractus +6.081%                       | 
 | Roselia +4.264%                        | 
 | Trevenant +3.984%                      | 
 | Gourgeist-Super +3.022%                | 
 | Bellossom +2.033%                      | 
 | Leafeon +2.009%                        | 
 | Cherrim +0.592%                        | 
 +----------------------------------------+ 
 | Checks and Counters                    | 
 +----------------------------------------+ 
 +----------------------------------------+ 
 | Tsareena                               | 
 +----------------------------------------+ 
 | Raw count: 2860                        | 
 | Avg. weight: 0.00158892680123          | 
 | Viability Ceiling: 74                  | 
 +----------------------------------------+ 
 | Abilities                              | 
 | Queenly Majesty 97.531%                | 
 | Sweet Veil  2.306%                     | 
 | Leaf Guard  0.164%                     | 
 +----------------------------------------+ 
 | Items                                  | 
 | Heavy-Duty Boots 41.641%               | 
 | Choice Scarf 19.616%                   | 
 | Assault Vest 17.824%                   | 
 | Choice Band 13.015%                    | 
 | Occa Berry  2.709%                     | 
 | Zoom Lens  2.305%                      | 
 | Other  2.889%                          | 
 +----------------------------------------+ 
 | Spreads                                | 
 | Jolly:16/252/0/0/0/240 41.502%         | 
 | Adamant:252/252/0/0/4/0 19.990%        | 
 | Jolly:0/252/0/0/4/252 18.157%          | 
 | Jolly:252/108/0/0/148/0  5.179%        | 
 | Jolly:252/80/0/0/176/0  2.730%         | 
 | Adamant:0/248/12/0/124/0  2.305%       | 
 | Other 10.137%                          | 
 +----------------------------------------+ 
 | Moves                                  | 
 | High Jump Kick 97.278%                 | 
 | U-turn 93.805%                         | 
 | Rapid Spin 80.331%                     | 
 | Power Whip 72.121%                     | 
 | Play Rough 24.842%                     | 
 | Seed Bomb 14.544%                      | 
 | Other 17.079%                          | 
 +----------------------------------------+ 
 | Teammates                              | 
 | Silvally-Grass +15.105%                | 
 | Roselia +0.724%                        | 
 +----------------------------------------+ 
 | Checks and Counters                    | 
 +----------------------------------------+ 
 +----------------------------------------+ 
 | Bellossom                              | 
 +----------------------------------------+ 
 | Raw count: 1011                        | 
 | Avg. weight: 0.00398050040198          | 
 | Viability Ceiling: 72                  | 
 +----------------------------------------+ 
 | Abilities                              | 
 | Chlorophyll 78.262%                    | 
 | Healer 21.738%                         | 
 +----------------------------------------+ 
 | Items                                  | 
 | Leftovers 95.748%                      | 
 | Other  4.252%                          | 
 +----------------------------------------+ 
 | Spreads                                | 
 | Timid:248/0/0/8/0/252 50.384%          | 
 | Modest:0/0/0/252/4/252 28.321%         | 
 | Modest:252/0/0/252/0/4 20.783%         | 
 | Other  0.512%                          | 
 +----------------------------------------+ 
 | Moves                                  | 
 | Giga Drain 99.953%                     | 
 | Quiver Dance 99.809%                   | 
 | Strength Sap 88.069%                   | 
 | Sleep Powder 59.653%                   | 
 | Moonblast 47.261%                      | 
 | Other  5.255%                          | 
 +----------------------------------------+ 
 | Teammates                              | 
 | Flapple +39.747%                       | 
 | Roserade +30.034%                      | 
 | Leafeon +20.409%                       | 
 | Dhelmise +11.301%                      | 
 | Maractus +9.964%                       | 
 | Eldegoss +4.036%                       | 
 | Cherrim +1.911%                        | 
 | Trevenant +1.209%                      | 
 | Vileplume +1.064%                      | 
 | Abomasnow +1.029%                      | 
 +----------------------------------------+ 
 | Checks and Counters                    | 
 +----------------------------------------+ 
 +----------------------------------------+ 
 | Silvally-Grass                         | 
 +----------------------------------------+ 
 | Raw count: 1102                        | 
 | Avg. weight: 0.00286076974695          | 
 | Viability Ceiling: 76                  | 
 +----------------------------------------+ 
 | Abilities                              | 
 | RKS System 100.000%                    | 
 +----------------------------------------+ 
 | Items                                  | 
 | Grass Memory 100.000%                  | 
 +----------------------------------------+ 
 | Spreads                                | 
 | Jolly:0/252/0/0/4/252 63.643%          | 
 | Timid:0/0/0/252/4/252 14.036%          | 
 | Hasty:0/204/0/52/0/252 10.840%         | 
 | Hasty:0/4/0/252/0/252  7.175%          | 
 | Other  4.306%                          | 
 +----------------------------------------+ 
 | Moves                                  | 
 | Multi-Attack 84.840%                   | 
 | Swords Dance 61.351%                   | 
 | Parting Shot 53.725%                   | 
 | Fire Fang 43.340%                      | 
 | Ice Fang 39.754%                       | 
 | Ice Beam 33.323%                       | 
 | Flamethrower 33.189%                   | 
 | Psychic Fangs 14.579%                  | 
 | Thunderbolt  9.949%                    | 
 | U-turn  6.714%                         | 
 | Other 19.237%                          | 
 +----------------------------------------+ 
 | Teammates                              | 
 | Vileplume +42.691%                     | 
 | Tsareena +20.836%                      | 
 | Abomasnow +1.875%                      | 
 | Gourgeist-Super +1.558%                | 
 +----------------------------------------+ 
 | Checks and Counters                    | 
 +----------------------------------------+ 
 +----------------------------------------+ 
 | Abomasnow                              | 
 +----------------------------------------+ 
 | Raw count: 1225                        | 
 | Avg. weight: 0.00173562307313          | 
 | Viability Ceiling: 77                  | 
 +----------------------------------------+ 
 | Abilities                              | 
 | Snow Warning 100.000%                  | 
 +----------------------------------------+ 
 | Items                                  | 
 | Choice Band 63.642%                    | 
 | Muscle Band  8.647%                    | 
 | Focus Sash  7.263%                     | 
 | Leftovers  5.142%                      | 
 | Light Clay  5.018%                     | 
 | Life Orb  4.662%                       | 
 | Choice Scarf  4.161%                   | 
 | Other  1.465%                          | 
 +----------------------------------------+ 
 | Spreads                                | 
 | Adamant:0/252/4/0/0/252 40.642%        | 
 | Adamant:80/252/0/0/0/176 22.992%       | 
 | Adamant:248/252/0/0/8/0  8.731%        | 
 | Quiet:248/8/0/252/0/0  7.213%          | 
 | Modest:248/0/0/252/8/0  6.020%         | 
 | Adamant:0/252/0/0/4/252  4.647%        | 
 | Other  9.754%                          | 
 +----------------------------------------+ 
 | Moves                                  | 
 | Ice Shard 78.321%                      | 
 | Earthquake 73.372%                     | 
 | Wood Hammer 73.162%                    | 
 | Icicle Spear 63.653%                   | 
 | Blizzard 21.077%                       | 
 | Aurora Veil 14.246%                    | 
 | Swords Dance 13.950%                   | 
 | Rock Slide 11.477%                     | 
 | Ice Punch 10.191%                      | 
 | Seed Bomb  8.685%                      | 
 | Energy Ball  7.547%                    | 
 | Giga Drain  6.185%                     | 
 | Other 18.134%                          | 
 +----------------------------------------+ 
 | Teammates                              | 
 | Roserade +27.126%                      | 
 | Shiinotic +7.499%                      | 
 | Silvally-Grass +3.566%                 | 
 | Bellossom +2.236%                      | 
 | Maractus +1.369%                       | 
 | Leafeon +1.129%                        | 
 +----------------------------------------+ 
 | Checks and Counters                    | 
 +----------------------------------------+ 
 +----------------------------------------+ 
 | Leafeon                                | 
 +----------------------------------------+ 
 | Raw count: 1903                        | 
 | Avg. weight: 0.000749766428523         | 
 | Viability Ceiling: 70                  | 
 +----------------------------------------+ 
 | Abilities                              | 
 | Leaf Guard 67.961%                     | 
 | Chlorophyll 32.039%                    | 
 +----------------------------------------+ 
 | Items                                  | 
 | Rocky Helmet 56.584%                   | 
 | Life Orb 18.752%                       | 
 | Choice Scarf 10.903%                   | 
 | Leftovers  4.660%                      | 
 | Focus Sash  3.117%                     | 
 | Miracle Seed  3.003%                   | 
 | Other  2.981%                          | 
 +----------------------------------------+ 
 | Spreads                                | 
 | Impish:180/252/0/0/76/0 55.220%        | 
 | Adamant:0/252/0/0/4/252 13.765%        | 
 | Jolly:0/252/0/0/4/252 11.520%          | 
 | Jolly:0/252/4/0/0/252  5.688%          | 
 | Adamant:0/252/4/0/0/252  5.423%        | 
 | Adamant:4/252/0/0/0/252  3.261%        | 
 | Other  5.122%                          | 
 +----------------------------------------+ 
 | Moves                                  | 
 | X-Scissor 88.776%                      | 
 | Solar Blade 70.683%                    | 
 | Synthesis 60.201%                      | 
 | Sunny Day 56.322%                      | 
 | Leaf Blade 30.782%                     | 
 | Swords Dance 24.203%                   | 
 | Giga Impact 10.504%                    | 
 | Rain Dance 10.371%                     | 
 | Substitute  7.707%                     | 
 | Double-Edge  6.593%                    | 
 | Bite  6.333%                           | 
 | Iron Tail  4.405%                      | 
 | Sleep Talk  4.379%                     | 
 | Other 18.741%                          | 
 +----------------------------------------+ 
 | Teammates                              | 
 | Bellossom +54.068%                     | 
 | Ludicolo +26.552%                      | 
 | Roserade +9.826%                       | 
 | Eldegoss +9.171%                       | 
 | Gloom +7.855%                          | 
 | Rillaboom +4.768%                      | 
 | Cherrim +4.251%                        | 
 | Trevenant +3.925%                      | 
 | Shiinotic +1.958%                      | 
 | Maractus +1.313%                       | 
 | Abomasnow +1.306%                      | 
 | Roselia +0.709%                        | 
 +----------------------------------------+ 
 | Checks and Counters                    | 
 +----------------------------------------+ 
 +----------------------------------------+ 
 | Shiinotic                              | 
 +----------------------------------------+ 
 | Raw count: 1020                        | 
 | Avg. weight: 0.000901539372809         | 
 | Viability Ceiling: 65                  | 
 +----------------------------------------+ 
 | Abilities                              | 
 | Effect Spore 82.758%                   | 
 | Rain Dish 16.973%                      | 
 | Illuminate  0.269%                     | 
 +----------------------------------------+ 
 | Items                                  | 
 | Big Root 36.437%                       | 
 | Leftovers 31.754%                      | 
 | Nothing 16.440%                        | 
 | Rocky Helmet 12.608%                   | 
 | Other  2.760%                          | 
 +----------------------------------------+ 
 | Spreads                                | 
 | Modest:248/0/0/156/104/0 35.629%       | 
 | Calm:252/0/0/4/252/0 23.962%           | 
 | Quiet:252/4/0/252/0/0 16.440%          | 
 | Modest:236/0/176/84/12/0 12.608%       | 
 | Quiet:0/0/252/4/252/0  4.697%          | 
 | Modest:252/0/0/252/4/0  4.405%         | 
 | Other  2.259%                          | 
 +----------------------------------------+ 
 | Moves                                  | 
 | Spore 99.287%                          | 
 | Moonblast 94.486%                      | 
 | Strength Sap 81.854%                   | 
 | Giga Drain 56.773%                     | 
 | Leech Seed 25.314%                     | 
 | Energy Ball 16.703%                    | 
 | Facade 16.440%                         | 
 | Other  9.143%                          | 
 +----------------------------------------+ 
 | Teammates                              | 
 | Ludicolo +35.690%                      | 
 | Dhelmise +35.663%                      | 
 | Shiftry +29.470%                       | 
 | Roserade +18.138%                      | 
 | Abomasnow +14.205%                     | 
 | Cherrim +4.514%                        | 
 | Gourgeist-Small +4.304%                | 
 | Vileplume +4.221%                      | 
 | Leafeon +3.074%                        | 
 +----------------------------------------+ 
 | Checks and Counters                    | 
 +----------------------------------------+ 
 +----------------------------------------+ 
 | Gourgeist-Super                        | 
 +----------------------------------------+ 
 | Raw count: 1004                        | 
 | Avg. weight: 0.00103796968981          | 
 | Viability Ceiling: 70                  | 
 +----------------------------------------+ 
 | Abilities                              | 
 | Frisk 99.875%                          | 
 | Insomnia  0.125%                       | 
 | Pickup  0.000%                         | 
 +----------------------------------------+ 
 | Items                                  | 
 | Leftovers 80.289%                      | 
 | Assault Vest 11.753%                   | 
 | Focus Sash  5.198%                     | 
 | Other  2.760%                          | 
 +----------------------------------------+ 
 | Spreads                                | 
 | Impish:252/4/252/0/0/0 32.668%         | 
 | Careful:252/4/0/0/252/0 22.109%        | 
 | Quiet:252/4/0/252/0/0 11.750%          | 
 | Adamant:252/252/4/0/0/0  9.513%        | 
 | Bold:252/0/252/0/4/0  8.869%           | 
 | Sassy:252/0/116/0/140/0  5.402%        | 
 | Other  9.689%                          | 
 +----------------------------------------+ 
 | Moves                                  | 
 | Will-O-Wisp 78.689%                    | 
 | Shadow Sneak 70.178%                   | 
 | Leech Seed 61.648%                     | 
 | Seed Bomb 23.561%                      | 
 | Protect 23.193%                        | 
 | Rock Slide 18.060%                     | 
 | Curse 14.372%                          | 
 | Foul Play 14.345%                      | 
 | Trick Room 12.203%                     | 
 | Fire Blast 11.757%                     | 
 | Sludge Bomb 11.750%                    | 
 | Psychic 11.750%                        | 
 | Disable  9.513%                        | 
 | Power Whip  8.705%                     | 
 | Pain Split  7.210%                     | 
 | Destiny Bond  6.985%                   | 
 | Other 16.079%                          | 
 +----------------------------------------+ 
 | Teammates                              | 
 | Eldegoss +20.853%                      | 
 | Cottonee +14.201%                      | 
 | Roselia +6.714%                        | 
 | Silvally-Grass +5.428%                 | 
 | Dhelmise +2.187%                       | 
 | Tsareena +0.934%                       | 
 +----------------------------------------+ 
 | Checks and Counters                    | 
 +----------------------------------------+ 
 +----------------------------------------+ 
 | Trevenant                              | 
 +----------------------------------------+ 
 | Raw count: 1392                        | 
 | Avg. weight: 0.000575505864783         | 
 | Viability Ceiling: 66                  | 
 +----------------------------------------+ 
 | Abilities                              | 
 | Harvest 59.470%                        | 
 | Natural Cure 40.457%                   | 
 | Frisk  0.073%                          | 
 +----------------------------------------+ 
 | Items                                  | 
 | Wiki Berry 27.999%                     | 
 | Choice Band 27.574%                    | 
 | Sitrus Berry 23.663%                   | 
 | Life Orb 13.161%                       | 
 | Kee Berry  3.775%                      | 
 | Other  3.829%                          | 
 +----------------------------------------+ 
 | Spreads                                | 
 | Careful:244/12/0/0/252/0 28.022%       | 
 | Jolly:0/252/0/0/4/252 26.860%          | 
 | Brave:252/252/0/0/4/0 13.059%          | 
 | Modest:252/0/0/252/4/0  8.336%         | 
 | Adamant:252/252/0/0/4/0  5.340%        | 
 | Adamant:244/252/0/0/12/0  5.289%       | 
 | Other 13.094%                          | 
 +----------------------------------------+ 
 | Moves                                  | 
 | Shadow Claw 81.277%                    | 
 | Will-O-Wisp 47.325%                    | 
 | Earthquake 46.267%                     | 
 | Leech Seed 41.097%                     | 
 | Substitute 35.998%                     | 
 | Wood Hammer 31.657%                    | 
 | Horn Leech 28.759%                     | 
 | Rock Slide 27.833%                     | 
 | Trick Room 13.123%                     | 
 | Calm Mind  8.368%                      | 
 | Giga Drain  8.346%                     | 
 | Hex  8.340%                            | 
 | Protect  6.025%                        | 
 | Other 15.585%                          | 
 +----------------------------------------+ 
 | Teammates                              | 
 | Eldegoss +32.938%                      | 
 | Roselia +27.623%                       | 
 | Vileplume +18.649%                     | 
 | Cherrim +9.590%                        | 
 | Leafeon +7.378%                        | 
 | Bellossom +5.733%                      | 
 +----------------------------------------+ 
 | Checks and Counters                    | 
 +----------------------------------------+ 
 +----------------------------------------+ 
 | Maractus                               | 
 +----------------------------------------+ 
 | Raw count: 514                         | 
 | Avg. weight: 0.000843032484198         | 
 | Viability Ceiling: 72                  | 
 +----------------------------------------+ 
 | Abilities                              | 
 | Water Absorb 92.498%                   | 
 | Chlorophyll  7.502%                    | 
 +----------------------------------------+ 
 | Items                                  | 
 | Iapapa Berry 81.217%                   | 
 | Life Orb 11.039%                       | 
 | Focus Sash  4.167%                     | 
 | Other  3.578%                          | 
 +----------------------------------------+ 
 | Spreads                                | 
 | Sassy:252/4/0/0/252/0 81.231%          | 
 | Calm:252/0/0/4/252/0  8.563%           | 
 | Modest:0/0/0/252/4/252  4.292%         | 
 | Timid:0/0/0/252/4/252  3.205%          | 
 | Other  2.710%                          | 
 +----------------------------------------+ 
 | Moves                                  | 
 | Spiky Shield 92.570%                   | 
 | Spikes 84.479%                         | 
 | Drain Punch 83.892%                    | 
 | Giga Drain 81.320%                     | 
 | Leaf Storm  8.525%                     | 
 | Leech Seed  7.876%                     | 
 | Energy Ball  7.861%                    | 
 | Solar Beam  7.502%                     | 
 | Weather Ball  7.473%                   | 
 | Other 18.504%                          | 
 +----------------------------------------+ 
 | Teammates                              | 
 | Eldegoss +82.592%                      | 
 | Bellossom +82.232%                     | 
 | Vileplume +73.021%                     | 
 | Whimsicott +5.906%                     | 
 | Abomasnow +5.150%                      | 
 | Leafeon +4.121%                        | 
 | Roselia +2.294%                        | 
 +----------------------------------------+ 
 | Checks and Counters                    | 
 +----------------------------------------+ 
 +----------------------------------------+ 
 | Roselia                                | 
 +----------------------------------------+ 
 | Raw count: 97                          | 
 | Avg. weight: 0.00235296643291          | 
 | Viability Ceiling: 66                  | 
 +----------------------------------------+ 
 | Abilities                              | 
 | Natural Cure 95.723%                   | 
 | Poison Point  4.277%                   | 
 +----------------------------------------+ 
 | Items                                  | 
 | Eviolite 100.000%                      | 
 | Other  0.000%                          | 
 +----------------------------------------+ 
 | Spreads                                | 
 | Calm:248/0/8/0/252/0 73.114%           | 
 | Bold:252/0/100/0/156/0 17.136%         | 
 | Calm:248/0/0/8/252/0  5.508%           | 
 | Other  4.243%                          | 
 +----------------------------------------+ 
 | Moves                                  | 
 | Toxic Spikes 99.999%                   | 
 | Leech Seed 92.815%                     | 
 | Synthesis 78.498%                      | 
 | Sleep Powder 58.968%                   | 
 | Spikes 38.466%                         | 
 | Sludge Bomb 22.609%                    | 
 | Other  8.645%                          | 
 +----------------------------------------+ 
 | Teammates                              | 
 | Eldegoss +92.541%                      | 
 | Trevenant +72.216%                     | 
 | Gourgeist-Super +21.362%               | 
 | Tsareena +11.510%                      | 
 | Whimsicott +6.799%                     | 
 | Maractus +3.674%                       | 
 | Leafeon +3.595%                        | 
 +----------------------------------------+ 
 | Checks and Counters                    | 
 +----------------------------------------+ 
 +----------------------------------------+ 
 | Cherrim                                | 
 +----------------------------------------+ 
 | Raw count: 368                         | 
 | Avg. weight: 0.000497624685267         | 
 | Viability Ceiling: 63                  | 
 +----------------------------------------+ 
 | Abilities                              | 
 | Flower Gift 100.000%                   | 
 +----------------------------------------+ 
 | Items                                  | 
 | Choice Specs 52.581%                   | 
 | Focus Sash 23.383%                     | 
 | Heat Rock 20.635%                      | 
 | Other  3.401%                          | 
 +----------------------------------------+ 
 | Spreads                                | 
 | Quiet:252/0/0/252/4/0 52.575%          | 
 | Adamant:0/252/0/4/0/252 23.144%        | 
 | Modest:4/0/0/252/0/252  9.915%         | 
 | Timid:0/0/0/252/4/252  6.639%          | 
 | Brave:4/252/0/0/0/252  3.614%          | 
 | Other  4.113%                          | 
 +----------------------------------------+ 
 | Moves                                  | 
 | Weather Ball 88.927%                   | 
 | Solar Beam 63.341%                     | 
 | Dazzling Gleam 55.957%                 | 
 | Pollen Puff 52.968%                    | 
 | Sunny Day 44.070%                      | 
 | Solar Blade 29.912%                    | 
 | Petal Blizzard 23.216%                 | 
 | Leech Seed 13.470%                     | 
 | Protect  9.915%                        | 
 | Other 18.224%                          | 
 +----------------------------------------+ 
 | Teammates                              | 
 | Trevenant +38.852%                     | 
 | Bellossom +38.532%                     | 
 | Leafeon +32.602%                       | 
 | Shiftry +22.840%                       | 
 | Shiinotic +22.128%                     | 
 | Eldegoss +19.541%                      | 
 | Flapple +8.447%                        | 
 | Tsareena +1.176%                       | 
 +----------------------------------------+ 
 | Checks and Counters                    | 
 +----------------------------------------+ 
 +----------------------------------------+ 
 | Cottonee                               | 
 +----------------------------------------+ 
 | Raw count: 54                          | 
 | Avg. weight: 0.00221130376785          | 
 | Viability Ceiling: 66                  | 
 +----------------------------------------+ 
 | Abilities                              | 
 | Prankster 100.000%                     | 
 | Infiltrator  0.000%                    | 
 +----------------------------------------+ 
 | Items                                  | 
 | Focus Sash 100.000%                    | 
 | Other  0.000%                          | 
 +----------------------------------------+ 
 | Spreads                                | 
 | Hardy:0/0/0/0/0/1 88.251%              | 
 | Bold:0/0/196/0/0/148 11.720%           | 
 | Other  0.030%                          | 
 +----------------------------------------+ 
 | Moves                                  | 
 | Leech Seed 100.000%                    | 
 | Substitute 100.000%                    | 
 | Endeavor 100.000%                      | 
 | Encore 99.967%                         | 
 | Other  0.033%                          | 
 +----------------------------------------+ 
 | Teammates                              | 
 | Gourgeist-Super +98.840%               | 
 | Appletun +20.159%                      | 
 | Whimsicott +4.830%                     | 
 | Eldegoss +4.449%                       | 
 | Rotom-Mow +3.145%                      | 
 | Ferrothorn +0.765%                     | 
 +----------------------------------------+ 
 | Checks and Counters                    | 
 +----------------------------------------+ 
 +----------------------------------------+ 
 | Gloom                                  | 
 +----------------------------------------+ 
 | Raw count: 58                          | 
 | Avg. weight: 0.00154687484738          | 
 | Viability Ceiling: 65                  | 
 +----------------------------------------+ 
 | Abilities                              | 
 | Chlorophyll 98.578%                    | 
 | Stench  1.422%                         | 
 +----------------------------------------+ 
 | Items                                  | 
 | Eviolite 100.000%                      | 
 +----------------------------------------+ 
 | Spreads                                | 
 | Modest:252/0/0/252/4/0 98.578%         | 
 | Other  1.422%                          | 
 +----------------------------------------+ 
 | Moves                                  | 
 | Sludge Bomb 99.579%                    | 
 | Strength Sap 98.999%                   | 
 | Sleep Powder 98.604%                   | 
 | Solar Beam 98.578%                     | 
 | Other  4.240%                          | 
 +----------------------------------------+ 
 | Teammates                              | 
 | Leafeon +74.322%                       | 
 | Flapple +54.580%                       | 
 | Ludicolo +37.936%                      | 
 +----------------------------------------+ 
 | Checks and Counters                    | 
 +----------------------------------------+ 
 +----------------------------------------+ 
 | Gourgeist-Small                        | 
 +----------------------------------------+ 
 | Raw count: 232                         | 
 | Avg. weight: 0.000445151918255         | 
 | Viability Ceiling: 70                  | 
 +----------------------------------------+ 
 | Abilities                              | 
 | Frisk 99.998%                          | 
 | Pickup  0.002%                         | 
 +----------------------------------------+ 
 | Items                                  | 
 | Rocky Helmet 70.946%                   | 
 | Choice Scarf 16.753%                   | 
 | Life Orb 11.493%                       | 
 | Other  0.808%                          | 
 +----------------------------------------+ 
 | Spreads                                | 
 | Careful:252/4/0/0/252/0 70.946%        | 
 | Jolly:0/252/0/0/4/252 15.102%          | 
 | Timid:0/0/0/252/4/252 12.061%          | 
 | Other  1.890%                          | 
 +----------------------------------------+ 
 | Moves                                  | 
 | Destiny Bond 99.291%                   | 
 | Will-O-Wisp 97.638%                    | 
 | Leech Seed 71.045%                     | 
 | Shadow Sneak 70.949%                   | 
 | Trick 16.751%                          | 
 | Seed Bomb 15.100%                      | 
 | Shadow Ball 12.061%                    | 
 | Other 17.165%                          | 
 +----------------------------------------+ 
 | Teammates                              | 
 | Shiinotic +40.576%                     | 
 | Eldegoss +7.901%                       | 
 | Roserade +3.273%                       | 
 | Ludicolo +2.526%                       | 
 +----------------------------------------+ 
 | Checks and Counters                    | 
 +----------------------------------------+ 
 +----------------------------------------+ 
 | Gourgeist                              | 
 +----------------------------------------+ 
 | Raw count: 148                         | 
 | Avg. weight: 6.20236133287e-05         | 
 | Viability Ceiling: 65                  | 
 +----------------------------------------+ 
 | Abilities                              | 
 | Frisk 77.391%                          | 
 | Insomnia 22.609%                       | 
 | Pickup  0.000%                         | 
 +----------------------------------------+ 
 | Items                                  | 
 | Leftovers 59.079%                      | 
 | Focus Sash 29.254%                     | 
 | Rocky Helmet 11.661%                   | 
 | Other  0.006%                          | 
 +----------------------------------------+ 
 | Spreads                                | 
 | Calm:252/0/0/4/252/0 36.469%           | 
 | Timid:0/0/0/252/4/252 29.254%          | 
 | Hardy:4/0/252/0/252/0 22.609%          | 
 | Careful:252/4/0/0/252/0 11.659%        | 
 | Other  0.009%                          | 
 +----------------------------------------+ 
 | Moves                                  | 
 | Destiny Bond 77.384%                   | 
 | Leech Seed 70.745%                     | 
 | Will-O-Wisp 70.745%                    | 
 | Hex 36.469%                            | 
 | Shadow Ball 29.255%                    | 
 | Flamethrower 29.254%                   | 
 | Disable 29.254%                        | 
 | Giga Drain 22.610%                     | 
 | Substitute 22.609%                     | 
 | Other 11.675%                          | 
 +----------------------------------------+ 
 | Teammates                              | 
 | Tsareena +49.858%                      | 
 | Ludicolo +39.200%                      | 
 | Flapple +25.194%                       | 
 | Eldegoss +21.958%                      | 
 | Shiinotic +10.508%                     | 
 | Vileplume +2.395%                      | 
 +----------------------------------------+ 
 | Checks and Counters                    | 
 +----------------------------------------+ 
