 weatherless...................100.00000%
 hyperoffense..................90.00000%
 offense.......................10.00000%

 Stalliness (mean: -1.249)
     |##########
     |####################
     |##########
 -1.2|####################
     |##############################
 -1.0|##########
     |
 -0.8|
     |
 -0.6|
     |
 -0.4|
     |
 -0.2|
     |
  0.0|
 more negative = more offensive, more positive = more stall
 one # =  1.00%
