 hyperoffense.................. 0.00000%
 offense....................... 0.00000%
 mononormal.................... 0.00000%
 weatherless................... 0.00000%
 monotype...................... 0.00000%

