 +----------------------------------------+ 
 | Dragonite                              | 
 +----------------------------------------+ 
 | Raw count: 27819                       | 
 | Avg. weight: 0.583748842654            | 
 | Viability Ceiling: 89                  | 
 +----------------------------------------+ 
 | Abilities                              | 
 | Multiscale 94.178%                     | 
 | Inner Focus  5.822%                    | 
 +----------------------------------------+ 
 | Items                                  | 
 | Weakness Policy 28.122%                | 
 | Lum Berry 25.719%                      | 
 | Choice Band 20.936%                    | 
 | Leftovers 13.499%                      | 
 | Dragon Fang  2.560%                    | 
 | Life Orb  1.716%                       | 
 | Sitrus Berry  1.101%                   | 
 | Focus Sash  0.953%                     | 
 | Assault Vest  0.926%                   | 
 | Other  4.469%                          | 
 +----------------------------------------+ 
 | Spreads                                | 
 | Adamant:0/252/0/0/4/252 33.041%        | 
 | Adamant:0/252/4/0/0/252 11.587%        | 
 | Adamant:252/252/0/0/4/0  6.355%        | 
 | Adamant:4/252/0/0/0/252  5.706%        | 
 | Jolly:0/252/0/0/4/252  3.859%          | 
 | Jolly:96/252/0/0/0/160  2.244%         | 
 | Other 37.209%                          | 
 +----------------------------------------+ 
 | Moves                                  | 
 | Extreme Speed 82.359%                  | 
 | Dragon Dance 66.631%                   | 
 | Outrage 59.423%                        | 
 | Earthquake 48.746%                     | 
 | Fire Punch 37.724%                     | 
 | Dragon Claw 29.012%                    | 
 | Iron Head 13.677%                      | 
 | Roost  8.970%                          | 
 | Superpower  6.547%                     | 
 | Ice Punch  5.417%                      | 
 | Thunder Punch  4.907%                  | 
 | Substitute  1.901%                     | 
 | Draco Meteor  1.868%                   | 
 | Aqua Tail  1.858%                      | 
 | Fly  1.608%                            | 
 | Power-Up Punch  1.547%                 | 
 | Protect  1.524%                        | 
 | Brick Break  1.510%                    | 
 | Sky Drop  1.463%                       | 
 | Waterfall  1.460%                      | 
 | Thunder Wave  1.344%                   | 
 | Flamethrower  1.322%                   | 
 | Other 19.182%                          | 
 +----------------------------------------+ 
 | Teammates                              | 
 +----------------------------------------+ 
 | Checks and Counters                    | 
 +----------------------------------------+ 
 +----------------------------------------+ 
 | Garchomp                               | 
 +----------------------------------------+ 
 | Raw count: 19643                       | 
 | Avg. weight: 0.663517089096            | 
 | Viability Ceiling: 88                  | 
 +----------------------------------------+ 
 | Abilities                              | 
 | Rough Skin 96.441%                     | 
 | Sand Veil  3.559%                      | 
 +----------------------------------------+ 
 | Items                                  | 
 | Rocky Helmet 56.776%                   | 
 | Focus Sash 15.827%                     | 
 | Choice Scarf  8.642%                   | 
 | Life Orb  4.315%                       | 
 | Leftovers  3.588%                      | 
 | Choice Band  3.198%                    | 
 | Lum Berry  1.764%                      | 
 | Yache Berry  1.436%                    | 
 | Other  4.453%                          | 
 +----------------------------------------+ 
 | Spreads                                | 
 | Jolly:0/252/0/0/4/252 25.899%          | 
 | Impish:240/0/176/0/0/92 13.258%        | 
 | Naive:0/252/0/4/0/252  7.995%          | 
 | Lax:252/0/188/68/0/0  4.923%           | 
 | Jolly:4/252/0/0/0/252  4.361%          | 
 | Jolly:0/252/4/0/0/252  3.618%          | 
 | Other 39.946%                          | 
 +----------------------------------------+ 
 | Moves                                  | 
 | Earthquake 94.187%                     | 
 | Stealth Rock 66.532%                   | 
 | Dragon Tail 43.380%                    | 
 | Fire Blast 30.283%                     | 
 | Outrage 28.061%                        | 
 | Dragon Claw 21.219%                    | 
 | Iron Head 20.410%                      | 
 | Stone Edge 13.861%                     | 
 | Swords Dance 12.622%                   | 
 | Toxic 10.882%                          | 
 | Flamethrower  9.101%                   | 
 | Poison Jab  8.381%                     | 
 | Rock Slide  6.118%                     | 
 | Fire Fang  4.933%                      | 
 | Crunch  3.189%                         | 
 | Endure  2.435%                         | 
 | Brick Break  2.224%                    | 
 | Draco Meteor  2.066%                   | 
 | Dragon Rush  2.062%                    | 
 | Other 18.056%                          | 
 +----------------------------------------+ 
 | Teammates                              | 
 | Latias-Mega +5.862%                    | 
 | Kyurem-Black +1.572%                   | 
 | Latios-Mega +1.503%                    | 
 +----------------------------------------+ 
 | Checks and Counters                    | 
 +----------------------------------------+ 
 +----------------------------------------+ 
 | Kyurem-Black                           | 
 +----------------------------------------+ 
 | Raw count: 17741                       | 
 | Avg. weight: 0.713042416436            | 
 | Viability Ceiling: 89                  | 
 +----------------------------------------+ 
 | Abilities                              | 
 | Teravolt 100.000%                      | 
 +----------------------------------------+ 
 | Items                                  | 
 | Choice Scarf 50.992%                   | 
 | Life Orb 19.169%                       | 
 | Choice Band 13.681%                    | 
 | Leftovers  5.629%                      | 
 | Assault Vest  3.271%                   | 
 | Power Herb  2.976%                     | 
 | Other  4.282%                          | 
 +----------------------------------------+ 
 | Spreads                                | 
 | Naive:0/252/0/4/0/252 17.755%          | 
 | Adamant:252/252/0/0/4/0  6.759%        | 
 | Naive:0/4/0/252/0/252  5.786%          | 
 | Adamant:0/252/0/0/4/252  5.601%        | 
 | Naughty:0/252/0/4/0/252  5.506%        | 
 | Naive:0/252/0/32/0/224  5.147%         | 
 | Other 53.446%                          | 
 +----------------------------------------+ 
 | Moves                                  | 
 | Fusion Bolt 88.992%                    | 
 | Outrage 71.586%                        | 
 | Iron Head 70.164%                      | 
 | Ice Beam 63.075%                       | 
 | Earth Power 19.949%                    | 
 | Dragon Claw 16.831%                    | 
 | Roost 12.007%                          | 
 | Stone Edge 10.930%                     | 
 | Zen Headbutt  7.251%                   | 
 | Shadow Claw  6.643%                    | 
 | Substitute  5.860%                     | 
 | Freeze Shock  5.307%                   | 
 | Draco Meteor  3.160%                   | 
 | Other 18.246%                          | 
 +----------------------------------------+ 
 | Teammates                              | 
 | Latios +9.580%                         | 
 | Latias-Mega +5.982%                    | 
 | Garchomp +1.775%                       | 
 | Latias +1.208%                         | 
 +----------------------------------------+ 
 | Checks and Counters                    | 
 +----------------------------------------+ 
 +----------------------------------------+ 
 | Hydreigon                              | 
 +----------------------------------------+ 
 | Raw count: 19066                       | 
 | Avg. weight: 0.548498228905            | 
 | Viability Ceiling: 89                  | 
 +----------------------------------------+ 
 | Abilities                              | 
 | Levitate 100.000%                      | 
 +----------------------------------------+ 
 | Items                                  | 
 | Life Orb 32.223%                       | 
 | Choice Scarf 27.837%                   | 
 | Choice Specs 18.539%                   | 
 | Leftovers  4.951%                      | 
 | Assault Vest  3.611%                   | 
 | Expert Belt  3.564%                    | 
 | Focus Sash  2.397%                     | 
 | Sitrus Berry  1.051%                   | 
 | Black Glasses  0.708%                  | 
 | Nothing  0.686%                        | 
 | Other  4.433%                          | 
 +----------------------------------------+ 
 | Spreads                                | 
 | Timid:0/0/0/252/4/252 50.906%          | 
 | Modest:0/0/0/252/4/252  7.604%         | 
 | Timid:4/0/0/252/0/252  5.887%          | 
 | Hasty:0/4/0/252/0/252  5.358%          | 
 | Modest:4/0/0/252/0/252  4.956%         | 
 | Timid:0/0/0/252/0/252  2.894%          | 
 | Other 22.395%                          | 
 +----------------------------------------+ 
 | Moves                                  | 
 | Dark Pulse 92.063%                     | 
 | Draco Meteor 72.242%                   | 
 | Flamethrower 42.424%                   | 
 | Flash Cannon 38.330%                   | 
 | Fire Blast 28.097%                     | 
 | Earth Power 25.187%                    | 
 | Dragon Pulse 23.417%                   | 
 | Focus Blast 12.443%                    | 
 | U-turn 10.650%                         | 
 | Roost 10.026%                          | 
 | Surf  6.926%                           | 
 | Superpower  5.720%                     | 
 | Thunder Wave  3.986%                   | 
 | Taunt  3.115%                          | 
 | Tri Attack  2.931%                     | 
 | Earthquake  2.321%                     | 
 | Heat Wave  2.314%                      | 
 | Other 17.807%                          | 
 +----------------------------------------+ 
 | Teammates                              | 
 | Garchomp-Mega +2.917%                  | 
 +----------------------------------------+ 
 | Checks and Counters                    | 
 +----------------------------------------+ 
 +----------------------------------------+ 
 | Goodra                                 | 
 +----------------------------------------+ 
 | Raw count: 15137                       | 
 | Avg. weight: 0.547867715961            | 
 | Viability Ceiling: 89                  | 
 +----------------------------------------+ 
 | Abilities                              | 
 | Gooey 58.739%                          | 
 | Sap Sipper 33.585%                     | 
 | Hydration  7.675%                      | 
 +----------------------------------------+ 
 | Items                                  | 
 | Assault Vest 59.887%                   | 
 | Leftovers 19.818%                      | 
 | Expert Belt  5.247%                    | 
 | Choice Specs  4.253%                   | 
 | Life Orb  1.420%                       | 
 | Choice Band  1.219%                    | 
 | Rocky Helmet  1.125%                   | 
 | Sitrus Berry  1.085%                   | 
 | Chesto Berry  1.075%                   | 
 | Other  4.870%                          | 
 +----------------------------------------+ 
 | Spreads                                | 
 | Modest:248/0/0/252/8/0 33.549%         | 
 | Modest:252/0/0/252/4/0  5.573%         | 
 | Mild:248/8/0/252/0/0  4.333%           | 
 | Calm:252/0/0/4/252/0  4.303%           | 
 | Modest:240/0/0/252/0/16  2.912%        | 
 | Hardy:0/0/0/0/0/0  1.892%              | 
 | Other 47.438%                          | 
 +----------------------------------------+ 
 | Moves                                  | 
 | Dragon Pulse 47.170%                   | 
 | Thunderbolt 42.558%                    | 
 | Ice Beam 38.917%                       | 
 | Sludge Bomb 37.221%                    | 
 | Flamethrower 36.738%                   | 
 | Draco Meteor 35.504%                   | 
 | Fire Blast 35.157%                     | 
 | Sludge Wave 25.458%                    | 
 | Muddy Water 11.487%                    | 
 | Dragon Tail 10.033%                    | 
 | Earthquake  9.850%                     | 
 | Toxic  9.532%                          | 
 | Focus Blast  6.502%                    | 
 | Rest  6.351%                           | 
 | Power Whip  6.054%                     | 
 | Rain Dance  5.710%                     | 
 | Thunder  4.490%                        | 
 | Protect  3.711%                        | 
 | Outrage  3.526%                        | 
 | Blizzard  2.816%                       | 
 | Acid Armor  2.309%                     | 
 | Other 18.904%                          | 
 +----------------------------------------+ 
 | Teammates                              | 
 | Garchomp-Mega +1.300%                  | 
 | Altaria +0.535%                        | 
 +----------------------------------------+ 
 | Checks and Counters                    | 
 +----------------------------------------+ 
 +----------------------------------------+ 
 | Salamence                              | 
 +----------------------------------------+ 
 | Raw count: 14531                       | 
 | Avg. weight: 0.557846170087            | 
 | Viability Ceiling: 85                  | 
 +----------------------------------------+ 
 | Abilities                              | 
 | Moxie 74.488%                          | 
 | Intimidate 25.512%                     | 
 +----------------------------------------+ 
 | Items                                  | 
 | Choice Scarf 47.422%                   | 
 | Life Orb 10.384%                       | 
 | Leftovers 10.139%                      | 
 | Lum Berry  7.691%                      | 
 | Focus Sash  7.090%                     | 
 | Choice Band  3.450%                    | 
 | Assault Vest  2.623%                   | 
 | Sitrus Berry  1.950%                   | 
 | Rocky Helmet  1.398%                   | 
 | Choice Specs  1.198%                   | 
 | Nothing  0.848%                        | 
 | Yache Berry  0.805%                    | 
 | Dragon Fang  0.593%                    | 
 | Other  4.408%                          | 
 +----------------------------------------+ 
 | Spreads                                | 
 | Jolly:0/252/0/0/4/252 27.989%          | 
 | Adamant:0/252/0/0/4/252 12.676%        | 
 | Hasty:0/252/0/4/0/252 11.483%          | 
 | Jolly:4/252/0/0/0/252  6.465%          | 
 | Naive:0/252/0/4/0/252  5.339%          | 
 | Adamant:4/252/0/0/0/252  2.506%        | 
 | Other 33.541%                          | 
 +----------------------------------------+ 
 | Moves                                  | 
 | Earthquake 69.687%                     | 
 | Outrage 58.372%                        | 
 | Dragon Claw 33.048%                    | 
 | Iron Tail 32.146%                      | 
 | Dragon Dance 29.113%                   | 
 | Fire Blast 22.176%                     | 
 | Fire Fang 18.727%                      | 
 | Crunch 16.729%                         | 
 | Stone Edge 11.910%                     | 
 | Brick Break 11.349%                    | 
 | Roost  9.129%                          | 
 | Steel Wing  7.941%                     | 
 | Rock Slide  7.076%                     | 
 | Aqua Tail  6.694%                      | 
 | Zen Headbutt  6.675%                   | 
 | Draco Meteor  6.590%                   | 
 | Flamethrower  5.635%                   | 
 | Hydro Pump  4.625%                     | 
 | Aerial Ace  4.112%                     | 
 | Fly  4.006%                            | 
 | Toxic  3.381%                          | 
 | Dragon Pulse  2.967%                   | 
 | Dragon Tail  2.884%                    | 
 | Defog  2.744%                          | 
 | Double-Edge  2.372%                    | 
 | Other 19.913%                          | 
 +----------------------------------------+ 
 | Teammates                              | 
 +----------------------------------------+ 
 | Checks and Counters                    | 
 +----------------------------------------+ 
 +----------------------------------------+ 
 | Latios                                 | 
 +----------------------------------------+ 
 | Raw count: 11173                       | 
 | Avg. weight: 0.732542524966            | 
 | Viability Ceiling: 89                  | 
 +----------------------------------------+ 
 | Abilities                              | 
 | Levitate 100.000%                      | 
 +----------------------------------------+ 
 | Items                                  | 
 | Choice Scarf 41.297%                   | 
 | Life Orb 39.796%                       | 
 | Choice Specs  9.000%                   | 
 | Leftovers  4.434%                      | 
 | Nothing  0.673%                        | 
 | Other  4.801%                          | 
 +----------------------------------------+ 
 | Spreads                                | 
 | Timid:0/0/0/252/4/252 56.445%          | 
 | Timid:0/0/4/252/0/252 17.340%          | 
 | Timid:4/0/0/252/0/252  6.825%          | 
 | Modest:0/0/0/252/4/252  5.652%         | 
 | Hasty:0/0/0/252/4/252  2.204%          | 
 | Timid:0/0/0/252/0/252  1.789%          | 
 | Other  9.745%                          | 
 +----------------------------------------+ 
 | Moves                                  | 
 | Draco Meteor 83.337%                   | 
 | Psyshock 72.203%                       | 
 | Ice Beam 34.258%                       | 
 | Defog 31.147%                          | 
 | Thunderbolt 29.863%                    | 
 | Energy Ball 27.796%                    | 
 | Psychic 19.749%                        | 
 | Trick 15.209%                          | 
 | Shadow Ball 14.301%                    | 
 | Dragon Pulse 13.506%                   | 
 | Surf 13.174%                           | 
 | Hidden Power Fire 10.330%              | 
 | Calm Mind  6.375%                      | 
 | Recover  5.309%                        | 
 | Roost  5.051%                          | 
 | Other 18.392%                          | 
 +----------------------------------------+ 
 | Teammates                              | 
 | Kyurem-Black +15.066%                  | 
 | Latias-Mega +7.591%                    | 
 | Garchomp +0.779%                       | 
 +----------------------------------------+ 
 | Checks and Counters                    | 
 +----------------------------------------+ 
 +----------------------------------------+ 
 | Dragalge                               | 
 +----------------------------------------+ 
 | Raw count: 13227                       | 
 | Avg. weight: 0.548453538385            | 
 | Viability Ceiling: 86                  | 
 +----------------------------------------+ 
 | Abilities                              | 
 | Adaptability 84.865%                   | 
 | Poison Point 12.440%                   | 
 | Poison Touch  2.695%                   | 
 +----------------------------------------+ 
 | Items                                  | 
 | Assault Vest 34.748%                   | 
 | Black Sludge 27.063%                   | 
 | Choice Specs 15.223%                   | 
 | Leftovers 10.204%                      | 
 | Life Orb  2.945%                       | 
 | Focus Sash  1.331%                     | 
 | Choice Scarf  1.238%                   | 
 | Sitrus Berry  1.068%                   | 
 | Draco Plate  0.931%                    | 
 | Nothing  0.838%                        | 
 | Other  4.412%                          | 
 +----------------------------------------+ 
 | Spreads                                | 
 | Modest:252/0/0/252/4/0 25.565%         | 
 | Modest:248/0/0/252/8/0 18.246%         | 
 | Modest:228/0/0/252/0/28  4.649%        | 
 | Calm:248/0/0/0/232/28  4.391%          | 
 | Calm:252/0/0/4/252/0  3.604%           | 
 | Modest:224/0/0/252/0/32  2.862%        | 
 | Other 40.683%                          | 
 +----------------------------------------+ 
 | Moves                                  | 
 | Sludge Wave 66.717%                    | 
 | Draco Meteor 61.076%                   | 
 | Dragon Pulse 39.502%                   | 
 | Scald 38.365%                          | 
 | Focus Blast 34.038%                    | 
 | Toxic Spikes 29.239%                   | 
 | Thunderbolt 27.719%                    | 
 | Sludge Bomb 24.440%                    | 
 | Hidden Power Fire 14.298%              | 
 | Shadow Ball  7.650%                    | 
 | Toxic  7.270%                          | 
 | Hydro Pump  7.135%                     | 
 | Protect  5.599%                        | 
 | Surf  5.438%                           | 
 | Gunk Shot  4.303%                      | 
 | Dragon Tail  3.549%                    | 
 | Venoshock  3.532%                      | 
 | Haze  3.089%                           | 
 | Other 17.041%                          | 
 +----------------------------------------+ 
 | Teammates                              | 
 +----------------------------------------+ 
 | Checks and Counters                    | 
 +----------------------------------------+ 
 +----------------------------------------+ 
 | Latias-Mega                            | 
 +----------------------------------------+ 
 | Raw count: 7886                        | 
 | Avg. weight: 0.691658153222            | 
 | Viability Ceiling: 89                  | 
 +----------------------------------------+ 
 | Abilities                              | 
 | Levitate 100.000%                      | 
 +----------------------------------------+ 
 | Items                                  | 
 | Latiasite 100.000%                     | 
 +----------------------------------------+ 
 | Spreads                                | 
 | Timid:0/0/0/252/4/252 11.207%          | 
 | Bold:248/0/84/0/0/176  9.315%          | 
 | Bold:252/0/252/4/0/0  8.750%           | 
 | Timid:252/0/4/0/0/252  6.022%          | 
 | Timid:252/0/0/0/4/252  5.232%          | 
 | Modest:248/0/0/252/8/0  3.734%         | 
 | Other 55.740%                          | 
 +----------------------------------------+ 
 | Moves                                  | 
 | Calm Mind 56.958%                      | 
 | Recover 35.241%                        | 
 | Roost 31.414%                          | 
 | Defog 29.793%                          | 
 | Dragon Pulse 27.700%                   | 
 | Ice Beam 25.213%                       | 
 | Psyshock 24.876%                       | 
 | Thunderbolt 22.727%                    | 
 | Stored Power 20.110%                   | 
 | Psychic 20.051%                        | 
 | Draco Meteor 18.579%                   | 
 | Substitute 14.606%                     | 
 | Healing Wish 13.328%                   | 
 | Thunder Wave  9.308%                   | 
 | Energy Ball  8.859%                    | 
 | Reflect Type  7.452%                   | 
 | Tailwind  5.878%                       | 
 | Toxic  5.651%                          | 
 | Surf  4.944%                           | 
 | Other 17.311%                          | 
 +----------------------------------------+ 
 | Teammates                              | 
 | Garchomp +14.551%                      | 
 | Kyurem-Black +13.946%                  | 
 | Latios +11.222%                        | 
 | Zygarde +0.770%                        | 
 +----------------------------------------+ 
 | Checks and Counters                    | 
 +----------------------------------------+ 
 +----------------------------------------+ 
 | Garchomp-Mega                          | 
 +----------------------------------------+ 
 | Raw count: 9656                        | 
 | Avg. weight: 0.451180568512            | 
 | Viability Ceiling: 89                  | 
 +----------------------------------------+ 
 | Abilities                              | 
 | Sand Force 100.000%                    | 
 +----------------------------------------+ 
 | Items                                  | 
 | Garchompite 100.000%                   | 
 +----------------------------------------+ 
 | Spreads                                | 
 | Jolly:0/252/0/0/4/252 23.629%          | 
 | Adamant:252/252/0/0/4/0 11.571%        | 
 | Naive:0/252/0/4/0/252  7.009%          | 
 | Jolly:0/252/4/0/0/252  5.318%          | 
 | Naughty:252/252/0/4/0/0  3.981%        | 
 | Jolly:4/252/0/0/0/252  3.371%          | 
 | Other 45.120%                          | 
 +----------------------------------------+ 
 | Moves                                  | 
 | Earthquake 94.800%                     | 
 | Dragon Claw 46.366%                    | 
 | Swords Dance 30.896%                   | 
 | Outrage 28.916%                        | 
 | Stone Edge 27.666%                     | 
 | Stealth Rock 24.676%                   | 
 | Fire Blast 23.380%                     | 
 | Poison Jab 21.021%                     | 
 | Iron Head 17.848%                      | 
 | Rock Tomb  9.356%                      | 
 | Flamethrower  9.096%                   | 
 | Fire Fang  8.991%                      | 
 | Draco Meteor  8.466%                   | 
 | Crunch  7.085%                         | 
 | Brick Break  5.413%                    | 
 | Dragon Tail  4.849%                    | 
 | Dragon Rush  4.416%                    | 
 | Rock Slide  3.563%                     | 
 | Sandstorm  3.550%                      | 
 | Other 19.646%                          | 
 +----------------------------------------+ 
 | Teammates                              | 
 | Hydreigon +5.449%                      | 
 | Tyrantrum +4.335%                      | 
 | Kingdra +2.198%                        | 
 | Haxorus +2.069%                        | 
 | Flygon +1.383%                         | 
 | Goodra +1.319%                         | 
 +----------------------------------------+ 
 | Checks and Counters                    | 
 +----------------------------------------+ 
 +----------------------------------------+ 
 | Haxorus                                | 
 +----------------------------------------+ 
 | Raw count: 9717                        | 
 | Avg. weight: 0.439226203063            | 
 | Viability Ceiling: 89                  | 
 +----------------------------------------+ 
 | Abilities                              | 
 | Mold Breaker 81.542%                   | 
 | Rivalry 15.350%                        | 
 | Unnerve  3.108%                        | 
 +----------------------------------------+ 
 | Items                                  | 
 | Lum Berry 19.625%                      | 
 | Focus Sash 19.099%                     | 
 | Choice Band 13.730%                    | 
 | Life Orb 13.400%                       | 
 | Choice Scarf 11.253%                   | 
 | Leftovers  8.147%                      | 
 | Dragon Fang  2.440%                    | 
 | Sitrus Berry  1.943%                   | 
 | Assault Vest  1.923%                   | 
 | Nothing  1.117%                        | 
 | Rocky Helmet  1.112%                   | 
 | Weakness Policy  0.906%                | 
 | Draco Plate  0.887%                    | 
 | Other  4.419%                          | 
 +----------------------------------------+ 
 | Spreads                                | 
 | Adamant:0/252/0/0/4/252 27.981%        | 
 | Jolly:0/252/0/0/4/252 24.307%          | 
 | Jolly:4/252/0/0/0/252  8.390%          | 
 | Adamant:4/252/0/0/0/252  5.593%        | 
 | Jolly:0/252/0/0/0/252  2.460%          | 
 | Hardy:0/0/0/0/0/0  2.370%              | 
 | Other 28.898%                          | 
 +----------------------------------------+ 
 | Moves                                  | 
 | Earthquake 80.576%                     | 
 | Dragon Dance 59.049%                   | 
 | Poison Jab 58.016%                     | 
 | Outrage 52.163%                        | 
 | Dragon Claw 45.549%                    | 
 | Superpower 16.908%                     | 
 | Brick Break 10.438%                    | 
 | Rock Slide  9.695%                     | 
 | Iron Tail  9.352%                      | 
 | Swords Dance  8.386%                   | 
 | Night Slash  6.404%                    | 
 | Aqua Tail  5.812%                      | 
 | Low Kick  5.341%                       | 
 | X-Scissor  5.199%                      | 
 | Dual Chop  3.414%                      | 
 | Substitute  3.083%                     | 
 | Draco Meteor  2.803%                   | 
 | Other 17.812%                          | 
 +----------------------------------------+ 
 | Teammates                              | 
 | Noivern +5.375%                        | 
 | Flygon +2.256%                         | 
 | Garchomp-Mega +2.248%                  | 
 | Druddigon +0.764%                      | 
 +----------------------------------------+ 
 | Checks and Counters                    | 
 +----------------------------------------+ 
 +----------------------------------------+ 
 | Kingdra                                | 
 +----------------------------------------+ 
 | Raw count: 9099                        | 
 | Avg. weight: 0.457231814195            | 
 | Viability Ceiling: 89                  | 
 +----------------------------------------+ 
 | Abilities                              | 
 | Sniper 65.132%                         | 
 | Swift Swim 32.912%                     | 
 | Damp  1.956%                           | 
 +----------------------------------------+ 
 | Items                                  | 
 | Scope Lens 29.359%                     | 
 | Leftovers 17.013%                      | 
 | Life Orb 10.780%                       | 
 | Choice Specs 10.473%                   | 
 | Razor Claw 10.440%                     | 
 | Lum Berry  6.704%                      | 
 | Choice Scarf  2.389%                   | 
 | Chesto Berry  2.335%                   | 
 | Focus Sash  1.896%                     | 
 | Assault Vest  1.329%                   | 
 | Sitrus Berry  1.200%                   | 
 | Nothing  1.008%                        | 
 | Mystic Water  0.857%                   | 
 | Other  4.217%                          | 
 +----------------------------------------+ 
 | Spreads                                | 
 | Modest:0/0/0/252/4/252 20.261%         | 
 | Modest:252/0/0/252/4/0 12.600%         | 
 | Adamant:0/252/0/0/4/252  7.784%        | 
 | Timid:0/0/0/252/4/252  4.930%          | 
 | Modest:28/0/0/252/0/228  4.926%        | 
 | Timid:4/0/0/252/0/252  4.642%          | 
 | Other 44.857%                          | 
 +----------------------------------------+ 
 | Moves                                  | 
 | Draco Meteor 50.130%                   | 
 | Ice Beam 46.413%                       | 
 | Scald 42.184%                          | 
 | Focus Energy 34.929%                   | 
 | Hydro Pump 29.112%                     | 
 | Dragon Pulse 25.079%                   | 
 | Flash Cannon 21.637%                   | 
 | Dragon Dance 20.141%                   | 
 | Waterfall 18.778%                      | 
 | Outrage 18.459%                        | 
 | Surf 13.923%                           | 
 | Agility 13.867%                        | 
 | Rain Dance  9.526%                     | 
 | Iron Head  8.222%                      | 
 | Clear Smog  6.011%                     | 
 | Substitute  5.648%                     | 
 | Toxic  5.366%                          | 
 | Hidden Power Fire  4.199%              | 
 | Rest  4.051%                           | 
 | Blizzard  3.578%                       | 
 | Other 18.749%                          | 
 +----------------------------------------+ 
 | Teammates                              | 
 | Flygon +3.257%                         | 
 | Druddigon +2.952%                      | 
 | Garchomp-Mega +2.573%                  | 
 | Tyrantrum +0.657%                      | 
 +----------------------------------------+ 
 | Checks and Counters                    | 
 +----------------------------------------+ 
 +----------------------------------------+ 
 | Noivern                                | 
 +----------------------------------------+ 
 | Raw count: 7866                        | 
 | Avg. weight: 0.447198668038            | 
 | Viability Ceiling: 79                  | 
 +----------------------------------------+ 
 | Abilities                              | 
 | Infiltrator 85.559%                    | 
 | Frisk 13.052%                          | 
 | Telepathy  1.389%                      | 
 +----------------------------------------+ 
 | Items                                  | 
 | Choice Specs 46.020%                   | 
 | Life Orb 14.780%                       | 
 | Choice Scarf  8.966%                   | 
 | Focus Sash  8.134%                     | 
 | Leftovers  5.975%                      | 
 | Assault Vest  4.104%                   | 
 | Sitrus Berry  2.330%                   | 
 | Zoom Lens  1.593%                      | 
 | Nothing  1.294%                        | 
 | Wise Glasses  0.934%                   | 
 | Expert Belt  0.623%                    | 
 | Rocky Helmet  0.551%                   | 
 | Other  4.695%                          | 
 +----------------------------------------+ 
 | Spreads                                | 
 | Timid:0/0/0/252/4/252 54.537%          | 
 | Modest:4/0/0/252/0/252  9.010%         | 
 | Timid:4/0/0/252/0/252  8.392%          | 
 | Hasty:0/4/0/252/0/252  4.923%          | 
 | Timid:0/0/0/252/0/252  3.755%          | 
 | Modest:0/0/0/252/4/252  2.782%         | 
 | Other 16.601%                          | 
 +----------------------------------------+ 
 | Moves                                  | 
 | Flamethrower 67.658%                   | 
 | Boomburst 61.259%                      | 
 | Draco Meteor 54.906%                   | 
 | Air Slash 42.804%                      | 
 | Dragon Pulse 39.766%                   | 
 | Hurricane 36.821%                      | 
 | Heat Wave 10.468%                      | 
 | Focus Blast  9.915%                    | 
 | Psychic  9.862%                        | 
 | U-turn  9.356%                         | 
 | Dark Pulse  8.712%                     | 
 | Roost  6.927%                          | 
 | Switcheroo  6.550%                     | 
 | Taunt  6.003%                          | 
 | Shadow Ball  5.085%                    | 
 | Acrobatics  2.447%                     | 
 | Super Fang  2.401%                     | 
 | Other 19.060%                          | 
 +----------------------------------------+ 
 | Teammates                              | 
 | Haxorus +6.804%                        | 
 | Zygarde +3.150%                        | 
 | Altaria +1.279%                        | 
 | Latios-Mega +0.683%                    | 
 | Flygon +0.682%                         | 
 +----------------------------------------+ 
 | Checks and Counters                    | 
 +----------------------------------------+ 
 +----------------------------------------+ 
 | Latias                                 | 
 +----------------------------------------+ 
 | Raw count: 5558                        | 
 | Avg. weight: 0.674541220505            | 
 | Viability Ceiling: 89                  | 
 +----------------------------------------+ 
 | Abilities                              | 
 | Levitate 100.000%                      | 
 +----------------------------------------+ 
 | Items                                  | 
 | Leftovers 31.170%                      | 
 | Life Orb 26.328%                       | 
 | Choice Scarf 14.889%                   | 
 | Red Card  9.186%                       | 
 | Light Clay  4.744%                     | 
 | Assault Vest  2.834%                   | 
 | Sitrus Berry  1.618%                   | 
 | Haban Berry  1.299%                    | 
 | Choice Specs  1.081%                   | 
 | Custap Berry  0.938%                   | 
 | Nothing  0.864%                        | 
 | Weakness Policy  0.666%                | 
 | Other  4.383%                          | 
 +----------------------------------------+ 
 | Spreads                                | 
 | Timid:0/0/0/252/4/252 33.332%          | 
 | Timid:252/0/0/4/0/252  4.714%          | 
 | Timid:4/0/0/252/0/252  4.475%          | 
 | Timid:252/0/0/0/4/252  4.391%          | 
 | Bold:252/0/252/4/0/0  4.193%           | 
 | Timid:136/0/36/56/28/252  3.253%       | 
 | Other 45.643%                          | 
 +----------------------------------------+ 
 | Moves                                  | 
 | Defog 65.392%                          | 
 | Draco Meteor 51.824%                   | 
 | Healing Wish 50.245%                   | 
 | Psyshock 36.784%                       | 
 | Ice Beam 23.750%                       | 
 | Calm Mind 16.829%                      | 
 | Psychic 16.708%                        | 
 | Dragon Pulse 13.775%                   | 
 | Tailwind 13.514%                       | 
 | Recover 10.975%                        | 
 | Roost 10.190%                          | 
 | Trick  8.973%                          | 
 | Thunder Wave  8.799%                   | 
 | Energy Ball  8.526%                    | 
 | Thunderbolt  7.997%                    | 
 | Hidden Power Fire  6.511%              | 
 | Reflect  6.038%                        | 
 | Surf  5.806%                           | 
 | Light Screen  5.571%                   | 
 | Toxic  5.257%                          | 
 | Wish  4.155%                           | 
 | Shadow Ball  3.075%                    | 
 | Other 19.308%                          | 
 +----------------------------------------+ 
 | Teammates                              | 
 | Kyurem-Black +3.566%                   | 
 | Latios-Mega +2.587%                    | 
 +----------------------------------------+ 
 | Checks and Counters                    | 
 +----------------------------------------+ 
 +----------------------------------------+ 
 | Tyrantrum                              | 
 +----------------------------------------+ 
 | Raw count: 7562                        | 
 | Avg. weight: 0.378283418521            | 
 | Viability Ceiling: 81                  | 
 +----------------------------------------+ 
 | Abilities                              | 
 | Rock Head 78.847%                      | 
 | Strong Jaw 21.153%                     | 
 +----------------------------------------+ 
 | Items                                  | 
 | Focus Sash 19.260%                     | 
 | Choice Scarf 17.917%                   | 
 | Life Orb 15.380%                       | 
 | Lum Berry 14.128%                      | 
 | Choice Band  9.140%                    | 
 | Leftovers  7.273%                      | 
 | Assault Vest  4.719%                   | 
 | Rocky Helmet  4.719%                   | 
 | Sitrus Berry  1.478%                   | 
 | Weakness Policy  1.049%                | 
 | Other  4.937%                          | 
 +----------------------------------------+ 
 | Spreads                                | 
 | Adamant:0/252/0/0/4/252 26.264%        | 
 | Jolly:0/252/0/0/4/252 12.870%          | 
 | Adamant:248/252/0/0/8/0  7.311%        | 
 | Jolly:0/252/4/0/0/252  7.249%          | 
 | Jolly:4/252/0/0/0/252  5.287%          | 
 | Adamant:4/252/0/0/0/252  4.516%        | 
 | Other 36.503%                          | 
 +----------------------------------------+ 
 | Moves                                  | 
 | Head Smash 80.423%                     | 
 | Earthquake 54.285%                     | 
 | Dragon Dance 42.343%                   | 
 | Dragon Claw 38.608%                    | 
 | Outrage 32.841%                        | 
 | Iron Head 18.851%                      | 
 | Crunch 18.521%                         | 
 | Fire Fang 16.545%                      | 
 | Ice Fang 15.164%                       | 
 | Stealth Rock 14.564%                   | 
 | Superpower 13.503%                     | 
 | Stone Edge  6.287%                     | 
 | Dragon Tail  5.904%                    | 
 | Thunder Fang  5.661%                   | 
 | Zen Headbutt  5.510%                   | 
 | Rock Polish  4.705%                    | 
 | Poison Fang  3.672%                    | 
 | Brick Break  2.628%                    | 
 | Other 19.985%                          | 
 +----------------------------------------+ 
 | Teammates                              | 
 | Garchomp-Mega +6.128%                  | 
 | Flygon +2.648%                         | 
 | Kingdra +0.666%                        | 
 | Altaria +0.646%                        | 
 +----------------------------------------+ 
 | Checks and Counters                    | 
 +----------------------------------------+ 
 +----------------------------------------+ 
 | Latios-Mega                            | 
 +----------------------------------------+ 
 | Raw count: 6029                        | 
 | Avg. weight: 0.520820155061            | 
 | Viability Ceiling: 80                  | 
 +----------------------------------------+ 
 | Abilities                              | 
 | Levitate 100.000%                      | 
 +----------------------------------------+ 
 | Items                                  | 
 | Latiosite 100.000%                     | 
 +----------------------------------------+ 
 | Spreads                                | 
 | Timid:0/0/0/252/4/252 44.262%          | 
 | Timid:4/0/0/252/0/252 10.792%          | 
 | Timid:0/0/4/252/0/252  7.857%          | 
 | Timid:0/0/0/252/0/252  3.016%          | 
 | Hasty:0/4/0/252/0/252  2.374%          | 
 | Hardy:0/0/0/0/0/0  2.320%              | 
 | Other 29.379%                          | 
 +----------------------------------------+ 
 | Moves                                  | 
 | Psyshock 53.221%                       | 
 | Draco Meteor 52.115%                   | 
 | Dragon Pulse 35.883%                   | 
 | Calm Mind 34.212%                      | 
 | Psychic 33.648%                        | 
 | Ice Beam 25.119%                       | 
 | Surf 23.521%                           | 
 | Defog 19.381%                          | 
 | Energy Ball 16.404%                    | 
 | Thunderbolt 16.220%                    | 
 | Recover 15.791%                        | 
 | Shadow Ball 12.501%                    | 
 | Roost 11.545%                          | 
 | Dragon Dance  7.122%                   | 
 | Hidden Power Fire  6.998%              | 
 | Earthquake  5.547%                     | 
 | Zen Headbutt  5.003%                   | 
 | Dragon Claw  3.917%                    | 
 | Thunder Wave  3.899%                   | 
 | Other 17.953%                          | 
 +----------------------------------------+ 
 | Teammates                              | 
 | Garchomp +3.892%                       | 
 | Latias +2.392%                         | 
 | Zygarde +1.050%                        | 
 | Altaria +0.913%                        | 
 | Noivern +0.682%                        | 
 +----------------------------------------+ 
 | Checks and Counters                    | 
 +----------------------------------------+ 
 +----------------------------------------+ 
 | Druddigon                              | 
 +----------------------------------------+ 
 | Raw count: 3252                        | 
 | Avg. weight: 0.45105450633             | 
 | Viability Ceiling: 89                  | 
 +----------------------------------------+ 
 | Abilities                              | 
 | Rough Skin 87.102%                     | 
 | Sheer Force 10.752%                    | 
 | Mold Breaker  2.146%                   | 
 +----------------------------------------+ 
 | Items                                  | 
 | Rocky Helmet 65.796%                   | 
 | Focus Sash  8.885%                     | 
 | Leftovers  6.722%                      | 
 | Life Orb  6.516%                       | 
 | Sitrus Berry  3.280%                   | 
 | Assault Vest  2.791%                   | 
 | Choice Band  1.608%                    | 
 | Other  4.402%                          | 
 +----------------------------------------+ 
 | Spreads                                | 
 | Adamant:252/252/0/0/4/0 25.317%        | 
 | Impish:252/0/252/0/4/0 12.425%         | 
 | Impish:252/4/252/0/0/0  9.938%         | 
 | Impish:252/0/252/0/0/0  3.754%         | 
 | Adamant:248/252/0/0/8/0  3.602%        | 
 | Careful:252/4/0/0/252/0  2.936%        | 
 | Other 42.028%                          | 
 +----------------------------------------+ 
 | Moves                                  | 
 | Stealth Rock 68.549%                   | 
 | Glare 63.820%                          | 
 | Dragon Tail 50.142%                    | 
 | Dragon Claw 29.695%                    | 
 | Gunk Shot 28.286%                      | 
 | Fire Punch 24.053%                     | 
 | Sucker Punch 20.505%                   | 
 | Earthquake 12.412%                     | 
 | Iron Head 11.681%                      | 
 | Outrage 10.949%                        | 
 | Rock Slide  9.831%                     | 
 | Crunch  9.506%                         | 
 | Taunt  8.645%                          | 
 | Toxic  7.666%                          | 
 | Thunder Punch  4.175%                  | 
 | Protect  3.378%                        | 
 | Fire Fang  3.205%                      | 
 | Superpower  3.092%                     | 
 | Flamethrower  2.911%                   | 
 | Roar  2.883%                           | 
 | Rest  2.558%                           | 
 | Aqua Tail  2.523%                      | 
 | Other 19.535%                          | 
 +----------------------------------------+ 
 | Teammates                              | 
 | Kingdra +8.559%                        | 
 | Haxorus +2.625%                        | 
 | Flygon +2.240%                         | 
 | Zygarde +1.631%                        | 
 | Shelgon +0.920%                        | 
 +----------------------------------------+ 
 | Checks and Counters                    | 
 +----------------------------------------+ 
 +----------------------------------------+ 
 | Zygarde                                | 
 +----------------------------------------+ 
 | Raw count: 2704                        | 
 | Avg. weight: 0.503675982388            | 
 | Viability Ceiling: 79                  | 
 +----------------------------------------+ 
 | Abilities                              | 
 | Aura Break 100.000%                    | 
 +----------------------------------------+ 
 | Items                                  | 
 | Leftovers 43.482%                      | 
 | Lum Berry 14.138%                      | 
 | Assault Vest 11.304%                   | 
 | Life Orb  9.937%                       | 
 | Yache Berry  3.974%                    | 
 | Focus Sash  3.390%                     | 
 | Rocky Helmet  3.143%                   | 
 | Choice Band  2.242%                    | 
 | Sitrus Berry  1.294%                   | 
 | Choice Scarf  1.061%                   | 
 | Chesto Berry  1.042%                   | 
 | Other  4.992%                          | 
 +----------------------------------------+ 
 | Spreads                                | 
 | Adamant:0/252/0/0/4/252 19.914%        | 
 | Adamant:252/252/0/0/4/0 11.903%        | 
 | Adamant:252/148/0/0/108/0  9.263%      | 
 | Jolly:0/252/0/0/4/252  3.985%          | 
 | Careful:200/0/0/0/252/56  3.357%       | 
 | Impish:252/4/252/0/0/0  2.932%         | 
 | Other 48.646%                          | 
 +----------------------------------------+ 
 | Moves                                  | 
 | Earthquake 84.807%                     | 
 | Extreme Speed 62.267%                  | 
 | Outrage 49.928%                        | 
 | Dragon Dance 38.956%                   | 
 | Coil 37.801%                           | 
 | Dragon Tail 24.391%                    | 
 | Glare 15.233%                          | 
 | Iron Tail 14.986%                      | 
 | Substitute 13.625%                     | 
 | Crunch  8.518%                         | 
 | Stone Edge  6.773%                     | 
 | Toxic  5.179%                          | 
 | Pain Split  4.841%                     | 
 | Rock Slide  4.014%                     | 
 | Rest  3.701%                           | 
 | Camouflage  3.019%                     | 
 | Draco Meteor  2.814%                   | 
 | Other 19.148%                          | 
 +----------------------------------------+ 
 | Teammates                              | 
 | Noivern +8.234%                        | 
 | Latios-Mega +2.291%                    | 
 | Kyurem +1.822%                         | 
 | Latias-Mega +1.680%                    | 
 | Druddigon +1.677%                      | 
 | Shelgon +1.220%                        | 
 +----------------------------------------+ 
 | Checks and Counters                    | 
 +----------------------------------------+ 
 +----------------------------------------+ 
 | Flygon                                 | 
 +----------------------------------------+ 
 | Raw count: 3409                        | 
 | Avg. weight: 0.327890280676            | 
 | Viability Ceiling: 77                  | 
 +----------------------------------------+ 
 | Abilities                              | 
 | Levitate 100.000%                      | 
 +----------------------------------------+ 
 | Items                                  | 
 | Life Orb 19.061%                       | 
 | Leftovers 18.986%                      | 
 | Choice Scarf 14.090%                   | 
 | Focus Sash  9.092%                     | 
 | Choice Band  8.943%                    | 
 | Assault Vest  5.007%                   | 
 | Lum Berry  4.812%                      | 
 | Rocky Helmet  2.618%                   | 
 | Yache Berry  2.547%                    | 
 | Sitrus Berry  1.869%                   | 
 | Choice Specs  1.693%                   | 
 | Eviolite  1.571%                       | 
 | Nothing  1.431%                        | 
 | Dragon Fang  1.041%                    | 
 | Power Herb  0.926%                     | 
 | Expert Belt  0.753%                    | 
 | Wide Lens  0.676%                      | 
 | Other  4.884%                          | 
 +----------------------------------------+ 
 | Spreads                                | 
 | Jolly:0/252/0/0/4/252 23.920%          | 
 | Timid:0/0/0/252/4/252  8.606%          | 
 | Hasty:0/252/0/4/0/252  7.385%          | 
 | Jolly:4/252/0/0/0/252  5.914%          | 
 | Timid:0/0/4/252/0/252  3.845%          | 
 | Adamant:4/252/0/0/0/252  3.577%        | 
 | Other 46.753%                          | 
 +----------------------------------------+ 
 | Moves                                  | 
 | Earthquake 64.662%                     | 
 | U-turn 39.566%                         | 
 | Outrage 32.035%                        | 
 | Dragon Claw 26.581%                    | 
 | Defog 25.344%                          | 
 | Draco Meteor 19.297%                   | 
 | Earth Power 17.897%                    | 
 | Fire Punch 16.588%                     | 
 | Roost 12.740%                          | 
 | Boomburst 12.618%                      | 
 | Crunch 11.775%                         | 
 | Fire Blast  9.224%                     | 
 | Bug Buzz  8.797%                       | 
 | Rock Slide  8.345%                     | 
 | Stone Edge  8.246%                     | 
 | Flamethrower  8.000%                   | 
 | Dragon Pulse  7.971%                   | 
 | Toxic  7.244%                          | 
 | Thunder Punch  6.579%                  | 
 | Dragon Tail  5.705%                    | 
 | Power-Up Punch  5.610%                 | 
 | Superpower  5.012%                     | 
 | Body Slam  4.368%                      | 
 | Giga Drain  4.210%                     | 
 | Tailwind  3.306%                       | 
 | Dragon Rush  2.612%                    | 
 | Steel Wing  2.603%                     | 
 | Aerial Ace  2.274%                     | 
 | Iron Tail  2.085%                      | 
 | Other 18.706%                          | 
 +----------------------------------------+ 
 | Teammates                              | 
 | Kingdra +10.039%                       | 
 | Haxorus +7.203%                        | 
 | Tyrantrum +6.237%                      | 
 | Garchomp-Mega +4.473%                  | 
 | Altaria +4.250%                        | 
 | Druddigon +2.310%                      | 
 | Kyurem +1.392%                         | 
 | Noivern +1.369%                        | 
 +----------------------------------------+ 
 | Checks and Counters                    | 
 +----------------------------------------+ 
 +----------------------------------------+ 
 | Altaria                                | 
 +----------------------------------------+ 
 | Raw count: 2350                        | 
 | Avg. weight: 0.276920906307            | 
 | Viability Ceiling: 67                  | 
 +----------------------------------------+ 
 | Abilities                              | 
 | Natural Cure 82.360%                   | 
 | Cloud Nine 17.640%                     | 
 +----------------------------------------+ 
 | Items                                  | 
 | Leftovers 56.598%                      | 
 | Life Orb 11.918%                       | 
 | Choice Scarf  7.464%                   | 
 | Sitrus Berry  3.805%                   | 
 | Assault Vest  3.040%                   | 
 | Nothing  2.594%                        | 
 | Focus Sash  2.469%                     | 
 | Yache Berry  2.182%                    | 
 | Rocky Helmet  1.409%                   | 
 | Pixie Plate  1.204%                    | 
 | Dragon Fang  1.060%                    | 
 | Choice Specs  0.807%                   | 
 | Lum Berry  0.774%                      | 
 | Other  4.676%                          | 
 +----------------------------------------+ 
 | Spreads                                | 
 | Calm:252/0/0/4/252/0  9.640%           | 
 | Adamant:0/252/0/0/4/252  8.346%        | 
 | Hardy:0/0/0/0/0/0  7.545%              | 
 | Timid:4/0/0/252/0/252  7.238%          | 
 | Modest:252/0/0/252/4/0  6.718%         | 
 | Calm:252/0/4/0/252/0  6.324%           | 
 | Other 54.190%                          | 
 +----------------------------------------+ 
 | Moves                                  | 
 | Roost 46.470%                          | 
 | Cotton Guard 33.913%                   | 
 | Dragon Pulse 33.640%                   | 
 | Moonblast 31.639%                      | 
 | Dragon Dance 27.644%                   | 
 | Draco Meteor 27.071%                   | 
 | Heal Bell 25.232%                      | 
 | Fire Blast 20.550%                     | 
 | Dragon Claw 20.100%                    | 
 | Toxic 17.215%                          | 
 | Dazzling Gleam 15.428%                 | 
 | Flamethrower 14.992%                   | 
 | Earthquake 14.271%                     | 
 | Ice Beam 14.189%                       | 
 | Hyper Voice  6.690%                    | 
 | Tailwind  4.307%                       | 
 | Return  4.139%                         | 
 | Perish Song  2.920%                    | 
 | Double-Edge  2.740%                    | 
 | Protect  2.676%                        | 
 | Outrage  2.668%                        | 
 | Aerial Ace  2.406%                     | 
 | Substitute  2.387%                     | 
 | Rest  2.356%                           | 
 | Haze  2.276%                           | 
 | Roar  1.903%                           | 
 | Fly  1.594%                            | 
 | Other 18.585%                          | 
 +----------------------------------------+ 
 | Teammates                              | 
 | Flygon +6.253%                         | 
 | Noivern +3.969%                        | 
 | Latios-Mega +2.136%                    | 
 | Goodra +1.385%                         | 
 | Tyrantrum +1.354%                      | 
 | Dragonair +1.238%                      | 
 | Fraxure +0.998%                        | 
 | Kingdra +0.621%                        | 
 | Kyurem +0.507%                         | 
 +----------------------------------------+ 
 | Checks and Counters                    | 
 +----------------------------------------+ 
 +----------------------------------------+ 
 | Kyurem                                 | 
 +----------------------------------------+ 
 | Raw count: 884                         | 
 | Avg. weight: 0.523863526597            | 
 | Viability Ceiling: 80                  | 
 +----------------------------------------+ 
 | Abilities                              | 
 | Pressure 100.000%                      | 
 +----------------------------------------+ 
 | Items                                  | 
 | Choice Scarf 28.554%                   | 
 | Leftovers 25.099%                      | 
 | Choice Specs 20.232%                   | 
 | Life Orb 13.365%                       | 
 | Sitrus Berry  3.815%                   | 
 | Assault Vest  2.048%                   | 
 | Light Clay  1.732%                     | 
 | Nothing  1.690%                        | 
 | Other  3.467%                          | 
 +----------------------------------------+ 
 | Spreads                                | 
 | Timid:0/0/0/252/4/252 29.924%          | 
 | Modest:252/0/0/252/4/0 14.152%         | 
 | Modest:248/0/0/252/4/4  8.430%         | 
 | Hardy:0/0/0/0/0/0  4.771%              | 
 | Timid:4/0/0/252/0/252  4.407%          | 
 | Timid:6/0/0/252/0/252  3.748%          | 
 | Other 34.568%                          | 
 +----------------------------------------+ 
 | Moves                                  | 
 | Ice Beam 83.026%                       | 
 | Draco Meteor 65.567%                   | 
 | Earth Power 52.443%                    | 
 | Flash Cannon 46.301%                   | 
 | Focus Blast 37.310%                    | 
 | Dragon Pulse 20.876%                   | 
 | Blizzard 14.483%                       | 
 | Roost 13.586%                          | 
 | Dragon Claw  8.334%                    | 
 | Substitute  7.155%                     | 
 | Nothing  5.896%                        | 
 | Hidden Power Fire  5.460%              | 
 | Toxic  3.829%                          | 
 | Ancient Power  3.491%                  | 
 | Shadow Ball  3.206%                    | 
 | Glaciate  3.035%                       | 
 | Light Screen  2.554%                   | 
 | Outrage  2.552%                        | 
 | Dragon Breath  2.426%                  | 
 | Other 18.469%                          | 
 +----------------------------------------+ 
 | Teammates                              | 
 | Zygarde +5.467%                        | 
 | Salamence +4.828%                      | 
 | Flygon +4.174%                         | 
 | Dragalge +3.890%                       | 
 | Kingdra +3.398%                        | 
 | Latios-Mega +2.418%                    | 
 | Fraxure +1.963%                        | 
 | Tyrantrum +1.703%                      | 
 | Garchomp-Mega +1.304%                  | 
 | Altaria +1.245%                        | 
 +----------------------------------------+ 
 | Checks and Counters                    | 
 +----------------------------------------+ 
 +----------------------------------------+ 
 | Dragonair                              | 
 +----------------------------------------+ 
 | Raw count: 368                         | 
 | Avg. weight: 0.406694220466            | 
 | Viability Ceiling: 80                  | 
 +----------------------------------------+ 
 | Abilities                              | 
 | Shed Skin 60.743%                      | 
 | Marvel Scale 39.257%                   | 
 +----------------------------------------+ 
 | Items                                  | 
 | Eviolite 89.149%                       | 
 | Choice Scarf  3.196%                   | 
 | Leftovers  2.341%                      | 
 | Focus Sash  2.095%                     | 
 | Other  3.220%                          | 
 +----------------------------------------+ 
 | Spreads                                | 
 | Careful:252/0/4/0/252/0 20.543%        | 
 | Adamant:252/0/252/0/4/0 10.965%        | 
 | Adamant:0/252/0/0/4/252  9.626%        | 
 | Mild:252/4/0/252/0/0  6.227%           | 
 | Relaxed:0/0/252/4/252/0  6.188%        | 
 | Careful:252/0/124/0/132/0  6.069%      | 
 | Other 40.381%                          | 
 +----------------------------------------+ 
 | Moves                                  | 
 | Dragon Dance 43.310%                   | 
 | Rest 41.039%                           | 
 | Sleep Talk 29.349%                     | 
 | Outrage 29.047%                        | 
 | Thunder Wave 28.549%                   | 
 | Dragon Tail 26.055%                    | 
 | Extreme Speed 22.933%                  | 
 | Haze 22.204%                           | 
 | Ice Beam 15.510%                       | 
 | Toxic 14.877%                          | 
 | Aqua Jet 14.812%                       | 
 | Light Screen 14.439%                   | 
 | Dragon Pulse 14.071%                   | 
 | Whirlpool 13.688%                      | 
 | Dragon Rush 10.034%                    | 
 | Waterfall  8.836%                      | 
 | Aqua Tail  7.706%                      | 
 | Wrap  7.008%                           | 
 | Thunderbolt  6.457%                    | 
 | Attract  6.069%                        | 
 | Draco Meteor  4.664%                   | 
 | Other 19.342%                          | 
 +----------------------------------------+ 
 | Teammates                              | 
 | Goodra +9.269%                         | 
 | Tyrantrum +7.029%                      | 
 | Altaria +6.983%                        | 
 | Noivern +5.145%                        | 
 | Flygon +3.724%                         | 
 | Sliggoo +2.916%                        | 
 | Shelgon +2.703%                        | 
 | Gabite +2.668%                         | 
 | Fraxure +2.660%                        | 
 | Vibrava +2.433%                        | 
 | Kingdra +2.146%                        | 
 | Zweilous +2.145%                       | 
 +----------------------------------------+ 
 | Checks and Counters                    | 
 +----------------------------------------+ 
 +----------------------------------------+ 
 | Shelgon                                | 
 +----------------------------------------+ 
 | Raw count: 342                         | 
 | Avg. weight: 0.391068278508            | 
 | Viability Ceiling: 63                  | 
 +----------------------------------------+ 
 | Abilities                              | 
 | Rock Head 75.336%                      | 
 | Overcoat 24.664%                       | 
 +----------------------------------------+ 
 | Items                                  | 
 | Eviolite 80.997%                       | 
 | Assault Vest 17.761%                   | 
 | Other  1.242%                          | 
 +----------------------------------------+ 
 | Spreads                                | 
 | Impish:252/4/252/0/0/0 43.648%         | 
 | Careful:0/36/184/0/252/0 15.245%       | 
 | Adamant:252/252/0/0/4/0  7.371%        | 
 | Impish:248/8/252/0/0/0  6.417%         | 
 | Careful:252/4/0/0/252/0  3.389%        | 
 | Impish:4/252/252/0/0/0  2.609%         | 
 | Other 21.321%                          | 
 +----------------------------------------+ 
 | Moves                                  | 
 | Dragon Claw 53.043%                    | 
 | Toxic 52.693%                          | 
 | Wish 42.493%                           | 
 | Protect 40.350%                        | 
 | Crunch 31.783%                         | 
 | Double-Edge 26.227%                    | 
 | Rest 20.421%                           | 
 | Outrage 20.329%                        | 
 | Fire Fang 20.298%                      | 
 | Sleep Talk 19.035%                     | 
 | Hone Claws 13.192%                     | 
 | Dragon Dance  9.624%                   | 
 | Rock Tomb  7.629%                      | 
 | Body Slam  7.371%                      | 
 | Zen Headbutt  6.361%                   | 
 | Dragon Rush  4.495%                    | 
 | Facade  4.461%                         | 
 | Brick Break  4.363%                    | 
 | Other 15.833%                          | 
 +----------------------------------------+ 
 | Teammates                              | 
 | Zygarde +11.321%                       | 
 | Noivern +9.515%                        | 
 | Druddigon +9.378%                      | 
 | Tyrantrum +7.381%                      | 
 | Garchomp-Mega +5.038%                  | 
 | Vibrava +4.296%                        | 
 | Hydreigon +3.456%                      | 
 | Dragonair +2.979%                      | 
 | Fraxure +2.830%                        | 
 | Gabite +2.787%                         | 
 | Sliggoo +2.570%                        | 
 | Dragalge +1.284%                       | 
 +----------------------------------------+ 
 | Checks and Counters                    | 
 +----------------------------------------+ 
 +----------------------------------------+ 
 | Sliggoo                                | 
 +----------------------------------------+ 
 | Raw count: 89                          | 
 | Avg. weight: 0.316055019474            | 
 | Viability Ceiling: 64                  | 
 +----------------------------------------+ 
 | Abilities                              | 
 | Gooey 45.139%                          | 
 | Sap Sipper 41.125%                     | 
 | Hydration 13.736%                      | 
 +----------------------------------------+ 
 | Items                                  | 
 | Eviolite 98.234%                       | 
 | Other  1.766%                          | 
 +----------------------------------------+ 
 | Spreads                                | 
 | Calm:252/0/0/4/252/0 13.502%           | 
 | Impish:96/0/252/0/160/0 13.421%        | 
 | Calm:0/0/252/4/252/0 11.604%           | 
 | Calm:248/0/252/0/4/0 10.394%           | 
 | Impish:172/164/80/0/92/0  8.726%       | 
 | Bold:252/0/128/0/128/0  6.131%         | 
 | Other 36.221%                          | 
 +----------------------------------------+ 
 | Moves                                  | 
 | Rest 67.413%                           | 
 | Dragon Pulse 36.414%                   | 
 | Toxic 36.224%                          | 
 | Sleep Talk 33.005%                     | 
 | Draco Meteor 32.151%                   | 
 | Curse 25.469%                          | 
 | Outrage 25.469%                        | 
 | Infestation 20.393%                    | 
 | Thunderbolt 17.799%                    | 
 | Acid Armor 16.517%                     | 
 | Substitute 16.444%                     | 
 | Sludge Bomb 15.415%                    | 
 | Ice Beam 13.231%                       | 
 | Rain Dance 12.678%                     | 
 | Hidden Power Fire 11.511%              | 
 | Other 19.867%                          | 
 +----------------------------------------+ 
 | Teammates                              | 
 | Fraxure +14.460%                       | 
 | Dragonair +14.455%                     | 
 | Gabite +13.164%                        | 
 | Shelgon +11.410%                       | 
 | Druddigon +10.703%                     | 
 | Flygon +10.330%                        | 
 | Vibrava +8.018%                        | 
 | Zygarde +7.671%                        | 
 | Latias +6.306%                         | 
 | Kingdra +5.253%                        | 
 | Zweilous +3.361%                       | 
 | Altaria +1.362%                        | 
 +----------------------------------------+ 
 | Checks and Counters                    | 
 +----------------------------------------+ 
 +----------------------------------------+ 
 | Fraxure                                | 
 +----------------------------------------+ 
 | Raw count: 64                          | 
 | Avg. weight: 0.231810094727            | 
 | Viability Ceiling: 55                  | 
 +----------------------------------------+ 
 | Abilities                              | 
 | Mold Breaker 88.549%                   | 
 | Rivalry  9.031%                        | 
 | Unnerve  2.420%                        | 
 +----------------------------------------+ 
 | Items                                  | 
 | Focus Sash 48.314%                     | 
 | Eviolite 35.937%                       | 
 | Leftovers 11.896%                      | 
 | Other  3.852%                          | 
 +----------------------------------------+ 
 | Spreads                                | 
 | Jolly:6/252/0/0/0/252 35.275%          | 
 | Jolly:0/252/0/0/4/252 18.801%          | 
 | Adamant:0/252/0/0/4/252 14.867%        | 
 | Adamant:252/252/4/0/0/0 10.569%        | 
 | Jolly:4/252/0/0/0/252  6.272%          | 
 | Hardy:0/0/0/0/0/0  4.198%              | 
 | Other 10.018%                          | 
 +----------------------------------------+ 
 | Moves                                  | 
 | Dragon Claw 90.492%                    | 
 | Dragon Dance 84.592%                   | 
 | Poison Jab 74.638%                     | 
 | Low Kick 39.127%                       | 
 | Superpower 30.803%                     | 
 | Outrage 20.077%                        | 
 | Aqua Tail 14.421%                      | 
 | Swords Dance 11.111%                   | 
 | Substitute 10.569%                     | 
 | Dual Chop  4.329%                      | 
 | Other 19.841%                          | 
 +----------------------------------------+ 
 | Teammates                              | 
 | Kyurem +34.190%                        | 
 | Altaria +32.931%                       | 
 | Zygarde +23.324%                       | 
 | Sliggoo +18.125%                       | 
 | Gabite +16.747%                        | 
 | Dragonair +16.470%                     | 
 | Shelgon +15.682%                       | 
 | Bagon +11.868%                         | 
 | Druddigon +10.380%                     | 
 | Vibrava +10.069%                       | 
 | Axew +7.671%                           | 
 | Gible +6.254%                          | 
 +----------------------------------------+ 
 | Checks and Counters                    | 
 +----------------------------------------+ 
 +----------------------------------------+ 
 | Gabite                                 | 
 +----------------------------------------+ 
 | Raw count: 74                          | 
 | Avg. weight: 0.205857881223            | 
 | Viability Ceiling: 58                  | 
 +----------------------------------------+ 
 | Abilities                              | 
 | Rough Skin 69.260%                     | 
 | Sand Veil 30.740%                      | 
 +----------------------------------------+ 
 | Items                                  | 
 | Eviolite 71.589%                       | 
 | Focus Sash 21.094%                     | 
 | Choice Scarf  5.701%                   | 
 | Other  1.616%                          | 
 +----------------------------------------+ 
 | Spreads                                | 
 | Adamant:252/252/0/0/4/0 18.953%        | 
 | Jolly:0/252/0/0/4/252 17.844%          | 
 | Bold:0/252/252/0/0/0 12.466%           | 
 | Hardy:4/0/252/0/252/0 10.506%          | 
 | Careful:0/0/252/0/252/0  9.552%        | 
 | Jolly:4/252/0/0/0/252  6.949%          | 
 | Other 23.730%                          | 
 +----------------------------------------+ 
 | Moves                                  | 
 | Earthquake 81.641%                     | 
 | Dragon Claw 68.219%                    | 
 | Stealth Rock 66.782%                   | 
 | Iron Head 45.696%                      | 
 | Toxic 34.094%                          | 
 | Sandstorm 20.576%                      | 
 | Stone Edge 12.145%                     | 
 | Fire Blast 10.932%                     | 
 | Roar  9.569%                           | 
 | Protect  9.552%                        | 
 | Dragon Rush  9.270%                    | 
 | Outrage  8.446%                        | 
 | Hone Claws  6.949%                     | 
 | Other 16.128%                          | 
 +----------------------------------------+ 
 | Teammates                              | 
 | Flygon +23.217%                        | 
 | Fraxure +18.795%                       | 
 | Dragonair +18.581%                     | 
 | Sliggoo +18.521%                       | 
 | Shelgon +17.364%                       | 
 | Tyrantrum +15.024%                     | 
 | Vibrava +12.910%                       | 
 | Zweilous +9.001%                       | 
 | Zygarde +8.630%                        | 
 | Altaria +3.555%                        | 
 +----------------------------------------+ 
 | Checks and Counters                    | 
 +----------------------------------------+ 
 +----------------------------------------+ 
 | Zweilous                               | 
 +----------------------------------------+ 
 | Raw count: 39                          | 
 | Avg. weight: 0.4656083325              | 
 | Viability Ceiling: 57                  | 
 +----------------------------------------+ 
 | Abilities                              | 
 | Hustle 100.000%                        | 
 +----------------------------------------+ 
 | Items                                  | 
 | Eviolite 88.603%                       | 
 | Choice Band 11.397%                    | 
 +----------------------------------------+ 
 | Spreads                                | 
 | Adamant:252/252/0/0/4/0 34.195%        | 
 | Adamant:252/252/0/0/0/4 18.929%        | 
 | Adamant:236/252/0/0/0/20  8.628%       | 
 | Modest:0/0/252/4/252/0  7.513%         | 
 | Adamant:4/252/0/0/0/252  6.031%        | 
 | Lonely:252/252/0/4/0/0  5.366%         | 
 | Other 19.337%                          | 
 +----------------------------------------+ 
 | Moves                                  | 
 | Crunch 92.487%                         | 
 | Outrage 51.063%                        | 
 | Superpower 51.039%                     | 
 | Dragon Tail 50.052%                    | 
 | Ice Fang 34.195%                       | 
 | Head Smash 21.376%                     | 
 | Return 18.929%                         | 
 | Dark Pulse 16.251%                     | 
 | Thunder Wave 12.747%                   | 
 | Fire Fang 11.999%                      | 
 | Dragon Pulse  8.737%                   | 
 | Protect  7.513%                        | 
 | Earth Power  7.513%                    | 
 | Other 16.099%                          | 
 +----------------------------------------+ 
 | Teammates                              | 
 | Kingdra +24.528%                       | 
 | Dragonair +18.547%                     | 
 | Noivern +16.226%                       | 
 | Latios-Mega +11.929%                   | 
 | Gabite +11.177%                        | 
 | Altaria +7.247%                        | 
 | Flygon +7.240%                         | 
 | Zygarde +6.005%                        | 
 | Fraxure +5.912%                        | 
 | Sliggoo +5.866%                        | 
 | Tyrunt +5.345%                         | 
 | Goomy +5.214%                          | 
 +----------------------------------------+ 
 | Checks and Counters                    | 
 +----------------------------------------+ 
 +----------------------------------------+ 
 | Vibrava                                | 
 +----------------------------------------+ 
 | Raw count: 33                          | 
 | Avg. weight: 0.0958633853668           | 
 | Viability Ceiling: 49                  | 
 +----------------------------------------+ 
 | Abilities                              | 
 | Levitate 100.000%                      | 
 +----------------------------------------+ 
 | Items                                  | 
 | Choice Scarf 43.639%                   | 
 | Eviolite 43.469%                       | 
 | Draco Plate  8.098%                    | 
 | Other  4.794%                          | 
 +----------------------------------------+ 
 | Spreads                                | 
 | Jolly:0/252/0/0/4/252 43.638%          | 
 | Modest:0/0/0/252/0/252 38.675%         | 
 | Hasty:0/252/0/4/0/252 12.892%          | 
 | Other  4.795%                          | 
 +----------------------------------------+ 
 | Moves                                  | 
 | Earthquake 56.531%                     | 
 | Draco Meteor 56.361%                   | 
 | Outrage 51.736%                        | 
 | Dragon Pulse 51.567%                   | 
 | U-turn 48.433%                         | 
 | Steel Wing 43.639%                     | 
 | Protect 38.675%                        | 
 | Giga Drain 38.675%                     | 
 | Other 14.383%                          | 
 +----------------------------------------+ 
 | Teammates                              | 
 | Shelgon +79.906%                       | 
 | Dragonair +50.685%                     | 
 | Gabite +38.515%                        | 
 | Fraxure +33.713%                       | 
 | Sliggoo +33.667%                       | 
 | Druddigon +30.782%                     | 
 | Tyrantrum +22.371%                     | 
 | Kingdra +16.821%                       | 
 | Noibat +4.784%                         | 
 | Deino +4.778%                          | 
 | Altaria +4.081%                        | 
 +----------------------------------------+ 
 | Checks and Counters                    | 
 +----------------------------------------+ 
 +----------------------------------------+ 
 | Bagon                                  | 
 +----------------------------------------+ 
 | Raw count: 22                          | 
 | Avg. weight: 0.335204931865            | 
 | Viability Ceiling: 55                  | 
 +----------------------------------------+ 
 | Abilities                              | 
 | Sheer Force 60.794%                    | 
 | Rock Head 39.206%                      | 
 +----------------------------------------+ 
 | Items                                  | 
 | Eviolite 42.654%                       | 
 | Expert Belt 26.844%                    | 
 | Lum Berry 13.322%                      | 
 | Focus Sash 12.224%                     | 
 | Other  4.955%                          | 
 +----------------------------------------+ 
 | Spreads                                | 
 | Jolly:4/252/0/0/0/252 33.541%          | 
 | Adamant:252/252/0/0/4/0 26.844%        | 
 | Careful:252/4/0/0/252/0 13.322%        | 
 | Hardy:252/252/0/0/0/4 12.224%          | 
 | Hardy:76/236/0/196/0/0  7.678%         | 
 | Lonely:0/252/252/0/0/4  4.546%         | 
 | Other  1.845%                          | 
 +----------------------------------------+ 
 | Moves                                  | 
 | Dragon Claw 51.818%                    | 
 | Zen Headbutt 34.931%                   | 
 | Dragon Dance 33.950%                   | 
 | Outrage 33.541%                        | 
 | Fire Fang 33.541%                      | 
 | Brick Break 31.390%                    | 
 | Rock Slide 28.688%                     | 
 | Shadow Claw 28.279%                    | 
 | Flamethrower 24.449%                   | 
 | Fire Blast 13.660%                     | 
 | Iron Defense 13.322%                   | 
 | Rest 13.322%                           | 
 | Sleep Talk 13.322%                     | 
 | Body Slam 12.224%                      | 
 | Crunch 12.224%                         | 
 | Hyper Voice  7.678%                    | 
 | Other 13.660%                          | 
 +----------------------------------------+ 
 | Teammates                              | 
 | Fraxure +37.652%                       | 
 | Gible +33.468%                         | 
 | Axew +33.452%                          | 
 | Tyrunt +27.721%                        | 
 | Tyrantrum +18.856%                     | 
 | Garchomp-Mega +18.790%                 | 
 | Kingdra +13.305%                       | 
 | Deino +12.208%                         | 
 | Dratini +9.022%                        | 
 | Goomy +7.659%                          | 
 | Noibat +5.895%                         | 
 | Dragonair +4.122%                      | 
 +----------------------------------------+ 
 | Checks and Counters                    | 
 +----------------------------------------+ 
 +----------------------------------------+ 
 | Axew                                   | 
 +----------------------------------------+ 
 | Raw count: 23                          | 
 | Avg. weight: 0.224758058563            | 
 | Viability Ceiling: 55                  | 
 +----------------------------------------+ 
 | Abilities                              | 
 | Mold Breaker 78.667%                   | 
 | Unnerve 12.281%                        | 
 | Rivalry  9.052%                        | 
 +----------------------------------------+ 
 | Items                                  | 
 | Eviolite 42.469%                       | 
 | Focus Sash 39.742%                     | 
 | Leftovers  9.052%                      | 
 | Life Orb  4.526%                       | 
 | Other  4.210%                          | 
 +----------------------------------------+ 
 | Spreads                                | 
 | Adamant:252/252/0/0/4/0 33.395%        | 
 | Bold:0/0/196/0/0/220 27.461%           | 
 | Hasty:0/252/0/4/0/252 12.281%          | 
 | Hardy:0/0/0/0/0/0  9.052%              | 
 | Hardy:92/220/0/196/0/0  7.645%         | 
 | Lonely:0/252/252/0/0/4  4.526%         | 
 | Other  5.639%                          | 
 +----------------------------------------+ 
 | Moves                                  | 
 | Nothing 95.963%                        | 
 | Poison Jab 45.566%                     | 
 | Endeavor 39.742%                       | 
 | Outrage 37.921%                        | 
 | Superpower 34.824%                     | 
 | Swords Dance 33.395%                   | 
 | Protect 12.281%                        | 
 | Substitute 12.281%                     | 
 | Endure 12.281%                         | 
 | Dragon Pulse 12.171%                   | 
 | Draco Meteor 10.165%                   | 
 | Night Slash  9.074%                    | 
 | Aqua Tail  9.052%                      | 
 | Dragon Dance  8.736%                   | 
 | Dragon Claw  8.736%                    | 
 | Other 17.810%                          | 
 +----------------------------------------+ 
 | Teammates                              | 
 | Gible +33.323%                         | 
 | Bagon +33.306%                         | 
 | Haxorus +25.633%                       | 
 | Fraxure +24.223%                       | 
 | Latios-Mega +13.870%                   | 
 | Tyrantrum +13.304%                     | 
 | Deino +12.155%                         | 
 | Dratini +8.983%                        | 
 | Goomy +7.626%                          | 
 | Noibat +5.869%                         | 
 | Tyrunt +5.857%                         | 
 | Noivern +5.287%                        | 
 +----------------------------------------+ 
 | Checks and Counters                    | 
 +----------------------------------------+ 
 +----------------------------------------+ 
 | Tyrunt                                 | 
 +----------------------------------------+ 
 | Raw count: 18                          | 
 | Avg. weight: 0.222608081873            | 
 | Viability Ceiling: 51                  | 
 +----------------------------------------+ 
 | Abilities                              | 
 | Sturdy 53.388%                         | 
 | Strong Jaw 46.612%                     | 
 +----------------------------------------+ 
 | Items                                  | 
 | Choice Band 46.612%                    | 
 | Eviolite 23.719%                       | 
 | Salac Berry 21.775%                    | 
 | Life Orb  7.894%                       | 
 +----------------------------------------+ 
 | Spreads                                | 
 | Adamant:0/0/0/252/4/252 46.612%        | 
 | Adamant:248/24/120/0/116/0 21.227%     | 
 | Adamant:0/252/0/0/4/252 16.379%        | 
 | Lonely:0/252/252/0/4/0  7.894%         | 
 | Naughty:0/252/0/4/0/252  5.395%        | 
 | Other  2.492%                          | 
 +----------------------------------------+ 
 | Moves                                  | 
 | Ice Fang 49.104%                       | 
 | Crunch 46.612%                         | 
 | Thunder Fang 46.612%                   | 
 | Fire Fang 46.612%                      | 
 | Stealth Rock 43.002%                   | 
 | Dragon Dance 21.775%                   | 
 | Outrage 21.775%                        | 
 | Dragon Tail 21.227%                    | 
 | Poison Fang 21.227%                    | 
 | Rock Tomb 21.227%                      | 
 | Protect 16.379%                        | 
 | Ancient Power 13.289%                  | 
 | Draco Meteor 10.386%                   | 
 | Rock Slide  7.894%                     | 
 | Other 12.878%                          | 
 +----------------------------------------+ 
 | Teammates                              | 
 | Bagon +48.139%                         | 
 | Tyrantrum +21.616%                     | 
 | Zweilous +21.137%                      | 
 | Kingdra +16.065%                       | 
 | Garchomp-Mega +14.969%                 | 
 | Noivern +13.740%                       | 
 | Noibat +10.243%                        | 
 | Gible +10.235%                         | 
 | Axew +10.220%                          | 
 | Deino +7.878%                          | 
 | Dratini +2.344%                        | 
 | Latias-Mega +1.222%                    | 
 +----------------------------------------+ 
 | Checks and Counters                    | 
 +----------------------------------------+ 
 +----------------------------------------+ 
 | Goomy                                  | 
 +----------------------------------------+ 
 | Raw count: 10                          | 
 | Avg. weight: 0.343703776356            | 
 | Viability Ceiling: 55                  | 
 +----------------------------------------+ 
 | Abilities                              | 
 | Sap Sipper 90.909%                     | 
 | Gooey  9.091%                          | 
 +----------------------------------------+ 
 | Items                                  | 
 | Eviolite 69.910%                       | 
 | Black Sludge 18.183%                   | 
 | Nothing  9.091%                        | 
 | Other  2.816%                          | 
 +----------------------------------------+ 
 | Spreads                                | 
 | Calm:252/0/4/0/252/0 54.554%           | 
 | Hardy:0/0/0/0/0/0 18.183%              | 
 | Hardy:76/196/0/236/0/0 15.356%         | 
 | Adamant:116/200/192/0/0/0  9.091%      | 
 | Other  2.816%                          | 
 +----------------------------------------+ 
 | Moves                                  | 
 | Sludge Bomb 54.554%                    | 
 | Protect 54.554%                        | 
 | Toxic 54.554%                          | 
 | Infestation 54.554%                    | 
 | Dragon Pulse 42.630%                   | 
 | Draco Meteor 27.274%                   | 
 | Acid Armor 18.183%                     | 
 | Attract 18.183%                        | 
 | Sludge Wave 15.356%                    | 
 | Return 15.356%                         | 
 | Thunderbolt 15.356%                    | 
 | Outrage  9.091%                        | 
 | Dragon Breath  9.091%                  | 
 | Other 11.264%                          | 
 +----------------------------------------+ 
 | Teammates                              | 
 | Altaria +28.916%                       | 
 | Zweilous +23.752%                      | 
 | Dratini +18.157%                       | 
 | Flygon +17.220%                        | 
 | Goodra +16.143%                        | 
 | Deino +15.340%                         | 
 | Gible +15.338%                         | 
 | Axew +15.322%                          | 
 | Bagon +15.322%                         | 
 | Salamence +14.669%                     | 
 | Noibat +9.081%                         | 
 | Shelgon +8.393%                        | 
 +----------------------------------------+ 
 | Checks and Counters                    | 
 +----------------------------------------+ 
 +----------------------------------------+ 
 | Gible                                  | 
 +----------------------------------------+ 
 | Raw count: 12                          | 
 | Avg. weight: 0.186382315204            | 
 | Viability Ceiling: 55                  | 
 +----------------------------------------+ 
 | Abilities                              | 
 | Rough Skin 91.215%                     | 
 | Sand Veil  8.785%                      | 
 +----------------------------------------+ 
 | Items                                  | 
 | Rocky Helmet 64.818%                   | 
 | Eviolite 17.612%                       | 
 | Leftovers  8.785%                      | 
 | Life Orb  8.785%                       | 
 +----------------------------------------+ 
 | Spreads                                | 
 | Naughty:252/252/0/4/0/0 64.818%        | 
 | Hardy:116/196/0/196/0/0 14.839%        | 
 | Hardy:0/0/0/0/0/0  8.785%              | 
 | Timid:0/252/0/0/0/252  8.785%          | 
 | Other  2.774%                          | 
 +----------------------------------------+ 
 | Moves                                  | 
 | Earthquake 100.000%                    | 
 | Stone Edge 82.430%                     | 
 | Dragon Claw 73.603%                    | 
 | Fire Blast 67.591%                     | 
 | Flamethrower 23.624%                   | 
 | Iron Head 14.839%                      | 
 | Draco Meteor 11.559%                   | 
 | Bulldoze  8.785%                       | 
 | Other 17.570%                          | 
 +----------------------------------------+ 
 | Teammates                              | 
 | Axew +64.678%                          | 
 | Bagon +64.677%                         | 
 | Fraxure +38.343%                       | 
 | Deino +23.608%                         | 
 | Dratini +17.449%                       | 
 | Haxorus +15.726%                       | 
 | Garchomp-Mega +15.512%                 | 
 | Goomy +14.819%                         | 
 | Noibat +11.401%                        | 
 | Tyrunt +11.389%                        | 
 | Flygon +2.164%                         | 
 +----------------------------------------+ 
 | Checks and Counters                    | 
 +----------------------------------------+ 
 +----------------------------------------+ 
 | Deino                                  | 
 +----------------------------------------+ 
 | Raw count: 11                          | 
 | Avg. weight: 0.37947054023             | 
 | Viability Ceiling: 55                  | 
 +----------------------------------------+ 
 | Abilities                              | 
 | Hustle 100.000%                        | 
 +----------------------------------------+ 
 | Items                                  | 
 | Focus Sash 67.014%                     | 
 | Eviolite 24.044%                       | 
 | Life Orb  8.942%                       | 
 +----------------------------------------+ 
 | Spreads                                | 
 | Adamant:252/252/4/0/0/0 67.014%        | 
 | Hardy:180/236/0/0/0/92 15.103%         | 
 | Naughty:0/252/4/0/252/0  8.942%        | 
 | Lonely:252/252/0/4/0/0  8.942%         | 
 +----------------------------------------+ 
 | Moves                                  | 
 | Fire Fang 82.117%                      | 
 | Thunder Wave 67.014%                   | 
 | Superpower 67.014%                     | 
 | Outrage 67.014%                        | 
 | Ice Fang 24.044%                       | 
 | Body Slam 24.044%                      | 
 | Crunch 17.883%                         | 
 | Dark Pulse 17.883%                     | 
 | Head Smash 15.103%                     | 
 | Other 17.883%                          | 
 +----------------------------------------+ 
 | Teammates                              | 
 | Flygon +28.202%                        | 
 | Druddigon +26.930%                     | 
 | Gible +24.027%                         | 
 | Axew +24.011%                          | 
 | Bagon +24.010%                         | 
 | Tyrantrum +18.519%                     | 
 | Noibat +17.873%                        | 
 | Dratini +15.088%                       | 
 | Goomy +15.084%                         | 
 | Haxorus +12.087%                       | 
 | Latias-Mega +8.960%                    | 
 | Tyrunt +8.920%                         | 
 +----------------------------------------+ 
 | Checks and Counters                    | 
 +----------------------------------------+ 
 +----------------------------------------+ 
 | Dratini                                | 
 +----------------------------------------+ 
 | Raw count: 13                          | 
 | Avg. weight: 0.182364167097            | 
 | Viability Ceiling: 55                  | 
 +----------------------------------------+ 
 | Abilities                              | 
 | Shed Skin 100.000%                     | 
 +----------------------------------------+ 
 | Items                                  | 
 | Nothing 57.889%                        | 
 | Eviolite 29.614%                       | 
 | Mental Herb  9.541%                    | 
 | Other  2.955%                          | 
 +----------------------------------------+ 
 | Spreads                                | 
 | Hardy:0/0/0/0/0/0 57.889%              | 
 | Hardy:68/244/0/196/0/0 16.116%         | 
 | Hardy:100/50/200/100/50/8  9.541%      | 
 | Calm:252/0/0/4/252/0  9.541%           | 
 | Hardy:0/80/108/44/240/36  3.012%       | 
 | Other  3.900%                          | 
 +----------------------------------------+ 
 | Moves                                  | 
 | Blizzard 70.443%                       | 
 | Dragon Pulse 67.431%                   | 
 | Outrage 60.845%                        | 
 | Aqua Tail 57.889%                      | 
 | Fire Blast 19.083%                     | 
 | Extreme Speed 17.060%                  | 
 | Flamethrower 16.116%                   | 
 | Thunderbolt 16.116%                    | 
 | Ice Beam 16.116%                       | 
 | Draco Meteor 12.554%                   | 
 | Surf  9.541%                           | 
 | Substitute  9.541%                     | 
 | Toxic  9.541%                          | 
 | Other 17.724%                          | 
 +----------------------------------------+ 
 | Teammates                              | 
 | Dragonair +27.779%                     | 
 | Goomy +19.052%                         | 
 | Gible +18.950%                         | 
 | Axew +18.934%                          | 
 | Bagon +18.933%                         | 
 | Deino +16.100%                         | 
 | Noibat +2.842%                         | 
 | Tyrunt +2.830%                         | 
 | Sliggoo +2.790%                        | 
 +----------------------------------------+ 
 | Checks and Counters                    | 
 +----------------------------------------+ 
 +----------------------------------------+ 
 | Noibat                                 | 
 +----------------------------------------+ 
 | Raw count: 8                           | 
 | Avg. weight: 0.169699316109            | 
 | Viability Ceiling: 52                  | 
 +----------------------------------------+ 
 | Abilities                              | 
 | Infiltrator 100.000%                   | 
 +----------------------------------------+ 
 | Items                                  | 
 | Air Balloon 34.333%                    | 
 | Sharp Beak 25.915%                     | 
 | Eviolite 22.586%                       | 
 | Life Orb 17.166%                       | 
 +----------------------------------------+ 
 | Spreads                                | 
 | Hardy:0/0/0/0/0/0 34.333%              | 
 | Gentle:248/8/0/0/252/0 25.915%         | 
 | Hardy:0/0/0/252/4/252 17.166%          | 
 | Mild:0/4/0/252/0/252 17.166%           | 
 | Hardy:0/252/252/0/4/0  5.420%          | 
 +----------------------------------------+ 
 | Moves                                  | 
 | Air Slash 77.414%                      | 
 | Draco Meteor 56.919%                   | 
 | Brick Break 51.499%                    | 
 | Dragon Pulse 34.333%                   | 
 | Roost 31.334%                          | 
 | Tailwind 25.915%                       | 
 | Sky Attack 25.915%                     | 
 | U-turn 17.166%                         | 
 | Agility 17.166%                        | 
 | Hurricane 17.166%                      | 
 | Heat Wave 17.166%                      | 
 | Acrobatics 17.166%                     | 
 | Other 10.839%                          | 
 +----------------------------------------+ 
 | Teammates                              | 
 | Altaria +39.064%                       | 
 | Deino +34.317%                         | 
 | Gible +22.280%                         | 
 | Tyrunt +22.276%                        | 
 | Axew +22.264%                          | 
 | Bagon +22.263%                         | 
 | Goomy +17.147%                         | 
 | Vibrava +17.127%                       | 
 | Shelgon +16.468%                       | 
 | Dragonair +16.333%                     | 
 | Noivern +7.175%                        | 
 | Dratini +5.116%                        | 
 +----------------------------------------+ 
 | Checks and Counters                    | 
 +----------------------------------------+ 
