 +----------------------------------------+ 
 | Heatran                                | 
 +----------------------------------------+ 
 | Raw count: 29885                       | 
 | Avg. weight: 0.0697315278094           | 
 | Viability Ceiling: 90                  | 
 +----------------------------------------+ 
 | Abilities                              | 
 | Flash Fire 100.000%                    | 
 +----------------------------------------+ 
 | Items                                  | 
 | Air Balloon 59.815%                    | 
 | Choice Scarf 14.753%                   | 
 | Leftovers 11.663%                      | 
 | Choice Specs  9.052%                   | 
 | Other  4.718%                          | 
 +----------------------------------------+ 
 | Spreads                                | 
 | Modest:0/0/0/252/4/252 15.472%         | 
 | Timid:0/0/0/252/4/252 13.808%          | 
 | Modest:4/0/0/252/0/252  9.118%         | 
 | Hasty:0/4/0/252/0/252  6.547%          | 
 | Hasty:0/0/0/252/4/252  6.230%          | 
 | Timid:4/0/0/252/0/252  3.609%          | 
 | Other 45.216%                          | 
 +----------------------------------------+ 
 | Moves                                  | 
 | Earth Power 97.868%                    | 
 | Flash Cannon 52.244%                   | 
 | Fire Blast 45.990%                     | 
 | Lava Plume 38.665%                     | 
 | Stone Edge 30.832%                     | 
 | Ancient Power 19.512%                  | 
 | Dark Pulse 19.458%                     | 
 | Taunt 18.324%                          | 
 | Toxic 13.216%                          | 
 | Stealth Rock 11.084%                   | 
 | Hidden Power Ice  9.796%               | 
 | Hidden Power Grass  9.220%             | 
 | Protect  8.311%                        | 
 | Flamethrower  8.196%                   | 
 | Other 17.282%                          | 
 +----------------------------------------+ 
 | Teammates                              | 
 +----------------------------------------+ 
 | Checks and Counters                    | 
 +----------------------------------------+ 
 +----------------------------------------+ 
 | Skarmory                               | 
 +----------------------------------------+ 
 | Raw count: 24379                       | 
 | Avg. weight: 0.0793520306354           | 
 | Viability Ceiling: 90                  | 
 +----------------------------------------+ 
 | Abilities                              | 
 | Sturdy 98.935%                         | 
 | Keen Eye  1.036%                       | 
 | Weak Armor  0.029%                     | 
 +----------------------------------------+ 
 | Items                                  | 
 | Rocky Helmet 53.473%                   | 
 | Custap Berry 30.879%                   | 
 | Leftovers 14.959%                      | 
 | Other  0.689%                          | 
 +----------------------------------------+ 
 | Spreads                                | 
 | Impish:244/16/248/0/0/0 16.259%        | 
 | Jolly:4/252/0/0/0/252 16.047%          | 
 | Impish:252/0/232/0/0/24 15.614%        | 
 | Jolly:0/252/0/0/0/252  8.926%          | 
 | Impish:248/0/252/0/0/8  8.054%         | 
 | Impish:252/4/252/0/0/0  7.054%         | 
 | Other 28.046%                          | 
 +----------------------------------------+ 
 | Moves                                  | 
 | Brave Bird 94.930%                     | 
 | Stealth Rock 68.705%                   | 
 | Roost 65.110%                          | 
 | Whirlwind 61.758%                      | 
 | Spikes 48.353%                         | 
 | Taunt 28.551%                          | 
 | Defog 17.960%                          | 
 | Other 14.633%                          | 
 +----------------------------------------+ 
 | Teammates                              | 
 +----------------------------------------+ 
 | Checks and Counters                    | 
 +----------------------------------------+ 
 +----------------------------------------+ 
 | Scizor-Mega                            | 
 +----------------------------------------+ 
 | Raw count: 23920                       | 
 | Avg. weight: 0.0764694273601           | 
 | Viability Ceiling: 90                  | 
 +----------------------------------------+ 
 | Abilities                              | 
 | Technician 100.000%                    | 
 +----------------------------------------+ 
 | Items                                  | 
 | Scizorite 100.000%                     | 
 +----------------------------------------+ 
 | Spreads                                | 
 | Adamant:0/252/0/0/4/252 18.577%        | 
 | Adamant:248/252/0/0/8/0 18.329%        | 
 | Impish:248/0/60/0/200/0 12.730%        | 
 | Adamant:248/0/8/0/0/252  7.248%        | 
 | Adamant:252/4/0/0/0/252  6.232%        | 
 | Impish:248/44/16/0/200/0  4.711%       | 
 | Other 32.172%                          | 
 +----------------------------------------+ 
 | Moves                                  | 
 | Bullet Punch 98.757%                   | 
 | Swords Dance 93.170%                   | 
 | Roost 74.950%                          | 
 | Bug Bite 66.404%                       | 
 | Knock Off 26.838%                      | 
 | Superpower 26.552%                     | 
 | Other 13.329%                          | 
 +----------------------------------------+ 
 | Teammates                              | 
 | Magnezone +3.576%                      | 
 | Doublade +1.701%                       | 
 +----------------------------------------+ 
 | Checks and Counters                    | 
 +----------------------------------------+ 
 +----------------------------------------+ 
 | Magnezone                              | 
 +----------------------------------------+ 
 | Raw count: 17268                       | 
 | Avg. weight: 0.0706289252735           | 
 | Viability Ceiling: 90                  | 
 +----------------------------------------+ 
 | Abilities                              | 
 | Sturdy 60.633%                         | 
 | Magnet Pull 37.965%                    | 
 | Analytic  1.402%                       | 
 +----------------------------------------+ 
 | Items                                  | 
 | Choice Scarf 88.641%                   | 
 | Choice Specs  9.837%                   | 
 | Other  1.521%                          | 
 +----------------------------------------+ 
 | Spreads                                | 
 | Timid:0/0/0/252/4/252 69.392%          | 
 | Timid:0/0/4/252/0/252 10.082%          | 
 | Modest:0/0/0/252/4/252  6.864%         | 
 | Modest:4/0/0/252/0/252  5.545%         | 
 | Modest:248/0/0/252/8/0  2.013%         | 
 | Modest:92/0/0/252/8/156  0.860%        | 
 | Other  5.244%                          | 
 +----------------------------------------+ 
 | Moves                                  | 
 | Flash Cannon 99.881%                   | 
 | Volt Switch 98.784%                    | 
 | Thunderbolt 71.160%                    | 
 | Hidden Power Ice 57.725%               | 
 | Hidden Power Grass 34.418%             | 
 | Discharge 27.338%                      | 
 | Other 10.694%                          | 
 +----------------------------------------+ 
 | Teammates                              | 
 | Bisharp +10.474%                       | 
 | Scizor-Mega +5.431%                    | 
 | Doublade +3.593%                       | 
 +----------------------------------------+ 
 | Checks and Counters                    | 
 +----------------------------------------+ 
 +----------------------------------------+ 
 | Doublade                               | 
 +----------------------------------------+ 
 | Raw count: 9807                        | 
 | Avg. weight: 0.109060602031            | 
 | Viability Ceiling: 90                  | 
 +----------------------------------------+ 
 | Abilities                              | 
 | No Guard 100.000%                      | 
 +----------------------------------------+ 
 | Items                                  | 
 | Eviolite 99.924%                       | 
 | Other  0.076%                          | 
 +----------------------------------------+ 
 | Spreads                                | 
 | Adamant:252/252/0/0/4/0 33.126%        | 
 | Adamant:248/252/0/0/8/0 17.752%        | 
 | Brave:252/252/4/0/0/0  8.681%          | 
 | Adamant:240/252/0/0/16/0  8.226%       | 
 | Adamant:212/252/0/0/0/44  8.130%       | 
 | Relaxed:252/0/252/0/4/0  6.322%        | 
 | Other 17.764%                          | 
 +----------------------------------------+ 
 | Moves                                  | 
 | Shadow Sneak 99.638%                   | 
 | Swords Dance 96.663%                   | 
 | Sacred Sword 87.427%                   | 
 | Shadow Claw 67.747%                    | 
 | Iron Head 19.037%                      | 
 | Gyro Ball 18.488%                      | 
 | Other 11.000%                          | 
 +----------------------------------------+ 
 | Teammates                              | 
 | Bisharp +11.272%                       | 
 | Magnezone +4.202%                      | 
 | Scizor-Mega +3.356%                    | 
 | Ferrothorn +1.044%                     | 
 +----------------------------------------+ 
 | Checks and Counters                    | 
 +----------------------------------------+ 
 +----------------------------------------+ 
 | Jirachi                                | 
 +----------------------------------------+ 
 | Raw count: 12738                       | 
 | Avg. weight: 0.0843456865302           | 
 | Viability Ceiling: 88                  | 
 +----------------------------------------+ 
 | Abilities                              | 
 | Serene Grace 100.000%                  | 
 +----------------------------------------+ 
 | Items                                  | 
 | Choice Scarf 63.017%                   | 
 | Assault Vest 22.888%                   | 
 | Leftovers  7.848%                      | 
 | Shuca Berry  3.635%                    | 
 | Other  2.612%                          | 
 +----------------------------------------+ 
 | Spreads                                | 
 | Jolly:0/252/0/0/4/252 33.217%          | 
 | Timid:0/0/0/252/4/252 23.432%          | 
 | Modest:224/0/0/252/0/32 22.119%        | 
 | Jolly:0/252/4/0/0/252  2.434%          | 
 | Sassy:252/0/4/0/252/0  1.927%          | 
 | Careful:248/0/0/0/220/40  1.836%       | 
 | Other 15.034%                          | 
 +----------------------------------------+ 
 | Moves                                  | 
 | Iron Head 48.361%                      | 
 | Moonblast 45.375%                      | 
 | Energy Ball 43.715%                    | 
 | U-turn 40.713%                         | 
 | Heart Stamp 34.614%                    | 
 | Psyshock 27.136%                       | 
 | Fire Punch 23.546%                     | 
 | Charge Beam 23.253%                    | 
 | Psychic 22.813%                        | 
 | Healing Wish 19.832%                   | 
 | Thunderbolt 18.633%                    | 
 | Ice Punch  6.915%                      | 
 | Zen Headbutt  5.505%                   | 
 | Hidden Power Fire  4.133%              | 
 | Thunder Wave  4.103%                   | 
 | Trick Room  3.168%                     | 
 | Wish  2.831%                           | 
 | Thunder Punch  2.720%                  | 
 | Calm Mind  2.647%                      | 
 | Other 19.986%                          | 
 +----------------------------------------+ 
 | Teammates                              | 
 | Excadrill +9.136%                      | 
 | Ferrothorn +5.660%                     | 
 | Scizor +4.565%                         | 
 | Empoleon +3.540%                       | 
 | Durant +1.087%                         | 
 | Aggron-Mega +0.652%                    | 
 | Bronzong +0.615%                       | 
 +----------------------------------------+ 
 | Checks and Counters                    | 
 +----------------------------------------+ 
 +----------------------------------------+ 
 | Bisharp                                | 
 +----------------------------------------+ 
 | Raw count: 18764                       | 
 | Avg. weight: 0.0462317721907           | 
 | Viability Ceiling: 90                  | 
 +----------------------------------------+ 
 | Abilities                              | 
 | Defiant 99.749%                        | 
 | Inner Focus  0.222%                    | 
 | Pressure  0.029%                       | 
 +----------------------------------------+ 
 | Items                                  | 
 | Life Orb 41.226%                       | 
 | Lum Berry 32.485%                      | 
 | Focus Sash 18.229%                     | 
 | Black Glasses  3.226%                  | 
 | Other  4.833%                          | 
 +----------------------------------------+ 
 | Spreads                                | 
 | Adamant:0/252/0/0/4/252 33.550%        | 
 | Adamant:0/252/4/0/0/252 22.835%        | 
 | Jolly:0/252/0/0/4/252 20.057%          | 
 | Adamant:4/252/0/0/0/252 10.969%        | 
 | Jolly:0/252/4/0/0/252  4.018%          | 
 | Adamant:0/252/0/0/40/216  1.825%       | 
 | Other  6.746%                          | 
 +----------------------------------------+ 
 | Moves                                  | 
 | Knock Off 98.618%                      | 
 | Sucker Punch 97.494%                   | 
 | Iron Head 93.989%                      | 
 | Swords Dance 82.880%                   | 
 | Stealth Rock  8.372%                   | 
 | Other 18.647%                          | 
 +----------------------------------------+ 
 | Teammates                              | 
 | Magnezone +14.979%                     | 
 | Doublade +14.792%                      | 
 | Bronzong +0.592%                       | 
 +----------------------------------------+ 
 | Checks and Counters                    | 
 +----------------------------------------+ 
 +----------------------------------------+ 
 | Excadrill                              | 
 +----------------------------------------+ 
 | Raw count: 15729                       | 
 | Avg. weight: 0.0516341236766           | 
 | Viability Ceiling: 87                  | 
 +----------------------------------------+ 
 | Abilities                              | 
 | Mold Breaker 98.939%                   | 
 | Sand Rush  0.999%                      | 
 | Sand Force  0.062%                     | 
 +----------------------------------------+ 
 | Items                                  | 
 | Choice Scarf 94.531%                   | 
 | Focus Sash  2.056%                     | 
 | Other  3.412%                          | 
 +----------------------------------------+ 
 | Spreads                                | 
 | Jolly:0/252/0/0/4/252 79.921%          | 
 | Adamant:20/252/0/0/0/236  8.789%       | 
 | Jolly:4/252/0/0/0/252  4.802%          | 
 | Adamant:0/252/0/0/4/252  1.788%        | 
 | Other  4.699%                          | 
 +----------------------------------------+ 
 | Moves                                  | 
 | Earthquake 99.959%                     | 
 | Iron Head 99.228%                      | 
 | Rock Slide 96.636%                     | 
 | Rapid Spin 92.705%                     | 
 | Other 11.471%                          | 
 +----------------------------------------+ 
 | Teammates                              | 
 | Jirachi +12.188%                       | 
 | Scizor +8.885%                         | 
 | Empoleon +7.377%                       | 
 | Aggron-Mega +1.614%                    | 
 | Cobalion +1.097%                       | 
 +----------------------------------------+ 
 | Checks and Counters                    | 
 +----------------------------------------+ 
 +----------------------------------------+ 
 | Ferrothorn                             | 
 +----------------------------------------+ 
 | Raw count: 15486                       | 
 | Avg. weight: 0.0444581357545           | 
 | Viability Ceiling: 88                  | 
 +----------------------------------------+ 
 | Abilities                              | 
 | Iron Barbs 99.999%                     | 
 | Anticipation  0.001%                   | 
 +----------------------------------------+ 
 | Items                                  | 
 | Leftovers 83.336%                      | 
 | Rocky Helmet  7.575%                   | 
 | Choice Band  4.819%                    | 
 | Other  4.270%                          | 
 +----------------------------------------+ 
 | Spreads                                | 
 | Sassy:248/8/0/0/252/0 19.668%          | 
 | Sassy:252/4/0/0/252/0 19.368%          | 
 | Relaxed:252/0/88/0/168/0  8.223%       | 
 | Careful:248/0/64/0/196/0  7.062%       | 
 | Careful:248/8/0/0/252/0  5.038%        | 
 | Brave:248/252/0/0/8/0  4.874%          | 
 | Other 35.767%                          | 
 +----------------------------------------+ 
 | Moves                                  | 
 | Leech Seed 93.069%                     | 
 | Protect 77.818%                        | 
 | Gyro Ball 68.418%                      | 
 | Power Whip 54.134%                     | 
 | Stealth Rock 50.162%                   | 
 | Spikes 21.565%                         | 
 | Thunder Wave 16.770%                   | 
 | Other 18.066%                          | 
 +----------------------------------------+ 
 | Teammates                              | 
 | Jirachi +9.722%                        | 
 | Durant +2.647%                         | 
 | Doublade +1.223%                       | 
 | Aron +1.080%                           | 
 | Bronzong +0.863%                       | 
 | Forretress +0.708%                     | 
 | Klefki +0.527%                         | 
 +----------------------------------------+ 
 | Checks and Counters                    | 
 +----------------------------------------+ 
 +----------------------------------------+ 
 | Empoleon                               | 
 +----------------------------------------+ 
 | Raw count: 16426                       | 
 | Avg. weight: 0.0162707008188           | 
 | Viability Ceiling: 84                  | 
 +----------------------------------------+ 
 | Abilities                              | 
 | Torrent 94.562%                        | 
 | Defiant  5.438%                        | 
 +----------------------------------------+ 
 | Items                                  | 
 | Assault Vest 60.859%                   | 
 | Leftovers 10.500%                      | 
 | Choice Scarf  8.613%                   | 
 | Life Orb  6.128%                       | 
 | Air Balloon  5.494%                    | 
 | Shuca Berry  2.805%                    | 
 | Petaya Berry  1.849%                   | 
 | Other  3.751%                          | 
 +----------------------------------------+ 
 | Spreads                                | 
 | Modest:252/0/0/4/252/0 20.064%         | 
 | Modest:252/0/0/0/252/0 16.423%         | 
 | Modest:248/0/0/8/252/0 15.450%         | 
 | Timid:0/0/0/252/4/252  8.331%          | 
 | Modest:252/0/0/252/4/0  4.482%         | 
 | Quiet:248/0/8/252/0/0  3.290%          | 
 | Other 31.959%                          | 
 +----------------------------------------+ 
 | Moves                                  | 
 | Ice Beam 92.142%                       | 
 | Scald 80.320%                          | 
 | Grass Knot 77.712%                     | 
 | Hidden Power Electric 52.427%          | 
 | Flash Cannon 24.602%                   | 
 | Hydro Pump 16.814%                     | 
 | Stealth Rock  7.982%                   | 
 | Defog  7.578%                          | 
 | Aqua Jet  6.511%                       | 
 | Toxic  5.939%                          | 
 | Agility  5.631%                        | 
 | Roar  5.380%                           | 
 | Other 16.962%                          | 
 +----------------------------------------+ 
 | Teammates                              | 
 | Scizor +46.888%                        | 
 | Excadrill +23.248%                     | 
 | Jirachi +15.202%                       | 
 | Klefki +3.328%                         | 
 | Metagross +3.046%                      | 
 | Bronzong +1.169%                       | 
 | Aggron-Mega +1.141%                    | 
 | Bastiodon +0.888%                      | 
 +----------------------------------------+ 
 | Checks and Counters                    | 
 +----------------------------------------+ 
 +----------------------------------------+ 
 | Scizor                                 | 
 +----------------------------------------+ 
 | Raw count: 4517                        | 
 | Avg. weight: 0.03467141981             | 
 | Viability Ceiling: 81                  | 
 +----------------------------------------+ 
 | Abilities                              | 
 | Technician 99.863%                     | 
 | Swarm  0.131%                          | 
 | Light Metal  0.007%                    | 
 +----------------------------------------+ 
 | Items                                  | 
 | Choice Band 96.542%                    | 
 | Other  3.458%                          | 
 +----------------------------------------+ 
 | Spreads                                | 
 | Adamant:8/252/0/0/0/248 48.449%        | 
 | Adamant:4/252/0/0/0/252 27.146%        | 
 | Adamant:4/0/0/0/0/248 10.691%          | 
 | Adamant:248/252/0/0/8/0  8.327%        | 
 | Adamant:248/252/0/0/0/8  0.780%        | 
 | Other  4.608%                          | 
 +----------------------------------------+ 
 | Moves                                  | 
 | Bullet Punch 99.845%                   | 
 | Superpower 91.899%                     | 
 | Bug Bite 89.637%                       | 
 | Knock Off 89.440%                      | 
 | U-turn  9.868%                         | 
 | Other 19.311%                          | 
 +----------------------------------------+ 
 | Teammates                              | 
 | Empoleon +78.410%                      | 
 | Excadrill +46.635%                     | 
 | Jirachi +32.760%                       | 
 +----------------------------------------+ 
 | Checks and Counters                    | 
 +----------------------------------------+ 
 +----------------------------------------+ 
 | Lucario                                | 
 +----------------------------------------+ 
 | Raw count: 9481                        | 
 | Avg. weight: 0.0151653220574           | 
 | Viability Ceiling: 85                  | 
 +----------------------------------------+ 
 | Abilities                              | 
 | Inner Focus 80.540%                    | 
 | Justified 10.123%                      | 
 | Steadfast  9.337%                      | 
 +----------------------------------------+ 
 | Items                                  | 
 | Focus Sash 52.233%                     | 
 | Life Orb 43.589%                       | 
 | Other  4.178%                          | 
 +----------------------------------------+ 
 | Spreads                                | 
 | Timid:0/0/0/252/4/252 56.300%          | 
 | Jolly:0/252/4/0/0/252 24.346%          | 
 | Jolly:0/252/0/0/4/252  7.482%          | 
 | Adamant:4/252/0/0/0/252  4.650%        | 
 | Timid:4/0/0/252/0/252  0.836%          | 
 | Adamant:252/252/0/0/4/0  0.759%        | 
 | Other  5.626%                          | 
 +----------------------------------------+ 
 | Moves                                  | 
 | Vacuum Wave 55.932%                    | 
 | Nasty Plot 55.762%                     | 
 | Aura Sphere 54.376%                    | 
 | Dark Pulse 51.285%                     | 
 | Close Combat 39.234%                   | 
 | Extreme Speed 39.219%                  | 
 | Swords Dance 38.077%                   | 
 | Ice Punch 30.498%                      | 
 | Flash Cannon 14.470%                   | 
 | Crunch  7.236%                         | 
 | Other 13.910%                          | 
 +----------------------------------------+ 
 | Teammates                              | 
 | Registeel +43.792%                     | 
 | Aggron +36.918%                        | 
 | Forretress +4.007%                     | 
 | Metagross +3.958%                      | 
 | Magneton +3.899%                       | 
 | Steelix +0.508%                        | 
 +----------------------------------------+ 
 | Checks and Counters                    | 
 +----------------------------------------+ 
 +----------------------------------------+ 
 | Klefki                                 | 
 +----------------------------------------+ 
 | Raw count: 8660                        | 
 | Avg. weight: 0.0105309068579           | 
 | Viability Ceiling: 82                  | 
 +----------------------------------------+ 
 | Abilities                              | 
 | Prankster 99.957%                      | 
 | Magician  0.043%                       | 
 +----------------------------------------+ 
 | Items                                  | 
 | Leftovers 38.485%                      | 
 | Light Clay 36.458%                     | 
 | Air Balloon 15.105%                    | 
 | Toxic Orb  3.671%                      | 
 | Choice Scarf  3.097%                   | 
 | Other  3.183%                          | 
 +----------------------------------------+ 
 | Spreads                                | 
 | Bold:252/0/252/4/0/0 20.276%           | 
 | Bold:216/0/204/80/8/0 14.978%          | 
 | Bold:252/0/252/0/4/0 13.928%           | 
 | Careful:252/0/4/0/252/0  4.605%        | 
 | Careful:252/0/156/0/100/0  4.470%      | 
 | Bold:252/0/64/0/192/0  4.329%          | 
 | Other 37.415%                          | 
 +----------------------------------------+ 
 | Moves                                  | 
 | Thunder Wave 87.595%                   | 
 | Spikes 48.066%                         | 
 | Dazzling Gleam 44.135%                 | 
 | Light Screen 39.294%                   | 
 | Reflect 37.048%                        | 
 | Magnet Rise 31.427%                    | 
 | Toxic 30.075%                          | 
 | Foul Play 28.311%                      | 
 | Play Rough 13.510%                     | 
 | Fairy Lock 10.089%                     | 
 | Switcheroo  7.107%                     | 
 | Draining Kiss  6.226%                  | 
 | Other 17.117%                          | 
 +----------------------------------------+ 
 | Teammates                              | 
 | Empoleon +9.806%                       | 
 | Metagross +5.724%                      | 
 | Ferrothorn +4.178%                     | 
 | Bronzong +3.650%                       | 
 | Bastiodon +2.582%                      | 
 | Steelix +1.666%                        | 
 | Escavalier +0.651%                     | 
 +----------------------------------------+ 
 | Checks and Counters                    | 
 +----------------------------------------+ 
 +----------------------------------------+ 
 | Aggron                                 | 
 +----------------------------------------+ 
 | Raw count: 2546                        | 
 | Avg. weight: 0.0331401811487           | 
 | Viability Ceiling: 84                  | 
 +----------------------------------------+ 
 | Abilities                              | 
 | Rock Head 90.024%                      | 
 | Sturdy  9.313%                         | 
 | Heavy Metal  0.663%                    | 
 +----------------------------------------+ 
 | Items                                  | 
 | Life Orb 74.958%                       | 
 | Choice Band 14.067%                    | 
 | Weakness Policy  8.625%                | 
 | Other  2.351%                          | 
 +----------------------------------------+ 
 | Spreads                                | 
 | Adamant:0/252/0/0/4/252 82.454%        | 
 | Adamant:248/252/0/0/8/0 14.073%        | 
 | Other  3.473%                          | 
 +----------------------------------------+ 
 | Moves                                  | 
 | Head Smash 90.040%                     | 
 | Iron Head 84.934%                      | 
 | Rock Polish 82.469%                    | 
 | Earthquake 78.464%                     | 
 | Ice Punch 20.741%                      | 
 | Heavy Slam 13.904%                     | 
 | Superpower 10.923%                     | 
 | Other 18.525%                          | 
 +----------------------------------------+ 
 | Teammates                              | 
 | Registeel +68.435%                     | 
 | Lucario +66.317%                       | 
 | Steelix-Mega +16.259%                  | 
 | Bronzong +9.211%                       | 
 | Magneton +7.557%                       | 
 | Metagross +6.952%                      | 
 | Durant +2.096%                         | 
 +----------------------------------------+ 
 | Checks and Counters                    | 
 +----------------------------------------+ 
 +----------------------------------------+ 
 | Registeel                              | 
 +----------------------------------------+ 
 | Raw count: 2058                        | 
 | Avg. weight: 0.0392140205456           | 
 | Viability Ceiling: 84                  | 
 +----------------------------------------+ 
 | Abilities                              | 
 | Clear Body 99.917%                     | 
 | Light Metal  0.083%                    | 
 +----------------------------------------+ 
 | Items                                  | 
 | Leftovers 98.994%                      | 
 | Other  1.006%                          | 
 +----------------------------------------+ 
 | Spreads                                | 
 | Calm:252/0/4/0/252/0 81.878%           | 
 | Careful:252/4/0/0/252/0  9.338%        | 
 | Calm:248/0/8/0/252/0  1.832%           | 
 | Careful:248/0/8/0/252/0  1.746%        | 
 | Bold:252/0/128/0/128/0  1.485%         | 
 | Other  3.720%                          | 
 +----------------------------------------+ 
 | Moves                                  | 
 | Toxic 94.784%                          | 
 | Protect 92.828%                        | 
 | Stealth Rock 91.374%                   | 
 | Seismic Toss 87.282%                   | 
 | Iron Head 11.614%                      | 
 | Thunder Wave  4.741%                   | 
 | Other 17.377%                          | 
 +----------------------------------------+ 
 | Teammates                              | 
 | Lucario +79.735%                       | 
 | Aggron +69.377%                        | 
 | Scizor-Mega +6.271%                    | 
 | Skarmory +3.254%                       | 
 | Aggron-Mega +1.199%                    | 
 | Escavalier +0.667%                     | 
 +----------------------------------------+ 
 | Checks and Counters                    | 
 +----------------------------------------+ 
 +----------------------------------------+ 
 | Bronzong                               | 
 +----------------------------------------+ 
 | Raw count: 4794                        | 
 | Avg. weight: 0.0155195109161           | 
 | Viability Ceiling: 85                  | 
 +----------------------------------------+ 
 | Abilities                              | 
 | Levitate 95.399%                       | 
 | Heatproof  4.511%                      | 
 | Heavy Metal  0.090%                    | 
 +----------------------------------------+ 
 | Items                                  | 
 | Leftovers 33.895%                      | 
 | Light Clay 27.009%                     | 
 | Focus Sash 23.905%                     | 
 | Chesto Berry 12.262%                   | 
 | Other  2.929%                          | 
 +----------------------------------------+ 
 | Spreads                                | 
 | Sassy:252/4/0/0/252/0 33.929%          | 
 | Brave:252/252/0/0/4/0 19.059%          | 
 | Brave:248/252/8/0/0/0 17.137%          | 
 | Careful:252/0/4/0/252/0  9.279%        | 
 | Adamant:252/252/4/0/0/0  6.313%        | 
 | Gentle:252/4/0/0/252/0  4.196%         | 
 | Other 10.089%                          | 
 +----------------------------------------+ 
 | Moves                                  | 
 | Gyro Ball 73.455%                      | 
 | Trick Room 61.614%                     | 
 | Stealth Rock 56.670%                   | 
 | Explosion 31.655%                      | 
 | Light Screen 27.741%                   | 
 | Toxic 27.598%                          | 
 | Reflect 26.334%                        | 
 | Earthquake 20.516%                     | 
 | Rock Slide 18.938%                     | 
 | Gravity 17.171%                        | 
 | Rest 12.945%                           | 
 | Zen Headbutt 10.379%                   | 
 | Other 14.984%                          | 
 +----------------------------------------+ 
 | Teammates                              | 
 | Steelix-Mega +9.854%                   | 
 | Aggron +9.851%                         | 
 | Jirachi +9.654%                        | 
 | Ferrothorn +7.831%                     | 
 | Bisharp +6.648%                        | 
 | Klefki +4.391%                         | 
 | Empoleon +4.173%                       | 
 | Durant +2.244%                         | 
 | Escavalier +0.815%                     | 
 +----------------------------------------+ 
 | Checks and Counters                    | 
 +----------------------------------------+ 
 +----------------------------------------+ 
 | Metagross                              | 
 +----------------------------------------+ 
 | Raw count: 9909                        | 
 | Avg. weight: 0.00609224108098          | 
 | Viability Ceiling: 84                  | 
 +----------------------------------------+ 
 | Abilities                              | 
 | Clear Body 99.327%                     | 
 | Light Metal  0.673%                    | 
 +----------------------------------------+ 
 | Items                                  | 
 | Assault Vest 41.165%                   | 
 | Choice Band 20.520%                    | 
 | Choice Scarf 15.253%                   | 
 | Life Orb  8.353%                       | 
 | Leftovers  3.482%                      | 
 | Weakness Policy  3.370%                | 
 | Focus Sash  2.784%                     | 
 | Lum Berry  2.607%                      | 
 | Other  2.467%                          | 
 +----------------------------------------+ 
 | Spreads                                | 
 | Adamant:252/252/0/0/4/0 32.263%        | 
 | Adamant:0/252/0/0/4/252 13.748%        | 
 | Adamant:248/252/0/0/8/0  9.379%        | 
 | Jolly:0/252/0/0/4/252  9.256%          | 
 | Jolly:0/252/4/0/0/252  7.456%          | 
 | Naughty:32/252/0/4/0/220  4.150%       | 
 | Other 23.748%                          | 
 +----------------------------------------+ 
 | Moves                                  | 
 | Zen Headbutt 85.644%                   | 
 | Bullet Punch 65.436%                   | 
 | Earthquake 64.170%                     | 
 | Meteor Mash 61.179%                    | 
 | Ice Punch 53.365%                      | 
 | Hammer Arm 14.049%                     | 
 | Thunder Punch  8.660%                  | 
 | Explosion  6.606%                      | 
 | Grass Knot  6.398%                     | 
 | Iron Head  6.372%                      | 
 | Agility  4.469%                        | 
 | Brick Break  4.312%                    | 
 | Other 19.341%                          | 
 +----------------------------------------+ 
 | Teammates                              | 
 | Empoleon +12.566%                      | 
 | Steelix-Mega +11.326%                  | 
 | Magneton +10.704%                      | 
 | Lucario +9.026%                        | 
 | Aggron +8.957%                         | 
 | Klefki +8.273%                         | 
 | Aggron-Mega +6.478%                    | 
 | Steelix +3.458%                        | 
 | Probopass +2.045%                      | 
 | Cobalion +1.010%                       | 
 | Mawile +0.755%                         | 
 | Klinklang +0.749%                      | 
 +----------------------------------------+ 
 | Checks and Counters                    | 
 +----------------------------------------+ 
 +----------------------------------------+ 
 | Aggron-Mega                            | 
 +----------------------------------------+ 
 | Raw count: 6431                        | 
 | Avg. weight: 0.00703119850599          | 
 | Viability Ceiling: 79                  | 
 +----------------------------------------+ 
 | Abilities                              | 
 | Filter 100.000%                        | 
 +----------------------------------------+ 
 | Items                                  | 
 | Aggronite 100.000%                     | 
 +----------------------------------------+ 
 | Spreads                                | 
 | Careful:252/0/0/0/252/0 30.747%        | 
 | Careful:252/0/4/0/252/0 28.312%        | 
 | Adamant:248/252/0/0/8/0 10.849%        | 
 | Careful:252/4/0/0/252/0  3.878%        | 
 | Adamant:248/252/0/0/0/0  3.050%        | 
 | Serious:252/0/4/0/252/0  2.698%        | 
 | Other 20.466%                          | 
 +----------------------------------------+ 
 | Moves                                  | 
 | Heavy Slam 84.832%                     | 
 | Rest 70.009%                           | 
 | Sleep Talk 66.445%                     | 
 | Curse 43.660%                          | 
 | Rock Tomb 27.631%                      | 
 | Earthquake 23.161%                     | 
 | Thunder Wave 12.600%                   | 
 | Stealth Rock 11.030%                   | 
 | Ice Punch  7.983%                      | 
 | Stone Edge  7.066%                     | 
 | Iron Head  6.296%                      | 
 | Dragon Tail  5.711%                    | 
 | Power-Up Punch  5.573%                 | 
 | Avalanche  4.428%                      | 
 | Fire Punch  4.038%                     | 
 | Other 19.538%                          | 
 +----------------------------------------+ 
 | Teammates                              | 
 | Excadrill +28.038%                     | 
 | Cobalion +27.074%                      | 
 | Jirachi +14.375%                       | 
 | Metagross +8.697%                      | 
 | Empoleon +6.179%                       | 
 | Doublade +5.126%                       | 
 | Registeel +1.896%                      | 
 | Scizor +1.215%                         | 
 | Magneton +1.067%                       | 
 | Klinklang +0.993%                      | 
 | Escavalier +0.527%                     | 
 +----------------------------------------+ 
 | Checks and Counters                    | 
 +----------------------------------------+ 
 +----------------------------------------+ 
 | Durant                                 | 
 +----------------------------------------+ 
 | Raw count: 2424                        | 
 | Avg. weight: 0.0141996459803           | 
 | Viability Ceiling: 84                  | 
 +----------------------------------------+ 
 | Abilities                              | 
 | Hustle 99.017%                         | 
 | Swarm  0.943%                          | 
 | Truant  0.040%                         | 
 +----------------------------------------+ 
 | Items                                  | 
 | Life Orb 87.363%                       | 
 | Choice Scarf  6.992%                   | 
 | Focus Sash  2.396%                     | 
 | Other  3.249%                          | 
 +----------------------------------------+ 
 | Spreads                                | 
 | Jolly:0/252/4/0/0/252 72.755%          | 
 | Jolly:0/252/0/0/4/252 14.688%          | 
 | Jolly:8/248/0/0/0/252 10.187%          | 
 | Other  2.371%                          | 
 +----------------------------------------+ 
 | Moves                                  | 
 | X-Scissor 99.976%                      | 
 | Iron Head 99.627%                      | 
 | Superpower 88.481%                     | 
 | Rock Slide 82.868%                     | 
 | Thunder Wave 10.222%                   | 
 | Other 18.826%                          | 
 +----------------------------------------+ 
 | Teammates                              | 
 | Ferrothorn +49.662%                    | 
 | Jirachi +34.596%                       | 
 | Bronzong +4.721%                       | 
 | Aggron +4.694%                         | 
 | Klinklang +1.032%                      | 
 +----------------------------------------+ 
 | Checks and Counters                    | 
 +----------------------------------------+ 
 +----------------------------------------+ 
 | Cobalion                               | 
 +----------------------------------------+ 
 | Raw count: 2368                        | 
 | Avg. weight: 0.0169702739764           | 
 | Viability Ceiling: 83                  | 
 +----------------------------------------+ 
 | Abilities                              | 
 | Justified 100.000%                     | 
 +----------------------------------------+ 
 | Items                                  | 
 | Life Orb 36.430%                       | 
 | Assault Vest 26.012%                   | 
 | Expert Belt 13.103%                    | 
 | Leftovers 12.860%                      | 
 | Shuca Berry  6.737%                    | 
 | Other  4.858%                          | 
 +----------------------------------------+ 
 | Spreads                                | 
 | Naive:0/4/0/252/0/252 27.669%          | 
 | Jolly:0/252/0/0/4/252 23.973%          | 
 | Modest:4/0/12/252/84/156 19.364%       | 
 | Modest:72/0/84/252/0/100  9.108%       | 
 | Modest:44/0/68/252/0/144  3.892%       | 
 | Jolly:160/96/0/0/0/252  3.346%         | 
 | Other 12.649%                          | 
 +----------------------------------------+ 
 | Moves                                  | 
 | Volt Switch 71.017%                    | 
 | Focus Blast 48.617%                    | 
 | Stone Edge 47.033%                     | 
 | Flash Cannon 34.967%                   | 
 | Hidden Power Grass 34.794%             | 
 | Close Combat 34.339%                   | 
 | Hidden Power Ice 27.673%               | 
 | Iron Head 22.452%                      | 
 | Taunt 16.848%                          | 
 | Stealth Rock 16.197%                   | 
 | Toxic 13.038%                          | 
 | Swords Dance 12.678%                   | 
 | Thunder Wave  5.211%                   | 
 | Other 15.136%                          | 
 +----------------------------------------+ 
 | Teammates                              | 
 | Aggron-Mega +35.158%                   | 
 | Excadrill +24.879%                     | 
 | Jirachi +3.500%                        | 
 | Steelix-Mega +1.931%                   | 
 | Metagross +1.823%                      | 
 +----------------------------------------+ 
 | Checks and Counters                    | 
 +----------------------------------------+ 
 +----------------------------------------+ 
 | Forretress                             | 
 +----------------------------------------+ 
 | Raw count: 2518                        | 
 | Avg. weight: 0.0086630588599           | 
 | Viability Ceiling: 81                  | 
 +----------------------------------------+ 
 | Abilities                              | 
 | Sturdy 99.446%                         | 
 | Overcoat  0.554%                       | 
 +----------------------------------------+ 
 | Items                                  | 
 | Leftovers 58.444%                      | 
 | Red Card 36.668%                       | 
 | Other  4.888%                          | 
 +----------------------------------------+ 
 | Spreads                                | 
 | Bold:252/0/252/0/4/0 36.842%           | 
 | Impish:240/0/252/0/16/0 20.849%        | 
 | Relaxed:240/0/252/0/16/0 19.061%       | 
 | Relaxed:240/0/252/0/0/0 11.968%        | 
 | Impish:252/4/252/0/0/0  5.585%         | 
 | Brave:252/252/0/0/4/0  2.687%          | 
 | Other  3.008%                          | 
 +----------------------------------------+ 
 | Moves                                  | 
 | Toxic Spikes 91.254%                   | 
 | Volt Switch 90.911%                    | 
 | Rapid Spin 59.570%                     | 
 | Stealth Rock 44.683%                   | 
 | Spikes 43.519%                         | 
 | Toxic 40.920%                          | 
 | Gyro Ball 16.274%                      | 
 | Other 12.869%                          | 
 +----------------------------------------+ 
 | Teammates                              | 
 | Aron +51.380%                          | 
 | Magneton +31.735%                      | 
 | Lucario +28.129%                       | 
 | Ferrothorn +23.399%                    | 
 | Bisharp +5.984%                        | 
 +----------------------------------------+ 
 | Checks and Counters                    | 
 +----------------------------------------+ 
 +----------------------------------------+ 
 | Steelix-Mega                           | 
 +----------------------------------------+ 
 | Raw count: 3302                        | 
 | Avg. weight: 0.00684142934212          | 
 | Viability Ceiling: 82                  | 
 +----------------------------------------+ 
 | Abilities                              | 
 | Sand Force 100.000%                    | 
 +----------------------------------------+ 
 | Items                                  | 
 | Steelixite 100.000%                    | 
 +----------------------------------------+ 
 | Spreads                                | 
 | Adamant:252/252/0/0/4/0 79.285%        | 
 | Careful:252/4/0/0/252/0  4.811%        | 
 | Impish:252/0/56/0/200/0  3.307%        | 
 | Adamant:248/160/100/0/0/0  2.799%      | 
 | Brave:252/252/0/0/4/0  2.713%          | 
 | Careful:252/0/4/0/252/0  2.191%        | 
 | Other  4.894%                          | 
 +----------------------------------------+ 
 | Moves                                  | 
 | Heavy Slam 95.637%                     | 
 | Earthquake 95.238%                     | 
 | Stone Edge 76.007%                     | 
 | Ice Fang 46.737%                       | 
 | Fire Fang 34.736%                      | 
 | Curse  6.934%                          | 
 | Stealth Rock  6.860%                   | 
 | Rest  6.680%                           | 
 | Dragon Tail  5.599%                    | 
 | Sandstorm  4.892%                      | 
 | Sleep Talk  4.742%                     | 
 | Other 15.939%                          | 
 +----------------------------------------+ 
 | Teammates                              | 
 | Aggron +61.328%                        | 
 | Bronzong +34.549%                      | 
 | Metagross +32.335%                     | 
 | Magneton +30.380%                      | 
 | Ferrothorn +9.066%                     | 
 | Cobalion +3.153%                       | 
 | Scizor +1.809%                         | 
 +----------------------------------------+ 
 | Checks and Counters                    | 
 +----------------------------------------+ 
 +----------------------------------------+ 
 | Magneton                               | 
 +----------------------------------------+ 
 | Raw count: 1196                        | 
 | Avg. weight: 0.0152213682854           | 
 | Viability Ceiling: 81                  | 
 +----------------------------------------+ 
 | Abilities                              | 
 | Magnet Pull 92.144%                    | 
 | Analytic  6.128%                       | 
 | Sturdy  1.728%                         | 
 +----------------------------------------+ 
 | Items                                  | 
 | Choice Scarf 55.127%                   | 
 | Eviolite 42.386%                       | 
 | Other  2.487%                          | 
 +----------------------------------------+ 
 | Spreads                                | 
 | Timid:0/0/0/252/4/252 57.149%          | 
 | Modest:248/0/0/252/8/0 41.080%         | 
 | Other  1.771%                          | 
 +----------------------------------------+ 
 | Moves                                  | 
 | Flash Cannon 99.679%                   | 
 | Volt Switch 99.038%                    | 
 | Thunderbolt 97.714%                    | 
 | Hidden Power Fire 82.671%              | 
 | Hidden Power Grass 13.069%             | 
 | Other  7.830%                          | 
 +----------------------------------------+ 
 | Teammates                              | 
 | Forretress +37.467%                    | 
 | Metagross +37.335%                     | 
 | Steelix-Mega +37.015%                  | 
 | Aggron +34.784%                        | 
 | Lucario +32.260%                       | 
 | Excadrill +3.548%                      | 
 | Aggron-Mega +2.873%                    | 
 | Empoleon +2.265%                       | 
 | Bastiodon +0.737%                      | 
 | Cobalion +0.568%                       | 
 +----------------------------------------+ 
 | Checks and Counters                    | 
 +----------------------------------------+ 
 +----------------------------------------+ 
 | Aron                                   | 
 +----------------------------------------+ 
 | Raw count: 219                         | 
 | Avg. weight: 0.0530449041529           | 
 | Viability Ceiling: 81                  | 
 +----------------------------------------+ 
 | Abilities                              | 
 | Sturdy 100.000%                        | 
 +----------------------------------------+ 
 | Items                                  | 
 | Shell Bell 100.000%                    | 
 | Other  0.000%                          | 
 +----------------------------------------+ 
 | Spreads                                | 
 | Hardy:0/0/0/0/0/36 99.078%             | 
 | Other  0.922%                          | 
 +----------------------------------------+ 
 | Moves                                  | 
 | Endeavor 100.000%                      | 
 | Protect 99.773%                        | 
 | Toxic 99.188%                          | 
 | Water Pulse 99.078%                    | 
 | Other  1.961%                          | 
 +----------------------------------------+ 
 | Teammates                              | 
 | Forretress +98.170%                    | 
 | Ferrothorn +68.551%                    | 
 | Doublade +45.254%                      | 
 | Magnezone +19.527%                     | 
 | Heatran +0.986%                        | 
 +----------------------------------------+ 
 | Checks and Counters                    | 
 +----------------------------------------+ 
 +----------------------------------------+ 
 | Bastiodon                              | 
 +----------------------------------------+ 
 | Raw count: 1129                        | 
 | Avg. weight: 0.00254349058753          | 
 | Viability Ceiling: 77                  | 
 +----------------------------------------+ 
 | Abilities                              | 
 | Sturdy 94.625%                         | 
 | Soundproof  5.375%                     | 
 +----------------------------------------+ 
 | Items                                  | 
 | Rocky Helmet 90.218%                   | 
 | Leftovers  8.884%                      | 
 | Other  0.898%                          | 
 +----------------------------------------+ 
 | Spreads                                | 
 | Relaxed:252/4/252/0/0/0 84.824%        | 
 | Calm:252/0/0/4/252/0  5.530%           | 
 | Bold:248/0/252/0/8/0  3.775%           | 
 | Careful:252/4/0/0/252/0  1.982%        | 
 | Other  3.889%                          | 
 +----------------------------------------+ 
 | Moves                                  | 
 | Stealth Rock 96.658%                   | 
 | Metal Burst 93.327%                    | 
 | Roar 86.042%                           | 
 | Stone Edge 84.965%                     | 
 | Toxic 12.257%                          | 
 | Protect  6.945%                        | 
 | Other 19.805%                          | 
 +----------------------------------------+ 
 | Teammates                              | 
 | Empoleon +82.571%                      | 
 | Klefki +82.026%                        | 
 | Doublade +31.644%                      | 
 | Magnezone +31.587%                     | 
 | Metagross +6.405%                      | 
 | Aggron-Mega +4.909%                    | 
 | Magneton +4.539%                       | 
 | Scizor-Mega +2.820%                    | 
 | Probopass +2.605%                      | 
 +----------------------------------------+ 
 | Checks and Counters                    | 
 +----------------------------------------+ 
 +----------------------------------------+ 
 | Steelix                                | 
 +----------------------------------------+ 
 | Raw count: 1680                        | 
 | Avg. weight: 0.00184083163203          | 
 | Viability Ceiling: 70                  | 
 +----------------------------------------+ 
 | Abilities                              | 
 | Rock Head 48.734%                      | 
 | Sturdy 48.068%                         | 
 | Sheer Force  3.198%                    | 
 +----------------------------------------+ 
 | Items                                  | 
 | Life Orb 46.209%                       | 
 | Leftovers 28.019%                      | 
 | Custap Berry 22.126%                   | 
 | Other  3.646%                          | 
 +----------------------------------------+ 
 | Spreads                                | 
 | Adamant:252/252/0/0/4/0 60.933%        | 
 | Adamant:252/0/252/0/4/0 19.529%        | 
 | Quiet:0/252/0/0/0/4  6.828%            | 
 | Brave:252/252/0/0/4/0  4.364%          | 
 | Careful:4/252/0/0/252/0  4.318%        | 
 | Other  4.028%                          | 
 +----------------------------------------+ 
 | Moves                                  | 
 | Earthquake 90.935%                     | 
 | Explosion 66.898%                      | 
 | Heavy Slam 65.834%                     | 
 | Dragon Tail 47.956%                    | 
 | Double-Edge 44.000%                    | 
 | Stealth Rock 28.858%                   | 
 | Ice Fang 13.862%                       | 
 | Iron Tail  8.974%                      | 
 | Crunch  6.872%                         | 
 | Sandstorm  4.900%                      | 
 | Gyro Ball  4.412%                      | 
 | Other 16.500%                          | 
 +----------------------------------------+ 
 | Teammates                              | 
 | Metagross +76.902%                     | 
 | Klefki +54.980%                        | 
 | Lucario +26.333%                       | 
 | Bisharp +12.791%                       | 
 | Scizor +10.234%                        | 
 | Aggron +6.224%                         | 
 | Mawile +2.104%                         | 
 | Durant +0.600%                         | 
 | Cobalion +0.581%                       | 
 +----------------------------------------+ 
 | Checks and Counters                    | 
 +----------------------------------------+ 
 +----------------------------------------+ 
 | Probopass                              | 
 +----------------------------------------+ 
 | Raw count: 937                         | 
 | Avg. weight: 0.00242545392945          | 
 | Viability Ceiling: 71                  | 
 +----------------------------------------+ 
 | Abilities                              | 
 | Sturdy 89.172%                         | 
 | Magnet Pull 10.825%                    | 
 | Sand Force  0.003%                     | 
 +----------------------------------------+ 
 | Items                                  | 
 | Berry Juice 64.231%                    | 
 | Lum Berry 14.844%                      | 
 | Leftovers 10.738%                      | 
 | Chesto Berry  5.160%                   | 
 | Weakness Policy  2.568%                | 
 | Other  2.458%                          | 
 +----------------------------------------+ 
 | Spreads                                | 
 | Jolly:0/0/0/0/0/0 64.230%              | 
 | Calm:252/0/0/4/252/0 20.533%           | 
 | Calm:252/0/4/0/252/0  7.797%           | 
 | Modest:252/0/0/252/4/0  3.319%         | 
 | Other  4.121%                          | 
 +----------------------------------------+ 
 | Moves                                  | 
 | Stealth Rock 72.724%                   | 
 | Toxic 65.637%                          | 
 | Protect 64.677%                        | 
 | Pain Split 64.231%                     | 
 | Power Gem 33.314%                      | 
 | Thunder Wave 23.402%                   | 
 | Rest 21.673%                           | 
 | Earth Power 18.446%                    | 
 | Volt Switch 14.043%                    | 
 | Flash Cannon 10.584%                   | 
 | Other 11.269%                          | 
 +----------------------------------------+ 
 | Teammates                              | 
 | Metagross +60.024%                     | 
 | Ferrothorn +27.812%                    | 
 | Aggron-Mega +10.142%                   | 
 | Bronzong +8.393%                       | 
 | Empoleon +7.361%                       | 
 | Scizor +7.270%                         | 
 | Cobalion +6.206%                       | 
 | Bastiodon +3.587%                      | 
 | Durant +1.415%                         | 
 | Metang +0.785%                         | 
 | Klinklang +0.774%                      | 
 +----------------------------------------+ 
 | Checks and Counters                    | 
 +----------------------------------------+ 
 +----------------------------------------+ 
 | Escavalier                             | 
 +----------------------------------------+ 
 | Raw count: 1080                        | 
 | Avg. weight: 0.00171348928521          | 
 | Viability Ceiling: 70                  | 
 +----------------------------------------+ 
 | Abilities                              | 
 | Shell Armor 52.180%                    | 
 | Overcoat 47.037%                       | 
 | Swarm  0.782%                          | 
 +----------------------------------------+ 
 | Items                                  | 
 | Assault Vest 40.780%                   | 
 | Sitrus Berry 34.434%                   | 
 | Choice Band 12.954%                    | 
 | Focus Sash  5.364%                     | 
 | Leftovers  4.024%                      | 
 | Other  2.445%                          | 
 +----------------------------------------+ 
 | Spreads                                | 
 | Adamant:252/252/0/0/4/0 73.442%        | 
 | Adamant:248/252/0/0/8/0 12.583%        | 
 | Hardy:0/212/0/0/44/252  4.952%         | 
 | Careful:252/0/4/0/252/0  3.000%        | 
 | Adamant:172/252/0/0/0/84  1.581%       | 
 | Other  4.442%                          | 
 +----------------------------------------+ 
 | Moves                                  | 
 | Iron Head 97.675%                      | 
 | Knock Off 90.254%                      | 
 | Megahorn 56.347%                       | 
 | X-Scissor 44.597%                      | 
 | Swords Dance 43.820%                   | 
 | Drill Run 43.357%                      | 
 | Pursuit 12.816%                        | 
 | Other 11.135%                          | 
 +----------------------------------------+ 
 | Teammates                              | 
 | Empoleon +44.206%                      | 
 | Bronzong +35.698%                      | 
 | Klefki +34.443%                        | 
 | Registeel +30.943%                     | 
 | Aggron-Mega +14.110%                   | 
 | Mawile +4.920%                         | 
 | Metagross +3.781%                      | 
 | Klang +2.998%                          | 
 | Steelix-Mega +2.203%                   | 
 +----------------------------------------+ 
 | Checks and Counters                    | 
 +----------------------------------------+ 
 +----------------------------------------+ 
 | Klinklang                              | 
 +----------------------------------------+ 
 | Raw count: 1696                        | 
 | Avg. weight: 0.000600880132284         | 
 | Viability Ceiling: 69                  | 
 +----------------------------------------+ 
 | Abilities                              | 
 | Clear Body 99.026%                     | 
 | Plus  0.972%                           | 
 | Minus  0.002%                          | 
 +----------------------------------------+ 
 | Items                                  | 
 | Leftovers 71.427%                      | 
 | Focus Sash 14.024%                     | 
 | Air Balloon 10.649%                    | 
 | Other  3.900%                          | 
 +----------------------------------------+ 
 | Spreads                                | 
 | Careful:248/8/0/0/252/0 39.243%        | 
 | Adamant:0/252/0/0/4/252 18.745%        | 
 | Impish:252/0/4/0/252/0 10.938%         | 
 | Hardy:252/4/0/0/0/252  7.355%          | 
 | Adamant:0/252/0/0/0/252  5.029%        | 
 | Adamant:252/252/0/0/4/0  4.929%        | 
 | Other 13.761%                          | 
 +----------------------------------------+ 
 | Moves                                  | 
 | Gear Grind 97.019%                     | 
 | Shift Gear 96.980%                     | 
 | Substitute 44.004%                     | 
 | Iron Defense 39.250%                   | 
 | Wild Charge 35.440%                    | 
 | Return 29.528%                         | 
 | Protect 10.941%                        | 
 | Magic Coat  7.642%                     | 
 | Toxic  7.493%                          | 
 | Thunderbolt  7.359%                    | 
 | Thunder Wave  7.094%                   | 
 | Other 17.252%                          | 
 +----------------------------------------+ 
 | Teammates                              | 
 | Metagross +47.284%                     | 
 | Aggron-Mega +46.870%                   | 
 | Durant +38.250%                        | 
 | Excadrill +29.473%                     | 
 | Lucario +11.257%                       | 
 | Empoleon +11.050%                      | 
 | Cobalion +9.857%                       | 
 | Mawile +7.870%                         | 
 | Registeel +7.187%                      | 
 | Forretress +6.558%                     | 
 | Klefki +5.894%                         | 
 | Probopass +1.663%                      | 
 +----------------------------------------+ 
 | Checks and Counters                    | 
 +----------------------------------------+ 
 +----------------------------------------+ 
 | Mawile                                 | 
 +----------------------------------------+ 
 | Raw count: 1343                        | 
 | Avg. weight: 0.000504910359301         | 
 | Viability Ceiling: 68                  | 
 +----------------------------------------+ 
 | Abilities                              | 
 | Sheer Force 47.959%                    | 
 | Hyper Cutter 40.697%                   | 
 | Intimidate 11.343%                     | 
 +----------------------------------------+ 
 | Items                                  | 
 | Life Orb 35.722%                       | 
 | Leftovers 34.796%                      | 
 | Wise Glasses 12.525%                   | 
 | Assault Vest  9.727%                   | 
 | Sitrus Berry  3.345%                   | 
 | Other  3.886%                          | 
 +----------------------------------------+ 
 | Spreads                                | 
 | Adamant:252/252/0/0/4/0 24.079%        | 
 | Adamant:248/252/0/0/8/0 13.207%        | 
 | Modest:44/0/0/252/0/212 12.525%        | 
 | Impish:252/4/252/0/0/0 11.810%         | 
 | Hardy:252/252/0/0/0/4 10.479%          | 
 | Adamant:248/252/0/0/0/10  9.162%       | 
 | Other 18.739%                          | 
 +----------------------------------------+ 
 | Moves                                  | 
 | Play Rough 84.082%                     | 
 | Iron Head 71.135%                      | 
 | Sucker Punch 54.361%                   | 
 | Swords Dance 31.121%                   | 
 | Knock Off 24.238%                      | 
 | Baton Pass 18.748%                     | 
 | Flamethrower 12.856%                   | 
 | Ancient Power 12.525%                  | 
 | Ice Beam 12.525%                       | 
 | Fire Blast 12.525%                     | 
 | Toxic 12.141%                          | 
 | Pain Split 10.479%                     | 
 | Ice Punch 10.045%                      | 
 | Rock Slide  9.984%                     | 
 | Power-Up Punch  9.148%                 | 
 | Other 14.088%                          | 
 +----------------------------------------+ 
 | Teammates                              | 
 | Metagross +67.690%                     | 
 | Lucario +30.026%                       | 
 | Scizor +25.477%                        | 
 | Empoleon +23.673%                      | 
 | Escavalier +12.442%                    | 
 | Aggron-Mega +11.611%                   | 
 | Klinklang +11.220%                     | 
 | Forretress +10.057%                    | 
 | Steelix +8.470%                        | 
 | Aggron +7.960%                         | 
 | Registeel +4.335%                      | 
 | Bronzong +3.552%                       | 
 +----------------------------------------+ 
 | Checks and Counters                    | 
 +----------------------------------------+ 
