 weatherless...................92.30769%
 hyperoffense..................57.69231%
 offense.......................42.30769%
 hail.......................... 7.69231%
 hailoffense................... 7.69231%
 choice........................ 3.84615%

 Stalliness (mean: -1.094)
     |#######
     |###
     |##########
     |
 -1.2|
     |##############################
 -1.0|
     |##############################
 -0.8|
     |
 -0.6|###
     |
 -0.4|###
     |
 -0.2|
     |
  0.0|
 more negative = more offensive, more positive = more stall
 one # =  1.15%
