 offense.......................51.27660%
 weatherless...................41.91489%
 rain..........................37.44681%
 balance.......................26.59574%
 sun...........................21.48936%
 hyperoffense..................20.21277%
 multiweather..................14.25532%
 sand..........................11.91489%
 rainoffense................... 9.57447%
 dragmag....................... 3.61702%
 sandoffense................... 2.55319%
 choice........................ 2.34043%
 hail.......................... 1.48936%
 semistall..................... 1.48936%
 monotype...................... 0.85106%
 sunoffense.................... 0.63830%
 monopsychic................... 0.42553%
 hailoffense................... 0.42553%
 stall......................... 0.42553%
 sunstall...................... 0.21277%
 monoground.................... 0.21277%
 monoflying.................... 0.21277%
 monodragon.................... 0.21277%

 Stalliness (mean: -0.412)
 -1.5|####################
     |########
 -1.0|###################
     |##############################
 -0.5|##############################
     |#######################
  0.0|#########################
     |#########################
 +0.5|#####
     |########
 +1.0|####
     |#
 +1.5|
     |
 more negative = more offensive, more positive = more stall
 one # =  0.50%
