 weatherless...................90.54055%
 trickroom.....................70.60027%
 balance.......................70.60027%
 hyperoffense..................19.94028%
 rain.......................... 9.45945%
 offense....................... 9.45945%
 semistall..................... 0.00000%
 sand.......................... 0.00000%
 stall......................... 0.00000%

 Stalliness (mean: -0.038)
 -2.0|########
     |
 -1.5|
     |
 -1.0|####
     |
 -0.5|
     |
  0.0|
     |
 +0.5|
     |##############################
 +1.0|
     |
 +1.5|
 more negative = more offensive, more positive = more stall
 one # =  2.35%
