 weatherless...................100.00000%
 balance.......................54.87696%
 offense.......................43.85500%
 semistall..................... 1.22188%
 hyperoffense.................. 0.04616%
 stall......................... 0.00000%

 Stalliness (mean:  0.075)
     |#
 -0.8|#
     |##
 -0.6|#####
     |#########
 -0.4|#############
     |##################
 -0.2|#######################
     |##########################
  0.0|##############################
     |##########################
 +0.2|########################
     |####################
 +0.4|#################
     |#############
     |##########
     |#####
     |#####
     |###
     |##
     |#
     |#
 more negative = more offensive, more positive = more stall
 one # =  0.39%
