 weatherless...................79.16667%
 offense.......................52.08333%
 balance.......................31.25000%
 hyperoffense..................15.27778%
 sand.......................... 8.33333%
 rain.......................... 6.94444%
 monotype...................... 6.59722%
 sun........................... 4.16667%
 choice........................ 3.12500%
 hail.......................... 2.43056%
 monodark...................... 1.38889%
 monowater..................... 1.04167%
 multiweather.................. 1.04167%
 semistall..................... 1.04167%
 tailwind...................... 0.69444%
 monopsychic................... 0.69444%
 monosteel..................... 0.69444%
 monorock...................... 0.69444%
 mononormal.................... 0.69444%
 sandoffense................... 0.34722%
 voltturn...................... 0.34722%
 monofighting.................. 0.34722%
 monoflying.................... 0.34722%
 monoelectric.................. 0.34722%
 stall......................... 0.34722%
 monodragon.................... 0.34722%

 Stalliness (mean: -0.273)
 -2.0|#
     |
 -1.5|###
     |#####
 -1.0|#################
     |####################
 -0.5|#####################
     |#########################
  0.0|##############################
     |#################
 +0.5|#######
     |#########
 +1.0|##
     |#
 +1.5|
 more negative = more offensive, more positive = more stall
 one # =  0.62%
