 offense.......................40.33881%
 balance.......................34.65691%
 rain..........................34.26718%
 sand..........................33.32059%
 weatherless...................29.85794%
 hyperoffense..................13.76325%
 dragmag....................... 7.02779%
 semistall..................... 6.52010%
 stall......................... 4.72092%
 sandstall..................... 3.69324%
 choice........................ 2.98679%
 sun........................... 2.63839%
 rainoffense................... 2.04666%
 voltturn...................... 1.64646%
 monotype...................... 1.11706%
 trickroom..................... 0.92785%
 tricksand..................... 0.80612%
 monobug....................... 0.72653%
 multiweather.................. 0.65426%
 hail.......................... 0.57016%
 rainstall..................... 0.34214%
 sunoffense.................... 0.30243%
 tailwind...................... 0.28844%
 sandoffense................... 0.26443%
 monowater..................... 0.24401%
 monoghost..................... 0.08995%
 monopoison.................... 0.05557%
 monoice....................... 0.00047%
 monofighting.................. 0.00031%
 sunstall...................... 0.00017%
 monodragon.................... 0.00012%
 monosteel..................... 0.00008%
 monograss..................... 0.00002%
 monorock...................... 0.00001%
 monoflying.................... 0.00000%
 monodark...................... 0.00000%
 monoelectric.................. 0.00000%
 monopsychic................... 0.00000%
 monofire...................... 0.00000%
 monoground.................... 0.00000%
 hailstall..................... 0.00000%
 mononormal.................... 0.00000%

 Stalliness (mean: -0.113)
 -2.0|#####
     |######
 -1.5|####
     |#########
 -1.0|##############################
     |###############
 -0.5|###################
     |##########
  0.0|##########################
     |####################
 +0.5|##################
     |########
 +1.0|###############
     |#####
 +1.5|#####
     |##
 +2.0|####
     |
 +2.5|
     |#
 +3.0|
     |
 more negative = more offensive, more positive = more stall
 one # =  0.49%
