 weatherless...................79.32149%
 offense.......................55.57351%
 hyperoffense..................38.44911%
 trickroom.....................23.10178%
 sand..........................15.34733%
 tricksand.....................12.76252%
 balance....................... 5.65428%
 voltturn...................... 5.16963%
 hail.......................... 3.71567%
 monotype...................... 1.77706%
 rain.......................... 1.29241%
 hailoffense................... 0.96931%
 rainoffense................... 0.64620%
 monofire...................... 0.32310%
 monoground.................... 0.32310%
 monodark...................... 0.32310%
 semistall..................... 0.32310%
 sun........................... 0.32310%
 sandoffense................... 0.16155%
 monograss..................... 0.16155%
 dragmag....................... 0.16155%
 monodragon.................... 0.16155%
 sunoffense.................... 0.16155%
 monobug....................... 0.16155%
 monoghost..................... 0.16155%
 choice........................ 0.16155%
 mononormal.................... 0.16155%

 Stalliness (mean: -0.847)
     |
 -2.0|#
     |################
 -1.5|#########
     |#################
 -1.0|##############################
     |#################
 -0.5|############################
     |##########
  0.0|#####
     |###
 +0.5|##
     |
 +1.0|#
 more negative = more offensive, more positive = more stall
 one # =  0.71%
