 weatherless...................61.76579%
 balance.......................58.38542%
 offense.......................37.83079%
 rain..........................19.76693%
 sun...........................10.92097%
 sand.......................... 9.48394%
 multiweather.................. 3.24998%
 voltturn...................... 2.84412%
 semistall..................... 2.45242%
 hail.......................... 1.31296%
 trickroom..................... 1.29012%
 dragmag....................... 1.21607%
 stall......................... 1.03832%
 tailwind...................... 0.88032%
 sandstall..................... 0.63034%
 trickhail..................... 0.44395%
 hyperoffense.................. 0.29306%
 gravity....................... 0.23499%
 monotype...................... 0.07920%
 tricksun...................... 0.07096%
 tricksand..................... 0.06902%
 trickrain..................... 0.04804%
 hailoffense................... 0.01753%
 sandoffense................... 0.01398%
 monofairy..................... 0.01251%
 monoice....................... 0.01152%
 monoelectric.................. 0.01119%
 sunoffense.................... 0.00794%
 monoflying.................... 0.00753%
 monowater..................... 0.00708%
 mononormal.................... 0.00595%
 monograss..................... 0.00509%
 monopsychic................... 0.00487%
 monofire...................... 0.00318%
 monosteel..................... 0.00244%
 monodark...................... 0.00235%
 rainoffense................... 0.00173%
 monoground.................... 0.00168%
 monoghost..................... 0.00146%
 batonpass..................... 0.00127%
 monopoison.................... 0.00088%
 swagplay...................... 0.00083%
 monorock...................... 0.00073%
 monofighting.................. 0.00031%
 monobug....................... 0.00025%
 monodragon.................... 0.00022%
 rainstall..................... 0.00011%
 trapper....................... 0.00002%
 hailstall..................... 0.00000%
 sunstall...................... 0.00000%
 allweather.................... 0.00000%

 Stalliness (mean:  0.132)
 -1.5|
     |
 -1.0|#
     |######
 -0.5|#################
     |###########
  0.0|##############################
     |#####################
 +0.5|##################
     |###############
 +1.0|###
     |##
 +1.5|#
     |#
 +2.0|
 more negative = more offensive, more positive = more stall
 one # =  0.79%
