 +----------------------------------------+ 
 | Uxie                                   | 
 +----------------------------------------+ 
 | Raw count: 1                           | 
 | Avg. weight: 0.628122801539            | 
 | Viability Ceiling: 55                  | 
 +----------------------------------------+ 
 | Abilities                              | 
 | Levitate 100.000%                      | 
 +----------------------------------------+ 
 | Items                                  | 
 | Leftovers 100.000%                     | 
 +----------------------------------------+ 
 | Spreads                                | 
 | Calm:252/0/128/0/128/0 100.000%        | 
 +----------------------------------------+ 
 | Moves                                  | 
 | Stealth Rock 100.000%                  | 
 | Thunder Wave 100.000%                  | 
 | Psychic 100.000%                       | 
 | U-turn 100.000%                        | 
 +----------------------------------------+ 
 | Teammates                              | 
 | Clefable +68.594%                      | 
 | Tangrowth +68.594%                     | 
 | Slowking +68.594%                      | 
 | Steelix +68.594%                       | 
 | Cryogonal +68.594%                     | 
 +----------------------------------------+ 
 | Checks and Counters                    | 
 +----------------------------------------+ 
 +----------------------------------------+ 
 | Musharna                               | 
 +----------------------------------------+ 
 | Raw count: 1                           | 
 | Avg. weight: ---                       | 
 | Viability Ceiling: 0                   | 
 +----------------------------------------+ 
 | Abilities                              | 
 | Synchronize 100.000%                   | 
 +----------------------------------------+ 
 | Items                                  | 
 | Leftovers 100.000%                     | 
 +----------------------------------------+ 
 | Spreads                                | 
 | Bold:240/0/252/0/16/0 100.000%         | 
 +----------------------------------------+ 
 | Moves                                  | 
 | Moonlight 100.000%                     | 
 | Yawn 100.000%                          | 
 | Psychic 100.000%                       | 
 | Baton Pass 100.000%                    | 
 +----------------------------------------+ 
 | Teammates                              | 
 | Emboar +94.218%                        | 
 | Zebstrika +94.218%                     | 
 | Carracosta +94.218%                    | 
 | Simisage +94.218%                      | 
 | Absol +94.218%                         | 
 +----------------------------------------+ 
 | Checks and Counters                    | 
 +----------------------------------------+ 
 +----------------------------------------+ 
 | Slowking                               | 
 +----------------------------------------+ 
 | Raw count: 1                           | 
 | Avg. weight: 0.628122801539            | 
 | Viability Ceiling: 55                  | 
 +----------------------------------------+ 
 | Abilities                              | 
 | Regenerator 100.000%                   | 
 +----------------------------------------+ 
 | Items                                  | 
 | Leftovers 100.000%                     | 
 +----------------------------------------+ 
 | Spreads                                | 
 | Sassy:252/0/4/0/252/0 100.000%         | 
 +----------------------------------------+ 
 | Moves                                  | 
 | Dragon Tail 100.000%                   | 
 | Scald 100.000%                         | 
 | Future Sight 100.000%                  | 
 | Slack Off 100.000%                     | 
 +----------------------------------------+ 
 | Teammates                              | 
 | Clefable +68.594%                      | 
 | Tangrowth +68.594%                     | 
 | Steelix +68.594%                       | 
 | Uxie +68.594%                          | 
 | Cryogonal +68.594%                     | 
 +----------------------------------------+ 
 | Checks and Counters                    | 
 +----------------------------------------+ 
 +----------------------------------------+ 
 | Emboar                                 | 
 +----------------------------------------+ 
 | Raw count: 1                           | 
 | Avg. weight: ---                       | 
 | Viability Ceiling: 0                   | 
 +----------------------------------------+ 
 | Abilities                              | 
 | Blaze 100.000%                         | 
 +----------------------------------------+ 
 | Items                                  | 
 | Leftovers 100.000%                     | 
 +----------------------------------------+ 
 | Spreads                                | 
 | Impish:252/4/252/0/0/0 100.000%        | 
 +----------------------------------------+ 
 | Moves                                  | 
 | Protect 100.000%                       | 
 | Will-O-Wisp 100.000%                   | 
 | Superpower 100.000%                    | 
 | Flare Blitz 100.000%                   | 
 +----------------------------------------+ 
 | Teammates                              | 
 | Zebstrika +94.218%                     | 
 | Absol +94.218%                         | 
 | Musharna +94.218%                      | 
 | Simisage +94.218%                      | 
 | Carracosta +94.218%                    | 
 +----------------------------------------+ 
 | Checks and Counters                    | 
 +----------------------------------------+ 
 +----------------------------------------+ 
 | Absol                                  | 
 +----------------------------------------+ 
 | Raw count: 1                           | 
 | Avg. weight: ---                       | 
 | Viability Ceiling: 0                   | 
 +----------------------------------------+ 
 | Abilities                              | 
 | Super Luck 100.000%                    | 
 +----------------------------------------+ 
 | Items                                  | 
 | Dread Plate 100.000%                   | 
 +----------------------------------------+ 
 | Spreads                                | 
 | Adamant:0/252/4/0/0/252 100.000%       | 
 +----------------------------------------+ 
 | Moves                                  | 
 | Sucker Punch 100.000%                  | 
 | Night Slash 100.000%                   | 
 | Pursuit 100.000%                       | 
 | Detect 100.000%                        | 
 +----------------------------------------+ 
 | Teammates                              | 
 | Emboar +94.218%                        | 
 | Zebstrika +94.218%                     | 
 | Musharna +94.218%                      | 
 | Simisage +94.218%                      | 
 | Carracosta +94.218%                    | 
 +----------------------------------------+ 
 | Checks and Counters                    | 
 +----------------------------------------+ 
 +----------------------------------------+ 
 | Clefable                               | 
 +----------------------------------------+ 
 | Raw count: 1                           | 
 | Avg. weight: 0.628122801539            | 
 | Viability Ceiling: 55                  | 
 +----------------------------------------+ 
 | Abilities                              | 
 | Magic Guard 100.000%                   | 
 +----------------------------------------+ 
 | Items                                  | 
 | Leftovers 100.000%                     | 
 +----------------------------------------+ 
 | Spreads                                | 
 | Calm:252/0/4/0/252/0 100.000%          | 
 +----------------------------------------+ 
 | Moves                                  | 
 | Wish 100.000%                          | 
 | Protect 100.000%                       | 
 | Seismic Toss 100.000%                  | 
 | Heal Bell 100.000%                     | 
 +----------------------------------------+ 
 | Teammates                              | 
 | Steelix +68.594%                       | 
 | Tangrowth +68.594%                     | 
 | Slowking +68.594%                      | 
 | Uxie +68.594%                          | 
 | Cryogonal +68.594%                     | 
 +----------------------------------------+ 
 | Checks and Counters                    | 
 +----------------------------------------+ 
 +----------------------------------------+ 
 | Cryogonal                              | 
 +----------------------------------------+ 
 | Raw count: 1                           | 
 | Avg. weight: 0.628122801539            | 
 | Viability Ceiling: 55                  | 
 +----------------------------------------+ 
 | Abilities                              | 
 | Levitate 100.000%                      | 
 +----------------------------------------+ 
 | Items                                  | 
 | Leftovers 100.000%                     | 
 +----------------------------------------+ 
 | Spreads                                | 
 | Calm:248/0/168/0/92/0 100.000%         | 
 +----------------------------------------+ 
 | Moves                                  | 
 | Haze 100.000%                          | 
 | Ice Beam 100.000%                      | 
 | Recover 100.000%                       | 
 | Rapid Spin 100.000%                    | 
 +----------------------------------------+ 
 | Teammates                              | 
 | Clefable +68.594%                      | 
 | Tangrowth +68.594%                     | 
 | Slowking +68.594%                      | 
 | Uxie +68.594%                          | 
 | Steelix +68.594%                       | 
 +----------------------------------------+ 
 | Checks and Counters                    | 
 +----------------------------------------+ 
 +----------------------------------------+ 
 | Tangrowth                              | 
 +----------------------------------------+ 
 | Raw count: 1                           | 
 | Avg. weight: 0.628122801539            | 
 | Viability Ceiling: 55                  | 
 +----------------------------------------+ 
 | Abilities                              | 
 | Regenerator 100.000%                   | 
 +----------------------------------------+ 
 | Items                                  | 
 | Leftovers 100.000%                     | 
 +----------------------------------------+ 
 | Spreads                                | 
 | Hardy:252/0/252/4/0/0 100.000%         | 
 +----------------------------------------+ 
 | Moves                                  | 
 | Leech Seed 100.000%                    | 
 | Hidden Power Fire 100.000%             | 
 | Sleep Powder 100.000%                  | 
 | Giga Drain 100.000%                    | 
 +----------------------------------------+ 
 | Teammates                              | 
 | Clefable +68.594%                      | 
 | Slowking +68.594%                      | 
 | Cryogonal +68.594%                     | 
 | Uxie +68.594%                          | 
 | Steelix +68.594%                       | 
 +----------------------------------------+ 
 | Checks and Counters                    | 
 +----------------------------------------+ 
 +----------------------------------------+ 
 | Steelix                                | 
 +----------------------------------------+ 
 | Raw count: 1                           | 
 | Avg. weight: 0.628122801539            | 
 | Viability Ceiling: 55                  | 
 +----------------------------------------+ 
 | Abilities                              | 
 | Sturdy 100.000%                        | 
 +----------------------------------------+ 
 | Items                                  | 
 | Leftovers 100.000%                     | 
 +----------------------------------------+ 
 | Spreads                                | 
 | Relaxed:252/0/96/0/160/0 100.000%      | 
 +----------------------------------------+ 
 | Moves                                  | 
 | Roar 100.000%                          | 
 | Stealth Rock 100.000%                  | 
 | Earthquake 100.000%                    | 
 | Gyro Ball 100.000%                     | 
 +----------------------------------------+ 
 | Teammates                              | 
 | Clefable +68.594%                      | 
 | Slowking +68.594%                      | 
 | Cryogonal +68.594%                     | 
 | Uxie +68.594%                          | 
 | Tangrowth +68.594%                     | 
 +----------------------------------------+ 
 | Checks and Counters                    | 
 +----------------------------------------+ 
 +----------------------------------------+ 
 | Carracosta                             | 
 +----------------------------------------+ 
 | Raw count: 1                           | 
 | Avg. weight: ---                       | 
 | Viability Ceiling: 0                   | 
 +----------------------------------------+ 
 | Abilities                              | 
 | Solid Rock 100.000%                    | 
 +----------------------------------------+ 
 | Items                                  | 
 | White Herb 100.000%                    | 
 +----------------------------------------+ 
 | Spreads                                | 
 | Jolly:52/252/0/0/0/204 100.000%        | 
 +----------------------------------------+ 
 | Moves                                  | 
 | Waterfall 100.000%                     | 
 | Shell Smash 100.000%                   | 
 | Stone Edge 100.000%                    | 
 | Earthquake 100.000%                    | 
 +----------------------------------------+ 
 | Teammates                              | 
 | Emboar +94.218%                        | 
 | Zebstrika +94.218%                     | 
 | Musharna +94.218%                      | 
 | Simisage +94.218%                      | 
 | Absol +94.218%                         | 
 +----------------------------------------+ 
 | Checks and Counters                    | 
 +----------------------------------------+ 
 +----------------------------------------+ 
 | Simisage                               | 
 +----------------------------------------+ 
 | Raw count: 1                           | 
 | Avg. weight: ---                       | 
 | Viability Ceiling: 0                   | 
 +----------------------------------------+ 
 | Abilities                              | 
 | Gluttony 100.000%                      | 
 +----------------------------------------+ 
 | Items                                  | 
 | Choice Band 100.000%                   | 
 +----------------------------------------+ 
 | Spreads                                | 
 | Jolly:8/248/0/0/0/252 100.000%         | 
 +----------------------------------------+ 
 | Moves                                  | 
 | Acrobatics 100.000%                    | 
 | Endeavor 100.000%                      | 
 | Seed Bomb 100.000%                     | 
 | Substitute 100.000%                    | 
 +----------------------------------------+ 
 | Teammates                              | 
 | Zebstrika +94.218%                     | 
 | Carracosta +94.218%                    | 
 | Absol +94.218%                         | 
 | Musharna +94.218%                      | 
 | Emboar +94.218%                        | 
 +----------------------------------------+ 
 | Checks and Counters                    | 
 +----------------------------------------+ 
 +----------------------------------------+ 
 | Zebstrika                              | 
 +----------------------------------------+ 
 | Raw count: 1                           | 
 | Avg. weight: ---                       | 
 | Viability Ceiling: 0                   | 
 +----------------------------------------+ 
 | Abilities                              | 
 | Lightning Rod 100.000%                 | 
 +----------------------------------------+ 
 | Items                                  | 
 | Choice Scarf 100.000%                  | 
 +----------------------------------------+ 
 | Spreads                                | 
 | Modest:0/0/0/252/4/252 100.000%        | 
 +----------------------------------------+ 
 | Moves                                  | 
 | Discharge 100.000%                     | 
 | Hidden Power Grass 100.000%            | 
 | Thunderbolt 100.000%                   | 
 | Volt Switch 100.000%                   | 
 +----------------------------------------+ 
 | Teammates                              | 
 | Emboar +94.218%                        | 
 | Absol +94.218%                         | 
 | Musharna +94.218%                      | 
 | Simisage +94.218%                      | 
 | Carracosta +94.218%                    | 
 +----------------------------------------+ 
 | Checks and Counters                    | 
 +----------------------------------------+ 
 +----------------------------------------+ 
 | Hitmonlee                              | 
 +----------------------------------------+ 
 | Raw count: 1                           | 
 | Avg. weight: ---                       | 
 | Viability Ceiling: 0                   | 
 +----------------------------------------+ 
 | Abilities                              | 
 | Reckless 100.000%                      | 
 +----------------------------------------+ 
 | Items                                  | 
 | Focus Sash 100.000%                    | 
 +----------------------------------------+ 
 | Spreads                                | 
 | Jolly:0/252/0/0/4/252 100.000%         | 
 +----------------------------------------+ 
 | Moves                                  | 
 | Fake Out 100.000%                      | 
 | Bulk Up 100.000%                       | 
 | High Jump Kick 100.000%                | 
 | Earthquake 100.000%                    | 
 +----------------------------------------+ 
 | Teammates                              | 
 | Crawdaunt +55.782%                     | 
 | Cinccino +55.782%                      | 
 | Ferroseed +55.782%                     | 
 | Amoonguss +55.782%                     | 
 | Sceptile +55.782%                      | 
 +----------------------------------------+ 
 | Checks and Counters                    | 
 +----------------------------------------+ 
 +----------------------------------------+ 
 | Rotom                                  | 
 +----------------------------------------+ 
 | Raw count: 1                           | 
 | Avg. weight: 0.371877198461            | 
 | Viability Ceiling: 45                  | 
 +----------------------------------------+ 
 | Abilities                              | 
 | Levitate 100.000%                      | 
 +----------------------------------------+ 
 | Items                                  | 
 | Electirizer 100.000%                   | 
 +----------------------------------------+ 
 | Spreads                                | 
 | Timid:0/0/0/252/4/252 100.000%         | 
 +----------------------------------------+ 
 | Moves                                  | 
 | Electro Ball 100.000%                  | 
 | Discharge 100.000%                     | 
 | Thunderbolt 100.000%                   | 
 | Thunder 100.000%                       | 
 +----------------------------------------+ 
 | Teammates                              | 
 | Throh +81.406%                         | 
 | Regigigas +81.406%                     | 
 | Chikorita +81.406%                     | 
 | Sawk +81.406%                          | 
 | Ditto +81.406%                         | 
 +----------------------------------------+ 
 | Checks and Counters                    | 
 +----------------------------------------+ 
 +----------------------------------------+ 
 | Sceptile                               | 
 +----------------------------------------+ 
 | Raw count: 1                           | 
 | Avg. weight: ---                       | 
 | Viability Ceiling: 0                   | 
 +----------------------------------------+ 
 | Abilities                              | 
 | Overgrow 100.000%                      | 
 +----------------------------------------+ 
 | Items                                  | 
 | Choice Specs 100.000%                  | 
 +----------------------------------------+ 
 | Spreads                                | 
 | Timid:0/0/0/252/4/252 100.000%         | 
 +----------------------------------------+ 
 | Moves                                  | 
 | Focus Blast 100.000%                   | 
 | Leaf Storm 100.000%                    | 
 | Hidden Power Fire 100.000%             | 
 | Dragon Pulse 100.000%                  | 
 +----------------------------------------+ 
 | Teammates                              | 
 | Crawdaunt +55.782%                     | 
 | Cinccino +55.782%                      | 
 | Hitmonlee +55.782%                     | 
 | Ferroseed +55.782%                     | 
 | Amoonguss +55.782%                     | 
 +----------------------------------------+ 
 | Checks and Counters                    | 
 +----------------------------------------+ 
 +----------------------------------------+ 
 | Throh                                  | 
 +----------------------------------------+ 
 | Raw count: 1                           | 
 | Avg. weight: 0.371877198461            | 
 | Viability Ceiling: 45                  | 
 +----------------------------------------+ 
 | Abilities                              | 
 | Inner Focus 100.000%                   | 
 +----------------------------------------+ 
 | Items                                  | 
 | Focus Sash 100.000%                    | 
 +----------------------------------------+ 
 | Spreads                                | 
 | Modest:252/0/0/252/4/0 100.000%        | 
 +----------------------------------------+ 
 | Moves                                  | 
 | Snore 100.000%                         | 
 | Attract 100.000%                       | 
 | Focus Blast 100.000%                   | 
 | Sunny Day 100.000%                     | 
 +----------------------------------------+ 
 | Teammates                              | 
 | Sawk +81.406%                          | 
 | Regigigas +81.406%                     | 
 | Ditto +81.406%                         | 
 | Rotom +81.406%                         | 
 | Chikorita +81.406%                     | 
 +----------------------------------------+ 
 | Checks and Counters                    | 
 +----------------------------------------+ 
 +----------------------------------------+ 
 | Ferroseed                              | 
 +----------------------------------------+ 
 | Raw count: 1                           | 
 | Avg. weight: ---                       | 
 | Viability Ceiling: 0                   | 
 +----------------------------------------+ 
 | Abilities                              | 
 | Iron Barbs 100.000%                    | 
 +----------------------------------------+ 
 | Items                                  | 
 | Eviolite 100.000%                      | 
 +----------------------------------------+ 
 | Spreads                                | 
 | Relaxed:252/4/252/0/0/0 100.000%       | 
 +----------------------------------------+ 
 | Moves                                  | 
 | Toxic 100.000%                         | 
 | Stealth Rock 100.000%                  | 
 | Spikes 100.000%                        | 
 | Gyro Ball 100.000%                     | 
 +----------------------------------------+ 
 | Teammates                              | 
 | Crawdaunt +55.782%                     | 
 | Cinccino +55.782%                      | 
 | Hitmonlee +55.782%                     | 
 | Amoonguss +55.782%                     | 
 | Sceptile +55.782%                      | 
 +----------------------------------------+ 
 | Checks and Counters                    | 
 +----------------------------------------+ 
 +----------------------------------------+ 
 | Crawdaunt                              | 
 +----------------------------------------+ 
 | Raw count: 1                           | 
 | Avg. weight: ---                       | 
 | Viability Ceiling: 0                   | 
 +----------------------------------------+ 
 | Abilities                              | 
 | Adaptability 100.000%                  | 
 +----------------------------------------+ 
 | Items                                  | 
 | Choice Band 100.000%                   | 
 +----------------------------------------+ 
 | Spreads                                | 
 | Adamant:252/252/0/0/4/0 100.000%       | 
 +----------------------------------------+ 
 | Moves                                  | 
 | Crunch 100.000%                        | 
 | Crabhammer 100.000%                    | 
 | Superpower 100.000%                    | 
 | X-Scissor 100.000%                     | 
 +----------------------------------------+ 
 | Teammates                              | 
 | Cinccino +55.782%                      | 
 | Hitmonlee +55.782%                     | 
 | Ferroseed +55.782%                     | 
 | Amoonguss +55.782%                     | 
 | Sceptile +55.782%                      | 
 +----------------------------------------+ 
 | Checks and Counters                    | 
 +----------------------------------------+ 
 +----------------------------------------+ 
 | Ditto                                  | 
 +----------------------------------------+ 
 | Raw count: 1                           | 
 | Avg. weight: 0.371877198461            | 
 | Viability Ceiling: 45                  | 
 +----------------------------------------+ 
 | Abilities                              | 
 | Imposter 100.000%                      | 
 +----------------------------------------+ 
 | Items                                  | 
 | Dive Ball 100.000%                     | 
 +----------------------------------------+ 
 | Spreads                                | 
 | Bold:248/0/252/0/8/0 100.000%          | 
 +----------------------------------------+ 
 | Moves                                  | 
 | Nothing 300.000%                       | 
 | Transform 100.000%                     | 
 +----------------------------------------+ 
 | Teammates                              | 
 | Throh +81.406%                         | 
 | Regigigas +81.406%                     | 
 | Sawk +81.406%                          | 
 | Rotom +81.406%                         | 
 | Chikorita +81.406%                     | 
 +----------------------------------------+ 
 | Checks and Counters                    | 
 +----------------------------------------+ 
 +----------------------------------------+ 
 | Regigigas                              | 
 +----------------------------------------+ 
 | Raw count: 1                           | 
 | Avg. weight: 0.371877198461            | 
 | Viability Ceiling: 45                  | 
 +----------------------------------------+ 
 | Abilities                              | 
 | Slow Start 100.000%                    | 
 +----------------------------------------+ 
 | Items                                  | 
 | Master Ball 100.000%                   | 
 +----------------------------------------+ 
 | Spreads                                | 
 | Hasty:0/252/0/4/0/252 100.000%         | 
 +----------------------------------------+ 
 | Moves                                  | 
 | Crush Grip 100.000%                    | 
 | Avalanche 100.000%                     | 
 | Giga Impact 100.000%                   | 
 | Hyper Beam 100.000%                    | 
 +----------------------------------------+ 
 | Teammates                              | 
 | Throh +81.406%                         | 
 | Chikorita +81.406%                     | 
 | Sawk +81.406%                          | 
 | Rotom +81.406%                         | 
 | Ditto +81.406%                         | 
 +----------------------------------------+ 
 | Checks and Counters                    | 
 +----------------------------------------+ 
 +----------------------------------------+ 
 | Sawk                                   | 
 +----------------------------------------+ 
 | Raw count: 1                           | 
 | Avg. weight: 0.371877198461            | 
 | Viability Ceiling: 45                  | 
 +----------------------------------------+ 
 | Abilities                              | 
 | Sturdy 100.000%                        | 
 +----------------------------------------+ 
 | Items                                  | 
 | Lustrous Orb 100.000%                  | 
 +----------------------------------------+ 
 | Spreads                                | 
 | Hasty:0/252/0/4/0/252 100.000%         | 
 +----------------------------------------+ 
 | Moves                                  | 
 | Focus Blast 100.000%                   | 
 | Giga Impact 100.000%                   | 
 | Superpower 100.000%                    | 
 | Close Combat 100.000%                  | 
 +----------------------------------------+ 
 | Teammates                              | 
 | Throh +81.406%                         | 
 | Regigigas +81.406%                     | 
 | Ditto +81.406%                         | 
 | Rotom +81.406%                         | 
 | Chikorita +81.406%                     | 
 +----------------------------------------+ 
 | Checks and Counters                    | 
 +----------------------------------------+ 
 +----------------------------------------+ 
 | Amoonguss                              | 
 +----------------------------------------+ 
 | Raw count: 1                           | 
 | Avg. weight: ---                       | 
 | Viability Ceiling: 0                   | 
 +----------------------------------------+ 
 | Abilities                              | 
 | Regenerator 100.000%                   | 
 +----------------------------------------+ 
 | Items                                  | 
 | Leftovers 100.000%                     | 
 +----------------------------------------+ 
 | Spreads                                | 
 | Modest:252/0/0/252/4/0 100.000%        | 
 +----------------------------------------+ 
 | Moves                                  | 
 | Clear Smog 100.000%                    | 
 | Sludge Bomb 100.000%                   | 
 | Spore 100.000%                         | 
 | Giga Drain 100.000%                    | 
 +----------------------------------------+ 
 | Teammates                              | 
 | Crawdaunt +55.782%                     | 
 | Cinccino +55.782%                      | 
 | Hitmonlee +55.782%                     | 
 | Ferroseed +55.782%                     | 
 | Sceptile +55.782%                      | 
 +----------------------------------------+ 
 | Checks and Counters                    | 
 +----------------------------------------+ 
 +----------------------------------------+ 
 | Cinccino                               | 
 +----------------------------------------+ 
 | Raw count: 1                           | 
 | Avg. weight: ---                       | 
 | Viability Ceiling: 0                   | 
 +----------------------------------------+ 
 | Abilities                              | 
 | Skill Link 100.000%                    | 
 +----------------------------------------+ 
 | Items                                  | 
 | Nothing 100.000%                       | 
 +----------------------------------------+ 
 | Spreads                                | 
 | Jolly:0/252/0/0/4/252 100.000%         | 
 +----------------------------------------+ 
 | Moves                                  | 
 | U-turn 100.000%                        | 
 | Tail Slap 100.000%                     | 
 | Bullet Seed 100.000%                   | 
 | Rock Blast 100.000%                    | 
 +----------------------------------------+ 
 | Teammates                              | 
 | Crawdaunt +55.782%                     | 
 | Hitmonlee +55.782%                     | 
 | Ferroseed +55.782%                     | 
 | Amoonguss +55.782%                     | 
 | Sceptile +55.782%                      | 
 +----------------------------------------+ 
 | Checks and Counters                    | 
 +----------------------------------------+ 
 +----------------------------------------+ 
 | Chikorita                              | 
 +----------------------------------------+ 
 | Raw count: 1                           | 
 | Avg. weight: 0.371877198461            | 
 | Viability Ceiling: 45                  | 
 +----------------------------------------+ 
 | Abilities                              | 
 | Overgrow 100.000%                      | 
 +----------------------------------------+ 
 | Items                                  | 
 | Power Herb 100.000%                    | 
 +----------------------------------------+ 
 | Spreads                                | 
 | Quiet:252/4/0/252/0/0 100.000%         | 
 +----------------------------------------+ 
 | Moves                                  | 
 | Aromatherapy 100.000%                  | 
 | Ancient Power 100.000%                 | 
 | Bullet Seed 100.000%                   | 
 | Energy Ball 100.000%                   | 
 +----------------------------------------+ 
 | Teammates                              | 
 | Throh +81.406%                         | 
 | Regigigas +81.406%                     | 
 | Sawk +81.406%                          | 
 | Rotom +81.406%                         | 
 | Ditto +81.406%                         | 
 +----------------------------------------+ 
 | Checks and Counters                    | 
 +----------------------------------------+ 
