 +----------------------------------------+ 
 | Kitsunoh                               | 
 +----------------------------------------+ 
 | Raw count: 53                          | 
 | Avg. weight: 0.252735473269            | 
 | Viability Ceiling: 90                  | 
 +----------------------------------------+ 
 | Abilities                              | 
 | Iron Fist 100.000%                     | 
 | Frisk  0.000%                          | 
 +----------------------------------------+ 
 | Items                                  | 
 | Choice Band 97.898%                    | 
 | Other  2.102%                          | 
 +----------------------------------------+ 
 | Spreads                                | 
 | Jolly:0/252/0/0/4/252 100.000%         | 
 | Other  0.000%                          | 
 +----------------------------------------+ 
 | Moves                                  | 
 | Bullet Punch 100.000%                  | 
 | Meteor Mash 100.000%                   | 
 | U-turn 97.898%                         | 
 | Shadow Strike 97.898%                  | 
 | Other  4.204%                          | 
 +----------------------------------------+ 
 | Teammates                              | 
 +----------------------------------------+ 
 | Checks and Counters                    | 
 +----------------------------------------+ 
 +----------------------------------------+ 
 | Krilowatt                              | 
 +----------------------------------------+ 
 | Raw count: 42                          | 
 | Avg. weight: 0.439913376811            | 
 | Viability Ceiling: 90                  | 
 +----------------------------------------+ 
 | Abilities                              | 
 | Magic Guard 100.000%                   | 
 | Trace  0.000%                          | 
 +----------------------------------------+ 
 | Items                                  | 
 | Life Orb 100.000%                      | 
 | Other  0.000%                          | 
 +----------------------------------------+ 
 | Spreads                                | 
 | Timid:0/0/0/252/0/252 99.988%          | 
 | Other  0.012%                          | 
 +----------------------------------------+ 
 | Moves                                  | 
 | Ice Beam 100.000%                      | 
 | Surf 100.000%                          | 
 | Thunderbolt 100.000%                   | 
 | Volt Switch 99.988%                    | 
 | Other  0.012%                          | 
 +----------------------------------------+ 
 | Teammates                              | 
 +----------------------------------------+ 
 | Checks and Counters                    | 
 +----------------------------------------+ 
 +----------------------------------------+ 
 | Landorus-Therian                       | 
 +----------------------------------------+ 
 | Raw count: 32                          | 
 | Avg. weight: 0.565602804363            | 
 | Viability Ceiling: 90                  | 
 +----------------------------------------+ 
 | Abilities                              | 
 | Intimidate 100.000%                    | 
 +----------------------------------------+ 
 | Items                                  | 
 | Flyinium Z 99.988%                     | 
 | Other  0.012%                          | 
 +----------------------------------------+ 
 | Spreads                                | 
 | Adamant:252/252/0/0/4/0 99.988%        | 
 | Other  0.012%                          | 
 +----------------------------------------+ 
 | Moves                                  | 
 | Earthquake 100.000%                    | 
 | Fly 99.988%                            | 
 | Defog 99.988%                          | 
 | Stealth Rock 99.988%                   | 
 | Other  0.035%                          | 
 +----------------------------------------+ 
 | Teammates                              | 
 +----------------------------------------+ 
 | Checks and Counters                    | 
 +----------------------------------------+ 
 +----------------------------------------+ 
 | Beedrill-Mega                          | 
 +----------------------------------------+ 
 | Raw count: 29                          | 
 | Avg. weight: 0.791752573879            | 
 | Viability Ceiling: 90                  | 
 +----------------------------------------+ 
 | Abilities                              | 
 | Adaptability 100.000%                  | 
 +----------------------------------------+ 
 | Items                                  | 
 | Beedrillite 100.000%                   | 
 +----------------------------------------+ 
 | Spreads                                | 
 | Jolly:0/252/0/0/4/252 100.000%         | 
 | Other  0.000%                          | 
 +----------------------------------------+ 
 | Moves                                  | 
 | U-turn 100.000%                        | 
 | Knock Off 100.000%                     | 
 | Poison Jab 100.000%                    | 
 | Drill Run 100.000%                     | 
 | Other  0.000%                          | 
 +----------------------------------------+ 
 | Teammates                              | 
 +----------------------------------------+ 
 | Checks and Counters                    | 
 +----------------------------------------+ 
 +----------------------------------------+ 
 | Arghonaut                              | 
 +----------------------------------------+ 
 | Raw count: 50                          | 
 | Avg. weight: 0.439862541044            | 
 | Viability Ceiling: 90                  | 
 +----------------------------------------+ 
 | Abilities                              | 
 | Unaware 100.000%                       | 
 | Technician  0.000%                     | 
 +----------------------------------------+ 
 | Items                                  | 
 | Leftovers 100.000%                     | 
 | Other  0.000%                          | 
 +----------------------------------------+ 
 | Spreads                                | 
 | Careful:252/4/0/0/252/0 100.000%       | 
 | Other  0.000%                          | 
 +----------------------------------------+ 
 | Moves                                  | 
 | Recover 100.000%                       | 
 | Toxic 100.000%                         | 
 | Spikes 100.000%                        | 
 | Circle Throw 100.000%                  | 
 | Other  0.000%                          | 
 +----------------------------------------+ 
 | Teammates                              | 
 +----------------------------------------+ 
 | Checks and Counters                    | 
 +----------------------------------------+ 
 +----------------------------------------+ 
 | Jumbao                                 | 
 +----------------------------------------+ 
 | Raw count: 47                          | 
 | Avg. weight: 0.395876305103            | 
 | Viability Ceiling: 90                  | 
 +----------------------------------------+ 
 | Abilities                              | 
 | Drought 100.000%                       | 
 | Overcoat  0.000%                       | 
 | Trace  0.000%                          | 
 +----------------------------------------+ 
 | Items                                  | 
 | Choice Scarf 100.000%                  | 
 | Other  0.000%                          | 
 +----------------------------------------+ 
 | Spreads                                | 
 | Timid:0/0/0/252/4/252 100.000%         | 
 | Other  0.000%                          | 
 +----------------------------------------+ 
 | Moves                                  | 
 | Flame Burst 100.000%                   | 
 | Solar Beam 100.000%                    | 
 | Moonblast 100.000%                     | 
 | Focus Blast 100.000%                   | 
 | Other  0.000%                          | 
 +----------------------------------------+ 
 | Teammates                              | 
 +----------------------------------------+ 
 | Checks and Counters                    | 
 +----------------------------------------+ 
 +----------------------------------------+ 
 | Aurumoth                               | 
 +----------------------------------------+ 
 | Raw count: 53                          | 
 | Avg. weight: 0.00340019538186          | 
 | Viability Ceiling: 65                  | 
 +----------------------------------------+ 
 | Abilities                              | 
 | No Guard 100.000%                      | 
 | Weak Armor  0.000%                     | 
 | Light Metal  0.000%                    | 
 +----------------------------------------+ 
 | Items                                  | 
 | Focus Sash 100.000%                    | 
 | Other  0.000%                          | 
 +----------------------------------------+ 
 | Spreads                                | 
 | Timid:0/0/0/252/4/252 100.000%         | 
 | Other  0.000%                          | 
 +----------------------------------------+ 
 | Moves                                  | 
 | Focus Blast 100.000%                   | 
 | Tail Glow 100.000%                     | 
 | Psychic 100.000%                       | 
 | Thunder 100.000%                       | 
 | Other  0.000%                          | 
 +----------------------------------------+ 
 | Teammates                              | 
 | Volkraken +97.291%                     | 
 | Plasmanta +97.291%                     | 
 | Snaelstrom +97.291%                    | 
 | Cawmodore +55.596%                     | 
 | Malaconda +41.695%                     | 
 | Kitsunoh +2.612%                       | 
 +----------------------------------------+ 
 | Checks and Counters                    | 
 +----------------------------------------+ 
 +----------------------------------------+ 
 | Volkraken                              | 
 +----------------------------------------+ 
 | Raw count: 19                          | 
 | Avg. weight: 0.0170009405821           | 
 | Viability Ceiling: 63                  | 
 +----------------------------------------+ 
 | Abilities                              | 
 | Analytic 100.000%                      | 
 | Infiltrator  0.000%                    | 
 | Pressure  0.000%                       | 
 +----------------------------------------+ 
 | Items                                  | 
 | Choice Specs 100.000%                  | 
 | Other  0.000%                          | 
 +----------------------------------------+ 
 | Spreads                                | 
 | Timid:0/0/0/252/4/252 100.000%         | 
 | Other  0.000%                          | 
 +----------------------------------------+ 
 | Moves                                  | 
 | U-turn 100.000%                        | 
 | Hydro Pump 100.000%                    | 
 | Fire Blast 100.000%                    | 
 | Flamethrower 100.000%                  | 
 | Other  0.000%                          | 
 +----------------------------------------+ 
 | Teammates                              | 
 | Plasmanta +97.291%                     | 
 | Aurumoth +97.291%                      | 
 | Snaelstrom +97.291%                    | 
 | Cawmodore +55.597%                     | 
 | Malaconda +41.695%                     | 
 | Kitsunoh +2.612%                       | 
 +----------------------------------------+ 
 | Checks and Counters                    | 
 +----------------------------------------+ 
 +----------------------------------------+ 
 | Plasmanta                              | 
 +----------------------------------------+ 
 | Raw count: 31                          | 
 | Avg. weight: 0.0170009405821           | 
 | Viability Ceiling: 63                  | 
 +----------------------------------------+ 
 | Abilities                              | 
 | Storm Drain 100.000%                   | 
 | Vital Spirit  0.000%                   | 
 +----------------------------------------+ 
 | Items                                  | 
 | Leftovers 100.000%                     | 
 | Other  0.000%                          | 
 +----------------------------------------+ 
 | Spreads                                | 
 | Timid:48/0/0/208/0/252 100.000%        | 
 | Other  0.000%                          | 
 +----------------------------------------+ 
 | Moves                                  | 
 | Substitute 100.000%                    | 
 | Hidden Power Ice 100.000%              | 
 | Thunderbolt 100.000%                   | 
 | Sludge Wave 100.000%                   | 
 | Other  0.000%                          | 
 +----------------------------------------+ 
 | Teammates                              | 
 | Snaelstrom +97.291%                    | 
 | Volkraken +97.291%                     | 
 | Aurumoth +97.291%                      | 
 | Cawmodore +55.597%                     | 
 | Malaconda +41.695%                     | 
 | Kitsunoh +2.612%                       | 
 +----------------------------------------+ 
 | Checks and Counters                    | 
 +----------------------------------------+ 
 +----------------------------------------+ 
 | Snaelstrom                             | 
 +----------------------------------------+ 
 | Raw count: 86                          | 
 | Avg. weight: 0.082865622151            | 
 | Viability Ceiling: 90                  | 
 +----------------------------------------+ 
 | Abilities                              | 
 | Poison Heal 100.000%                   | 
 | Torrent  0.000%                        | 
 +----------------------------------------+ 
 | Items                                  | 
 | Toxic Orb 100.000%                     | 
 | Other  0.000%                          | 
 +----------------------------------------+ 
 | Spreads                                | 
 | Bold:252/0/252/0/4/0 95.897%           | 
 | Other  4.103%                          | 
 +----------------------------------------+ 
 | Moves                                  | 
 | Sticky Web 95.897%                     | 
 | Scald 95.897%                          | 
 | Spiky Shield 95.897%                   | 
 | Stealth Rock 95.897%                   | 
 | Other 16.413%                          | 
 +----------------------------------------+ 
 | Teammates                              | 
 | Volkraken +1.395%                      | 
 | Plasmanta +1.395%                      | 
 | Aurumoth +1.395%                       | 
 | Cawmodore +0.797%                      | 
 | Malaconda +0.598%                      | 
 +----------------------------------------+ 
 | Checks and Counters                    | 
 +----------------------------------------+ 
 +----------------------------------------+ 
 | Cobalion                               | 
 +----------------------------------------+ 
 | Raw count: 10                          | 
 | Avg. weight: 0.0203766853265           | 
 | Viability Ceiling: 65                  | 
 +----------------------------------------+ 
 | Abilities                              | 
 | Justified 100.000%                     | 
 +----------------------------------------+ 
 | Items                                  | 
 | Leftovers 100.000%                     | 
 +----------------------------------------+ 
 | Spreads                                | 
 | Jolly:252/0/4/0/0/252 100.000%         | 
 +----------------------------------------+ 
 | Moves                                  | 
 | Iron Head 100.000%                     | 
 | Stealth Rock 100.000%                  | 
 | Thunder Wave 100.000%                  | 
 | Taunt 100.000%                         | 
 | Other  0.000%                          | 
 +----------------------------------------+ 
 | Teammates                              | 
 | Colossoil +97.403%                     | 
 | Dusclops +97.403%                      | 
 | Tapu Fini +97.403%                     | 
 | Charizard-Mega-X +97.403%              | 
 | Zeraora +97.403%                       | 
 | Zeraora +97.403%                       | | 
 +----------------------------------------+ 
 | Checks and Counters                    | 
 +----------------------------------------+ 
 +----------------------------------------+ 
 | Colossoil                              | 
 +----------------------------------------+ 
 | Raw count: 33                          | 
 | Avg. weight: 0.00679222844217          | 
 | Viability Ceiling: 65                  | 
 +----------------------------------------+ 
 | Abilities                              | 
 | Rebound 100.000%                       | 
 | Guts  0.000%                           | 
 | Unnerve  0.000%                        | 
 +----------------------------------------+ 
 | Items                                  | 
 | Life Orb 100.000%                      | 
 | Other  0.000%                          | 
 +----------------------------------------+ 
 | Spreads                                | 
 | Jolly:0/252/0/0/4/252 100.000%         | 
 | Other  0.000%                          | 
 +----------------------------------------+ 
 | Moves                                  | 
 | Earthquake 100.000%                    | 
 | Knock Off 100.000%                     | 
 | Rapid Spin 100.000%                    | 
 | Stone Edge 100.000%                    | 
 | Other  0.000%                          | 
 +----------------------------------------+ 
 | Teammates                              | 
 | Tapu Fini +97.403%                     | 
 | Charizard-Mega-X +97.403%              | 
 | Zeraora +97.403%                       | 
 | Dusclops +97.403%                      | 
 | Cobalion +97.403%                      | 
 | Cobalion +97.403%                      | | 
 +----------------------------------------+ 
 | Checks and Counters                    | 
 +----------------------------------------+ 
 +----------------------------------------+ 
 | Charizard-Mega-X                       | 
 +----------------------------------------+ 
 | Raw count: 23                          | 
 | Avg. weight: 0.00905630458956          | 
 | Viability Ceiling: 65                  | 
 +----------------------------------------+ 
 | Abilities                              | 
 | Tough Claws 100.000%                   | 
 +----------------------------------------+ 
 | Items                                  | 
 | Charizardite X 100.000%                | 
 +----------------------------------------+ 
 | Spreads                                | 
 | Jolly:0/252/0/0/4/252 100.000%         | 
 | Other  0.000%                          | 
 +----------------------------------------+ 
 | Moves                                  | 
 | Fire Punch 100.000%                    | 
 | Dragon Claw 100.000%                   | 
 | Dragon Dance 100.000%                  | 
 | Roost 100.000%                         | 
 | Other  0.000%                          | 
 +----------------------------------------+ 
 | Teammates                              | 
 | Colossoil +97.403%                     | 
 | Dusclops +97.403%                      | 
 | Tapu Fini +97.403%                     | 
 | Zeraora +97.403%                       | 
 | Cobalion +97.403%                      | 
 | Cobalion +97.403%                      | | 
 +----------------------------------------+ 
 | Checks and Counters                    | 
 +----------------------------------------+ 
 +----------------------------------------+ 
 | Zeraora                                | 
 +----------------------------------------+ 
 | Raw count: 8                           | 
 | Avg. weight: 0.0203766853265           | 
 | Viability Ceiling: 65                  | 
 +----------------------------------------+ 
 | Abilities                              | 
 | Volt Absorb 100.000%                   | 
 +----------------------------------------+ 
 | Items                                  | 
 | Choice Band 100.000%                   | 
 | Other  0.000%                          | 
 +----------------------------------------+ 
 | Spreads                                | 
 | Jolly:0/252/0/0/4/252 100.000%         | 
 | Other  0.000%                          | 
 +----------------------------------------+ 
 | Moves                                  | 
 | Knock Off 100.000%                     | 
 | Plasma Fists 100.000%                  | 
 | Drain Punch 100.000%                   | 
 | Facade 100.000%                        | 
 | Other  0.000%                          | 
 +----------------------------------------+ 
 | Teammates                              | 
 | Colossoil +97.403%                     | 
 | Charizard-Mega-X +97.403%              | 
 | Dusclops +97.403%                      | 
 | Tapu Fini +97.403%                     | 
 | Cobalion +97.403%                      | 
 | Cobalion +97.403%                      | | 
 +----------------------------------------+ 
 | Checks and Counters                    | 
 +----------------------------------------+ 
 +----------------------------------------+ 
 | Tapu Fini                              | 
 +----------------------------------------+ 
 | Raw count: 11                          | 
 | Avg. weight: 0.0101883426633           | 
 | Viability Ceiling: 65                  | 
 +----------------------------------------+ 
 | Abilities                              | 
 | Misty Surge 100.000%                   | 
 +----------------------------------------+ 
 | Items                                  | 
 | Icium Z 100.000%                       | 
 | Other  0.000%                          | 
 +----------------------------------------+ 
 | Spreads                                | 
 | Modest:252/0/0/252/4/0 100.000%        | 
 | Other  0.000%                          | 
 +----------------------------------------+ 
 | Moves                                  | 
 | Scald 100.000%                         | 
 | Haze 100.000%                          | 
 | Moonblast 100.000%                     | 
 | Calm Mind 100.000%                     | 
 | Other  0.000%                          | 
 +----------------------------------------+ 
 | Teammates                              | 
 | Colossoil +97.403%                     | 
 | Charizard-Mega-X +97.403%              | 
 | Dusclops +97.403%                      | 
 | Zeraora +97.403%                       | 
 | Cobalion +97.403%                      | 
 | Cobalion +97.403%                      | | 
 +----------------------------------------+ 
 | Checks and Counters                    | 
 +----------------------------------------+ 
 +----------------------------------------+ 
 | Dusclops                               | 
 +----------------------------------------+ 
 | Raw count: 4                           | 
 | Avg. weight: 0.0815067413061           | 
 | Viability Ceiling: 65                  | 
 +----------------------------------------+ 
 | Abilities                              | 
 | Frisk 100.000%                         | 
 +----------------------------------------+ 
 | Items                                  | 
 | Eviolite 100.000%                      | 
 +----------------------------------------+ 
 | Spreads                                | 
 | Calm:252/0/4/0/252/0 100.000%          | 
 | Other  0.000%                          | 
 +----------------------------------------+ 
 | Moves                                  | 
 | Toxic 100.000%                         | 
 | Sleep Talk 100.000%                    | 
 | Rest 100.000%                          | 
 | Night Shade 100.000%                   | 
 +----------------------------------------+ 
 | Teammates                              | 
 | Charizard-Mega-X +97.403%              | 
 | Colossoil +97.403%                     | 
 | Zeraora +97.403%                       | 
 | Tapu Fini +97.403%                     | 
 | Cobalion +97.403%                      | 
 +----------------------------------------+ 
 | Checks and Counters                    | 
 +----------------------------------------+ 
 +----------------------------------------+ 
 | Cawmodore                              | 
 +----------------------------------------+ 
 | Raw count: 34                          | 
 | Avg. weight: 0.00693945479692          | 
 | Viability Ceiling: 63                  | 
 +----------------------------------------+ 
 | Abilities                              | 
 | Volt Absorb 100.000%                   | 
 | Intimidate  0.000%                     | 
 | Big Pecks  0.000%                      | 
 +----------------------------------------+ 
 | Items                                  | 
 | Sitrus Berry 100.000%                  | 
 | Other  0.000%                          | 
 +----------------------------------------+ 
 | Spreads                                | 
 | Jolly:4/252/0/0/0/252 99.998%          | 
 | Other  0.002%                          | 
 +----------------------------------------+ 
 | Moves                                  | 
 | Belly Drum 100.000%                    | 
 | Drain Punch 100.000%                   | 
 | Acrobatics 99.998%                     | 
 | Bullet Punch 99.998%                   | 
 | Other  0.003%                          | 
 +----------------------------------------+ 
 | Teammates                              | 
 | Volkraken +97.290%                     | 
 | Plasmanta +97.290%                     | 
 | Snaelstrom +97.290%                    | 
 | Aurumoth +97.290%                      | 
 | Kitsunoh +2.610%                       | 
 +----------------------------------------+ 
 | Checks and Counters                    | 
 +----------------------------------------+ 
 +----------------------------------------+ 
 | Malaconda                              | 
 +----------------------------------------+ 
 | Raw count: 33                          | 
 | Avg. weight: 0.00520420881752          | 
 | Viability Ceiling: 61                  | 
 +----------------------------------------+ 
 | Abilities                              | 
 | Drought 100.000%                       | 
 | Harvest  0.000%                        | 
 | Infiltrator  0.000%                    | 
 +----------------------------------------+ 
 | Items                                  | 
 | Meadow Plate 100.000%                  | 
 | Other  0.000%                          | 
 +----------------------------------------+ 
 | Spreads                                | 
 | Adamant:252/252/0/0/4/0 100.000%       | 
 | Other  0.000%                          | 
 +----------------------------------------+ 
 | Moves                                  | 
 | Solar Blade 100.000%                   | 
 | Synthesis 100.000%                     | 
 | Pursuit 100.000%                       | 
 | Knock Off 100.000%                     | 
 | Other  0.002%                          | 
 +----------------------------------------+ 
 | Teammates                              | 
 | Volkraken +97.291%                     | 
 | Plasmanta +97.291%                     | 
 | Snaelstrom +97.291%                    | 
 | Aurumoth +97.291%                      | 
 | Kitsunoh +2.611%                       | 
 +----------------------------------------+ 
 | Checks and Counters                    | 
 +----------------------------------------+ 
 +----------------------------------------+ 
 | Bronzong                               | 
 +----------------------------------------+ 
 | Raw count: 1                           | 
 | Avg. weight: 0.00045676114708          | 
 | Viability Ceiling: 43                  | 
 +----------------------------------------+ 
 | Abilities                              | 
 | Levitate 100.000%                      | 
 +----------------------------------------+ 
 | Items                                  | 
 | Leftovers 100.000%                     | 
 +----------------------------------------+ 
 | Spreads                                | 
 | Sassy:252/0/168/0/88/0 100.000%        | 
 +----------------------------------------+ 
 | Moves                                  | 
 | Stealth Rock 100.000%                  | 
 | Psychic 100.000%                       | 
 | Gyro Ball 100.000%                     | 
 | Hidden Power Ice 100.000%              | 
 +----------------------------------------+ 
 | Teammates                              | 
 | Necturna +99.985%                      | 
 | Tyranitar +99.985%                     | 
 | Reuniclus +99.985%                     | 
 | Landorus-Therian +5.306%               | 
 | Krilowatt +5.306%                      | 
 +----------------------------------------+ 
 | Checks and Counters                    | 
 +----------------------------------------+ 
 +----------------------------------------+ 
 | Necturna                               | 
 +----------------------------------------+ 
 | Raw count: 23                          | 
 | Avg. weight: 9.13522294159e-05         | 
 | Viability Ceiling: 56                  | 
 +----------------------------------------+ 
 | Abilities                              | 
 | Forewarn 100.000%                      | 
 +----------------------------------------+ 
 | Items                                  | 
 | Life Orb 100.000%                      | 
 | Other  0.000%                          | 
 +----------------------------------------+ 
 | Spreads                                | 
 | Jolly:4/252/0/0/0/252 100.000%         | 
 | Other  0.000%                          | 
 +----------------------------------------+ 
 | Moves                                  | 
 | Sacred Fire 100.000%                   | 
 | Power Whip 100.000%                    | 
 | Stone Edge 100.000%                    | 
 | Pain Split 100.000%                    | 
 | Other  0.000%                          | 
 +----------------------------------------+ 
 | Teammates                              | 
 | Bronzong +99.985%                      | 
 | Tyranitar +99.985%                     | 
 | Reuniclus +99.985%                     | 
 | Landorus-Therian +5.306%               | 
 | Krilowatt +5.306%                      | 
 +----------------------------------------+ 
 | Checks and Counters                    | 
 +----------------------------------------+ 
 +----------------------------------------+ 
 | Reuniclus                              | 
 +----------------------------------------+ 
 | Raw count: 2                           | 
 | Avg. weight: 0.00022838057354          | 
 | Viability Ceiling: 43                  | 
 +----------------------------------------+ 
 | Abilities                              | 
 | Magic Guard 100.000%                   | 
 | Overcoat  0.000%                       | 
 +----------------------------------------+ 
 | Items                                  | 
 | Leftovers 100.000%                     | 
 | Other  0.000%                          | 
 +----------------------------------------+ 
 | Spreads                                | 
 | Bold:252/0/252/4/0/0 100.000%          | 
 | Other  0.000%                          | 
 +----------------------------------------+ 
 | Moves                                  | 
 | Recover 100.000%                       | 
 | Calm Mind 100.000%                     | 
 | Psychic 100.000%                       | 
 | Focus Blast 100.000%                   | 
 | Other  0.000%                          | 
 +----------------------------------------+ 
 | Teammates                              | 
 | Necturna +99.985%                      | 
 | Tyranitar +99.985%                     | 
 | Bronzong +99.985%                      | 
 | Landorus-Therian +5.306%               | 
 | Krilowatt +5.306%                      | 
 +----------------------------------------+ 
 | Checks and Counters                    | 
 +----------------------------------------+ 
 +----------------------------------------+ 
 | Tyranitar                              | 
 +----------------------------------------+ 
 | Raw count: 2                           | 
 | Avg. weight: 0.00045676114708          | 
 | Viability Ceiling: 43                  | 
 +----------------------------------------+ 
 | Abilities                              | 
 | Sand Stream 100.000%                   | 
 +----------------------------------------+ 
 | Items                                  | 
 | Choice Band 100.000%                   | 
 | Other  0.000%                          | 
 +----------------------------------------+ 
 | Spreads                                | 
 | Adamant:156/252/0/0/0/100 100.000%     | 
 | Other  0.000%                          | 
 +----------------------------------------+ 
 | Moves                                  | 
 | Crunch 100.000%                        | 
 | Stone Edge 100.000%                    | 
 | Pursuit 100.000%                       | 
 | Superpower 100.000%                    | 
 | Other  0.000%                          | 
 +----------------------------------------+ 
 | Teammates                              | 
 | Necturna +99.985%                      | 
 | Bronzong +99.985%                      | 
 | Reuniclus +99.985%                     | 
 | Landorus-Therian +5.306%               | 
 | Krilowatt +5.306%                      | 
 +----------------------------------------+ 
 | Checks and Counters                    | 
 +----------------------------------------+ 
