 Total leads: 12
 + ---- + ------------------ + --------- + ------ + ------- + 
 | Rank | Pokemon            | Usage %   | Raw    | %       | 
 + ---- + ------------------ + --------- + ------ + ------- + 
 | 1    | Aipom              | 59.92796% | 5      | 41.667% | 
 | 2    | Swinub             | 20.84626% | 4      | 33.333% | 
 | 3    | Machop             |  8.80264% | 1      |  8.333% | 
 | 4    | Chimchar           |  5.21157% | 1      |  8.333% | 
 | 5    | Diglett            |  5.21157% | 1      |  8.333% | 
 + ---- + ------------------ + --------- + ------ + ------- + 
