 weatherless...................100.00000%
 balance.......................67.83611%
 semistall.....................28.06778%
 offense....................... 3.38972%
 stall......................... 0.70639%
 monotype...................... 0.03595%
 monorock...................... 0.03048%
 monograss..................... 0.00343%
 monopsychic................... 0.00196%
 monobug....................... 0.00003%
 monoground.................... 0.00003%
 mononormal.................... 0.00003%
 hyperoffense.................. 0.00000%
 monofire...................... 0.00000%
 monofighting.................. 0.00000%
 monowater..................... 0.00000%
 monopoison.................... 0.00000%
 monosteel..................... 0.00000%
 monoghost..................... 0.00000%
 monoice....................... 0.00000%
 monoflying.................... 0.00000%
 monoelectric.................. 0.00000%
 monodragon.................... 0.00000%

 Stalliness (mean:  0.763)
     |#
 -0.4|
     |###
  0.0|#######
     |#########
 +0.4|#####################
     |#######################
 +0.8|##############################
     |##############################
     |####################
     |#########
     |#####
 more negative = more offensive, more positive = more stall
 one # =  0.64%
