 weatherless...................95.66688%
 offense.......................66.30211%
 trickroom.....................44.36037%
 balance.......................32.95179%
 sun........................... 4.33312%
 hyperoffense.................. 0.74610%
 semistall..................... 0.00000%
 tailwind...................... 0.00000%
 monowater..................... 0.00000%
 voltturn...................... 0.00000%
 hail.......................... 0.00000%
 sunoffense.................... 0.00000%
 stall......................... 0.00000%
 rain.......................... 0.00000%
 mononormal.................... 0.00000%
 monotype...................... 0.00000%
 hailoffense................... 0.00000%

 Stalliness (mean: -0.137)
     |
 -1.5|
     |
 -1.0|
     |
 -0.5|##############################
     |##########
  0.0|####
     |
 +0.5|############
     |
 +1.0|#####
     |
 +1.5|
 more negative = more offensive, more positive = more stall
 one # =  1.62%
