 weatherless...................75.34215%
 offense.......................44.02012%
 balance.......................33.30502%
 hyperoffense..................11.86261%
 sand..........................10.98824%
 sun........................... 7.25950%
 voltturn...................... 6.78562%
 semistall..................... 5.93856%
 rain.......................... 5.69980%
 stall......................... 4.87368%
 monotype...................... 2.53395%
 hail.......................... 2.45102%
 multiweather.................. 1.68068%
 trickroom..................... 1.41743%
 sandoffense................... 0.94501%
 sunoffense.................... 0.68003%
 dragmag....................... 0.43374%
 hailoffense................... 0.40580%
 choice........................ 0.38347%
 monowater..................... 0.33640%
 sandstall..................... 0.30735%
 monobug....................... 0.27510%
 rainoffense................... 0.25700%
 mononormal.................... 0.21055%
 monofire...................... 0.19825%
 monodragon.................... 0.18275%
 monoflying.................... 0.17544%
 monosteel..................... 0.16994%
 tailwind...................... 0.15900%
 monofairy..................... 0.12622%
 monoelectric.................. 0.11979%
 monograss..................... 0.11613%
 monoice....................... 0.10803%
 monopsychic................... 0.10704%
 monorock...................... 0.10222%
 monodark...................... 0.10210%
 sunstall...................... 0.09895%
 monopoison.................... 0.08700%
 monoghost..................... 0.08124%
 monofighting.................. 0.06938%
 monoground.................... 0.06649%
 rainstall..................... 0.06003%
 trickhail..................... 0.04788%
 tricksun...................... 0.03862%
 tricksand..................... 0.03131%
 hailstall..................... 0.01489%
 trapper....................... 0.01458%
 allweather.................... 0.01113%
 swagplay...................... 0.00614%
 trickrain..................... 0.00423%
 gravity....................... 0.00260%
 fear.......................... 0.00039%

 Stalliness (mean: -0.027)
 -2.0|#
     |#######
 -1.0|##################
     |###########################
  0.0|##############################
     |####################
 +1.0|##########
     |####
 +2.0|##
     |#
 +3.0|#
     |#
 more negative = more offensive, more positive = more stall
 one # =  0.82%
