 weatherless...................98.13368%
 balance.......................45.27348%
 offense.......................23.51095%
 stall.........................23.51084%
 semistall..................... 5.36914%
 voltturn...................... 3.08755%
 hyperoffense.................. 2.33559%
 trapper....................... 2.06313%
 sun........................... 1.78594%
 sunoffense.................... 0.93957%
 rain.......................... 0.08036%
 trickroom..................... 0.05034%
 monotype...................... 0.04987%
 mononormal.................... 0.04987%
 monoflying.................... 0.00004%
 sand.......................... 0.00001%
 choice........................ 0.00001%
 hail.......................... 0.00000%
 sandoffense................... 0.00000%
 rainoffense................... 0.00000%
 monograss..................... 0.00000%
 tailwind...................... 0.00000%
 monobug....................... 0.00000%
 multiweather.................. 0.00000%
 sandstall..................... 0.00000%
 monorock...................... 0.00000%
 monoice....................... 0.00000%
 monoelectric.................. 0.00000%
 monofire...................... 0.00000%

 Stalliness (mean:  0.632)
     |#
 -1.5|
     |##
 -1.0|#
     |##
 -0.5|########
     |######################
  0.0|##############
     |##############################
 +0.5|####################
     |####
 +1.0|
     |########
 +1.5|
     |#################
 +2.0|#
     |
 +2.5|
     |#########
 +3.0|#######
     |
 +3.5|
 more negative = more offensive, more positive = more stall
 one # =  0.68%
