 Total leads: 8166
 + ---- + ------------------ + --------- + ------ + ------- + 
 | Rank | Pokemon            | Usage %   | Raw    | %       | 
 + ---- + ------------------ + --------- + ------ + ------- + 
 | 1    | Snorlax            |  9.31913% | 761    |  9.319% | 
 | 2    | Zapdos             |  8.15577% | 666    |  8.156% | 
 | 3    | Raikou             |  8.04555% | 657    |  8.046% | 
 | 4    | Cloyster           |  7.75165% | 633    |  7.752% | 
 | 5    | Umbreon            |  5.62087% | 459    |  5.621% | 
 | 6    | Forretress         |  4.91060% | 401    |  4.911% | 
 | 7    | Blissey            |  4.24933% | 347    |  4.249% | 
 | 8    | Jynx               |  4.17585% | 341    |  4.176% | 
 | 9    | Exeggutor          |  4.00441% | 327    |  4.004% | 
 | 10   | Nidoking           |  3.63703% | 297    |  3.637% | 
 | 11   | Gengar             |  3.39211% | 277    |  3.392% | 
 | 12   | Pikachu            |  2.46143% | 201    |  2.461% | 
 | 13   | Tyranitar          |  2.41244% | 197    |  2.412% | 
 | 14   | Smeargle           |  2.38795% | 195    |  2.388% | 
 | 15   | Jolteon            |  2.04506% | 167    |  2.045% | 
 | 16   | Typhlosion         |  1.73892% | 142    |  1.739% | 
 | 17   | Scizor             |  1.68993% | 138    |  1.690% | 
 | 18   | Heracross          |  1.55523% | 127    |  1.555% | 
 | 19   | Steelix            |  1.45726% | 119    |  1.457% | 
 | 20   | Alakazam           |  1.28582% | 105    |  1.286% | 
 | 21   | Skarmory           |  1.23684% | 101    |  1.237% | 
 | 22   | Starmie            |  1.07764% | 88     |  1.078% | 
 | 23   | Venusaur           |  0.77149% | 63     |  0.771% | 
 | 24   | Moltres            |  0.74700% | 61     |  0.747% | 
 | 25   | Houndoom           |  0.73475% | 60     |  0.735% | 
 | 26   | Machamp            |  0.69802% | 57     |  0.698% | 
 | 27   | Feraligatr         |  0.69802% | 57     |  0.698% | 
 | 28   | Miltank            |  0.64903% | 53     |  0.649% | 
 | 29   | Electabuzz         |  0.62454% | 51     |  0.625% | 
 | 30   | Meganium           |  0.61229% | 50     |  0.612% | 
 | 31   | Espeon             |  0.61229% | 50     |  0.612% | 
 | 32   | Charizard          |  0.57556% | 47     |  0.576% | 
 | 33   | Misdreavus         |  0.52657% | 43     |  0.527% | 
 | 34   | Suicune            |  0.52657% | 43     |  0.527% | 
 | 35   | Marowak            |  0.48984% | 40     |  0.490% | 
 | 36   | Golem              |  0.44085% | 36     |  0.441% | 
 | 37   | Aerodactyl         |  0.37962% | 31     |  0.380% | 
 | 38   | Arcanine           |  0.36738% | 30     |  0.367% | 
 | 39   | Dragonite          |  0.31839% | 26     |  0.318% | 
 | 40   | Bellossom          |  0.30615% | 25     |  0.306% | 
 | 41   | Scyther            |  0.30615% | 25     |  0.306% | 
 | 42   | Ampharos           |  0.28166% | 23     |  0.282% | 
 | 43   | Crobat             |  0.26941% | 22     |  0.269% | 
 | 44   | Vaporeon           |  0.25716% | 21     |  0.257% | 
 | 45   | Porygon2           |  0.24492% | 20     |  0.245% | 
 | 46   | Muk                |  0.23267% | 19     |  0.233% | 
 | 47   | Tentacruel         |  0.20818% | 17     |  0.208% | 
 | 48   | Donphan            |  0.19593% | 16     |  0.196% | 
 | 49   | Entei              |  0.19593% | 16     |  0.196% | 
 | 50   | Weezing            |  0.18369% | 15     |  0.184% | 
 | 51   | Jumpluff           |  0.17144% | 14     |  0.171% | 
 | 52   | Electrode          |  0.17144% | 14     |  0.171% | 
 | 53   | Pinsir             |  0.14695% | 12     |  0.147% | 
 | 54   | Gyarados           |  0.14695% | 12     |  0.147% | 
 | 55   | Eevee              |  0.13470% | 11     |  0.135% | 
 | 56   | Raichu             |  0.13470% | 11     |  0.135% | 
 | 57   | Noctowl            |  0.12246% | 10     |  0.122% | 
 | 58   | Stantler           |  0.12246% | 10     |  0.122% | 
 | 59   | Tauros             |  0.11021% | 9      |  0.110% | 
 | 60   | Victreebel         |  0.11021% | 9      |  0.110% | 
 | 61   | Clefable           |  0.11021% | 9      |  0.110% | 
 | 62   | Rhydon             |  0.09797% | 8      |  0.098% | 
 | 63   | Farfetch'd         |  0.09797% | 8      |  0.098% | 
 | 64   | Blastoise          |  0.09797% | 8      |  0.098% | 
 | 65   | Kangaskhan         |  0.09797% | 8      |  0.098% | 
 | 66   | Lanturn            |  0.09797% | 8      |  0.098% | 
 | 67   | Flareon            |  0.09797% | 8      |  0.098% | 
 | 68   | Dewgong            |  0.09797% | 8      |  0.098% | 
 | 69   | Kingdra            |  0.09797% | 8      |  0.098% | 
 | 70   | Tangela            |  0.08572% | 7      |  0.086% | 
 | 71   | Gligar             |  0.08572% | 7      |  0.086% | 
 | 72   | Mr. Mime           |  0.08572% | 7      |  0.086% | 
 | 73   | Venomoth           |  0.08572% | 7      |  0.086% | 
 | 74   | Hitmontop          |  0.08572% | 7      |  0.086% | 
 | 75   | Wobbuffet          |  0.07348% | 6      |  0.073% | 
 | 76   | Dragonair          |  0.07348% | 6      |  0.073% | 
 | 77   | Arbok              |  0.07348% | 6      |  0.073% | 
 | 78   | Rattata            |  0.07348% | 6      |  0.073% | 
 | 79   | Togetic            |  0.07348% | 6      |  0.073% | 
 | 80   | Bayleef            |  0.07348% | 6      |  0.073% | 
 | 81   | Pidgeot            |  0.07348% | 6      |  0.073% | 
 | 82   | Shuckle            |  0.07348% | 6      |  0.073% | 
 | 83   | Qwilfish           |  0.07348% | 6      |  0.073% | 
 | 84   | Raticate           |  0.06123% | 5      |  0.061% | 
 | 85   | Cyndaquil          |  0.06123% | 5      |  0.061% | 
 | 86   | Quilava            |  0.06123% | 5      |  0.061% | 
 | 87   | Omastar            |  0.04898% | 4      |  0.049% | 
 | 88   | Primeape           |  0.04898% | 4      |  0.049% | 
 | 89   | Kabutops           |  0.04898% | 4      |  0.049% | 
 | 90   | Nidoqueen          |  0.04898% | 4      |  0.049% | 
 | 91   | Hypno              |  0.04898% | 4      |  0.049% | 
 | 92   | Pupitar            |  0.04898% | 4      |  0.049% | 
 | 93   | Ariados            |  0.04898% | 4      |  0.049% | 
 | 94   | Lapras             |  0.03674% | 3      |  0.037% | 
 | 95   | Sandslash          |  0.03674% | 3      |  0.037% | 
 | 96   | Politoed           |  0.03674% | 3      |  0.037% | 
 | 97   | Pidgeotto          |  0.03674% | 3      |  0.037% | 
 | 98   | Granbull           |  0.03674% | 3      |  0.037% | 
 | 99   | Slowking           |  0.03674% | 3      |  0.037% | 
 | 100  | Kingler            |  0.03674% | 3      |  0.037% | 
 | 101  | Charmander         |  0.03674% | 3      |  0.037% | 
 | 102  | Ninetales          |  0.03674% | 3      |  0.037% | 
 | 103  | Magneton           |  0.03674% | 3      |  0.037% | 
 | 104  | Sneasel            |  0.03674% | 3      |  0.037% | 
 | 105  | Sunflora           |  0.03674% | 3      |  0.037% | 
 | 106  | Unown              |  0.02449% | 2      |  0.024% | 
 | 107  | Delibird           |  0.02449% | 2      |  0.024% | 
 | 108  | Slowbro            |  0.02449% | 2      |  0.024% | 
 | 109  | Piloswine          |  0.02449% | 2      |  0.024% | 
 | 110  | Croconaw           |  0.02449% | 2      |  0.024% | 
 | 111  | Quagsire           |  0.02449% | 2      |  0.024% | 
 | 112  | Ursaring           |  0.02449% | 2      |  0.024% | 
 | 113  | Dodrio             |  0.02449% | 2      |  0.024% | 
 | 114  | Persian            |  0.02449% | 2      |  0.024% | 
 | 115  | Seaking            |  0.02449% | 2      |  0.024% | 
 | 116  | Hitmonchan         |  0.02449% | 2      |  0.024% | 
 | 117  | Corsola            |  0.01225% | 1      |  0.012% | 
 | 118  | Parasect           |  0.01225% | 1      |  0.012% | 
 | 119  | Ledian             |  0.01225% | 1      |  0.012% | 
 | 120  | Articuno           |  0.01225% | 1      |  0.012% | 
 | 121  | Fearow             |  0.01225% | 1      |  0.012% | 
 | 122  | Marill             |  0.01225% | 1      |  0.012% | 
 | 123  | Bulbasaur          |  0.01225% | 1      |  0.012% | 
 | 124  | Graveler           |  0.01225% | 1      |  0.012% | 
 | 125  | Chansey            |  0.01225% | 1      |  0.012% | 
 | 126  | Squirtle           |  0.01225% | 1      |  0.012% | 
 | 127  | Totodile           |  0.01225% | 1      |  0.012% | 
 | 128  | Meowth             |  0.01225% | 1      |  0.012% | 
 | 129  | Spearow            |  0.01225% | 1      |  0.012% | 
 | 130  | Metapod            |  0.01225% | 1      |  0.012% | 
 | 131  | Azumarill          |  0.01225% | 1      |  0.012% | 
 | 132  | Haunter            |  0.01225% | 1      |  0.012% | 
 | 133  | Magcargo           |  0.01225% | 1      |  0.012% | 
 | 134  | Gastly             |  0.01225% | 1      |  0.012% | 
 | 135  | Yanma              |  0.01225% | 1      |  0.012% | 
 | 136  | Golbat             |  0.01225% | 1      |  0.012% | 
 | 137  | Pichu              |  0.01225% | 1      |  0.012% | 
 | 138  | Xatu               |  0.01225% | 1      |  0.012% | 
 | 139  | Ditto              |  0.01225% | 1      |  0.012% | 
 | 140  | Sudowoodo          |  0.01225% | 1      |  0.012% | 
 | 141  | Flaaffy            |  0.01225% | 1      |  0.012% | 
 | 142  | Phanpy             |  0.01225% | 1      |  0.012% | 
 | 143  | Onix               |  0.01225% | 1      |  0.012% | 
 | 144  | Magmar             |  0.01225% | 1      |  0.012% | 
 + ---- + ------------------ + --------- + ------ + ------- + 
