 Total leads: 40280
 + ---- + ------------------ + --------- + ------ + ------- + 
 | Rank | Pokemon            | Usage %   | Raw    | %       | 
 + ---- + ------------------ + --------- + ------ + ------- + 
 | 1    | Politoed           |  8.17279% | 3292   |  8.173% | 
 | 2    | Ferrothorn         |  5.84906% | 2356   |  5.849% | 
 | 3    | Landorus-Therian   |  4.60775% | 1856   |  4.608% | 
 | 4    | Tyranitar          |  3.80338% | 1532   |  3.803% | 
 | 5    | Rotom-Wash         |  2.72592% | 1098   |  2.726% | 
 | 6    | Breloom            |  2.33615% | 941    |  2.336% | 
 | 7    | Forretress         |  2.25919% | 910    |  2.259% | 
 | 8    | Infernape          |  2.24677% | 905    |  2.247% | 
 | 9    | Garchomp           |  2.22443% | 896    |  2.224% | 
 | 10   | Skarmory           |  2.16733% | 873    |  2.167% | 
 | 11   | Latios             |  1.92900% | 777    |  1.929% | 
 | 12   | Jirachi            |  1.91658% | 772    |  1.917% | 
 | 13   | Volcarona          |  1.74777% | 704    |  1.748% | 
 | 14   | Cloyster           |  1.50943% | 608    |  1.509% | 
 | 15   | Gliscor            |  1.47964% | 596    |  1.480% | 
 | 16   | Hippowdon          |  1.46723% | 591    |  1.467% | 
 | 17   | Dragonite          |  1.36792% | 551    |  1.368% | 
 | 18   | Mamoswine          |  1.32324% | 533    |  1.323% | 
 | 19   | Heatran            |  1.31331% | 529    |  1.313% | 
 | 20   | Ninetales          |  1.29841% | 523    |  1.298% | 
 | 21   | Starmie            |  1.16187% | 468    |  1.162% | 
 | 22   | Hydreigon          |  1.15442% | 465    |  1.154% | 
 | 23   | Jolteon            |  1.14449% | 461    |  1.144% | 
 | 24   | Azelf              |  1.13456% | 457    |  1.135% | 
 | 25   | Scizor             |  1.07498% | 433    |  1.075% | 
 | 26   | Alakazam           |  1.05015% | 423    |  1.050% | 
 | 27   | Donphan            |  0.96822% | 390    |  0.968% | 
 | 28   | Darmanitan         |  0.87388% | 352    |  0.874% | 
 | 29   | Espeon             |  0.87140% | 351    |  0.871% | 
 | 30   | Keldeo             |  0.85402% | 344    |  0.854% | 
 | 31   | Excadrill          |  0.83168% | 335    |  0.832% | 
 | 32   | Metagross          |  0.81927% | 330    |  0.819% | 
 | 33   | Conkeldurr         |  0.80933% | 326    |  0.809% | 
 | 34   | Kyurem-Black       |  0.78451% | 316    |  0.785% | 
 | 35   | Magnezone          |  0.76216% | 307    |  0.762% | 
 | 36   | Gyarados           |  0.74479% | 300    |  0.745% | 
 | 37   | Gengar             |  0.73982% | 298    |  0.740% | 
 | 38   | Tentacruel         |  0.73734% | 297    |  0.737% | 
 | 39   | Salamence          |  0.72244% | 291    |  0.722% | 
 | 40   | Mienshao           |  0.68520% | 276    |  0.685% | 
 | 41   | Thundurus-Therian  |  0.68272% | 275    |  0.683% | 
 | 42   | Jellicent          |  0.65541% | 264    |  0.655% | 
 | 43   | Aerodactyl         |  0.61072% | 246    |  0.611% | 
 | 44   | Terrakion          |  0.60824% | 245    |  0.608% | 
 | 45   | Abomasnow          |  0.52632% | 212    |  0.526% | 
 | 46   | Celebi             |  0.51887% | 209    |  0.519% | 
 | 47   | Bronzong           |  0.51639% | 208    |  0.516% | 
 | 48   | Pikachu            |  0.50645% | 204    |  0.506% | 
 | 49   | Haxorus            |  0.49404% | 199    |  0.494% | 
 | 50   | Tangrowth          |  0.48411% | 195    |  0.484% | 
 | 51   | Blissey            |  0.46425% | 187    |  0.464% | 
 | 52   | Arcanine           |  0.45432% | 183    |  0.454% | 
 | 53   | Cofagrigus         |  0.45432% | 183    |  0.454% | 
 | 54   | Froslass           |  0.45184% | 182    |  0.452% | 
 | 55   | Amoonguss          |  0.44439% | 179    |  0.444% | 
 | 56   | Mew                |  0.44439% | 179    |  0.444% | 
 | 57   | Lucario            |  0.42453% | 171    |  0.425% | 
 | 58   | Togekiss           |  0.36246% | 146    |  0.362% | 
 | 59   | Victini            |  0.36246% | 146    |  0.362% | 
 | 60   | Reuniclus          |  0.34508% | 139    |  0.345% | 
 | 61   | Krookodile         |  0.34260% | 138    |  0.343% | 
 | 62   | Toxicroak          |  0.33019% | 133    |  0.330% | 
 | 63   | Archeops           |  0.31529% | 127    |  0.315% | 
 | 64   | Sableye            |  0.30785% | 124    |  0.308% | 
 | 65   | Tornadus           |  0.30040% | 121    |  0.300% | 
 | 66   | Nidoking           |  0.30040% | 121    |  0.300% | 
 | 67   | Chansey            |  0.28798% | 116    |  0.288% | 
 | 68   | Chandelure         |  0.28798% | 116    |  0.288% | 
 | 69   | Galvantula         |  0.27557% | 111    |  0.276% | 
 | 70   | Weavile            |  0.25819% | 104    |  0.258% | 
 | 71   | Whimsicott         |  0.25074% | 101    |  0.251% | 
 | 72   | Vaporeon           |  0.24826% | 100    |  0.248% | 
 | 73   | Gastrodon          |  0.24826% | 100    |  0.248% | 
 | 74   | Omastar            |  0.24330% | 98     |  0.243% | 
 | 75   | Sigilyph           |  0.24081% | 97     |  0.241% | 
 | 76   | Gigalith           |  0.23833% | 96     |  0.238% | 
 | 77   | Smeargle           |  0.23585% | 95     |  0.236% | 
 | 78   | Emboar             |  0.22840% | 92     |  0.228% | 
 | 79   | Typhlosion         |  0.22840% | 92     |  0.228% | 
 | 80   | Venusaur           |  0.22592% | 91     |  0.226% | 
 | 81   | Scrafty            |  0.22344% | 90     |  0.223% | 
 | 82   | Crobat             |  0.22095% | 89     |  0.221% | 
 | 83   | Ambipom            |  0.22095% | 89     |  0.221% | 
 | 84   | Scolipede          |  0.22095% | 89     |  0.221% | 
 | 85   | Swampert           |  0.21847% | 88     |  0.218% | 
 | 86   | Sceptile           |  0.21599% | 87     |  0.216% | 
 | 87   | Latias             |  0.21351% | 86     |  0.214% | 
 | 88   | Flygon             |  0.21351% | 86     |  0.214% | 
 | 89   | Eelektross         |  0.21102% | 85     |  0.211% | 
 | 90   | Zoroark            |  0.20606% | 83     |  0.206% | 
 | 91   | Samurott           |  0.20606% | 83     |  0.206% | 
 | 92   | Charizard          |  0.20109% | 81     |  0.201% | 
 | 93   | Machamp            |  0.19613% | 79     |  0.196% | 
 | 94   | Spiritomb          |  0.19364% | 78     |  0.194% | 
 | 95   | Staraptor          |  0.19364% | 78     |  0.194% | 
 | 96   | Crustle            |  0.19116% | 77     |  0.191% | 
 | 97   | Umbreon            |  0.19116% | 77     |  0.191% | 
 | 98   | Roserade           |  0.18868% | 76     |  0.189% | 
 | 99   | Seismitoad         |  0.18620% | 75     |  0.186% | 
 | 100  | Empoleon           |  0.18620% | 75     |  0.186% | 
 | 101  | Milotic            |  0.18371% | 74     |  0.184% | 
 | 102  | Porygon2           |  0.18123% | 73     |  0.181% | 
 | 103  | Porygon-Z          |  0.17627% | 71     |  0.176% | 
 | 104  | Hitmontop          |  0.17378% | 70     |  0.174% | 
 | 105  | Snorlax            |  0.16882% | 68     |  0.169% | 
 | 106  | Xatu               |  0.16634% | 67     |  0.166% | 
 | 107  | Lilligant          |  0.15641% | 63     |  0.156% | 
 | 108  | Accelgor           |  0.15641% | 63     |  0.156% | 
 | 109  | Aggron             |  0.15392% | 62     |  0.154% | 
 | 110  | Kingdra            |  0.15144% | 61     |  0.151% | 
 | 111  | Slowbro            |  0.14399% | 58     |  0.144% | 
 | 112  | Dugtrio            |  0.14399% | 58     |  0.144% | 
 | 113  | Serperior          |  0.13903% | 56     |  0.139% | 
 | 114  | Cresselia          |  0.13654% | 55     |  0.137% | 
 | 115  | Weezing            |  0.13158% | 53     |  0.132% | 
 | 116  | Ditto              |  0.13158% | 53     |  0.132% | 
 | 117  | Slaking            |  0.12661% | 51     |  0.127% | 
 | 118  | Heracross          |  0.12661% | 51     |  0.127% | 
 | 119  | Uxie               |  0.12413% | 50     |  0.124% | 
 | 120  | Garbodor           |  0.12413% | 50     |  0.124% | 
 | 121  | Slowking           |  0.12165% | 49     |  0.122% | 
 | 122  | Electivire         |  0.11917% | 48     |  0.119% | 
 | 123  | Shuckle            |  0.11668% | 47     |  0.117% | 
 | 124  | Druddigon          |  0.10924% | 44     |  0.109% | 
 | 125  | Bisharp            |  0.10924% | 44     |  0.109% | 
 | 126  | Ampharos           |  0.10675% | 43     |  0.107% | 
 | 127  | Unfezant           |  0.10675% | 43     |  0.107% | 
 | 128  | Carracosta         |  0.10675% | 43     |  0.107% | 
 | 129  | Blastoise          |  0.10675% | 43     |  0.107% | 
 | 130  | Braviary           |  0.10427% | 42     |  0.104% | 
 | 131  | Rhyperior          |  0.10179% | 41     |  0.102% | 
 | 132  | Zapdos             |  0.10179% | 41     |  0.102% | 
 | 133  | Claydol            |  0.09930% | 40     |  0.099% | 
 | 134  | Liepard            |  0.09930% | 40     |  0.099% | 
 | 135  | Drapion            |  0.09930% | 40     |  0.099% | 
 | 136  | Lapras             |  0.09682% | 39     |  0.097% | 
 | 137  | Ninjask            |  0.09682% | 39     |  0.097% | 
 | 138  | Honchkrow          |  0.09434% | 38     |  0.094% | 
 | 139  | Nidoqueen          |  0.09186% | 37     |  0.092% | 
 | 140  | Rotom-Heat         |  0.08937% | 36     |  0.089% | 
 | 141  | Simisage           |  0.08689% | 35     |  0.087% | 
 | 142  | Steelix            |  0.08441% | 34     |  0.084% | 
 | 143  | Absol              |  0.08193% | 33     |  0.082% | 
 | 144  | Clefable           |  0.08193% | 33     |  0.082% | 
 | 145  | Azumarill          |  0.07944% | 32     |  0.079% | 
 | 146  | Yanmega            |  0.07944% | 32     |  0.079% | 
 | 147  | Pidgeot            |  0.07944% | 32     |  0.079% | 
 | 148  | Quagsire           |  0.07696% | 31     |  0.077% | 
 | 149  | Houndoom           |  0.07696% | 31     |  0.077% | 
 | 150  | Cobalion           |  0.07448% | 30     |  0.074% | 
 | 151  | Zebstrika          |  0.07200% | 29     |  0.072% | 
 | 152  | Rattata            |  0.06951% | 28     |  0.070% | 
 | 153  | Vanilluxe          |  0.06951% | 28     |  0.070% | 
 | 154  | Kyurem             |  0.06703% | 27     |  0.067% | 
 | 155  | Bastiodon          |  0.06703% | 27     |  0.067% | 
 | 156  | Dusknoir           |  0.06455% | 26     |  0.065% | 
 | 157  | Torterra           |  0.06455% | 26     |  0.065% | 
 | 158  | Mandibuzz          |  0.06455% | 26     |  0.065% | 
 | 159  | Raikou             |  0.06455% | 26     |  0.065% | 
 | 160  | Cradily            |  0.06455% | 26     |  0.065% | 
 | 161  | Miltank            |  0.06455% | 26     |  0.065% | 
 | 162  | Altaria            |  0.06207% | 25     |  0.062% | 
 | 163  | Golurk             |  0.05958% | 24     |  0.060% | 
 | 164  | Wobbuffet          |  0.05710% | 23     |  0.057% | 
 | 165  | Durant             |  0.05710% | 23     |  0.057% | 
 | 166  | Sharpedo           |  0.05710% | 23     |  0.057% | 
 | 167  | Mawile             |  0.05462% | 22     |  0.055% | 
 | 168  | Regirock           |  0.05462% | 22     |  0.055% | 
 | 169  | Medicham           |  0.05462% | 22     |  0.055% | 
 | 170  | Virizion           |  0.05462% | 22     |  0.055% | 
 | 171  | Probopass          |  0.05462% | 22     |  0.055% | 
 | 172  | Meloetta           |  0.05214% | 21     |  0.052% | 
 | 173  | Dusclops           |  0.05214% | 21     |  0.052% | 
 | 174  | Sawsbuck           |  0.05214% | 21     |  0.052% | 
 | 175  | Luxray             |  0.04965% | 20     |  0.050% | 
 | 176  | Cryogonal          |  0.04965% | 20     |  0.050% | 
 | 177  | Gallade            |  0.04717% | 19     |  0.047% | 
 | 178  | Boldore            |  0.04717% | 19     |  0.047% | 
 | 179  | Raichu             |  0.04717% | 19     |  0.047% | 
 | 180  | Golem              |  0.04717% | 19     |  0.047% | 
 | 181  | Magmortar          |  0.04717% | 19     |  0.047% | 
 | 182  | Cinccino           |  0.04717% | 19     |  0.047% | 
 | 183  | Emolga             |  0.04469% | 18     |  0.045% | 
 | 184  | Leavanny           |  0.04469% | 18     |  0.045% | 
 | 185  | Magneton           |  0.04469% | 18     |  0.045% | 
 | 186  | Swellow            |  0.04220% | 17     |  0.042% | 
 | 187  | Pignite            |  0.04220% | 17     |  0.042% | 
 | 188  | Dunsparce          |  0.04220% | 17     |  0.042% | 
 | 189  | Bouffalant         |  0.04220% | 17     |  0.042% | 
 | 190  | Pelipper           |  0.04220% | 17     |  0.042% | 
 | 191  | Ludicolo           |  0.04220% | 17     |  0.042% | 
 | 192  | Skuntank           |  0.03972% | 16     |  0.040% | 
 | 193  | Gothitelle         |  0.03972% | 16     |  0.040% | 
 | 194  | Torkoal            |  0.03972% | 16     |  0.040% | 
 | 195  | Exeggutor          |  0.03972% | 16     |  0.040% | 
 | 196  | Onix               |  0.03972% | 16     |  0.040% | 
 | 197  | Escavalier         |  0.03972% | 16     |  0.040% | 
 | 198  | Ursaring           |  0.03972% | 16     |  0.040% | 
 | 199  | Mismagius          |  0.03724% | 15     |  0.037% | 
 | 200  | Stoutland          |  0.03476% | 14     |  0.035% | 
 | 201  | Rotom-Mow          |  0.03476% | 14     |  0.035% | 
 | 202  | Simisear           |  0.03476% | 14     |  0.035% | 
 | 203  | Stunfisk           |  0.03476% | 14     |  0.035% | 
 | 204  | Venomoth           |  0.03227% | 13     |  0.032% | 
 | 205  | Leafeon            |  0.03227% | 13     |  0.032% | 
 | 206  | Sawk               |  0.03227% | 13     |  0.032% | 
 | 207  | Moltres            |  0.03227% | 13     |  0.032% | 
 | 208  | Rampardos          |  0.03227% | 13     |  0.032% | 
 | 209  | Palpitoad          |  0.03227% | 13     |  0.032% | 
 | 210  | Castform           |  0.03227% | 13     |  0.032% | 
 | 211  | Snivy              |  0.03227% | 13     |  0.032% | 
 | 212  | Poliwrath          |  0.02979% | 12     |  0.030% | 
 | 213  | Whirlipede         |  0.02979% | 12     |  0.030% | 
 | 214  | Flareon            |  0.02979% | 12     |  0.030% | 
 | 215  | Oshawott           |  0.02979% | 12     |  0.030% | 
 | 216  | Muk                |  0.02979% | 12     |  0.030% | 
 | 217  | Linoone            |  0.02731% | 11     |  0.027% | 
 | 218  | Solrock            |  0.02731% | 11     |  0.027% | 
 | 219  | Scyther            |  0.02731% | 11     |  0.027% | 
 | 220  | Beheeyem           |  0.02731% | 11     |  0.027% | 
 | 221  | Musharna           |  0.02731% | 11     |  0.027% | 
 | 222  | Klinklang          |  0.02731% | 11     |  0.027% | 
 | 223  | Huntail            |  0.02483% | 10     |  0.025% | 
 | 224  | Drifblim           |  0.02483% | 10     |  0.025% | 
 | 225  | Wailord            |  0.02483% | 10     |  0.025% | 
 | 226  | Purrloin           |  0.02483% | 10     |  0.025% | 
 | 227  | Whiscash           |  0.02483% | 10     |  0.025% | 
 | 228  | Starly             |  0.02483% | 10     |  0.025% | 
 | 229  | Noctowl            |  0.02483% | 10     |  0.025% | 
 | 230  | Tauros             |  0.02483% | 10     |  0.025% | 
 | 231  | Cottonee           |  0.02483% | 10     |  0.025% | 
 | 232  | Camerupt           |  0.02483% | 10     |  0.025% | 
 | 233  | Kingler            |  0.02483% | 10     |  0.025% | 
 | 234  | Lairon             |  0.02483% | 10     |  0.025% | 
 | 235  | Suicune            |  0.02483% | 10     |  0.025% | 
 | 236  | Ledian             |  0.02234% | 9      |  0.022% | 
 | 237  | Alomomola          |  0.02234% | 9      |  0.022% | 
 | 238  | Jynx               |  0.02234% | 9      |  0.022% | 
 | 239  | Qwilfish           |  0.02234% | 9      |  0.022% | 
 | 240  | Glalie             |  0.02234% | 9      |  0.022% | 
 | 241  | Zangoose           |  0.02234% | 9      |  0.022% | 
 | 242  | Rhydon             |  0.02234% | 9      |  0.022% | 
 | 243  | Primeape           |  0.02234% | 9      |  0.022% | 
 | 244  | Mothim             |  0.02234% | 9      |  0.022% | 
 | 245  | Volbeat            |  0.02234% | 9      |  0.022% | 
 | 246  | Glaceon            |  0.02234% | 9      |  0.022% | 
 | 247  | Walrein            |  0.01986% | 8      |  0.020% | 
 | 248  | Simipour           |  0.01986% | 8      |  0.020% | 
 | 249  | Electrode          |  0.01986% | 8      |  0.020% | 
 | 250  | Pachirisu          |  0.01986% | 8      |  0.020% | 
 | 251  | Gardevoir          |  0.01986% | 8      |  0.020% | 
 | 252  | Rotom-Frost        |  0.01986% | 8      |  0.020% | 
 | 253  | Manectric          |  0.01986% | 8      |  0.020% | 
 | 254  | Registeel          |  0.01986% | 8      |  0.020% | 
 | 255  | Hitmonlee          |  0.01986% | 8      |  0.020% | 
 | 256  | Pinsir             |  0.01986% | 8      |  0.020% | 
 | 257  | Grumpig            |  0.01986% | 8      |  0.020% | 
 | 258  | Meganium           |  0.01986% | 8      |  0.020% | 
 | 259  | Shedinja           |  0.01986% | 8      |  0.020% | 
 | 260  | Lanturn            |  0.01738% | 7      |  0.017% | 
 | 261  | Regigigas          |  0.01738% | 7      |  0.017% | 
 | 262  | Hariyama           |  0.01738% | 7      |  0.017% | 
 | 263  | Lopunny            |  0.01738% | 7      |  0.017% | 
 | 264  | Illumise           |  0.01738% | 7      |  0.017% | 
 | 265  | Meowth             |  0.01738% | 7      |  0.017% | 
 | 266  | Nidorina           |  0.01738% | 7      |  0.017% | 
 | 267  | Tangela            |  0.01490% | 6      |  0.015% | 
 | 268  | Crawdaunt          |  0.01490% | 6      |  0.015% | 
 | 269  | Lickilicky         |  0.01490% | 6      |  0.015% | 
 | 270  | Watchog            |  0.01490% | 6      |  0.015% | 
 | 271  | Articuno           |  0.01490% | 6      |  0.015% | 
 | 272  | Roselia            |  0.01490% | 6      |  0.015% | 
 | 273  | Kangaskhan         |  0.01490% | 6      |  0.015% | 
 | 274  | Dewott             |  0.01490% | 6      |  0.015% | 
 | 275  | Hypno              |  0.01490% | 6      |  0.015% | 
 | 276  | Vileplume          |  0.01490% | 6      |  0.015% | 
 | 277  | Rapidash           |  0.01490% | 6      |  0.015% | 
 | 278  | Regice             |  0.01490% | 6      |  0.015% | 
 | 279  | Armaldo            |  0.01490% | 6      |  0.015% | 
 | 280  | Vespiquen          |  0.01241% | 5      |  0.012% | 
 | 281  | Floatzel           |  0.01241% | 5      |  0.012% | 
 | 282  | Gligar             |  0.01241% | 5      |  0.012% | 
 | 283  | Ferroseed          |  0.01241% | 5      |  0.012% | 
 | 284  | Furret             |  0.01241% | 5      |  0.012% | 
 | 285  | Beedrill           |  0.01241% | 5      |  0.012% | 
 | 286  | Arbok              |  0.01241% | 5      |  0.012% | 
 | 287  | Feraligatr         |  0.01241% | 5      |  0.012% | 
 | 288  | Haunter            |  0.01241% | 5      |  0.012% | 
 | 289  | Shaymin            |  0.01241% | 5      |  0.012% | 
 | 290  | Wigglytuff         |  0.01241% | 5      |  0.012% | 
 | 291  | Magnemite          |  0.00993% | 4      |  0.010% | 
 | 292  | Tropius            |  0.00993% | 4      |  0.010% | 
 | 293  | Tympole            |  0.00993% | 4      |  0.010% | 
 | 294  | Beldum             |  0.00993% | 4      |  0.010% | 
 | 295  | Riolu              |  0.00993% | 4      |  0.010% | 
 | 296  | Kadabra            |  0.00993% | 4      |  0.010% | 
 | 297  | Cacturne           |  0.00993% | 4      |  0.010% | 
 | 298  | Heatmor            |  0.00993% | 4      |  0.010% | 
 | 299  | Sunkern            |  0.00993% | 4      |  0.010% | 
 | 300  | Trubbish           |  0.00993% | 4      |  0.010% | 
 | 301  | Geodude            |  0.00993% | 4      |  0.010% | 
 | 302  | Diglett            |  0.00993% | 4      |  0.010% | 
 | 303  | Audino             |  0.00993% | 4      |  0.010% | 
 | 304  | Clefairy           |  0.00993% | 4      |  0.010% | 
 | 305  | Beartic            |  0.00993% | 4      |  0.010% | 
 | 306  | Darumaka           |  0.00993% | 4      |  0.010% | 
 | 307  | Misdreavus         |  0.00993% | 4      |  0.010% | 
 | 308  | Combusken          |  0.00993% | 4      |  0.010% | 
 | 309  | Lunatone           |  0.00993% | 4      |  0.010% | 
 | 310  | Butterfree         |  0.00745% | 3      |  0.007% | 
 | 311  | Azurill            |  0.00745% | 3      |  0.007% | 
 | 312  | Swanna             |  0.00745% | 3      |  0.007% | 
 | 313  | Squirtle           |  0.00745% | 3      |  0.007% | 
 | 314  | Treecko            |  0.00745% | 3      |  0.007% | 
 | 315  | Hitmonchan         |  0.00745% | 3      |  0.007% | 
 | 316  | Aron               |  0.00745% | 3      |  0.007% | 
 | 317  | Piplup             |  0.00745% | 3      |  0.007% | 
 | 318  | Bulbasaur          |  0.00745% | 3      |  0.007% | 
 | 319  | Kecleon            |  0.00745% | 3      |  0.007% | 
 | 320  | Magikarp           |  0.00745% | 3      |  0.007% | 
 | 321  | Kabutops           |  0.00745% | 3      |  0.007% | 
 | 322  | Golbat             |  0.00745% | 3      |  0.007% | 
 | 323  | Hippopotas         |  0.00745% | 3      |  0.007% | 
 | 324  | Banette            |  0.00745% | 3      |  0.007% | 
 | 325  | Natu               |  0.00745% | 3      |  0.007% | 
 | 326  | Quilava            |  0.00745% | 3      |  0.007% | 
 | 327  | Raticate           |  0.00497% | 2      |  0.005% | 
 | 328  | Rotom              |  0.00497% | 2      |  0.005% | 
 | 329  | Cherrim            |  0.00497% | 2      |  0.005% | 
 | 330  | Metang             |  0.00497% | 2      |  0.005% | 
 | 331  | Tepig              |  0.00497% | 2      |  0.005% | 
 | 332  | Fearow             |  0.00497% | 2      |  0.005% | 
 | 333  | Cascoon            |  0.00497% | 2      |  0.005% | 
 | 334  | Throh              |  0.00497% | 2      |  0.005% | 
 | 335  | Pawniard           |  0.00497% | 2      |  0.005% | 
 | 336  | Basculin           |  0.00497% | 2      |  0.005% | 
 | 337  | Vigoroth           |  0.00497% | 2      |  0.005% | 
 | 338  | Masquerain         |  0.00497% | 2      |  0.005% | 
 | 339  | Pichu              |  0.00497% | 2      |  0.005% | 
 | 340  | Seaking            |  0.00497% | 2      |  0.005% | 
 | 341  | Entei              |  0.00497% | 2      |  0.005% | 
 | 342  | Corsola            |  0.00497% | 2      |  0.005% | 
 | 343  | Farfetch'd         |  0.00497% | 2      |  0.005% | 
 | 344  | Mantine            |  0.00497% | 2      |  0.005% | 
 | 345  | Sandile            |  0.00497% | 2      |  0.005% | 
 | 346  | Dwebble            |  0.00497% | 2      |  0.005% | 
 | 347  | Zigzagoon          |  0.00497% | 2      |  0.005% | 
 | 348  | Servine            |  0.00497% | 2      |  0.005% | 
 | 349  | Unown              |  0.00497% | 2      |  0.005% | 
 | 350  | Dragonair          |  0.00497% | 2      |  0.005% | 
 | 351  | Bellossom          |  0.00497% | 2      |  0.005% | 
 | 352  | Mr. Mime           |  0.00497% | 2      |  0.005% | 
 | 353  | Shelmet            |  0.00497% | 2      |  0.005% | 
 | 354  | Combee             |  0.00497% | 2      |  0.005% | 
 | 355  | Whismur            |  0.00497% | 2      |  0.005% | 
 | 356  | Bidoof             |  0.00497% | 2      |  0.005% | 
 | 357  | Munchlax           |  0.00497% | 2      |  0.005% | 
 | 358  | Kricketune         |  0.00497% | 2      |  0.005% | 
 | 359  | Shiftry            |  0.00497% | 2      |  0.005% | 
 | 360  | Buneary            |  0.00248% | 1      |  0.002% | 
 | 361  | Duosion            |  0.00248% | 1      |  0.002% | 
 | 362  | Eevee              |  0.00248% | 1      |  0.002% | 
 | 363  | Roggenrola         |  0.00248% | 1      |  0.002% | 
 | 364  | Mantyke            |  0.00248% | 1      |  0.002% | 
 | 365  | Piloswine          |  0.00248% | 1      |  0.002% | 
 | 366  | Gabite             |  0.00248% | 1      |  0.002% | 
 | 367  | Pansear            |  0.00248% | 1      |  0.002% | 
 | 368  | Pansage            |  0.00248% | 1      |  0.002% | 
 | 369  | Exploud            |  0.00248% | 1      |  0.002% | 
 | 370  | Remoraid           |  0.00248% | 1      |  0.002% | 
 | 371  | Totodile           |  0.00248% | 1      |  0.002% | 
 | 372  | Maractus           |  0.00248% | 1      |  0.002% | 
 | 373  | Snorunt            |  0.00248% | 1      |  0.002% | 
 | 374  | Victreebel         |  0.00248% | 1      |  0.002% | 
 | 375  | Dodrio             |  0.00248% | 1      |  0.002% | 
 | 376  | Sealeo             |  0.00248% | 1      |  0.002% | 
 | 377  | Clamperl           |  0.00248% | 1      |  0.002% | 
 | 378  | Octillery          |  0.00248% | 1      |  0.002% | 
 | 379  | Scraggy            |  0.00248% | 1      |  0.002% | 
 | 380  | Sudowoodo          |  0.00248% | 1      |  0.002% | 
 | 381  | Phanpy             |  0.00248% | 1      |  0.002% | 
 | 382  | Wormadam-Sandy     |  0.00248% | 1      |  0.002% | 
 | 383  | Swoobat            |  0.00248% | 1      |  0.002% | 
 | 384  | Parasect           |  0.00248% | 1      |  0.002% | 
 | 385  | Delibird           |  0.00248% | 1      |  0.002% | 
 | 386  | Pidgeotto          |  0.00248% | 1      |  0.002% | 
 | 387  | Granbull           |  0.00248% | 1      |  0.002% | 
 | 388  | Nosepass           |  0.00248% | 1      |  0.002% | 
 | 389  | Togetic            |  0.00248% | 1      |  0.002% | 
 | 390  | Taillow            |  0.00248% | 1      |  0.002% | 
 | 391  | Ivysaur            |  0.00248% | 1      |  0.002% | 
 | 392  | Magcargo           |  0.00248% | 1      |  0.002% | 
 | 393  | Shroomish          |  0.00248% | 1      |  0.002% | 
 | 394  | Chimecho           |  0.00248% | 1      |  0.002% | 
 | 395  | Purugly            |  0.00248% | 1      |  0.002% | 
 | 396  | Lampent            |  0.00248% | 1      |  0.002% | 
 | 397  | Shelgon            |  0.00248% | 1      |  0.002% | 
 | 398  | Golduck            |  0.00248% | 1      |  0.002% | 
 | 399  | Chimchar           |  0.00248% | 1      |  0.002% | 
 | 400  | Gible              |  0.00248% | 1      |  0.002% | 
 | 401  | Swadloon           |  0.00248% | 1      |  0.002% | 
 | 402  | Patrat             |  0.00248% | 1      |  0.002% | 
 | 403  | Chatot             |  0.00248% | 1      |  0.002% | 
 | 404  | Fraxure            |  0.00248% | 1      |  0.002% | 
 | 405  | Snover             |  0.00248% | 1      |  0.002% | 
 | 406  | Magmar             |  0.00248% | 1      |  0.002% | 
 | 407  | Buizel             |  0.00248% | 1      |  0.002% | 
 | 408  | Phione             |  0.00248% | 1      |  0.002% | 
 | 409  | Marowak            |  0.00248% | 1      |  0.002% | 
 | 410  | Beautifly          |  0.00248% | 1      |  0.002% | 
 | 411  | Herdier            |  0.00248% | 1      |  0.002% | 
 | 412  | Swalot             |  0.00248% | 1      |  0.002% | 
 | 413  | Drowzee            |  0.00248% | 1      |  0.002% | 
 | 414  | Deerling           |  0.00248% | 1      |  0.002% | 
 | 415  | Tynamo             |  0.00248% | 1      |  0.002% | 
 | 416  | Cacnea             |  0.00248% | 1      |  0.002% | 
 + ---- + ------------------ + --------- + ------ + ------- + 
