 Total leads: 4
 + ---- + ------------------ + --------- + ------ + ------- + 
 | Rank | Pokemon            | Usage %   | Raw    | %       | 
 + ---- + ------------------ + --------- + ------ + ------- + 
 | 1    | Sawk               |  0.00000% | 1      | 25.000% | 
 | 2    | Emboar             |  0.00000% | 1      | 25.000% | 
 | 3    | Sceptile           |  0.00000% | 1      | 25.000% | 
 | 4    | Uxie               |  0.00000% | 1      | 25.000% | 
 + ---- + ------------------ + --------- + ------ + ------- + 
