 Total leads: 320622
 + ---- + ------------------ + --------- + ------ + ------- + 
 | Rank | Pokemon            | Usage %   | Raw    | %       | 
 + ---- + ------------------ + --------- + ------ + ------- + 
 | 1    | Groudon-Primal     | 13.33862% | 24678  |  7.697% | 
 | 2    | Yveltal            | 10.83570% | 8060   |  2.514% | 
 | 3    | Smeargle           |  5.16580% | 5129   |  1.600% | 
 | 4    | Arceus-Ground      |  4.65901% | 1821   |  0.568% | 
 | 5    | Deoxys-Speed       |  4.63090% | 11527  |  3.595% | 
 | 6    | Xerneas            |  4.38443% | 9694   |  3.023% | 
 | 7    | Sableye-Mega       |  4.18773% | 2725   |  0.850% | 
 | 8    | Kyogre-Primal      |  3.81543% | 7270   |  2.267% | 
 | 9    | Necrozma-Dusk-Mane |  3.68718% | 4556   |  1.421% | 
 | 10   | Ho-Oh              |  3.26647% | 2130   |  0.664% | 
 | 11   | Arceus-Fairy       |  2.70875% | 1278   |  0.399% | 
 | 12   | Zygarde            |  2.44024% | 2608   |  0.813% | 
 | 13   | Salamence-Mega     |  1.99294% | 1953   |  0.609% | 
 | 14   | Lunala             |  1.95869% | 1287   |  0.401% | 
 | 15   | Excadrill          |  1.83152% | 2729   |  0.851% | 
 | 16   | Deoxys-Attack      |  1.74082% | 2987   |  0.932% | 
 | 17   | Arceus             |  1.50647% | 3290   |  1.026% | 
 | 18   | Rayquaza           |  1.34466% | 3402   |  1.061% | 
 | 19   | Diancie-Mega       |  1.32423% | 1531   |  0.478% | 
 | 20   | Shuckle            |  1.15013% | 7106   |  2.216% | 
 | 21   | Scolipede          |  1.08853% | 646    |  0.201% | 
 | 22   | Lugia              |  1.06659% | 2707   |  0.844% | 
 | 23   | Arceus-Water       |  1.00024% | 796    |  0.248% | 
 | 24   | Marshadow          |  0.99901% | 3415   |  1.065% | 
 | 25   | Giratina-Origin    |  0.96205% | 1893   |  0.590% | 
 | 26   | Gengar-Mega        |  0.88514% | 2074   |  0.647% | 
 | 27   | Cloyster           |  0.85453% | 2750   |  0.858% | 
 | 28   | Ferrothorn         |  0.79791% | 7895   |  2.462% | 
 | 29   | Krookodile         |  0.73278% | 829    |  0.259% | 
 | 30   | Genesect           |  0.71859% | 1004   |  0.313% | 
 | 31   | Kangaskhan-Mega    |  0.62044% | 2244   |  0.700% | 
 | 32   | Mewtwo-Mega-Y      |  0.56324% | 2932   |  0.914% | 
 | 33   | Swampert-Mega      |  0.48747% | 973    |  0.303% | 
 | 34   | Zapdos             |  0.47837% | 509    |  0.159% | 
 | 35   | Ribombee           |  0.47557% | 840    |  0.262% | 
 | 36   | Mewtwo             |  0.44576% | 1274   |  0.397% | 
 | 37   | Arceus-Dark        |  0.44500% | 240    |  0.075% | 
 | 38   | Landorus-Therian   |  0.36460% | 3361   |  1.048% | 
 | 39   | Tapu Lele          |  0.35433% | 746    |  0.233% | 
 | 40   | Galvantula         |  0.34293% | 2408   |  0.751% | 
 | 41   | Kyogre             |  0.32809% | 1211   |  0.378% | 
 | 42   | Pheromosa          |  0.32358% | 1598   |  0.498% | 
 | 43   | Giratina           |  0.31728% | 512    |  0.160% | 
 | 44   | Shaymin-Sky        |  0.31682% | 1279   |  0.399% | 
 | 45   | Kyurem-White       |  0.31167% | 1136   |  0.354% | 
 | 46   | Darkrai            |  0.30790% | 5728   |  1.787% | 
 | 47   | Magearna           |  0.26385% | 410    |  0.128% | 
 | 48   | Roserade           |  0.25632% | 622    |  0.194% | 
 | 49   | Dialga             |  0.25504% | 1995   |  0.622% | 
 | 50   | Aegislash          |  0.23563% | 3133   |  0.977% | 
 | 51   | Tapu Koko          |  0.23331% | 1497   |  0.467% | 
 | 52   | Scizor-Mega        |  0.20958% | 475    |  0.148% | 
 | 53   | Toxapex            |  0.20020% | 3312   |  1.033% | 
 | 54   | Mewtwo-Mega-X      |  0.19456% | 1350   |  0.421% | 
 | 55   | Blaziken-Mega      |  0.18581% | 3449   |  1.076% | 
 | 56   | Ditto              |  0.18078% | 1097   |  0.342% | 
 | 57   | Greninja           |  0.17948% | 2679   |  0.836% | 
 | 58   | Sableye            |  0.16716% | 429    |  0.134% | 
 | 59   | Forretress         |  0.16637% | 3025   |  0.943% | 
 | 60   | Palkia             |  0.16609% | 995    |  0.310% | 
 | 61   | Tyranitar-Mega     |  0.16516% | 1102   |  0.344% | 
 | 62   | Deoxys-Defense     |  0.15832% | 2685   |  0.837% | 
 | 63   | Zekrom             |  0.15685% | 725    |  0.226% | 
 | 64   | Landorus           |  0.15375% | 1003   |  0.313% | 
 | 65   | Greninja-Ash       |  0.14522% | 3041   |  0.948% | 
 | 66   | Lopunny-Mega       |  0.14521% | 518    |  0.162% | 
 | 67   | Solgaleo           |  0.14286% | 491    |  0.153% | 
 | 68   | Beedrill-Mega      |  0.13471% | 780    |  0.243% | 
 | 69   | Skarmory           |  0.12878% | 2769   |  0.864% | 
 | 70   | Arceus-Rock        |  0.12772% | 108    |  0.034% | 
 | 71   | Tyranitar          |  0.12480% | 1738   |  0.542% | 
 | 72   | Dragonite          |  0.12328% | 994    |  0.310% | 
 | 73   | Breloom            |  0.11333% | 1723   |  0.537% | 
 | 74   | Gliscor            |  0.11033% | 3009   |  0.938% | 
 | 75   | Chansey            |  0.10140% | 1379   |  0.430% | 
 | 76   | Garchomp           |  0.09895% | 2538   |  0.792% | 
 | 77   | Aggron-Mega        |  0.09401% | 304    |  0.095% | 
 | 78   | Arceus-Fire        |  0.09373% | 163    |  0.051% | 
 | 79   | Necrozma-Dawn-Wings |  0.09293% | 1144   |  0.357% | 
 | 80   | Gyarados-Mega      |  0.09050% | 419    |  0.131% | 
 | 81   | Arceus-Steel       |  0.08858% | 394    |  0.123% | 
 | 82   | Metagross-Mega     |  0.08368% | 1117   |  0.348% | 
 | 83   | Kartana            |  0.08287% | 1427   |  0.445% | 
 | 84   | Lucario-Mega       |  0.08131% | 2288   |  0.714% | 
 | 85   | Naganadel          |  0.07357% | 1307   |  0.408% | 
 | 86   | Aerodactyl         |  0.07299% | 573    |  0.179% | 
 | 87   | Espeon             |  0.07173% | 1076   |  0.336% | 
 | 88   | Araquanid          |  0.06826% | 486    |  0.152% | 
 | 89   | Probopass          |  0.06363% | 138    |  0.043% | 
 | 90   | Heatran            |  0.06191% | 938    |  0.293% | 
 | 91   | Whimsicott         |  0.06142% | 473    |  0.148% | 
 | 92   | Groudon            |  0.05793% | 524    |  0.163% | 
 | 93   | Uxie               |  0.05540% | 117    |  0.036% | 
 | 94   | Dugtrio            |  0.05395% | 409    |  0.128% | 
 | 95   | Arceus-Poison      |  0.05140% | 206    |  0.064% | 
 | 96   | Pineco             |  0.04367% | 1285   |  0.401% | 
 | 97   | Donphan            |  0.04112% | 397    |  0.124% | 
 | 98   | Blacephalon        |  0.03965% | 631    |  0.197% | 
 | 99   | Serperior          |  0.03869% | 1153   |  0.360% | 
 | 100  | Deoxys             |  0.03722% | 273    |  0.085% | 
 | 101  | Blaziken           |  0.03651% | 1843   |  0.575% | 
 | 102  | Thundurus          |  0.03636% | 103    |  0.032% | 
 | 103  | Tapu Fini          |  0.03601% | 430    |  0.134% | 
 | 104  | Glalie-Mega        |  0.03361% | 48     |  0.015% | 
 | 105  | Hippowdon          |  0.03339% | 514    |  0.160% | 
 | 106  | Mimikyu            |  0.03244% | 2298   |  0.717% | 
 | 107  | Stakataka          |  0.03122% | 454    |  0.142% | 
 | 108  | Rotom-Wash         |  0.03057% | 658    |  0.205% | 
 | 109  | Ninetales-Alola    |  0.03005% | 629    |  0.196% | 
 | 110  | Klefki             |  0.02967% | 702    |  0.219% | 
 | 111  | Nihilego           |  0.02881% | 726    |  0.226% | 
 | 112  | Hydreigon          |  0.02863% | 406    |  0.127% | 
 | 113  | Blissey            |  0.02859% | 802    |  0.250% | 
 | 114  | Arceus-Electric    |  0.02827% | 223    |  0.070% | 
 | 115  | Arceus-Flying      |  0.02697% | 112    |  0.035% | 
 | 116  | Zygarde-10%        |  0.02679% | 154    |  0.048% | 
 | 117  | Swampert           |  0.02676% | 681    |  0.212% | 
 | 118  | Infernape          |  0.02572% | 788    |  0.246% | 
 | 119  | Slurpuff           |  0.02419% | 199    |  0.062% | 
 | 120  | Torkoal            |  0.02362% | 352    |  0.110% | 
 | 121  | Tapu Bulu          |  0.02294% | 174    |  0.054% | 
 | 122  | Arceus-Dragon      |  0.02267% | 180    |  0.056% | 
 | 123  | Shedinja           |  0.02249% | 912    |  0.284% | 
 | 124  | Arceus-Ghost       |  0.02226% | 272    |  0.085% | 
 | 125  | Cresselia          |  0.02144% | 184    |  0.057% | 
 | 126  | Vivillon           |  0.02067% | 221    |  0.069% | 
 | 127  | Togedemaru         |  0.01963% | 285    |  0.089% | 
 | 128  | Umbreon            |  0.01918% | 413    |  0.129% | 
 | 129  | Registeel          |  0.01873% | 151    |  0.047% | 
 | 130  | Xurkitree          |  0.01842% | 634    |  0.198% | 
 | 131  | Reshiram           |  0.01828% | 389    |  0.121% | 
 | 132  | Celebi             |  0.01808% | 146    |  0.046% | 
 | 133  | Victini            |  0.01804% | 468    |  0.146% | 
 | 134  | Mew                |  0.01801% | 597    |  0.186% | 
 | 135  | Tentacruel         |  0.01795% | 375    |  0.117% | 
 | 136  | Durant             |  0.01763% | 396    |  0.124% | 
 | 137  | Aerodactyl-Mega    |  0.01715% | 203    |  0.063% | 
 | 138  | Lycanroc           |  0.01667% | 77     |  0.024% | 
 | 139  | Hoopa-Unbound      |  0.01667% | 241    |  0.075% | 
 | 140  | Kabutops           |  0.01596% | 111    |  0.035% | 
 | 141  | Noivern            |  0.01594% | 232    |  0.072% | 
 | 142  | Azumarill          |  0.01582% | 832    |  0.259% | 
 | 143  | Arceus-Psychic     |  0.01511% | 31     |  0.010% | 
 | 144  | Jirachi            |  0.01450% | 573    |  0.179% | 
 | 145  | Charizard-Mega-X   |  0.01438% | 1479   |  0.461% | 
 | 146  | Celesteela         |  0.01436% | 528    |  0.165% | 
 | 147  | Shaymin            |  0.01340% | 21     |  0.007% | 
 | 148  | Arceus-Ice         |  0.01310% | 64     |  0.020% | 
 | 149  | Zeraora            |  0.01250% | 993    |  0.310% | 
 | 150  | Pyukumuku          |  0.01228% | 321    |  0.100% | 
 | 151  | Pelipper           |  0.01224% | 459    |  0.143% | 
 | 152  | Meowstic           |  0.01214% | 187    |  0.058% | 
 | 153  | Kommo-o            |  0.01213% | 1094   |  0.341% | 
 | 154  | Togekiss           |  0.01187% | 627    |  0.196% | 
 | 155  | Gallade-Mega       |  0.01162% | 310    |  0.097% | 
 | 156  | Masquerain         |  0.01146% | 178    |  0.056% | 
 | 157  | Manaphy            |  0.01139% | 138    |  0.043% | 
 | 158  | Nosepass           |  0.01128% | 527    |  0.164% | 
 | 159  | Nidoking           |  0.01096% | 653    |  0.204% | 
 | 160  | Ambipom            |  0.01089% | 427    |  0.133% | 
 | 161  | Charizard-Mega-Y   |  0.01074% | 1026   |  0.320% | 
 | 162  | Garbodor           |  0.01022% | 305    |  0.095% | 
 | 163  | Arcanine           |  0.01017% | 364    |  0.114% | 
 | 164  | Froslass           |  0.00999% | 544    |  0.170% | 
 | 165  | Gyarados           |  0.00910% | 637    |  0.199% | 
 | 166  | Azelf              |  0.00887% | 260    |  0.081% | 
 | 167  | Pikachu            |  0.00882% | 728    |  0.227% | 
 | 168  | Beedrill           |  0.00867% | 51     |  0.016% | 
 | 169  | Alomomola          |  0.00830% | 31     |  0.010% | 
 | 170  | Magnezone          |  0.00824% | 491    |  0.153% | 
 | 171  | Weavile            |  0.00804% | 974    |  0.304% | 
 | 172  | Volcarona          |  0.00800% | 1023   |  0.319% | 
 | 173  | Liepard            |  0.00777% | 495    |  0.154% | 
 | 174  | Kyurem-Black       |  0.00770% | 369    |  0.115% | 
 | 175  | Crobat             |  0.00706% | 719    |  0.224% | 
 | 176  | Reuniclus          |  0.00689% | 152    |  0.047% | 
 | 177  | Mamoswine          |  0.00681% | 513    |  0.160% | 
 | 178  | Snorlax            |  0.00675% | 1020   |  0.318% | 
 | 179  | Slaking            |  0.00658% | 196    |  0.061% | 
 | 180  | Hitmonlee          |  0.00653% | 453    |  0.141% | 
 | 181  | Lucario            |  0.00640% | 404    |  0.126% | 
 | 182  | Rattata            |  0.00639% | 795    |  0.248% | 
 | 183  | Archeops           |  0.00622% | 132    |  0.041% | 
 | 184  | Arceus-Fighting    |  0.00620% | 48     |  0.015% | 
 | 185  | Cottonee           |  0.00616% | 247    |  0.077% | 
 | 186  | Politoed           |  0.00612% | 216    |  0.067% | 
 | 187  | Absol              |  0.00612% | 70     |  0.022% | 
 | 188  | Cradily            |  0.00610% | 448    |  0.140% | 
 | 189  | Wobbuffet          |  0.00604% | 411    |  0.128% | 
 | 190  | Porygon2           |  0.00603% | 286    |  0.089% | 
 | 191  | Lycanroc-Dusk      |  0.00593% | 502    |  0.157% | 
 | 192  | Electrode          |  0.00581% | 255    |  0.080% | 
 | 193  | Gothitelle         |  0.00558% | 99     |  0.031% | 
 | 194  | Venusaur-Mega      |  0.00551% | 734    |  0.229% | 
 | 195  | Mawile-Mega        |  0.00535% | 320    |  0.100% | 
 | 196  | Magnemite          |  0.00532% | 168    |  0.052% | 
 | 197  | Hawlucha           |  0.00526% | 363    |  0.113% | 
 | 198  | Feraligatr         |  0.00514% | 268    |  0.084% | 
 | 199  | Bastiodon          |  0.00509% | 237    |  0.074% | 
 | 200  | Jolteon            |  0.00502% | 588    |  0.183% | 
 | 201  | Clefable           |  0.00502% | 701    |  0.219% | 
 | 202  | Banette-Mega       |  0.00486% | 131    |  0.041% | 
 | 203  | Rhyperior          |  0.00467% | 285    |  0.089% | 
 | 204  | Heracross          |  0.00465% | 178    |  0.056% | 
 | 205  | Staraptor          |  0.00446% | 496    |  0.155% | 
 | 206  | Meloetta           |  0.00411% | 95     |  0.030% | 
 | 207  | Salamence          |  0.00402% | 515    |  0.161% | 
 | 208  | Scyther            |  0.00380% | 64     |  0.020% | 
 | 209  | Swellow            |  0.00372% | 224    |  0.070% | 
 | 210  | Incineroar         |  0.00365% | 548    |  0.171% | 
 | 211  | Linoone            |  0.00359% | 509    |  0.159% | 
 | 212  | Talonflame         |  0.00348% | 564    |  0.176% | 
 | 213  | Metagross          |  0.00340% | 343    |  0.107% | 
 | 214  | Thundurus-Therian  |  0.00339% | 152    |  0.047% | 
 | 215  | Volcanion          |  0.00335% | 222    |  0.069% | 
 | 216  | Gardevoir          |  0.00326% | 344    |  0.107% | 
 | 217  | Latios-Mega        |  0.00326% | 87     |  0.027% | 
 | 218  | Persian-Alola      |  0.00325% | 231    |  0.072% | 
 | 219  | Sceptile-Mega      |  0.00323% | 462    |  0.144% | 
 | 220  | Zoroark            |  0.00316% | 463    |  0.144% | 
 | 221  | Omastar            |  0.00315% | 358    |  0.112% | 
 | 222  | Venusaur           |  0.00302% | 352    |  0.110% | 
 | 223  | Solosis            |  0.00301% | 94     |  0.029% | 
 | 224  | Gastrodon          |  0.00300% | 199    |  0.062% | 
 | 225  | Golurk             |  0.00300% | 178    |  0.056% | 
 | 226  | Milotic            |  0.00300% | 448    |  0.140% | 
 | 227  | Aron               |  0.00295% | 484    |  0.151% | 
 | 228  | Alakazam-Mega      |  0.00289% | 408    |  0.127% | 
 | 229  | Natu               |  0.00281% | 55     |  0.017% | 
 | 230  | Amoonguss          |  0.00277% | 226    |  0.070% | 
 | 231  | Geodude            |  0.00277% | 515    |  0.161% | 
 | 232  | Golduck            |  0.00275% | 249    |  0.078% | 
 | 233  | Dusknoir           |  0.00270% | 487    |  0.152% | 
 | 234  | Gengar             |  0.00268% | 1053   |  0.328% | 
 | 235  | Xatu               |  0.00265% | 275    |  0.086% | 
 | 236  | Garchomp-Mega      |  0.00264% | 705    |  0.220% | 
 | 237  | Ninetales          |  0.00257% | 315    |  0.098% | 
 | 238  | Goodra             |  0.00257% | 245    |  0.076% | 
 | 239  | Avalugg            |  0.00250% | 54     |  0.017% | 
 | 240  | Muk-Alola          |  0.00246% | 330    |  0.103% | 
 | 241  | Eelektross         |  0.00243% | 280    |  0.087% | 
 | 242  | Accelgor           |  0.00241% | 158    |  0.049% | 
 | 243  | Wynaut             |  0.00241% | 23     |  0.007% | 
 | 244  | Rotom-Heat         |  0.00237% | 200    |  0.062% | 
 | 245  | Latias             |  0.00237% | 87     |  0.027% | 
 | 246  | Spiritomb          |  0.00234% | 309    |  0.096% | 
 | 247  | Lapras             |  0.00232% | 381    |  0.119% | 
 | 248  | Slowbro            |  0.00224% | 67     |  0.021% | 
 | 249  | Tangela            |  0.00223% | 28     |  0.009% | 
 | 250  | Ninjask            |  0.00220% | 557    |  0.174% | 
 | 251  | Malamar            |  0.00219% | 280    |  0.087% | 
 | 252  | Porygon-Z          |  0.00213% | 619    |  0.193% | 
 | 253  | Aggron             |  0.00198% | 311    |  0.097% | 
 | 254  | Altaria-Mega       |  0.00196% | 227    |  0.071% | 
 | 255  | Tornadus-Therian   |  0.00196% | 109    |  0.034% | 
 | 256  | Qwilfish           |  0.00193% | 50     |  0.016% | 
 | 257  | Bronzong           |  0.00192% | 245    |  0.076% | 
 | 258  | Necrozma           |  0.00187% | 105    |  0.033% | 
 | 259  | Barbaracle         |  0.00186% | 102    |  0.032% | 
 | 260  | Gardevoir-Mega     |  0.00179% | 427    |  0.133% | 
 | 261  | Starmie            |  0.00176% | 150    |  0.047% | 
 | 262  | Arceus-Grass       |  0.00175% | 121    |  0.038% | 
 | 263  | Absol-Mega         |  0.00168% | 429    |  0.134% | 
 | 264  | Butterfree         |  0.00166% | 505    |  0.158% | 
 | 265  | Camerupt-Mega      |  0.00164% | 103    |  0.032% | 
 | 266  | Cobalion           |  0.00163% | 63     |  0.020% | 
 | 267  | Flygon             |  0.00161% | 277    |  0.086% | 
 | 268  | Ariados            |  0.00160% | 442    |  0.138% | 
 | 269  | Haxorus            |  0.00159% | 357    |  0.111% | 
 | 270  | Sharpedo-Mega      |  0.00157% | 58     |  0.018% | 
 | 271  | Latios             |  0.00155% | 120    |  0.037% | 
 | 272  | Golisopod          |  0.00152% | 341    |  0.106% | 
 | 273  | Murkrow            |  0.00151% | 126    |  0.039% | 
 | 274  | Marowak-Alola      |  0.00150% | 164    |  0.051% | 
 | 275  | Weezing            |  0.00150% | 338    |  0.105% | 
 | 276  | Cofagrigus         |  0.00144% | 327    |  0.102% | 
 | 277  | Eevee              |  0.00140% | 109    |  0.034% | 
 | 278  | Drapion            |  0.00140% | 398    |  0.124% | 
 | 279  | Gallade            |  0.00139% | 146    |  0.046% | 
 | 280  | Regice             |  0.00139% | 61     |  0.019% | 
 | 281  | Crustle            |  0.00135% | 155    |  0.048% | 
 | 282  | Torchic            |  0.00134% | 9      |  0.003% | 
 | 283  | Jumpluff           |  0.00132% | 105    |  0.033% | 
 | 284  | Glalie             |  0.00132% | 26     |  0.008% | 
 | 285  | Raichu-Alola       |  0.00130% | 209    |  0.065% | 
 | 286  | Carbink            |  0.00128% | 76     |  0.024% | 
 | 287  | Machamp            |  0.00128% | 433    |  0.135% | 
 | 288  | Komala             |  0.00127% | 142    |  0.044% | 
 | 289  | Jellicent          |  0.00123% | 102    |  0.032% | 
 | 290  | Sceptile           |  0.00122% | 212    |  0.066% | 
 | 291  | Typhlosion         |  0.00121% | 269    |  0.084% | 
 | 292  | Sylveon            |  0.00121% | 275    |  0.086% | 
 | 293  | Entei              |  0.00121% | 74     |  0.023% | 
 | 294  | Medicham           |  0.00119% | 47     |  0.015% | 
 | 295  | Vaporeon           |  0.00119% | 235    |  0.073% | 
 | 296  | Minior             |  0.00116% | 252    |  0.079% | 
 | 297  | Charizard          |  0.00113% | 369    |  0.115% | 
 | 298  | Tyrantrum          |  0.00113% | 278    |  0.087% | 
 | 299  | Keldeo             |  0.00110% | 158    |  0.049% | 
 | 300  | Scizor             |  0.00108% | 273    |  0.085% | 
 | 301  | Diancie            |  0.00108% | 85     |  0.027% | 
 | 302  | Plusle             |  0.00106% | 22     |  0.007% | 
 | 303  | Alakazam           |  0.00104% | 216    |  0.067% | 
 | 304  | Heracross-Mega     |  0.00104% | 260    |  0.081% | 
 | 305  | Magneton           |  0.00102% | 94     |  0.029% | 
 | 306  | Empoleon           |  0.00101% | 411    |  0.128% | 
 | 307  | Torterra           |  0.00099% | 343    |  0.107% | 
 | 308  | Electivire         |  0.00093% | 431    |  0.134% | 
 | 309  | Chesnaught         |  0.00093% | 127    |  0.040% | 
 | 310  | Palossand          |  0.00089% | 73     |  0.023% | 
 | 311  | Golem              |  0.00086% | 255    |  0.080% | 
 | 312  | Abomasnow          |  0.00086% | 88     |  0.027% | 
 | 313  | Banette            |  0.00085% | 41     |  0.013% | 
 | 314  | Wailord            |  0.00085% | 102    |  0.032% | 
 | 315  | Darmanitan         |  0.00085% | 375    |  0.117% | 
 | 316  | Comfey             |  0.00085% | 59     |  0.018% | 
 | 317  | Chandelure         |  0.00082% | 349    |  0.109% | 
 | 318  | Seismitoad         |  0.00081% | 216    |  0.067% | 
 | 319  | Decidueye          |  0.00081% | 292    |  0.091% | 
 | 320  | Clamperl           |  0.00080% | 26     |  0.008% | 
 | 321  | Hitmonchan         |  0.00080% | 97     |  0.030% | 
 | 322  | Quagsire           |  0.00077% | 129    |  0.040% | 
 | 323  | Braviary           |  0.00076% | 131    |  0.041% | 
 | 324  | Vileplume          |  0.00076% | 156    |  0.049% | 
 | 325  | Trevenant          |  0.00074% | 125    |  0.039% | 
 | 326  | Primeape           |  0.00070% | 79     |  0.025% | 
 | 327  | Shiftry            |  0.00069% | 36     |  0.011% | 
 | 328  | Leavanny           |  0.00068% | 68     |  0.021% | 
 | 329  | Suicune            |  0.00067% | 124    |  0.039% | 
 | 330  | Kecleon            |  0.00066% | 71     |  0.022% | 
 | 331  | Medicham-Mega      |  0.00066% | 205    |  0.064% | 
 | 332  | Flareon            |  0.00066% | 57     |  0.018% | 
 | 333  | Nidoqueen          |  0.00064% | 355    |  0.111% | 
 | 334  | Dusclops           |  0.00061% | 138    |  0.043% | 
 | 335  | Crawdaunt          |  0.00061% | 87     |  0.027% | 
 | 336  | Buzzwole           |  0.00060% | 206    |  0.064% | 
 | 337  | Rhydon             |  0.00060% | 157    |  0.049% | 
 | 338  | Scrafty            |  0.00058% | 144    |  0.045% | 
 | 339  | Steelix-Mega       |  0.00057% | 234    |  0.073% | 
 | 340  | Floatzel           |  0.00057% | 101    |  0.032% | 
 | 341  | Furfrou            |  0.00057% | 25     |  0.008% | 
 | 342  | Miltank            |  0.00055% | 133    |  0.041% | 
 | 343  | Magmortar          |  0.00054% | 64     |  0.020% | 
 | 344  | Poliwrath          |  0.00053% | 70     |  0.022% | 
 | 345  | Toxicroak          |  0.00052% | 148    |  0.046% | 
 | 346  | Raikou             |  0.00051% | 119    |  0.037% | 
 | 347  | Terrakion          |  0.00051% | 165    |  0.051% | 
 | 348  | Lycanroc-Midnight  |  0.00050% | 271    |  0.085% | 
 | 349  | Gourgeist-Super    |  0.00050% | 23     |  0.007% | 
 | 350  | Yamask             |  0.00049% | 55     |  0.017% | 
 | 351  | Salazzle           |  0.00048% | 256    |  0.080% | 
 | 352  | Mandibuzz          |  0.00048% | 81     |  0.025% | 
 | 353  | Ludicolo           |  0.00047% | 155    |  0.048% | 
 | 354  | Muk                |  0.00047% | 99     |  0.031% | 
 | 355  | Starly             |  0.00047% | 48     |  0.015% | 
 | 356  | Vikavolt           |  0.00046% | 131    |  0.041% | 
 | 357  | Gigalith           |  0.00046% | 227    |  0.071% | 
 | 358  | Steelix            |  0.00045% | 238    |  0.074% | 
 | 359  | Shiinotic          |  0.00044% | 74     |  0.023% | 
 | 360  | Sigilyph           |  0.00044% | 62     |  0.019% | 
 | 361  | Bisharp            |  0.00043% | 307    |  0.096% | 
 | 362  | Yanmega            |  0.00043% | 700    |  0.218% | 
 | 363  | Frogadier          |  0.00043% | 35     |  0.011% | 
 | 364  | Conkeldurr         |  0.00041% | 139    |  0.043% | 
 | 365  | Jynx               |  0.00041% | 59     |  0.018% | 
 | 366  | Herdier            |  0.00041% | 13     |  0.004% | 
 | 367  | Golem-Alola        |  0.00041% | 193    |  0.060% | 
 | 368  | Pikachu-Partner    |  0.00041% | 18     |  0.006% | 
 | 369  | Heliolisk          |  0.00040% | 139    |  0.043% | 
 | 370  | Tornadus           |  0.00040% | 17     |  0.005% | 
 | 371  | Jigglypuff         |  0.00039% | 47     |  0.015% | 
 | 372  | Pikachu-Alola      |  0.00037% | 67     |  0.021% | 
 | 373  | Tangrowth          |  0.00037% | 119    |  0.037% | 
 | 374  | Sandslash-Alola    |  0.00036% | 92     |  0.029% | 
 | 375  | Manectric-Mega     |  0.00035% | 160    |  0.050% | 
 | 376  | Dragalge           |  0.00034% | 135    |  0.042% | 
 | 377  | Turtwig            |  0.00033% | 11     |  0.003% | 
 | 378  | Sunflora           |  0.00033% | 188    |  0.059% | 
 | 379  | Persian            |  0.00032% | 73     |  0.023% | 
 | 380  | Honchkrow          |  0.00031% | 98     |  0.031% | 
 | 381  | Luxray             |  0.00031% | 149    |  0.046% | 
 | 382  | Zangoose           |  0.00029% | 159    |  0.050% | 
 | 383  | Clefairy           |  0.00028% | 41     |  0.013% | 
 | 384  | Kadabra            |  0.00028% | 16     |  0.005% | 
 | 385  | Corphish           |  0.00028% | 11     |  0.003% | 
 | 386  | Gabite             |  0.00027% | 7      |  0.002% | 
 | 387  | Ursaring           |  0.00027% | 81     |  0.025% | 
 | 388  | Lilligant          |  0.00027% | 72     |  0.022% | 
 | 389  | Bonsly             |  0.00027% | 8      |  0.002% | 
 | 390  | Solrock            |  0.00026% | 36     |  0.011% | 
 | 391  | Bewear             |  0.00026% | 77     |  0.024% | 
 | 392  | Dunsparce          |  0.00026% | 66     |  0.021% | 
 | 393  | Slowbro-Mega       |  0.00026% | 68     |  0.021% | 
 | 394  | Ampharos-Mega      |  0.00026% | 92     |  0.029% | 
 | 395  | Audino-Mega        |  0.00025% | 56     |  0.017% | 
 | 396  | Lanturn            |  0.00025% | 65     |  0.020% | 
 | 397  | Raichu             |  0.00024% | 142    |  0.044% | 
 | 398  | Delphox            |  0.00024% | 110    |  0.034% | 
 | 399  | Cinccino           |  0.00024% | 171    |  0.053% | 
 | 400  | Vespiquen          |  0.00023% | 28     |  0.009% | 
 | 401  | Pidgeot-Mega       |  0.00023% | 144    |  0.045% | 
 | 402  | Gumshoos           |  0.00022% | 35     |  0.011% | 
 | 403  | Salandit           |  0.00022% | 10     |  0.003% | 
 | 404  | Vanilluxe          |  0.00021% | 27     |  0.008% | 
 | 405  | Drifblim           |  0.00021% | 130    |  0.041% | 
 | 406  | Rowlet             |  0.00021% | 64     |  0.020% | 
 | 407  | Drampa             |  0.00020% | 27     |  0.008% | 
 | 408  | Manectric          |  0.00019% | 167    |  0.052% | 
 | 409  | Diggersby          |  0.00019% | 113    |  0.035% | 
 | 410  | Articuno           |  0.00019% | 123    |  0.038% | 
 | 411  | Grovyle            |  0.00019% | 35     |  0.011% | 
 | 412  | Furret             |  0.00019% | 59     |  0.018% | 
 | 413  | Mienshao           |  0.00019% | 91     |  0.028% | 
 | 414  | Venomoth           |  0.00018% | 57     |  0.018% | 
 | 415  | Claydol            |  0.00018% | 236    |  0.074% | 
 | 416  | Rotom-Frost        |  0.00018% | 50     |  0.016% | 
 | 417  | Silvally-Fairy     |  0.00017% | 34     |  0.011% | 
 | 418  | Kirlia             |  0.00017% | 6      |  0.002% | 
 | 419  | Sharpedo           |  0.00017% | 111    |  0.035% | 
 | 420  | Altaria            |  0.00017% | 67     |  0.021% | 
 | 421  | Fletchinder        |  0.00017% | 3      |  0.001% | 
 | 422  | Purrloin           |  0.00017% | 43     |  0.013% | 
 | 423  | Dedenne            |  0.00016% | 67     |  0.021% | 
 | 424  | Nidorino           |  0.00016% | 2      |  0.001% | 
 | 425  | Tsareena           |  0.00016% | 83     |  0.026% | 
 | 426  | Eelektrik          |  0.00016% | 7      |  0.002% | 
 | 427  | Latias-Mega        |  0.00016% | 100    |  0.031% | 
 | 428  | Emolga             |  0.00016% | 64     |  0.020% | 
 | 429  | Relicanth          |  0.00015% | 24     |  0.007% | 
 | 430  | Clawitzer          |  0.00015% | 104    |  0.032% | 
 | 431  | Bulbasaur          |  0.00015% | 41     |  0.013% | 
 | 432  | Blastoise-Mega     |  0.00014% | 143    |  0.045% | 
 | 433  | Florges            |  0.00014% | 35     |  0.011% | 
 | 434  | Omanyte            |  0.00014% | 14     |  0.004% | 
 | 435  | Kingdra            |  0.00014% | 164    |  0.051% | 
 | 436  | Kricketune         |  0.00014% | 71     |  0.022% | 
 | 437  | Mesprit            |  0.00014% | 20     |  0.006% | 
 | 438  | Turtonator         |  0.00013% | 120    |  0.037% | 
 | 439  | Glaceon            |  0.00012% | 80     |  0.025% | 
 | 440  | Meganium           |  0.00012% | 74     |  0.023% | 
 | 441  | Blastoise          |  0.00012% | 170    |  0.053% | 
 | 442  | Regirock           |  0.00012% | 149    |  0.046% | 
 | 443  | Corsola            |  0.00012% | 17     |  0.005% | 
 | 444  | Cosmoem            |  0.00012% | 7      |  0.002% | 
 | 445  | Beheeyem           |  0.00012% | 52     |  0.016% | 
 | 446  | Sawsbuck           |  0.00011% | 48     |  0.015% | 
 | 447  | Walrein            |  0.00010% | 124    |  0.039% | 
 | 448  | Delibird           |  0.00009% | 61     |  0.019% | 
 | 449  | Diglett            |  0.00009% | 51     |  0.016% | 
 | 450  | Ampharos           |  0.00009% | 58     |  0.018% | 
 | 451  | Doublade           |  0.00009% | 84     |  0.026% | 
 | 452  | Bruxish            |  0.00009% | 26     |  0.008% | 
 | 453  | Mantine            |  0.00009% | 33     |  0.010% | 
 | 454  | Granbull           |  0.00009% | 35     |  0.011% | 
 | 455  | Druddigon          |  0.00008% | 65     |  0.020% | 
 | 456  | Primarina          |  0.00008% | 258    |  0.080% | 
 | 457  | Dodrio             |  0.00008% | 23     |  0.007% | 
 | 458  | Houndoom-Mega      |  0.00008% | 100    |  0.031% | 
 | 459  | Carracosta         |  0.00008% | 78     |  0.024% | 
 | 460  | Hitmontop          |  0.00008% | 69     |  0.022% | 
 | 461  | Sawk               |  0.00007% | 56     |  0.017% | 
 | 462  | Patrat             |  0.00007% | 3      |  0.001% | 
 | 463  | Silvally           |  0.00007% | 21     |  0.007% | 
 | 464  | Spinda             |  0.00007% | 54     |  0.017% | 
 | 465  | Pinsir-Mega        |  0.00006% | 104    |  0.032% | 
 | 466  | Seaking            |  0.00006% | 10     |  0.003% | 
 | 467  | Silvally-Water     |  0.00006% | 6      |  0.002% | 
 | 468  | Crabominable       |  0.00006% | 37     |  0.012% | 
 | 469  | Guzzlord           |  0.00006% | 70     |  0.022% | 
 | 470  | Emboar             |  0.00006% | 103    |  0.032% | 
 | 471  | Shuppet            |  0.00006% | 21     |  0.007% | 
 | 472  | Ivysaur            |  0.00006% | 19     |  0.006% | 
 | 473  | Toucannon          |  0.00005% | 92     |  0.029% | 
 | 474  | Fearow             |  0.00005% | 55     |  0.017% | 
 | 475  | Electabuzz         |  0.00005% | 14     |  0.004% | 
 | 476  | Buizel             |  0.00005% | 25     |  0.008% | 
 | 477  | Haunter            |  0.00005% | 46     |  0.014% | 
 | 478  | Camerupt           |  0.00005% | 34     |  0.011% | 
 | 479  | Illumise           |  0.00005% | 109    |  0.034% | 
 | 480  | Riolu              |  0.00005% | 65     |  0.020% | 
 | 481  | Bibarel            |  0.00005% | 45     |  0.014% | 
 | 482  | Abomasnow-Mega     |  0.00005% | 83     |  0.026% | 
 | 483  | Togetic            |  0.00005% | 11     |  0.003% | 
 | 484  | Silvally-Steel     |  0.00005% | 24     |  0.007% | 
 | 485  | Arbok              |  0.00005% | 28     |  0.009% | 
 | 486  | Pikachu-Kalos      |  0.00005% | 20     |  0.006% | 
 | 487  | Mudsdale           |  0.00004% | 135    |  0.042% | 
 | 488  | Pidgey             |  0.00004% | 13     |  0.004% | 
 | 489  | Hoopa              |  0.00004% | 17     |  0.005% | 
 | 490  | Ekans              |  0.00004% | 1      |  0.000% | 
 | 491  | Taillow            |  0.00004% | 36     |  0.011% | 
 | 492  | Marowak            |  0.00004% | 76     |  0.024% | 
 | 493  | Hariyama           |  0.00004% | 56     |  0.017% | 
 | 494  | Audino             |  0.00004% | 28     |  0.009% | 
 | 495  | Mismagius          |  0.00004% | 144    |  0.045% | 
 | 496  | Stunfisk           |  0.00004% | 90     |  0.028% | 
 | 497  | Dhelmise           |  0.00004% | 43     |  0.013% | 
 | 498  | Onix               |  0.00004% | 67     |  0.021% | 
 | 499  | Hippopotas         |  0.00003% | 86     |  0.027% | 
 | 500  | Escavalier         |  0.00003% | 41     |  0.013% | 
 | 501  | Samurott           |  0.00003% | 103    |  0.032% | 
 | 502  | Dugtrio-Alola      |  0.00003% | 92     |  0.029% | 
 | 503  | Growlithe          |  0.00003% | 3      |  0.001% | 
 | 504  | Unfezant           |  0.00003% | 55     |  0.017% | 
 | 505  | Cryogonal          |  0.00003% | 45     |  0.014% | 
 | 506  | Mawile             |  0.00003% | 23     |  0.007% | 
 | 507  | Swirlix            |  0.00003% | 32     |  0.010% | 
 | 508  | Chatot             |  0.00003% | 86     |  0.027% | 
 | 509  | Munchlax           |  0.00003% | 23     |  0.007% | 
 | 510  | Leafeon            |  0.00003% | 56     |  0.017% | 
 | 511  | Virizion           |  0.00003% | 41     |  0.013% | 
 | 512  | Kingler            |  0.00003% | 35     |  0.011% | 
 | 513  | Watchog            |  0.00003% | 19     |  0.006% | 
 | 514  | Chimecho           |  0.00002% | 21     |  0.007% | 
 | 515  | Stoutland          |  0.00002% | 42     |  0.013% | 
 | 516  | Ralts              |  0.00002% | 32     |  0.010% | 
 | 517  | Delcatty           |  0.00002% | 14     |  0.004% | 
 | 518  | Stantler           |  0.00002% | 33     |  0.010% | 
 | 519  | Regigigas          |  0.00002% | 139    |  0.043% | 
 | 520  | Zweilous           |  0.00002% | 9      |  0.003% | 
 | 521  | Oranguru           |  0.00002% | 27     |  0.008% | 
 | 522  | Shieldon           |  0.00002% | 24     |  0.007% | 
 | 523  | Tropius            |  0.00002% | 19     |  0.006% | 
 | 524  | Cacturne           |  0.00002% | 37     |  0.012% | 
 | 525  | Gligar             |  0.00002% | 107    |  0.033% | 
 | 526  | Pangoro            |  0.00002% | 44     |  0.014% | 
 | 527  | Castform           |  0.00002% | 36     |  0.011% | 
 | 528  | Meditite           |  0.00002% | 18     |  0.006% | 
 | 529  | Bidoof             |  0.00002% | 31     |  0.010% | 
 | 530  | Mr. Mime           |  0.00002% | 74     |  0.023% | 
 | 531  | Buneary            |  0.00002% | 14     |  0.004% | 
 | 532  | Whirlipede         |  0.00002% | 42     |  0.013% | 
 | 533  | Tauros             |  0.00002% | 92     |  0.029% | 
 | 534  | Gastly             |  0.00002% | 36     |  0.011% | 
 | 535  | Raticate-Alola     |  0.00002% | 35     |  0.011% | 
 | 536  | Rotom-Fan          |  0.00001% | 18     |  0.006% | 
 | 537  | Musharna           |  0.00001% | 24     |  0.007% | 
 | 538  | Slowpoke           |  0.00001% | 2      |  0.001% | 
 | 539  | Mudkip             |  0.00001% | 11     |  0.003% | 
 | 540  | Lurantis           |  0.00001% | 49     |  0.015% | 
 | 541  | Weedle             |  0.00001% | 31     |  0.010% | 
 | 542  | Larvitar           |  0.00001% | 23     |  0.007% | 
 | 543  | Pachirisu          |  0.00001% | 76     |  0.024% | 
 | 544  | Armaldo            |  0.00001% | 51     |  0.016% | 
 | 545  | Pyroar             |  0.00001% | 31     |  0.010% | 
 | 546  | Sandslash          |  0.00001% | 22     |  0.007% | 
 | 547  | Kangaskhan         |  0.00001% | 29     |  0.009% | 
 | 548  | Raticate           |  0.00001% | 59     |  0.018% | 
 | 549  | Exploud            |  0.00001% | 160    |  0.050% | 
 | 550  | Rotom-Mow          |  0.00001% | 39     |  0.012% | 
 | 551  | Skuntank           |  0.00001% | 7      |  0.002% | 
 | 552  | Kabuto             |  0.00001% | 7      |  0.002% | 
 | 553  | Dewott             |  0.00001% | 21     |  0.007% | 
 | 554  | Exeggutor-Alola    |  0.00001% | 46     |  0.014% | 
 | 555  | Wailmer            |  0.00001% | 5      |  0.002% | 
 | 556  | Voltorb            |  0.00001% | 26     |  0.008% | 
 | 557  | Slowking           |  0.00001% | 48     |  0.015% | 
 | 558  | Wishiwashi         |  0.00001% | 51     |  0.016% | 
 | 559  | Exeggcute          |  0.00001% | 2      |  0.001% | 
 | 560  | Krokorok           |  0.00001% | 2      |  0.001% | 
 | 561  | Chimchar           |  0.00001% | 4      |  0.001% | 
 | 562  | Koffing            |  0.00001% | 6      |  0.002% | 
 | 563  | Dewgong            |  0.00001% | 22     |  0.007% | 
 | 564  | Swanna             |  0.00001% | 34     |  0.011% | 
 | 565  | Mightyena          |  0.00001% | 70     |  0.022% | 
 | 566  | Beartic            |  0.00001% | 24     |  0.007% | 
 | 567  | Kommo-o-Totem      |  0.00001% | 14     |  0.004% | 
 | 568  | Moltres            |  0.00001% | 56     |  0.017% | 
 | 569  | Psyduck            |  0.00001% | 11     |  0.003% | 
 | 570  | Vulpix             |  0.00001% | 6      |  0.002% | 
 | 571  | Shroomish          |  0.00001% | 2      |  0.001% | 
 | 572  | Kyurem             |  0.00001% | 31     |  0.010% | 
 | 573  | Farfetch'd         |  0.00001% | 18     |  0.006% | 
 | 574  | Rotom              |  0.00001% | 51     |  0.016% | 
 | 575  | Gloom              |  0.00000% | 5      |  0.002% | 
 | 576  | Elekid             |  0.00000% | 9      |  0.003% | 
 | 577  | Houndoom           |  0.00000% | 64     |  0.020% | 
 | 578  | Staravia           |  0.00000% | 6      |  0.002% | 
 | 579  | Chikorita          |  0.00000% | 5      |  0.002% | 
 | 580  | Larvesta           |  0.00000% | 8      |  0.002% | 
 | 581  | Simisear           |  0.00000% | 11     |  0.003% | 
 | 582  | Ducklett           |  0.00000% | 4      |  0.001% | 
 | 583  | Charjabug          |  0.00000% | 7      |  0.002% | 
 | 584  | Metang             |  0.00000% | 14     |  0.004% | 
 | 585  | Rattata-Alola      |  0.00000% | 70     |  0.022% | 
 | 586  | Lickilicky         |  0.00000% | 14     |  0.004% | 
 | 587  | Swalot             |  0.00000% | 41     |  0.013% | 
 | 588  | Teddiursa          |  0.00000% | 4      |  0.001% | 
 | 589  | Exeggutor          |  0.00000% | 52     |  0.016% | 
 | 590  | Silvally-Fire      |  0.00000% | 19     |  0.006% | 
 | 591  | Sunkern            |  0.00000% | 40     |  0.012% | 
 | 592  | Wigglytuff         |  0.00000% | 75     |  0.023% | 
 | 593  | Roggenrola         |  0.00000% | 11     |  0.003% | 
 | 594  | Pidgeot            |  0.00000% | 80     |  0.025% | 
 | 595  | Silvally-Grass     |  0.00000% | 2      |  0.001% | 
 | 596  | Roselia            |  0.00000% | 11     |  0.003% | 
 | 597  | Baltoy             |  0.00000% | 11     |  0.003% | 
 | 598  | Zorua              |  0.00000% | 12     |  0.004% | 
 | 599  | Croagunk           |  0.00000% | 5      |  0.002% | 
 | 600  | Happiny            |  0.00000% | 3      |  0.001% | 
 | 601  | Grubbin            |  0.00000% | 3      |  0.001% | 
 | 602  | Unown              |  0.00000% | 10     |  0.003% | 
 | 603  | Swoobat            |  0.00000% | 26     |  0.008% | 
 | 604  | NidoranM           |  0.00000% | 44     |  0.014% | 
 | 605  | Gulpin             |  0.00000% | 18     |  0.006% | 
 | 606  | Bellossom          |  0.00000% | 44     |  0.014% | 
 | 607  | Oricorio-Sensu     |  0.00000% | 13     |  0.004% | 
 | 608  | Lickitung          |  0.00000% | 13     |  0.004% | 
 | 609  | Beautifly          |  0.00000% | 35     |  0.011% | 
 | 610  | Zigzagoon          |  0.00000% | 51     |  0.016% | 
 | 611  | Dwebble            |  0.00000% | 31     |  0.010% | 
 | 612  | Amaura             |  0.00000% | 8      |  0.002% | 
 | 613  | Passimian          |  0.00000% | 29     |  0.009% | 
 | 614  | Honedge            |  0.00000% | 10     |  0.003% | 
 | 615  | Noctowl            |  0.00000% | 39     |  0.012% | 
 | 616  | Ledian             |  0.00000% | 16     |  0.005% | 
 | 617  | Spinarak           |  0.00000% | 27     |  0.008% | 
 | 618  | Arceus-Bug         |  0.00000% | 19     |  0.006% | 
 | 619  | Dewpider           |  0.00000% | 18     |  0.006% | 
 | 620  | Combee             |  0.00000% | 4      |  0.001% | 
 | 621  | Wooper             |  0.00000% | 7      |  0.002% | 
 | 622  | Lairon             |  0.00000% | 17     |  0.005% | 
 | 623  | Magikarp           |  0.00000% | 61     |  0.019% | 
 | 624  | Nincada            |  0.00000% | 2      |  0.001% | 
 | 625  | Metapod            |  0.00000% | 15     |  0.005% | 
 | 626  | Purugly            |  0.00000% | 9      |  0.003% | 
 | 627  | Nuzleaf            |  0.00000% | 2      |  0.001% | 
 | 628  | Sentret            |  0.00000% | 1      |  0.000% | 
 | 629  | Meowth             |  0.00000% | 20     |  0.006% | 
 | 630  | Oricorio-Pom-Pom   |  0.00000% | 14     |  0.004% | 
 | 631  | Graveler-Alola     |  0.00000% | 40     |  0.012% | 
 | 632  | Rampardos          |  0.00000% | 61     |  0.019% | 
 | 633  | Klinklang          |  0.00000% | 21     |  0.007% | 
 | 634  | Lopunny            |  0.00000% | 22     |  0.007% | 
 | 635  | Electrike          |  0.00000% | 5      |  0.002% | 
 | 636  | Huntail            |  0.00000% | 9      |  0.003% | 
 | 637  | Aurorus            |  0.00000% | 69     |  0.022% | 
 | 638  | Froakie            |  0.00000% | 9      |  0.003% | 
 | 639  | Drifloon           |  0.00000% | 19     |  0.006% | 
 | 640  | Magcargo           |  0.00000% | 23     |  0.007% | 
 | 641  | Skitty             |  0.00000% | 13     |  0.004% | 
 | 642  | Dragonair          |  0.00000% | 23     |  0.007% | 
 | 643  | Victreebel         |  0.00000% | 19     |  0.006% | 
 | 644  | Silvally-Dragon    |  0.00000% | 14     |  0.004% | 
 | 645  | Cleffa             |  0.00000% | 4      |  0.001% | 
 | 646  | Lileep             |  0.00000% | 23     |  0.007% | 
 | 647  | Cubchoo            |  0.00000% | 2      |  0.001% | 
 | 648  | Ponyta             |  0.00000% | 3      |  0.001% | 
 | 649  | Joltik             |  0.00000% | 5      |  0.002% | 
 | 650  | Quilava            |  0.00000% | 7      |  0.002% | 
 | 651  | Totodile           |  0.00000% | 15     |  0.005% | 
 | 652  | Duskull            |  0.00000% | 11     |  0.003% | 
 | 653  | Pichu              |  0.00000% | 14     |  0.004% | 
 | 654  | Ferroseed          |  0.00000% | 216    |  0.067% | 
 | 655  | Foongus            |  0.00000% | 5      |  0.002% | 
 | 656  | Gogoat             |  0.00000% | 20     |  0.006% | 
 | 657  | Trapinch           |  0.00000% | 24     |  0.007% | 
 | 658  | Shelgon            |  0.00000% | 4      |  0.001% | 
 | 659  | Lunatone           |  0.00000% | 13     |  0.004% | 
 | 660  | Lumineon           |  0.00000% | 4      |  0.001% | 
 | 661  | Darumaka           |  0.00000% | 3      |  0.001% | 
 | 662  | Aromatisse         |  0.00000% | 37     |  0.012% | 
 | 663  | Silvally-Ghost     |  0.00000% | 12     |  0.004% | 
 | 664  | Oricorio           |  0.00000% | 10     |  0.003% | 
 | 665  | Seadra             |  0.00000% | 11     |  0.003% | 
 | 666  | Mudbray            |  0.00000% | 7      |  0.002% | 
 | 667  | Lillipup           |  0.00000% | 3      |  0.001% | 
 | 668  | Litwick            |  0.00000% | 13     |  0.004% | 
 | 669  | Shinx              |  0.00000% | 1      |  0.000% | 
 | 670  | Misdreavus         |  0.00000% | 12     |  0.004% | 
 | 671  | Seel               |  0.00000% | 1      |  0.000% | 
 | 672  | Oshawott           |  0.00000% | 9      |  0.003% | 
 | 673  | Fraxure            |  0.00000% | 10     |  0.003% | 
 | 674  | Staryu             |  0.00000% | 1      |  0.000% | 
 | 675  | Scraggy            |  0.00000% | 2      |  0.001% | 
 | 676  | Simisage           |  0.00000% | 10     |  0.003% | 
 | 677  | Cyndaquil          |  0.00000% | 3      |  0.001% | 
 | 678  | Seviper            |  0.00000% | 20     |  0.006% | 
 | 679  | Sudowoodo          |  0.00000% | 46     |  0.014% | 
 | 680  | Caterpie           |  0.00000% | 9      |  0.003% | 
 | 681  | Sandygast          |  0.00000% | 4      |  0.001% | 
 | 682  | Type: Null         |  0.00000% | 46     |  0.014% | 
 | 683  | Zebstrika          |  0.00000% | 21     |  0.007% | 
 | 684  | Yungoos            |  0.00000% | 4      |  0.001% | 
 | 685  | Parasect           |  0.00000% | 19     |  0.006% | 
 | 686  | Budew              |  0.00000% | 6      |  0.002% | 
 | 687  | Golbat             |  0.00000% | 9      |  0.003% | 
 | 688  | Octillery          |  0.00000% | 20     |  0.006% | 
 | 689  | Silvally-Electric  |  0.00000% | 13     |  0.004% | 
 | 690  | Gothorita          |  0.00000% | 5      |  0.002% | 
 | 691  | Dratini            |  0.00000% | 11     |  0.003% | 
 | 692  | Cubone             |  0.00000% | 5      |  0.002% | 
 | 693  | Snover             |  0.00000% | 8      |  0.002% | 
 | 694  | Salazzle-Totem     |  0.00000% | 6      |  0.002% | 
 | 695  | Rapidash           |  0.00000% | 27     |  0.008% | 
 | 696  | Axew               |  0.00000% | 2      |  0.001% | 
 | 697  | Tyrogue            |  0.00000% | 7      |  0.002% | 
 | 698  | Rhyhorn            |  0.00000% | 5      |  0.002% | 
 | 699  | Lurantis-Totem     |  0.00000% | 1      |  0.000% | 
 | 700  | Silvally-Ground    |  0.00000% | 8      |  0.002% | 
 | 701  | Oricorio-Pa'u      |  0.00000% | 2      |  0.001% | 
 | 702  | Magby              |  0.00000% | 3      |  0.001% | 
 | 703  | Wimpod             |  0.00000% | 2      |  0.001% | 
 | 704  | Charmander         |  0.00000% | 23     |  0.007% | 
 | 705  | Machoke            |  0.00000% | 7      |  0.002% | 
 | 706  | Duosion            |  0.00000% | 4      |  0.001% | 
 | 707  | Squirtle           |  0.00000% | 27     |  0.008% | 
 | 708  | Whiscash           |  0.00000% | 19     |  0.006% | 
 | 709  | Piplup             |  0.00000% | 7      |  0.002% | 
 | 710  | Magmar             |  0.00000% | 16     |  0.005% | 
 | 711  | Poipole            |  0.00000% | 22     |  0.007% | 
 | 712  | Mimikyu-Totem      |  0.00000% | 22     |  0.007% | 
 | 713  | Swinub             |  0.00000% | 6      |  0.002% | 
 | 714  | Flabebe            |  0.00000% | 3      |  0.001% | 
 | 715  | Silvally-Dark      |  0.00000% | 18     |  0.006% | 
 | 716  | Zubat              |  0.00000% | 17     |  0.005% | 
 | 717  | Pikachu-Original   |  0.00000% | 13     |  0.004% | 
 | 718  | Trubbish           |  0.00000% | 17     |  0.005% | 
 | 719  | Skrelp             |  0.00000% | 14     |  0.004% | 
 | 720  | Geodude-Alola      |  0.00000% | 3      |  0.001% | 
 | 721  | Sneasel            |  0.00000% | 13     |  0.004% | 
 | 722  | Aipom              |  0.00000% | 9      |  0.003% | 
 | 723  | Abra               |  0.00000% | 7      |  0.002% | 
 | 724  | Kakuna             |  0.00000% | 7      |  0.002% | 
 | 725  | Carvanha           |  0.00000% | 5      |  0.002% | 
 | 726  | Treecko            |  0.00000% | 23     |  0.007% | 
 | 727  | Heatmor            |  0.00000% | 11     |  0.003% | 
 | 728  | Dartrix            |  0.00000% | 3      |  0.001% | 
 | 729  | Gorebyss           |  0.00000% | 15     |  0.005% | 
 | 730  | Cherrim            |  0.00000% | 9      |  0.003% | 
 | 731  | Grumpig            |  0.00000% | 9      |  0.003% | 
 | 732  | Maractus           |  0.00000% | 14     |  0.004% | 
 | 733  | Inkay              |  0.00000% | 4      |  0.001% | 
 | 734  | Girafarig          |  0.00000% | 10     |  0.003% | 
 | 735  | Sandshrew          |  0.00000% | 3      |  0.001% | 
 | 736  | Feebas             |  0.00000% | 5      |  0.002% | 
 | 737  | Luxio              |  0.00000% | 2      |  0.001% | 
 | 738  | Pinsir             |  0.00000% | 31     |  0.010% | 
 | 739  | Shelmet            |  0.00000% | 6      |  0.002% | 
 | 740  | Graveler           |  0.00000% | 12     |  0.004% | 
 | 741  | Braixen            |  0.00000% | 44     |  0.014% | 
 | 742  | Pidove             |  0.00000% | 2      |  0.001% | 
 | 743  | Quilladin          |  0.00000% | 5      |  0.002% | 
 | 744  | Numel              |  0.00000% | 3      |  0.001% | 
 | 745  | Boldore            |  0.00000% | 10     |  0.003% | 
 | 746  | Wingull            |  0.00000% | 2      |  0.001% | 
 | 747  | Oddish             |  0.00000% | 5      |  0.002% | 
 | 748  | Bronzor            |  0.00000% | 11     |  0.003% | 
 | 749  | Seedot             |  0.00000% | 5      |  0.002% | 
 | 750  | Slakoth            |  0.00000% | 1      |  0.000% | 
 | 751  | Vanillish          |  0.00000% | 4      |  0.001% | 
 | 752  | Pupitar            |  0.00000% | 5      |  0.002% | 
 | 753  | Pignite            |  0.00000% | 3      |  0.001% | 
 | 754  | Trumbeak           |  0.00000% | 3      |  0.001% | 
 | 755  | Litten             |  0.00000% | 5      |  0.002% | 
 | 756  | Piloswine          |  0.00000% | 12     |  0.004% | 
 | 757  | Tentacool          |  0.00000% | 1      |  0.000% | 
 | 758  | Sandile            |  0.00000% | 12     |  0.004% | 
 | 759  | Vanillite          |  0.00000% | 7      |  0.002% | 
 | 760  | Torracat           |  0.00000% | 8      |  0.002% | 
 | 761  | Pikachu-Sinnoh     |  0.00000% | 2      |  0.001% | 
 | 762  | Azurill            |  0.00000% | 2      |  0.001% | 
 | 763  | Vulpix-Alola       |  0.00000% | 25     |  0.008% | 
 | 764  | Mankey             |  0.00000% | 1      |  0.000% | 
 | 765  | Snubbull           |  0.00000% | 1      |  0.000% | 
 | 766  | Pansear            |  0.00000% | 1      |  0.000% | 
 | 767  | Doduo              |  0.00000% | 4      |  0.001% | 
 | 768  | NidoranF           |  0.00000% | 4      |  0.001% | 
 | 769  | Deino              |  0.00000% | 3      |  0.001% | 
 | 770  | Archen             |  0.00000% | 16     |  0.005% | 
 | 771  | Mime Jr.           |  0.00000% | 3      |  0.001% | 
 | 772  | Klang              |  0.00000% | 2      |  0.001% | 
 | 773  | Makuhita           |  0.00000% | 2      |  0.001% | 
 | 774  | Hakamo-o           |  0.00000% | 3      |  0.001% | 
 | 775  | Goldeen            |  0.00000% | 2      |  0.001% | 
 | 776  | Yanma              |  0.00000% | 3      |  0.001% | 
 | 777  | Simipour           |  0.00000% | 7      |  0.002% | 
 | 778  | Cutiefly           |  0.00000% | 13     |  0.004% | 
 | 779  | Gumshoos-Totem     |  0.00000% | 1      |  0.000% | 
 | 780  | Togepi             |  0.00000% | 2      |  0.001% | 
 | 781  | Sealeo             |  0.00000% | 4      |  0.001% | 
 | 782  | Venonat            |  0.00000% | 1      |  0.000% | 
 | 783  | Fletchling         |  0.00000% | 3      |  0.001% | 
 | 784  | Bunnelby           |  0.00000% | 4      |  0.001% | 
 | 785  | Cherubi            |  0.00000% | 1      |  0.000% | 
 | 786  | Chinchou           |  0.00000% | 2      |  0.001% | 
 | 787  | Phanpy             |  0.00000% | 2      |  0.001% | 
 | 788  | Mareanie           |  0.00000% | 7      |  0.002% | 
 | 789  | Gourgeist-Small    |  0.00000% | 2      |  0.001% | 
 | 790  | Mareep             |  0.00000% | 1      |  0.000% | 
 | 791  | Paras              |  0.00000% | 1      |  0.000% | 
 | 792  | Pumpkaboo-Large    |  0.00000% | 1      |  0.000% | 
 | 793  | Minun              |  0.00000% | 7      |  0.002% | 
 | 794  | Klink              |  0.00000% | 1      |  0.000% | 
 | 795  | Tepig              |  0.00000% | 10     |  0.003% | 
 | 796  | Marill             |  0.00000% | 2      |  0.001% | 
 | 797  | Cascoon            |  0.00000% | 2      |  0.001% | 
 | 798  | Surskit            |  0.00000% | 4      |  0.001% | 
 | 799  | Throh              |  0.00000% | 5      |  0.002% | 
 | 800  | Wartortle          |  0.00000% | 11     |  0.003% | 
 | 801  | Pawniard           |  0.00000% | 4      |  0.001% | 
 | 802  | Pidgeotto          |  0.00000% | 4      |  0.001% | 
 | 803  | Basculin           |  0.00000% | 7      |  0.002% | 
 | 804  | Venipede           |  0.00000% | 5      |  0.002% | 
 | 805  | Bellsprout         |  0.00000% | 4      |  0.001% | 
 | 806  | Spearow            |  0.00000% | 1      |  0.000% | 
 | 807  | Sewaddle           |  0.00000% | 2      |  0.001% | 
 | 808  | Silvally-Flying    |  0.00000% | 5      |  0.002% | 
 | 809  | Vigoroth           |  0.00000% | 3      |  0.001% | 
 | 810  | Luvdisc            |  0.00000% | 3      |  0.001% | 
 | 811  | Phantump           |  0.00000% | 3      |  0.001% | 
 | 812  | Spheal             |  0.00000% | 1      |  0.000% | 
 | 813  | Bayleef            |  0.00000% | 16     |  0.005% | 
 | 814  | Chingling          |  0.00000% | 6      |  0.002% | 
 | 815  | Dustox             |  0.00000% | 8      |  0.002% | 
 | 816  | Beldum             |  0.00000% | 2      |  0.001% | 
 | 817  | Bouffalant         |  0.00000% | 12     |  0.004% | 
 | 818  | Silvally-Psychic   |  0.00000% | 11     |  0.003% | 
 | 819  | Silvally-Fighting  |  0.00000% | 4      |  0.001% | 
 | 820  | Wormadam-Sandy     |  0.00000% | 4      |  0.001% | 
 | 821  | Elgyem             |  0.00000% | 1      |  0.000% | 
 | 822  | Floette            |  0.00000% | 1      |  0.000% | 
 | 823  | Bounsweet          |  0.00000% | 3      |  0.001% | 
 | 824  | Drowzee            |  0.00000% | 5      |  0.002% | 
 | 825  | Grimer-Alola       |  0.00000% | 1      |  0.000% | 
 | 826  | Volbeat            |  0.00000% | 43     |  0.013% | 
 | 827  | Silvally-Bug       |  0.00000% | 3      |  0.001% | 
 | 828  | Gourgeist          |  0.00000% | 3      |  0.001% | 
 | 829  | Lombre             |  0.00000% | 4      |  0.001% | 
 | 830  | Loudred            |  0.00000% | 1      |  0.000% | 
 | 831  | Frillish           |  0.00000% | 6      |  0.002% | 
 | 832  | Lampent            |  0.00000% | 10     |  0.003% | 
 | 833  | Poliwhirl          |  0.00000% | 4      |  0.001% | 
 | 834  | Woobat             |  0.00000% | 4      |  0.001% | 
 | 835  | Shellder           |  0.00000% | 1      |  0.000% | 
 | 836  | Skorupi            |  0.00000% | 1      |  0.000% | 
 | 837  | Jangmo-o           |  0.00000% | 2      |  0.001% | 
 | 838  | Pumpkaboo-Super    |  0.00000% | 2      |  0.001% | 
 | 839  | Igglybuff          |  0.00000% | 1      |  0.000% | 
 | 840  | Popplio            |  0.00000% | 6      |  0.002% | 
 | 841  | Wormadam-Trash     |  0.00000% | 2      |  0.001% | 
 | 842  | Noibat             |  0.00000% | 5      |  0.002% | 
 | 843  | Hoothoot           |  0.00000% | 1      |  0.000% | 
 | 844  | Cosmog             |  0.00000% | 7      |  0.002% | 
 | 845  | Finneon            |  0.00000% | 2      |  0.001% | 
 | 846  | Tympole            |  0.00000% | 6      |  0.002% | 
 | 847  | Meowth-Alola       |  0.00000% | 2      |  0.001% | 
 | 848  | Kricketot          |  0.00000% | 4      |  0.001% | 
 | 849  | Gible              |  0.00000% | 11     |  0.003% | 
 | 850  | Smoochum           |  0.00000% | 2      |  0.001% | 
 | 851  | Bergmite           |  0.00000% | 5      |  0.002% | 
 | 852  | Mothim             |  0.00000% | 5      |  0.002% | 
 | 853  | Hypno              |  0.00000% | 22     |  0.007% | 
 | 854  | Porygon            |  0.00000% | 7      |  0.002% | 
 | 855  | Gothita            |  0.00000% | 4      |  0.001% | 
 | 856  | Silvally-Rock      |  0.00000% | 2      |  0.001% | 
 | 857  | Gurdurr            |  0.00000% | 54     |  0.017% | 
 | 858  | Chespin            |  0.00000% | 2      |  0.001% | 
 | 859  | Pancham            |  0.00000% | 6      |  0.002% | 
 | 860  | Spritzee           |  0.00000% | 2      |  0.001% | 
 | 861  | Stufful            |  0.00000% | 5      |  0.002% | 
 | 862  | Karrablast         |  0.00000% | 5      |  0.002% | 
 | 863  | Crabrawler         |  0.00000% | 4      |  0.001% | 
 | 864  | Morelull           |  0.00000% | 2      |  0.001% | 
 | 865  | Rockruff           |  0.00000% | 6      |  0.002% | 
 | 866  | Glameow            |  0.00000% | 1      |  0.000% | 
 | 867  | Helioptile         |  0.00000% | 4      |  0.001% | 
 | 868  | Pikachu-Unova      |  0.00000% | 5      |  0.002% | 
 | 869  | Minccino           |  0.00000% | 5      |  0.002% | 
 | 870  | Petilil            |  0.00000% | 1      |  0.000% | 
 | 871  | Lotad              |  0.00000% | 4      |  0.001% | 
 | 872  | Binacle            |  0.00000% | 1      |  0.000% | 
 | 873  | Grimer             |  0.00000% | 2      |  0.001% | 
 | 874  | Bagon              |  0.00000% | 7      |  0.002% | 
 | 875  | Servine            |  0.00000% | 2      |  0.001% | 
 | 876  | Goomy              |  0.00000% | 1      |  0.000% | 
 | 877  | Mantyke            |  0.00000% | 2      |  0.001% | 
 | 878  | Munna              |  0.00000% | 3      |  0.001% | 
 | 879  | Pikipek            |  0.00000% | 1      |  0.000% | 
 | 880  | Marshtomp          |  0.00000% | 1      |  0.000% | 
 | 881  | Charmeleon         |  0.00000% | 12     |  0.004% | 
 | 882  | Swadloon           |  0.00000% | 2      |  0.001% | 
 | 883  | Gourgeist-Large    |  0.00000% | 1      |  0.000% | 
 | 884  | Vibrava            |  0.00000% | 2      |  0.001% | 
 | 885  | Litleo             |  0.00000% | 5      |  0.002% | 
 | 886  | Croconaw           |  0.00000% | 9      |  0.003% | 
 | 887  | Silvally-Ice       |  0.00000% | 5      |  0.002% | 
 | 888  | Tyrunt             |  0.00000% | 4      |  0.001% | 
 | 889  | Palpitoad          |  0.00000% | 12     |  0.004% | 
 | 890  | Snorunt            |  0.00000% | 2      |  0.001% | 
 | 891  | Pikachu-Hoenn      |  0.00000% | 1      |  0.000% | 
 | 892  | Poliwag            |  0.00000% | 5      |  0.002% | 
 | 893  | Phione             |  0.00000% | 3      |  0.001% | 
 | 894  | Monferno           |  0.00000% | 1      |  0.000% | 
 | 895  | Mienfoo            |  0.00000% | 5      |  0.002% | 
 | 896  | Anorith            |  0.00000% | 4      |  0.001% | 
 | 897  | Tynamo             |  0.00000% | 3      |  0.001% | 
 | 898  | Grotle             |  0.00000% | 3      |  0.001% | 
 | 899  | Tranquill          |  0.00000% | 4      |  0.001% | 
 | 900  | Combusken          |  0.00000% | 13     |  0.004% | 
 | 901  | Drilbur            |  0.00000% | 1      |  0.000% | 
 | 902  | Scatterbug         |  0.00000% | 6      |  0.002% | 
 | 903  | Fomantis           |  0.00000% | 1      |  0.000% | 
 | 904  | Fennekin           |  0.00000% | 5      |  0.002% | 
 | 905  | Golett             |  0.00000% | 1      |  0.000% | 
 | 906  | Krabby             |  0.00000% | 1      |  0.000% | 
 | 907  | Tirtouga           |  0.00000% | 23     |  0.007% | 
 | 908  | Hoppip             |  0.00000% | 3      |  0.001% | 
 | 909  | Espurr             |  0.00000% | 1      |  0.000% | 
 | 910  | Silvally-Poison    |  0.00000% | 7      |  0.002% | 
 | 911  | Carnivine          |  0.00000% | 5      |  0.002% | 
 | 912  | Snivy              |  0.00000% | 4      |  0.001% | 
 | 913  | Machop             |  0.00000% | 4      |  0.001% | 
 | 914  | Cacnea             |  0.00000% | 1      |  0.000% | 
 | 915  | Cranidos           |  0.00000% | 1      |  0.000% | 
 | 916  | Weepinbell         |  0.00000% | 2      |  0.001% | 
 | 917  | Ledyba             |  0.00000% | 1      |  0.000% | 
 + ---- + ------------------ + --------- + ------ + ------- + 
