 Total leads: 428
 + ---- + ------------------ + --------- + ------ + ------- + 
 | Rank | Pokemon            | Usage %   | Raw    | %       | 
 + ---- + ------------------ + --------- + ------ + ------- + 
 | 1    | Ribombee           |  6.43074% | 19     |  4.439% | 
 | 2    | Klefki             |  5.86477% | 16     |  3.738% | 
 | 3    | Electrode          |  3.87815% | 13     |  3.037% | 
 | 4    | Cloyster           |  3.85782% | 10     |  2.336% | 
 | 5    | Ferrothorn         |  3.51289% | 16     |  3.738% | 
 | 6    | Gliscor            |  2.90698% | 12     |  2.804% | 
 | 7    | Scyther            |  2.47411% | 11     |  2.570% | 
 | 8    | Golurk             |  2.37129% | 8      |  1.869% | 
 | 9    | Beedrill           |  2.23967% | 6      |  1.402% | 
 | 10   | Hitmontop          |  2.21479% | 8      |  1.869% | 
 | 11   | Victreebel         |  2.18860% | 5      |  1.168% | 
 | 12   | Smeargle           |  2.10224% | 10     |  2.336% | 
 | 13   | Banette-Mega       |  1.86943% | 6      |  1.402% | 
 | 14   | Tyranitar-Mega     |  1.66650% | 6      |  1.402% | 
 | 15   | Blastoise-Mega     |  1.57292% | 9      |  2.103% | 
 | 16   | Gardevoir-Mega     |  1.36962% | 7      |  1.636% | 
 | 17   | Swoobat            |  1.31813% | 3      |  0.701% | 
 | 18   | Registeel          |  1.31802% | 3      |  0.701% | 
 | 19   | Excadrill          |  1.28556% | 5      |  1.168% | 
 | 20   | Slurpuff           |  1.16897% | 5      |  1.168% | 
 | 21   | Beedrill-Mega      |  1.08822% | 5      |  1.168% | 
 | 22   | Incineroar         |  1.03348% | 4      |  0.935% | 
 | 23   | Shuckle            |  0.97615% | 5      |  1.168% | 
 | 24   | Dedenne            |  0.94717% | 4      |  0.935% | 
 | 25   | Sableye-Mega       |  0.89828% | 5      |  1.168% | 
 | 26   | Pikachu            |  0.88923% | 7      |  1.636% | 
 | 27   | Stunfisk           |  0.87918% | 2      |  0.467% | 
 | 28   | Tapu Koko          |  0.86162% | 2      |  0.467% | 
 | 29   | Donphan            |  0.85062% | 2      |  0.467% | 
 | 30   | Nidoqueen          |  0.83261% | 5      |  1.168% | 
 | 31   | Ambipom            |  0.82836% | 3      |  0.701% | 
 | 32   | Masquerain         |  0.79389% | 2      |  0.467% | 
 | 33   | Toxapex            |  0.76288% | 3      |  0.701% | 
 | 34   | Garchomp           |  0.74451% | 4      |  0.935% | 
 | 35   | Toxicroak          |  0.74423% | 5      |  1.168% | 
 | 36   | Gyarados           |  0.71572% | 3      |  0.701% | 
 | 37   | Ursaring           |  0.71260% | 2      |  0.467% | 
 | 38   | Combusken          |  0.70090% | 3      |  0.701% | 
 | 39   | Tsareena           |  0.68382% | 3      |  0.701% | 
 | 40   | Aerodactyl         |  0.67817% | 2      |  0.467% | 
 | 41   | Heatran            |  0.67468% | 4      |  0.935% | 
 | 42   | Skarmory           |  0.66501% | 4      |  0.935% | 
 | 43   | Azumarill          |  0.65057% | 6      |  1.402% | 
 | 44   | Landorus-Therian   |  0.61410% | 3      |  0.701% | 
 | 45   | Weavile            |  0.59382% | 5      |  1.168% | 
 | 46   | Charizard-Mega-X   |  0.55636% | 3      |  0.701% | 
 | 47   | Milotic            |  0.55224% | 2      |  0.467% | 
 | 48   | Furret             |  0.55224% | 2      |  0.467% | 
 | 49   | Yanmega            |  0.55224% | 2      |  0.467% | 
 | 50   | Persian-Alola      |  0.55224% | 2      |  0.467% | 
 | 51   | Blastoise          |  0.54524% | 3      |  0.701% | 
 | 52   | Greninja-Ash       |  0.54491% | 7      |  1.636% | 
 | 53   | Dragonite          |  0.49592% | 2      |  0.467% | 
 | 54   | Hitmonchan         |  0.49463% | 2      |  0.467% | 
 | 55   | Regice             |  0.48370% | 2      |  0.467% | 
 | 56   | Beheeyem           |  0.46688% | 2      |  0.467% | 
 | 57   | Marowak            |  0.44367% | 3      |  0.701% | 
 | 58   | Celesteela         |  0.43960% | 2      |  0.467% | 
 | 59   | Audino-Mega        |  0.43960% | 2      |  0.467% | 
 | 60   | Lopunny-Mega       |  0.43960% | 2      |  0.467% | 
 | 61   | Salazzle           |  0.43960% | 2      |  0.467% | 
 | 62   | Scrafty            |  0.43960% | 1      |  0.234% | 
 | 63   | Heliolisk          |  0.43960% | 1      |  0.234% | 
 | 64   | Malamar            |  0.43960% | 1      |  0.234% | 
 | 65   | Krookodile         |  0.43960% | 1      |  0.234% | 
 | 66   | Arbok              |  0.43959% | 1      |  0.234% | 
 | 67   | Lurantis           |  0.43945% | 1      |  0.234% | 
 | 68   | Absol              |  0.43829% | 1      |  0.234% | 
 | 69   | Chatot             |  0.42986% | 1      |  0.234% | 
 | 70   | Kangaskhan         |  0.41096% | 1      |  0.234% | 
 | 71   | Sceptile           |  0.40085% | 1      |  0.234% | 
 | 72   | Silvally-Dragon    |  0.39346% | 1      |  0.234% | 
 | 73   | Torterra           |  0.38667% | 1      |  0.234% | 
 | 74   | Walrein            |  0.36497% | 1      |  0.234% | 
 | 75   | Vivillon           |  0.34077% | 2      |  0.467% | 
 | 76   | Fraxure            |  0.34074% | 1      |  0.234% | 
 | 77   | Gallade-Mega       |  0.32695% | 2      |  0.467% | 
 | 78   | Tyranitar          |  0.32695% | 2      |  0.467% | 
 | 79   | Spinda             |  0.32678% | 3      |  0.701% | 
 | 80   | Kartana            |  0.32498% | 2      |  0.467% | 
 | 81   | Gourgeist-Super    |  0.32317% | 1      |  0.234% | 
 | 82   | Minior             |  0.32215% | 1      |  0.234% | 
 | 83   | Vaporeon           |  0.30297% | 2      |  0.467% | 
 | 84   | Liepard            |  0.27612% | 1      |  0.234% | 
 | 85   | Komala             |  0.27612% | 1      |  0.234% | 
 | 86   | Rampardos          |  0.27612% | 1      |  0.234% | 
 | 87   | Omastar            |  0.27612% | 1      |  0.234% | 
 | 88   | Glalie-Mega        |  0.27612% | 1      |  0.234% | 
 | 89   | Jolteon            |  0.27612% | 1      |  0.234% | 
 | 90   | Turtonator         |  0.27612% | 1      |  0.234% | 
 | 91   | Krokorok           |  0.27612% | 1      |  0.234% | 
 | 92   | Comfey             |  0.27612% | 1      |  0.234% | 
 | 93   | Lumineon           |  0.27612% | 1      |  0.234% | 
 | 94   | Sceptile-Mega      |  0.27612% | 1      |  0.234% | 
 | 95   | Larvitar           |  0.27612% | 1      |  0.234% | 
 | 96   | Ninetales-Alola    |  0.27612% | 1      |  0.234% | 
 | 97   | Rotom-Heat         |  0.27612% | 1      |  0.234% | 
 | 98   | Tentacruel         |  0.27612% | 1      |  0.234% | 
 | 99   | Ampharos           |  0.27612% | 1      |  0.234% | 
 | 100  | Froslass           |  0.27612% | 1      |  0.234% | 
 | 101  | Politoed           |  0.27083% | 1      |  0.234% | 
 | 102  | Aggron             |  0.25869% | 1      |  0.234% | 
 | 103  | Gardevoir          |  0.25094% | 2      |  0.467% | 
 | 104  | Cofagrigus         |  0.23629% | 1      |  0.234% | 
 | 105  | Shiinotic          |  0.22877% | 2      |  0.467% | 
 | 106  | Lucario            |  0.22778% | 2      |  0.467% | 
 | 107  | Geodude            |  0.22299% | 2      |  0.467% | 
 | 108  | Victini            |  0.21663% | 1      |  0.234% | 
 | 109  | Talonflame         |  0.21525% | 1      |  0.234% | 
 | 110  | Forretress         |  0.20468% | 2      |  0.467% | 
 | 111  | Frogadier          |  0.19533% | 1      |  0.234% | 
 | 112  | Magearna           |  0.17892% | 1      |  0.234% | 
 | 113  | Venusaur           |  0.17871% | 1      |  0.234% | 
 | 114  | Muk-Alola          |  0.16896% | 1      |  0.234% | 
 | 115  | Arcanine           |  0.16348% | 1      |  0.234% | 
 | 116  | Raikou             |  0.16348% | 1      |  0.234% | 
 | 117  | Greninja           |  0.16348% | 1      |  0.234% | 
 | 118  | Charizard-Mega-Y   |  0.16348% | 1      |  0.234% | 
 | 119  | Electivire         |  0.16348% | 1      |  0.234% | 
 | 120  | Slaking            |  0.16348% | 1      |  0.234% | 
 | 121  | Zeraora            |  0.16348% | 1      |  0.234% | 
 | 122  | Mawile-Mega        |  0.16348% | 1      |  0.234% | 
 | 123  | Trevenant          |  0.16348% | 1      |  0.234% | 
 | 124  | Ninetales          |  0.16348% | 1      |  0.234% | 
 | 125  | Quilava            |  0.16348% | 1      |  0.234% | 
 | 126  | Rotom-Frost        |  0.16348% | 1      |  0.234% | 
 | 127  | Lapras             |  0.16076% | 1      |  0.234% | 
 | 128  | Garchomp-Mega      |  0.15927% | 1      |  0.234% | 
 | 129  | Espeon             |  0.15927% | 1      |  0.234% | 
 | 130  | Aggron-Mega        |  0.15826% | 1      |  0.234% | 
 | 131  | Drapion            |  0.15626% | 1      |  0.234% | 
 | 132  | Gyarados-Mega      |  0.15174% | 1      |  0.234% | 
 | 133  | Cradily            |  0.15174% | 1      |  0.234% | 
 | 134  | Tapu Fini          |  0.15025% | 2      |  0.467% | 
 | 135  | Charizard          |  0.14092% | 1      |  0.234% | 
 | 136  | Crobat             |  0.13910% | 1      |  0.234% | 
 | 137  | Relicanth          |  0.13807% | 1      |  0.234% | 
 | 138  | Primarina          |  0.12577% | 1      |  0.234% | 
 | 139  | Gengar             |  0.10802% | 1      |  0.234% | 
 | 140  | Clefairy           |  0.10181% | 1      |  0.234% | 
 | 141  | Armaldo            |  0.10029% | 1      |  0.234% | 
 | 142  | Magnezone          |  0.08143% | 1      |  0.234% | 
 | 143  | Blissey            |  0.07092% | 1      |  0.234% | 
 | 144  | Zangoose           |  0.05255% | 1      |  0.234% | 
 | 145  | Lycanroc           |  0.04961% | 1      |  0.234% | 
 | 146  | Starmie            |  0.02546% | 2      |  0.467% | 
 | 147  | Kingler            |  0.02501% | 3      |  0.701% | 
 | 148  | Klang              |  0.01825% | 2      |  0.467% | 
 | 149  | Dunsparce          |  0.01821% | 2      |  0.467% | 
 | 150  | Houndoom-Mega      |  0.01303% | 1      |  0.234% | 
 | 151  | Trubbish           |  0.00580% | 10     |  2.336% | 
 + ---- + ------------------ + --------- + ------ + ------- + 
