 Total leads: 24142
 + ---- + ------------------ + --------- + ------ + ------- + 
 | Rank | Pokemon            | Usage %   | Raw    | %       | 
 + ---- + ------------------ + --------- + ------ + ------- + 
 | 1    | Dragapult          | 15.78273% | 1851   |  7.667% | 
 | 2    | Shuckle            |  6.80840% | 547    |  2.266% | 
 | 3    | Dracovish          |  6.00439% | 658    |  2.726% | 
 | 4    | Cinderace          |  5.19694% | 1070   |  4.432% | 
 | 5    | Mew                |  4.06053% | 678    |  2.808% | 
 | 6    | Excadrill          |  3.91426% | 839    |  3.475% | 
 | 7    | Pelipper           |  3.07458% | 679    |  2.813% | 
 | 8    | Vikavolt           |  2.96569% | 505    |  2.092% | 
 | 9    | Hydreigon          |  2.85468% | 669    |  2.771% | 
 | 10   | Toxtricity         |  2.80208% | 1115   |  4.619% | 
 | 11   | Polteageist        |  2.14444% | 392    |  1.624% | 
 | 12   | Corsola-Galar      |  1.87905% | 624    |  2.585% | 
 | 13   | Coalossal          |  1.79371% | 594    |  2.460% | 
 | 14   | Haxorus            |  1.67303% | 381    |  1.578% | 
 | 15   | Inteleon           |  1.60500% | 328    |  1.359% | 
 | 16   | Onix               |  1.48890% | 104    |  0.431% | 
 | 17   | Darmanitan-Galar   |  1.40555% | 407    |  1.686% | 
 | 18   | Durant             |  1.39479% | 62     |  0.257% | 
 | 19   | Sirfetch'd         |  1.35942% | 277    |  1.147% | 
 | 20   | Orbeetle           |  1.28955% | 312    |  1.292% | 
 | 21   | Kommo-o            |  1.15371% | 271    |  1.123% | 
 | 22   | Noivern            |  1.11946% | 159    |  0.659% | 
 | 23   | Runerigus          |  1.07145% | 283    |  1.172% | 
 | 24   | Cinccino           |  1.02871% | 211    |  0.874% | 
 | 25   | Ferrothorn         |  0.99893% | 451    |  1.868% | 
 | 26   | Barbaracle         |  0.92449% | 156    |  0.646% | 
 | 27   | Hatterene          |  0.86946% | 226    |  0.936% | 
 | 28   | Diggersby          |  0.77383% | 150    |  0.621% | 
 | 29   | Mandibuzz          |  0.70684% | 80     |  0.331% | 
 | 30   | Chandelure         |  0.70539% | 110    |  0.456% | 
 | 31   | Boltund            |  0.70438% | 249    |  1.031% | 
 | 32   | Toxapex            |  0.69979% | 239    |  0.990% | 
 | 33   | Ninetales          |  0.68654% | 120    |  0.497% | 
 | 34   | Gengar             |  0.67884% | 128    |  0.530% | 
 | 35   | Steelix            |  0.64818% | 130    |  0.538% | 
 | 36   | Claydol            |  0.64464% | 194    |  0.804% | 
 | 37   | Clefable           |  0.61511% | 200    |  0.828% | 
 | 38   | Tyranitar          |  0.58617% | 321    |  1.330% | 
 | 39   | Conkeldurr         |  0.57681% | 136    |  0.563% | 
 | 40   | Copperajah         |  0.54237% | 198    |  0.820% | 
 | 41   | Araquanid          |  0.51369% | 246    |  1.019% | 
 | 42   | Weezing-Galar      |  0.50430% | 211    |  0.874% | 
 | 43   | Indeedee           |  0.49526% | 61     |  0.253% | 
 | 44   | Dhelmise           |  0.49292% | 76     |  0.315% | 
 | 45   | Ribombee           |  0.48641% | 270    |  1.118% | 
 | 46   | Avalugg            |  0.47201% | 120    |  0.497% | 
 | 47   | Obstagoon          |  0.39012% | 197    |  0.816% | 
 | 48   | Rillaboom          |  0.37381% | 141    |  0.584% | 
 | 49   | Passimian          |  0.37297% | 50     |  0.207% | 
 | 50   | Frosmoth           |  0.36378% | 121    |  0.501% | 
 | 51   | Weavile            |  0.36152% | 49     |  0.203% | 
 | 52   | Grapploct          |  0.35095% | 58     |  0.240% | 
 | 53   | Perrserker         |  0.34328% | 78     |  0.323% | 
 | 54   | Lucario            |  0.34013% | 95     |  0.394% | 
 | 55   | Glalie             |  0.33861% | 69     |  0.286% | 
 | 56   | Ditto              |  0.31447% | 144    |  0.596% | 
 | 57   | Braviary           |  0.31311% | 57     |  0.236% | 
 | 58   | Grimmsnarl         |  0.30378% | 251    |  1.040% | 
 | 59   | Aegislash          |  0.29365% | 120    |  0.497% | 
 | 60   | Goodra             |  0.29099% | 188    |  0.779% | 
 | 61   | Reuniclus          |  0.27651% | 49     |  0.203% | 
 | 62   | Barraskewda        |  0.27139% | 191    |  0.791% | 
 | 63   | Gyarados           |  0.26562% | 239    |  0.990% | 
 | 64   | Pincurchin         |  0.25160% | 66     |  0.273% | 
 | 65   | Sigilyph           |  0.24911% | 35     |  0.145% | 
 | 66   | Gigalith           |  0.22590% | 46     |  0.191% | 
 | 67   | Galvantula         |  0.21886% | 144    |  0.596% | 
 | 68   | Rotom-Wash         |  0.21665% | 122    |  0.505% | 
 | 69   | Togekiss           |  0.21095% | 95     |  0.394% | 
 | 70   | Seismitoad         |  0.20672% | 148    |  0.613% | 
 | 71   | Hippowdon          |  0.19753% | 68     |  0.282% | 
 | 72   | Rhyperior          |  0.17280% | 95     |  0.394% | 
 | 73   | Jellicent          |  0.17275% | 30     |  0.124% | 
 | 74   | Accelgor           |  0.17077% | 130    |  0.538% | 
 | 75   | Torkoal            |  0.14780% | 163    |  0.675% | 
 | 76   | Hawlucha           |  0.14473% | 70     |  0.290% | 
 | 77   | Snorlax            |  0.14370% | 56     |  0.232% | 
 | 78   | Xatu               |  0.13859% | 10     |  0.041% | 
 | 79   | Dracozolt          |  0.13352% | 125    |  0.518% | 
 | 80   | Mamoswine          |  0.13228% | 29     |  0.120% | 
 | 81   | Whimsicott         |  0.12905% | 28     |  0.116% | 
 | 82   | Bronzong           |  0.12136% | 60     |  0.249% | 
 | 83   | Vanilluxe          |  0.11930% | 80     |  0.331% | 
 | 84   | Thievul            |  0.11655% | 62     |  0.257% | 
 | 85   | Arcanine           |  0.10845% | 138    |  0.572% | 
 | 86   | Dugtrio            |  0.10077% | 104    |  0.431% | 
 | 87   | Abomasnow          |  0.09878% | 57     |  0.236% | 
 | 88   | Cloyster           |  0.09688% | 180    |  0.746% | 
 | 89   | Heliolisk          |  0.09338% | 15     |  0.062% | 
 | 90   | Tsareena           |  0.09306% | 24     |  0.099% | 
 | 91   | Basculin           |  0.08639% | 12     |  0.050% | 
 | 92   | Golurk             |  0.08168% | 16     |  0.066% | 
 | 93   | Gourgeist-Super    |  0.08097% | 15     |  0.062% | 
 | 94   | Sandaconda         |  0.07914% | 58     |  0.240% | 
 | 95   | Drednaw            |  0.07796% | 17     |  0.070% | 
 | 96   | Cofagrigus         |  0.07373% | 63     |  0.261% | 
 | 97   | Corviknight        |  0.06535% | 123    |  0.509% | 
 | 98   | Vaporeon           |  0.06402% | 13     |  0.054% | 
 | 99   | Crawdaunt          |  0.05766% | 31     |  0.128% | 
 | 100  | Mr. Rime           |  0.05460% | 28     |  0.116% | 
 | 101  | Slurpuff           |  0.05435% | 235    |  0.973% | 
 | 102  | Mimikyu            |  0.05253% | 114    |  0.472% | 
 | 103  | Gastrodon          |  0.05141% | 11     |  0.046% | 
 | 104  | Milotic            |  0.05123% | 17     |  0.070% | 
 | 105  | Centiskorch        |  0.04807% | 81     |  0.336% | 
 | 106  | Falinks            |  0.04770% | 83     |  0.344% | 
 | 107  | Bisharp            |  0.04603% | 90     |  0.373% | 
 | 108  | Octillery          |  0.04593% | 28     |  0.116% | 
 | 109  | Flapple            |  0.04336% | 42     |  0.174% | 
 | 110  | Ninjask            |  0.04248% | 80     |  0.331% | 
 | 111  | Appletun           |  0.04167% | 51     |  0.211% | 
 | 112  | Rotom-Frost        |  0.04137% | 14     |  0.058% | 
 | 113  | Pyukumuku          |  0.03981% | 19     |  0.079% | 
 | 114  | Hitmontop          |  0.03972% | 25     |  0.104% | 
 | 115  | Beartic            |  0.03560% | 9      |  0.037% | 
 | 116  | Salazzle           |  0.03409% | 13     |  0.054% | 
 | 117  | Gallade            |  0.03288% | 58     |  0.240% | 
 | 118  | Mr. Mime-Galar     |  0.03179% | 17     |  0.070% | 
 | 119  | Froslass           |  0.02956% | 26     |  0.108% | 
 | 120  | Flygon             |  0.02492% | 59     |  0.244% | 
 | 121  | Sudowoodo          |  0.02341% | 16     |  0.066% | 
 | 122  | Rotom-Heat         |  0.02279% | 45     |  0.186% | 
 | 123  | Alcremie           |  0.02137% | 12     |  0.050% | 
 | 124  | Trevenant          |  0.02103% | 13     |  0.054% | 
 | 125  | Lanturn            |  0.01986% | 13     |  0.054% | 
 | 126  | Bewear             |  0.01825% | 20     |  0.083% | 
 | 127  | Doublade           |  0.01582% | 10     |  0.041% | 
 | 128  | Eiscue             |  0.01533% | 53     |  0.220% | 
 | 129  | Golisopod          |  0.01516% | 14     |  0.058% | 
 | 130  | Vespiquen          |  0.01510% | 11     |  0.046% | 
 | 131  | Gardevoir          |  0.01501% | 63     |  0.261% | 
 | 132  | Machamp            |  0.01468% | 18     |  0.075% | 
 | 133  | Klinklang          |  0.01382% | 6      |  0.025% | 
 | 134  | Sylveon            |  0.01375% | 24     |  0.099% | 
 | 135  | Morpeko            |  0.01319% | 19     |  0.079% | 
 | 136  | Cramorant          |  0.01214% | 46     |  0.191% | 
 | 137  | Espeon             |  0.01191% | 64     |  0.265% | 
 | 138  | Indeedee-F         |  0.01156% | 22     |  0.091% | 
 | 139  | Drampa             |  0.01081% | 21     |  0.087% | 
 | 140  | Jolteon            |  0.00943% | 63     |  0.261% | 
 | 141  | Pangoro            |  0.00928% | 11     |  0.046% | 
 | 142  | Lunatone           |  0.00919% | 12     |  0.050% | 
 | 143  | Stunfisk-Galar     |  0.00869% | 3      |  0.012% | 
 | 144  | Hitmonchan         |  0.00786% | 9      |  0.037% | 
 | 145  | Raichu             |  0.00779% | 11     |  0.046% | 
 | 146  | Dubwool            |  0.00721% | 40     |  0.166% | 
 | 147  | Silvally-Water     |  0.00683% | 4      |  0.017% | 
 | 148  | Malamar            |  0.00670% | 33     |  0.137% | 
 | 149  | Butterfree         |  0.00614% | 34     |  0.141% | 
 | 150  | Scrafty            |  0.00599% | 8      |  0.033% | 
 | 151  | Pikachu            |  0.00546% | 13     |  0.054% | 
 | 152  | Vileplume          |  0.00543% | 8      |  0.033% | 
 | 153  | Turtonator         |  0.00540% | 1      |  0.004% | 
 | 154  | Toxicroak          |  0.00539% | 7      |  0.029% | 
 | 155  | Drapion            |  0.00496% | 7      |  0.029% | 
 | 156  | Carkol             |  0.00487% | 7      |  0.029% | 
 | 157  | Linoone-Galar      |  0.00477% | 13     |  0.054% | 
 | 158  | Lapras             |  0.00452% | 23     |  0.095% | 
 | 159  | Eevee              |  0.00353% | 7      |  0.029% | 
 | 160  | Cursola            |  0.00329% | 25     |  0.104% | 
 | 161  | Swoobat            |  0.00328% | 16     |  0.066% | 
 | 162  | Roserade           |  0.00324% | 9      |  0.037% | 
 | 163  | Bellossom          |  0.00307% | 12     |  0.050% | 
 | 164  | Umbreon            |  0.00304% | 9      |  0.037% | 
 | 165  | Mudsdale           |  0.00301% | 20     |  0.083% | 
 | 166  | Shiinotic          |  0.00254% | 4      |  0.017% | 
 | 167  | Silvally-Grass     |  0.00250% | 2      |  0.008% | 
 | 168  | Duraludon          |  0.00193% | 26     |  0.108% | 
 | 169  | Silvally           |  0.00189% | 10     |  0.041% | 
 | 170  | Rapidash-Galar     |  0.00157% | 8      |  0.033% | 
 | 171  | Rotom-Fan          |  0.00131% | 24     |  0.099% | 
 | 172  | Mantine            |  0.00122% | 7      |  0.029% | 
 | 173  | Sableye            |  0.00076% | 11     |  0.046% | 
 | 174  | Type: Null         |  0.00069% | 11     |  0.046% | 
 | 175  | Meowth             |  0.00064% | 3      |  0.012% | 
 | 176  | Unfezant           |  0.00051% | 8      |  0.033% | 
 | 177  | Arctozolt          |  0.00041% | 10     |  0.041% | 
 | 178  | Charizard          |  0.00018% | 34     |  0.141% | 
 | 179  | Kingler            |  0.00018% | 9      |  0.037% | 
 | 180  | Silvally-Ghost     |  0.00012% | 2      |  0.008% | 
 | 181  | Dottler            |  0.00011% | 29     |  0.120% | 
 | 182  | Crustle            |  0.00005% | 12     |  0.050% | 
 | 183  | Leafeon            |  0.00002% | 5      |  0.021% | 
 | 184  | Escavalier         |  0.00001% | 5      |  0.021% | 
 | 185  | Flareon            |  0.00000% | 6      |  0.025% | 
 | 186  | Quagsire           |  0.00000% | 17     |  0.070% | 
 | 187  | Liepard            |  0.00000% | 1      |  0.004% | 
 | 188  | Hitmonlee          |  0.00000% | 2      |  0.008% | 
 | 189  | Wobbuffet          |  0.00000% | 3      |  0.012% | 
 | 190  | Diglett            |  0.00000% | 3      |  0.012% | 
 | 191  | Rhydon             |  0.00000% | 10     |  0.041% | 
 | 192  | Farfetch'd-Galar   |  0.00000% | 1      |  0.004% | 
 | 193  | Roselia            |  0.00000% | 3      |  0.012% | 
 | 194  | Silvally-Steel     |  0.00000% | 1      |  0.004% | 
 | 195  | Rotom              |  0.00000% | 1      |  0.004% | 
 | 196  | Glaceon            |  0.00000% | 6      |  0.025% | 
 | 197  | Hakamo-o           |  0.00000% | 1      |  0.004% | 
 | 198  | Dusknoir           |  0.00000% | 3      |  0.012% | 
 | 199  | Meowstic           |  0.00000% | 3      |  0.012% | 
 | 200  | Gothitelle         |  0.00000% | 4      |  0.017% | 
 | 201  | Togedemaru         |  0.00000% | 2      |  0.008% | 
 | 202  | Silvally-Fairy     |  0.00000% | 1      |  0.004% | 
 | 203  | Cherrim            |  0.00000% | 4      |  0.017% | 
 | 204  | Mr. Mime           |  0.00000% | 3      |  0.012% | 
 | 205  | Greedent           |  0.00000% | 15     |  0.062% | 
 | 206  | Ponyta-Galar       |  0.00000% | 2      |  0.008% | 
 | 207  | Beheeyem           |  0.00000% | 9      |  0.037% | 
 | 208  | Wailord            |  0.00000% | 3      |  0.012% | 
 | 209  | Sobble             |  0.00000% | 1      |  0.004% | 
 | 210  | Swirlix            |  0.00000% | 1      |  0.004% | 
 | 211  | Whiscash           |  0.00000% | 1      |  0.004% | 
 | 212  | Gastly             |  0.00000% | 1      |  0.004% | 
 | 213  | Drifblim           |  0.00000% | 8      |  0.033% | 
 | 214  | Aromatisse         |  0.00000% | 9      |  0.037% | 
 | 215  | Maractus           |  0.00000% | 10     |  0.041% | 
 | 216  | Zigzagoon-Galar    |  0.00000% | 1      |  0.004% | 
 | 217  | Arctovish          |  0.00000% | 2      |  0.008% | 
 | 218  | Hattrem            |  0.00000% | 1      |  0.004% | 
 | 219  | Sawk               |  0.00000% | 7      |  0.029% | 
 | 220  | Persian            |  0.00000% | 4      |  0.017% | 
 | 221  | Eldegoss           |  0.00000% | 4      |  0.017% | 
 | 222  | Grookey            |  0.00000% | 1      |  0.004% | 
 | 223  | Solrock            |  0.00000% | 4      |  0.017% | 
 | 224  | Stonjourner        |  0.00000% | 22     |  0.091% | 
 | 225  | Delibird           |  0.00000% | 1      |  0.004% | 
 | 226  | Garbodor           |  0.00000% | 4      |  0.017% | 
 | 227  | Silvally-Electric  |  0.00000% | 1      |  0.004% | 
 | 228  | Shiftry            |  0.00000% | 1      |  0.004% | 
 | 229  | Qwilfish           |  0.00000% | 1      |  0.004% | 
 | 230  | Honedge            |  0.00000% | 2      |  0.008% | 
 | 231  | Ludicolo           |  0.00000% | 1      |  0.004% | 
 | 232  | Sliggoo            |  0.00000% | 1      |  0.004% | 
 | 233  | Yamper             |  0.00000% | 1      |  0.004% | 
 | 234  | Wooloo             |  0.00000% | 1      |  0.004% | 
 | 235  | Clefairy           |  0.00000% | 2      |  0.008% | 
 | 236  | Riolu              |  0.00000% | 1      |  0.004% | 
 | 237  | Mareanie           |  0.00000% | 1      |  0.004% | 
 | 238  | Dusclops           |  0.00000% | 5      |  0.021% | 
 | 239  | Gourgeist-Small    |  0.00000% | 3      |  0.012% | 
 | 240  | Mawile             |  0.00000% | 7      |  0.029% | 
 + ---- + ------------------ + --------- + ------ + ------- + 
