 Total battles: 0
 Avg. weight/team: 0
 + ---- + ------------------ + --------- + ------ + ------- + ------ + ------- + 
 | Rank | Pokemon            | Usage %   | Raw    | %       | Real   | %       | 
 + ---- + ------------------ + --------- + ------ + ------- + ------ + ------- + 
 + ---- + ------------------ + --------- + ------ + ------- + ------ + ------- + 
