 Total leads: 41090
 + ---- + ------------------ + --------- + ------ + ------- + 
 | Rank | Pokemon            | Usage %   | Raw    | %       | 
 + ---- + ------------------ + --------- + ------ + ------- + 
 | 1    | Metagross          |  8.95595% | 3680   |  8.956% | 
 | 2    | Azelf              |  8.84400% | 3634   |  8.844% | 
 | 3    | Jirachi            |  5.04989% | 2075   |  5.050% | 
 | 4    | Machamp            |  4.51935% | 1857   |  4.519% | 
 | 5    | Infernape          |  3.77707% | 1552   |  3.777% | 
 | 6    | Zapdos             |  3.73083% | 1533   |  3.731% | 
 | 7    | Heatran            |  3.69920% | 1520   |  3.699% | 
 | 8    | Aerodactyl         |  3.65782% | 1503   |  3.658% | 
 | 9    | Tyranitar          |  3.45826% | 1421   |  3.458% | 
 | 10   | Skarmory           |  3.18812% | 1310   |  3.188% | 
 | 11   | Swampert           |  3.03724% | 1248   |  3.037% | 
 | 12   | Flygon             |  2.86201% | 1176   |  2.862% | 
 | 13   | Bronzong           |  2.79873% | 1150   |  2.799% | 
 | 14   | Roserade           |  2.57240% | 1057   |  2.572% | 
 | 15   | Hippowdon          |  2.50913% | 1031   |  2.509% | 
 | 16   | Ninjask            |  2.26089% | 929    |  2.261% | 
 | 17   | Dragonite          |  2.09297% | 860    |  2.093% | 
 | 18   | Empoleon           |  1.71818% | 706    |  1.718% | 
 | 19   | Gliscor            |  1.50888% | 620    |  1.509% | 
 | 20   | Uxie               |  1.49915% | 616    |  1.499% | 
 | 21   | Smeargle           |  1.38233% | 568    |  1.382% | 
 | 22   | Alakazam           |  1.37746% | 566    |  1.377% | 
 | 23   | Starmie            |  1.36773% | 562    |  1.368% | 
 | 24   | Forretress         |  1.23144% | 506    |  1.231% | 
 | 25   | Mamoswine          |  1.19981% | 493    |  1.200% | 
 | 26   | Froslass           |  1.01971% | 419    |  1.020% | 
 | 27   | Breloom            |  0.92723% | 381    |  0.927% | 
 | 28   | Scizor             |  0.87369% | 359    |  0.874% | 
 | 29   | Electrode          |  0.86639% | 356    |  0.866% | 
 | 30   | Gyarados           |  0.83475% | 343    |  0.835% | 
 | 31   | Gengar             |  0.80798% | 332    |  0.808% | 
 | 32   | Crobat             |  0.79825% | 328    |  0.798% | 
 | 33   | Celebi             |  0.68143% | 280    |  0.681% | 
 | 34   | Weavile            |  0.68143% | 280    |  0.681% | 
 | 35   | Nidoqueen          |  0.59625% | 245    |  0.596% | 
 | 36   | Ambipom            |  0.52811% | 217    |  0.528% | 
 | 37   | Gallade            |  0.48917% | 201    |  0.489% | 
 | 38   | Dusknoir           |  0.46727% | 192    |  0.467% | 
 | 39   | Electivire         |  0.44536% | 183    |  0.445% | 
 | 40   | Charizard          |  0.41859% | 172    |  0.419% | 
 | 41   | Torterra           |  0.41373% | 170    |  0.414% | 
 | 42   | Abomasnow          |  0.38452% | 158    |  0.385% | 
 | 43   | Lucario            |  0.38209% | 157    |  0.382% | 
 | 44   | Pikachu            |  0.37965% | 156    |  0.380% | 
 | 45   | Jolteon            |  0.31394% | 129    |  0.314% | 
 | 46   | Torkoal            |  0.28717% | 118    |  0.287% | 
 | 47   | Vaporeon           |  0.27987% | 115    |  0.280% | 
 | 48   | Rotom-Heat         |  0.27987% | 115    |  0.280% | 
 | 49   | Cloyster           |  0.27744% | 114    |  0.277% | 
 | 50   | Staraptor          |  0.26771% | 110    |  0.268% | 
 | 51   | Hypno              |  0.26771% | 110    |  0.268% | 
 | 52   | Blissey            |  0.26040% | 107    |  0.260% | 
 | 53   | Yanmega            |  0.23850% | 98     |  0.239% | 
 | 54   | Suicune            |  0.23363% | 96     |  0.234% | 
 | 55   | Feraligatr         |  0.23120% | 95     |  0.231% | 
 | 56   | Donphan            |  0.22147% | 91     |  0.221% | 
 | 57   | Arcanine           |  0.20686% | 85     |  0.207% | 
 | 58   | Rotom-Wash         |  0.20200% | 83     |  0.202% | 
 | 59   | Togekiss           |  0.19956% | 82     |  0.200% | 
 | 60   | Drapion            |  0.18253% | 75     |  0.183% | 
 | 61   | Heracross          |  0.17279% | 71     |  0.173% | 
 | 62   | Typhlosion         |  0.16062% | 66     |  0.161% | 
 | 63   | Raikou             |  0.15819% | 65     |  0.158% | 
 | 64   | Porygon-Z          |  0.15576% | 64     |  0.156% | 
 | 65   | Spiritomb          |  0.15332% | 63     |  0.153% | 
 | 66   | Hariyama           |  0.15332% | 63     |  0.153% | 
 | 67   | Honchkrow          |  0.14115% | 58     |  0.141% | 
 | 68   | Kingdra            |  0.13385% | 55     |  0.134% | 
 | 69   | Jumpluff           |  0.13142% | 54     |  0.131% | 
 | 70   | Kangaskhan         |  0.12899% | 53     |  0.129% | 
 | 71   | Snorlax            |  0.12412% | 51     |  0.124% | 
 | 72   | Steelix            |  0.12168% | 50     |  0.122% | 
 | 73   | Mesprit            |  0.11925% | 49     |  0.119% | 
 | 74   | Magnezone          |  0.11682% | 48     |  0.117% | 
 | 75   | Toxicroak          |  0.11682% | 48     |  0.117% | 
 | 76   | Umbreon            |  0.11195% | 46     |  0.112% | 
 | 77   | Rhyperior          |  0.10465% | 43     |  0.105% | 
 | 78   | Mismagius          |  0.09735% | 40     |  0.097% | 
 | 79   | Azumarill          |  0.09735% | 40     |  0.097% | 
 | 80   | Tentacruel         |  0.08761% | 36     |  0.088% | 
 | 81   | Sceptile           |  0.08031% | 33     |  0.080% | 
 | 82   | Shuckle            |  0.08031% | 33     |  0.080% | 
 | 83   | Houndoom           |  0.07788% | 32     |  0.078% | 
 | 84   | Slowbro            |  0.07544% | 31     |  0.075% | 
 | 85   | Blaziken           |  0.07301% | 30     |  0.073% | 
 | 86   | Dugtrio            |  0.07301% | 30     |  0.073% | 
 | 87   | Hitmonlee          |  0.07058% | 29     |  0.071% | 
 | 88   | Luxray             |  0.07058% | 29     |  0.071% | 
 | 89   | Gardevoir          |  0.06814% | 28     |  0.068% | 
 | 90   | Sharpedo           |  0.06571% | 27     |  0.066% | 
 | 91   | Rapidash           |  0.06571% | 27     |  0.066% | 
 | 92   | Rampardos          |  0.06328% | 26     |  0.063% | 
 | 93   | Clefable           |  0.06328% | 26     |  0.063% | 
 | 94   | Nidoking           |  0.06084% | 25     |  0.061% | 
 | 95   | Aggron             |  0.05597% | 23     |  0.056% | 
 | 96   | Lopunny            |  0.05597% | 23     |  0.056% | 
 | 97   | Milotic            |  0.05354% | 22     |  0.054% | 
 | 98   | Venomoth           |  0.05111% | 21     |  0.051% | 
 | 99   | Absol              |  0.04867% | 20     |  0.049% | 
 | 100  | Rattata            |  0.04867% | 20     |  0.049% | 
 | 101  | Rhydon             |  0.04624% | 19     |  0.046% | 
 | 102  | Shedinja           |  0.04624% | 19     |  0.046% | 
 | 103  | Venusaur           |  0.04381% | 18     |  0.044% | 
 | 104  | Blastoise          |  0.04381% | 18     |  0.044% | 
 | 105  | Cresselia          |  0.03894% | 16     |  0.039% | 
 | 106  | Lapras             |  0.03894% | 16     |  0.039% | 
 | 107  | Persian            |  0.03894% | 16     |  0.039% | 
 | 108  | Flareon            |  0.03651% | 15     |  0.037% | 
 | 109  | Kabutops           |  0.03407% | 14     |  0.034% | 
 | 110  | Ursaring           |  0.03407% | 14     |  0.034% | 
 | 111  | Moltres            |  0.03407% | 14     |  0.034% | 
 | 112  | Espeon             |  0.03407% | 14     |  0.034% | 
 | 113  | Cacturne           |  0.03164% | 13     |  0.032% | 
 | 114  | Exeggutor          |  0.03164% | 13     |  0.032% | 
 | 115  | Floatzel           |  0.03164% | 13     |  0.032% | 
 | 116  | Camerupt           |  0.03164% | 13     |  0.032% | 
 | 117  | Meganium           |  0.03164% | 13     |  0.032% | 
 | 118  | Miltank            |  0.03164% | 13     |  0.032% | 
 | 119  | Hitmontop          |  0.02920% | 12     |  0.029% | 
 | 120  | Scyther            |  0.02677% | 11     |  0.027% | 
 | 121  | Gastrodon          |  0.02677% | 11     |  0.027% | 
 | 122  | Regigigas          |  0.02677% | 11     |  0.027% | 
 | 123  | Girafarig          |  0.02434% | 10     |  0.024% | 
 | 124  | Slaking            |  0.02434% | 10     |  0.024% | 
 | 125  | Rotom-Mow          |  0.02434% | 10     |  0.024% | 
 | 126  | Probopass          |  0.02434% | 10     |  0.024% | 
 | 127  | Medicham           |  0.02434% | 10     |  0.024% | 
 | 128  | Magmortar          |  0.02434% | 10     |  0.024% | 
 | 129  | Baltoy             |  0.02434% | 10     |  0.024% | 
 | 130  | Omastar            |  0.02190% | 9      |  0.022% | 
 | 131  | Porygon2           |  0.02190% | 9      |  0.022% | 
 | 132  | Gabite             |  0.02190% | 9      |  0.022% | 
 | 133  | Poliwrath          |  0.01947% | 8      |  0.019% | 
 | 134  | Articuno           |  0.01947% | 8      |  0.019% | 
 | 135  | Noctowl            |  0.01947% | 8      |  0.019% | 
 | 136  | Jynx               |  0.01947% | 8      |  0.019% | 
 | 137  | Weezing            |  0.01704% | 7      |  0.017% | 
 | 138  | Butterfree         |  0.01704% | 7      |  0.017% | 
 | 139  | Swalot             |  0.01704% | 7      |  0.017% | 
 | 140  | Leafeon            |  0.01704% | 7      |  0.017% | 
 | 141  | Regirock           |  0.01704% | 7      |  0.017% | 
 | 142  | Primeape           |  0.01704% | 7      |  0.017% | 
 | 143  | Chansey            |  0.01704% | 7      |  0.017% | 
 | 144  | Pinsir             |  0.01704% | 7      |  0.017% | 
 | 145  | Pidgeot            |  0.01704% | 7      |  0.017% | 
 | 146  | Bulbasaur          |  0.01704% | 7      |  0.017% | 
 | 147  | Shaymin            |  0.01704% | 7      |  0.017% | 
 | 148  | Glalie             |  0.01704% | 7      |  0.017% | 
 | 149  | Quagsire           |  0.01704% | 7      |  0.017% | 
 | 150  | Eevee              |  0.01460% | 6      |  0.015% | 
 | 151  | Haunter            |  0.01460% | 6      |  0.015% | 
 | 152  | Bastiodon          |  0.01460% | 6      |  0.015% | 
 | 153  | Charmander         |  0.01460% | 6      |  0.015% | 
 | 154  | Cherrim            |  0.01460% | 6      |  0.015% | 
 | 155  | Claydol            |  0.01460% | 6      |  0.015% | 
 | 156  | Registeel          |  0.01217% | 5      |  0.012% | 
 | 157  | Ampharos           |  0.01217% | 5      |  0.012% | 
 | 158  | Golem              |  0.01217% | 5      |  0.012% | 
 | 159  | Piplup             |  0.01217% | 5      |  0.012% | 
 | 160  | Marowak            |  0.01217% | 5      |  0.012% | 
 | 161  | Raichu             |  0.01217% | 5      |  0.012% | 
 | 162  | Shiftry            |  0.01217% | 5      |  0.012% | 
 | 163  | Qwilfish           |  0.01217% | 5      |  0.012% | 
 | 164  | Volbeat            |  0.01217% | 5      |  0.012% | 
 | 165  | Grotle             |  0.00973% | 4      |  0.010% | 
 | 166  | Linoone            |  0.00973% | 4      |  0.010% | 
 | 167  | Zangoose           |  0.00973% | 4      |  0.010% | 
 | 168  | Altaria            |  0.00973% | 4      |  0.010% | 
 | 169  | Banette            |  0.00973% | 4      |  0.010% | 
 | 170  | Glaceon            |  0.00973% | 4      |  0.010% | 
 | 171  | Pelipper           |  0.00973% | 4      |  0.010% | 
 | 172  | Drifblim           |  0.00973% | 4      |  0.010% | 
 | 173  | Electabuzz         |  0.00973% | 4      |  0.010% | 
 | 174  | Buizel             |  0.00973% | 4      |  0.010% | 
 | 175  | Ludicolo           |  0.00973% | 4      |  0.010% | 
 | 176  | Staravia           |  0.00973% | 4      |  0.010% | 
 | 177  | Delcatty           |  0.00730% | 3      |  0.007% | 
 | 178  | Purugly            |  0.00730% | 3      |  0.007% | 
 | 179  | Ditto              |  0.00730% | 3      |  0.007% | 
 | 180  | Pachirisu          |  0.00730% | 3      |  0.007% | 
 | 181  | Arbok              |  0.00730% | 3      |  0.007% | 
 | 182  | Squirtle           |  0.00730% | 3      |  0.007% | 
 | 183  | Bibarel            |  0.00730% | 3      |  0.007% | 
 | 184  | Chimchar           |  0.00730% | 3      |  0.007% | 
 | 185  | Rotom-Fan          |  0.00730% | 3      |  0.007% | 
 | 186  | Chatot             |  0.00730% | 3      |  0.007% | 
 | 187  | Rotom              |  0.00730% | 3      |  0.007% | 
 | 188  | Armaldo            |  0.00730% | 3      |  0.007% | 
 | 189  | Tauros             |  0.00487% | 2      |  0.005% | 
 | 190  | Muk                |  0.00487% | 2      |  0.005% | 
 | 191  | Crawdaunt          |  0.00487% | 2      |  0.005% | 
 | 192  | Croagunk           |  0.00487% | 2      |  0.005% | 
 | 193  | Mr. Mime           |  0.00487% | 2      |  0.005% | 
 | 194  | Slowking           |  0.00487% | 2      |  0.005% | 
 | 195  | Porygon            |  0.00487% | 2      |  0.005% | 
 | 196  | Cradily            |  0.00487% | 2      |  0.005% | 
 | 197  | Lickilicky         |  0.00487% | 2      |  0.005% | 
 | 198  | Dodrio             |  0.00487% | 2      |  0.005% | 
 | 199  | Rotom-Frost        |  0.00487% | 2      |  0.005% | 
 | 200  | Onix               |  0.00487% | 2      |  0.005% | 
 | 201  | Magneton           |  0.00487% | 2      |  0.005% | 
 | 202  | Dusclops           |  0.00487% | 2      |  0.005% | 
 | 203  | Kingler            |  0.00487% | 2      |  0.005% | 
 | 204  | Mightyena          |  0.00243% | 1      |  0.002% | 
 | 205  | Kadabra            |  0.00243% | 1      |  0.002% | 
 | 206  | Swellow            |  0.00243% | 1      |  0.002% | 
 | 207  | Aron               |  0.00243% | 1      |  0.002% | 
 | 208  | Kecleon            |  0.00243% | 1      |  0.002% | 
 | 209  | Dragonair          |  0.00243% | 1      |  0.002% | 
 | 210  | Slugma             |  0.00243% | 1      |  0.002% | 
 | 211  | Hitmonchan         |  0.00243% | 1      |  0.002% | 
 | 212  | Minun              |  0.00243% | 1      |  0.002% | 
 | 213  | Starly             |  0.00243% | 1      |  0.002% | 
 | 214  | Mantine            |  0.00243% | 1      |  0.002% | 
 | 215  | Skitty             |  0.00243% | 1      |  0.002% | 
 | 216  | Croconaw           |  0.00243% | 1      |  0.002% | 
 | 217  | Magikarp           |  0.00243% | 1      |  0.002% | 
 | 218  | Pidgeotto          |  0.00243% | 1      |  0.002% | 
 | 219  | Granbull           |  0.00243% | 1      |  0.002% | 
 | 220  | Gible              |  0.00243% | 1      |  0.002% | 
 | 221  | Politoed           |  0.00243% | 1      |  0.002% | 
 | 222  | Monferno           |  0.00243% | 1      |  0.002% | 
 | 223  | Wailord            |  0.00243% | 1      |  0.002% | 
 | 224  | Krabby             |  0.00243% | 1      |  0.002% | 
 | 225  | Bayleef            |  0.00243% | 1      |  0.002% | 
 | 226  | Pidgey             |  0.00243% | 1      |  0.002% | 
 | 227  | Vespiquen          |  0.00243% | 1      |  0.002% | 
 | 228  | Turtwig            |  0.00243% | 1      |  0.002% | 
 | 229  | Magnemite          |  0.00243% | 1      |  0.002% | 
 | 230  | Munchlax           |  0.00243% | 1      |  0.002% | 
 | 231  | Delibird           |  0.00243% | 1      |  0.002% | 
 | 232  | Xatu               |  0.00243% | 1      |  0.002% | 
 | 233  | Shaymin-Sky        |  0.00243% | 1      |  0.002% | 
 | 234  | Entei              |  0.00243% | 1      |  0.002% | 
 | 235  | Tangrowth          |  0.00243% | 1      |  0.002% | 
 | 236  | Ninetales          |  0.00243% | 1      |  0.002% | 
 | 237  | Bidoof             |  0.00243% | 1      |  0.002% | 
 | 238  | Ariados            |  0.00243% | 1      |  0.002% | 
 | 239  | Sneasel            |  0.00243% | 1      |  0.002% | 
 + ---- + ------------------ + --------- + ------ + ------- + 
