 +----------------------------------------+ 
 | Kyogre                                 | 
 +----------------------------------------+ 
 | Raw count: 159                         | 
 | Avg. weight: 0.0481278563888           | 
 | Viability Ceiling: 75                  | 
 +----------------------------------------+ 
 | Abilities                              | 
 | Drizzle 100.000%                       | 
 +----------------------------------------+ 
 | Items                                  | 
 | Choice Scarf 55.545%                   | 
 | Leftovers 33.129%                      | 
 | Choice Specs  8.805%                   | 
 | Other  2.521%                          | 
 +----------------------------------------+ 
 | Spreads                                | 
 | Timid:0/0/0/252/4/252 49.466%          | 
 | Bold:240/0/252/8/8/0 26.154%           | 
 | Modest:220/0/0/252/0/36  8.805%        | 
 | Modest:4/0/0/252/0/252  5.900%         | 
 | Hardy:252/0/252/0/0/4  4.215%          | 
 | Modest:252/0/0/252/4/0  2.760%         | 
 | Other  2.700%                          | 
 +----------------------------------------+ 
 | Moves                                  | 
 | Surf 99.820%                           | 
 | Ice Beam 95.605%                       | 
 | Thunder 95.605%                        | 
 | Water Spout 65.738%                    | 
 | Calm Mind 33.129%                      | 
 | Other 10.102%                          | 
 +----------------------------------------+ 
 | Teammates                              | 
 +----------------------------------------+ 
 | Checks and Counters                    | 
 +----------------------------------------+ 
 +----------------------------------------+ 
 | Dialga                                 | 
 +----------------------------------------+ 
 | Raw count: 185                         | 
 | Avg. weight: 0.0319688897792           | 
 | Viability Ceiling: 77                  | 
 +----------------------------------------+ 
 | Abilities                              | 
 | Pressure 100.000%                      | 
 +----------------------------------------+ 
 | Items                                  | 
 | Choice Specs 66.294%                   | 
 | Choice Scarf 12.373%                   | 
 | Leftovers  8.661%                      | 
 | Adamant Orb  7.652%                    | 
 | Life Orb  5.020%                       | 
 | Other -0.000%                          | 
 +----------------------------------------+ 
 | Spreads                                | 
 | Timid:4/0/0/252/0/252 66.294%          | 
 | Timid:0/0/0/252/4/252 12.373%          | 
 | Modest:192/0/0/220/0/96  7.652%        | 
 | Modest:60/0/100/252/80/16  7.401%      | 
 | Modest:248/0/0/252/8/0  5.020%         | 
 | Other  1.260%                          | 
 +----------------------------------------+ 
 | Moves                                  | 
 | Draco Meteor 91.339%                   | 
 | Dragon Pulse 87.328%                   | 
 | Flamethrower 78.715%                   | 
 | Thunder 74.955%                        | 
 | Flash Cannon 12.672%                   | 
 | Fire Blast 12.373%                     | 
 | Sleep Talk 12.373%                     | 
 | Stealth Rock  8.912%                   | 
 | Toxic  7.652%                          | 
 | Other 13.681%                          | 
 +----------------------------------------+ 
 | Teammates                              | 
 | Scizor +9.175%                         | 
 | Shaymin-Sky +7.251%                    | 
 | Salamence +6.523%                      | 
 | Latios +4.544%                         | 
 | Wobbuffet +4.240%                      | 
 | Tentacruel +2.426%                     | 
 | Smeargle +1.338%                       | 
 | Groudon +0.708%                        | 
 | Kabutops +0.609%                       | 
 +----------------------------------------+ 
 | Checks and Counters                    | 
 +----------------------------------------+ 
 +----------------------------------------+ 
 | Scizor                                 | 
 +----------------------------------------+ 
 | Raw count: 67                          | 
 | Avg. weight: 0.0646136845916           | 
 | Viability Ceiling: 75                  | 
 +----------------------------------------+ 
 | Abilities                              | 
 | Technician 100.000%                    | 
 | Swarm  0.000%                          | 
 +----------------------------------------+ 
 | Items                                  | 
 | Choice Band 92.549%                    | 
 | Life Orb  7.451%                       | 
 | Other -0.000%                          | 
 +----------------------------------------+ 
 | Spreads                                | 
 | Adamant:200/56/0/0/252/0 92.549%       | 
 | Adamant:176/100/0/0/232/0  7.451%      | 
 | Other -0.000%                          | 
 +----------------------------------------+ 
 | Moves                                  | 
 | U-turn 100.000%                        | 
 | Bullet Punch 100.000%                  | 
 | Pursuit 100.000%                       | 
 | Superpower 92.549%                     | 
 | Other  7.451%                          | 
 +----------------------------------------+ 
 | Teammates                              | 
 | Shaymin-Sky +24.952%                   | 
 | Salamence +24.278%                     | 
 | Wobbuffet +21.940%                     | 
 | Dialga +8.525%                         | 
 | Kyogre +3.348%                         | 
 | Mew +2.588%                            | 
 +----------------------------------------+ 
 | Checks and Counters                    | 
 +----------------------------------------+ 
 +----------------------------------------+ 
 | Wobbuffet                              | 
 +----------------------------------------+ 
 | Raw count: 68                          | 
 | Avg. weight: 0.0533002941937           | 
 | Viability Ceiling: 75                  | 
 +----------------------------------------+ 
 | Abilities                              | 
 | Shadow Tag 100.000%                    | 
 +----------------------------------------+ 
 | Items                                  | 
 | Leftovers 100.000%                     | 
 | Other  0.000%                          | 
 +----------------------------------------+ 
 | Spreads                                | 
 | Calm:92/0/164/0/252/0 90.863%          | 
 | Bold:28/0/228/0/252/0  9.137%          | 
 | Other  0.000%                          | 
 +----------------------------------------+ 
 | Moves                                  | 
 | Mirror Coat 100.000%                   | 
 | Counter 100.000%                       | 
 | Encore 100.000%                        | 
 | Safeguard 86.392%                      | 
 | Other 13.608%                          | 
 +----------------------------------------+ 
 | Teammates                              | 
 | Shaymin-Sky +36.740%                   | 
 | Salamence +35.863%                     | 
 | Scizor +28.852%                        | 
 | Dialga +6.522%                         | 
 | Kyogre +4.122%                         | 
 | Jirachi +3.101%                        | 
 | Shedinja +1.888%                       | 
 +----------------------------------------+ 
 | Checks and Counters                    | 
 +----------------------------------------+ 
 +----------------------------------------+ 
 | Salamence                              | 
 +----------------------------------------+ 
 | Raw count: 77                          | 
 | Avg. weight: 0.0465930732107           | 
 | Viability Ceiling: 75                  | 
 +----------------------------------------+ 
 | Abilities                              | 
 | Intimidate 100.000%                    | 
 +----------------------------------------+ 
 | Items                                  | 
 | Life Orb 92.036%                       | 
 | Leftovers  5.886%                      | 
 | Other  2.078%                          | 
 +----------------------------------------+ 
 | Spreads                                | 
 | Jolly:0/252/0/4/0/252 91.980%          | 
 | Jolly:0/252/0/0/4/252  5.886%          | 
 | Other  2.134%                          | 
 +----------------------------------------+ 
 | Moves                                  | 
 | Dragon Dance 97.922%                   | 
 | Outrage 94.114%                        | 
 | Earthquake 94.114%                     | 
 | Flamethrower 91.980%                   | 
 | Dragon Claw  7.964%                    | 
 | Other 13.906%                          | 
 +----------------------------------------+ 
 | Teammates                              | 
 | Shaymin-Sky +37.482%                   | 
 | Wobbuffet +34.471%                     | 
 | Scizor +29.838%                        | 
 | Dialga +7.485%                         | 
 | Kyogre +2.718%                         | 
 | Bronzong +0.767%                       | 
 +----------------------------------------+ 
 | Checks and Counters                    | 
 +----------------------------------------+ 
 +----------------------------------------+ 
 | Shaymin-Sky                            | 
 +----------------------------------------+ 
 | Raw count: 87                          | 
 | Avg. weight: 0.0415609574302           | 
 | Viability Ceiling: 75                  | 
 +----------------------------------------+ 
 | Abilities                              | 
 | Serene Grace 100.000%                  | 
 +----------------------------------------+ 
 | Items                                  | 
 | Choice Scarf 100.000%                  | 
 | Other  0.000%                          | 
 +----------------------------------------+ 
 | Spreads                                | 
 | Timid:0/0/0/252/4/252 100.000%         | 
 | Other  0.000%                          | 
 +----------------------------------------+ 
 | Moves                                  | 
 | Seed Flare 100.000%                    | 
 | Earth Power 100.000%                   | 
 | Hidden Power Ice 100.000%              | 
 | Air Slash 100.000%                     | 
 | Other  0.000%                          | 
 +----------------------------------------+ 
 | Teammates                              | 
 | Salamence +36.036%                     | 
 | Wobbuffet +33.901%                     | 
 | Scizor +29.024%                        | 
 | Dialga +6.689%                         | 
 | Kyogre +1.903%                         | 
 +----------------------------------------+ 
 | Checks and Counters                    | 
 +----------------------------------------+ 
 +----------------------------------------+ 
 | Palkia                                 | 
 +----------------------------------------+ 
 | Raw count: 107                         | 
 | Avg. weight: 0.0247877663346           | 
 | Viability Ceiling: 74                  | 
 +----------------------------------------+ 
 | Abilities                              | 
 | Pressure 100.000%                      | 
 +----------------------------------------+ 
 | Items                                  | 
 | Lustrous Orb 99.924%                   | 
 | Other  0.076%                          | 
 +----------------------------------------+ 
 | Spreads                                | 
 | Timid:0/0/0/252/4/252 75.460%          | 
 | Timid:4/0/0/252/0/252 11.142%          | 
 | Jolly:0/0/0/252/4/252  7.962%          | 
 | Timid:0/0/0/252/0/252  5.360%          | 
 | Other  0.076%                          | 
 +----------------------------------------+ 
 | Moves                                  | 
 | Surf 100.000%                          | 
 | Spacial Rend 100.000%                  | 
 | Thunder 92.038%                        | 
 | Aura Sphere 83.422%                    | 
 | Earth Power 16.502%                    | 
 | Other  8.038%                          | 
 +----------------------------------------+ 
 | Teammates                              | 
 | Starmie +30.367%                       | 
 | Kingdra +30.367%                       | 
 | Manaphy +27.869%                       | 
 | Ludicolo +27.869%                      | 
 | Smeargle +9.733%                       | 
 | Deoxys-Attack +4.705%                  | 
 +----------------------------------------+ 
 | Checks and Counters                    | 
 +----------------------------------------+ 
 +----------------------------------------+ 
 | Darkrai                                | 
 +----------------------------------------+ 
 | Raw count: 164                         | 
 | Avg. weight: 0.0162297280632           | 
 | Viability Ceiling: 75                  | 
 +----------------------------------------+ 
 | Abilities                              | 
 | Bad Dreams 100.000%                    | 
 +----------------------------------------+ 
 | Items                                  | 
 | Leftovers 45.848%                      | 
 | Choice Scarf 39.680%                   | 
 | Life Orb 11.155%                       | 
 | Other  3.317%                          | 
 +----------------------------------------+ 
 | Spreads                                | 
 | Timid:0/0/0/252/4/252 83.556%          | 
 | Timid:52/0/60/120/60/216 16.444%       | 
 | Other -0.000%                          | 
 +----------------------------------------+ 
 | Moves                                  | 
 | Dark Void 100.000%                     | 
 | Dark Pulse 100.000%                    | 
 | Focus Blast 66.078%                    | 
 | Trick 39.680%                          | 
 | Nasty Plot 19.762%                     | 
 | Substitute 16.961%                     | 
 | Ice Beam 16.444%                       | 
 | Nightmare 16.444%                      | 
 | Calm Mind 12.442%                      | 
 | Other 12.188%                          | 
 +----------------------------------------+ 
 | Teammates                              | 
 | Deoxys-Attack +18.550%                 | 
 | Ho-Oh +15.687%                         | 
 | Snorlax +10.825%                       | 
 | Smeargle +9.680%                       | 
 | Gliscor +7.487%                        | 
 | Latias +7.040%                         | 
 | Mewtwo +5.704%                         | 
 | Latios +5.369%                         | 
 | Jirachi +5.312%                        | 
 | Tyranitar +4.417%                      | 
 | Rayquaza +3.775%                       | 
 | Shedinja +3.234%                       | 
 +----------------------------------------+ 
 | Checks and Counters                    | 
 +----------------------------------------+ 
 +----------------------------------------+ 
 | Manaphy                                | 
 +----------------------------------------+ 
 | Raw count: 35                          | 
 | Avg. weight: 0.0701127680742           | 
 | Viability Ceiling: 74                  | 
 +----------------------------------------+ 
 | Abilities                              | 
 | Hydration 100.000%                     | 
 +----------------------------------------+ 
 | Items                                  | 
 | Life Orb 81.559%                       | 
 | Leftovers 18.441%                      | 
 | Other  0.000%                          | 
 +----------------------------------------+ 
 | Spreads                                | 
 | Calm:252/0/76/0/180/0 81.559%          | 
 | Bold:252/0/224/0/28/4 18.441%          | 
 | Other  0.000%                          | 
 +----------------------------------------+ 
 | Moves                                  | 
 | Surf 100.000%                          | 
 | Rest 100.000%                          | 
 | Ice Beam 100.000%                      | 
 | Tail Glow 81.559%                      | 
 | Other 18.441%                          | 
 +----------------------------------------+ 
 | Teammates                              | 
 | Ludicolo +39.197%                      | 
 | Starmie +34.205%                       | 
 | Kingdra +34.205%                       | 
 | Palkia +28.690%                        | 
 | Kabutops +4.991%                       | 
 +----------------------------------------+ 
 | Checks and Counters                    | 
 +----------------------------------------+ 
 +----------------------------------------+ 
 | Ludicolo                               | 
 +----------------------------------------+ 
 | Raw count: 25                          | 
 | Avg. weight: 0.0981578753039           | 
 | Viability Ceiling: 74                  | 
 +----------------------------------------+ 
 | Abilities                              | 
 | Rain Dish 81.559%                      | 
 | Swift Swim 18.441%                     | 
 +----------------------------------------+ 
 | Items                                  | 
 | Leftovers 81.559%                      | 
 | Life Orb 18.441%                       | 
 +----------------------------------------+ 
 | Spreads                                | 
 | Calm:152/0/100/0/252/4 81.559%         | 
 | Modest:0/0/0/252/4/252 18.441%         | 
 | Other  0.000%                          | 
 +----------------------------------------+ 
 | Moves                                  | 
 | Protect 81.559%                        | 
 | Leech Seed 81.559%                     | 
 | Rain Dance 81.559%                     | 
 | Toxic 81.559%                          | 
 | Energy Ball 18.441%                    | 
 | Focus Blast 18.441%                    | 
 | Ice Beam 18.441%                       | 
 | Other 18.441%                          | 
 +----------------------------------------+ 
 | Teammates                              | 
 | Manaphy +39.197%                       | 
 | Kingdra +34.205%                       | 
 | Starmie +34.205%                       | 
 | Palkia +28.690%                        | 
 | Kabutops +4.991%                       | 
 +----------------------------------------+ 
 | Checks and Counters                    | 
 +----------------------------------------+ 
 +----------------------------------------+ 
 | Latios                                 | 
 +----------------------------------------+ 
 | Raw count: 65                          | 
 | Avg. weight: 0.0275221478759           | 
 | Viability Ceiling: 77                  | 
 +----------------------------------------+ 
 | Abilities                              | 
 | Levitate 100.000%                      | 
 +----------------------------------------+ 
 | Items                                  | 
 | Soul Dew 100.000%                      | 
 | Other  0.000%                          | 
 +----------------------------------------+ 
 | Spreads                                | 
 | Timid:0/0/0/252/4/252 53.524%          | 
 | Timid:44/0/20/16/176/252 24.466%       | 
 | Timid:0/0/0/252/0/252 22.010%          | 
 | Other  0.000%                          | 
 +----------------------------------------+ 
 | Moves                                  | 
 | Dragon Pulse 100.000%                  | 
 | Recover 42.497%                        | 
 | Hidden Power Fire 40.905%              | 
 | Grass Knot 40.905%                     | 
 | Roost 40.905%                          | 
 | Calm Mind 34.628%                      | 
 | Charge Beam 24.466%                    | 
 | Reflect 24.466%                        | 
 | Thunder 18.031%                        | 
 | Psychic 16.597%                        | 
 | Other 16.597%                          | 
 +----------------------------------------+ 
 | Teammates                              | 
 | Tentacruel +30.958%                    | 
 | Groudon +29.240%                       | 
 | Garchomp +27.529%                      | 
 | Skarmory +26.714%                      | 
 | Deoxys-Attack +25.191%                 | 
 | Smeargle +17.079%                      | 
 | Darkrai +13.444%                       | 
 | Dialga +13.082%                        | 
 | Giratina-Origin +6.874%                | 
 | Ho-Oh +3.035%                          | 
 +----------------------------------------+ 
 | Checks and Counters                    | 
 +----------------------------------------+ 
 +----------------------------------------+ 
 | Mewtwo                                 | 
 +----------------------------------------+ 
 | Raw count: 83                          | 
 | Avg. weight: 0.024413830825            | 
 | Viability Ceiling: 74                  | 
 +----------------------------------------+ 
 | Abilities                              | 
 | Pressure 100.000%                      | 
 +----------------------------------------+ 
 | Items                                  | 
 | Leftovers 69.827%                      | 
 | Life Orb 22.279%                       | 
 | Light Clay  7.893%                     | 
 | Other  0.000%                          | 
 +----------------------------------------+ 
 | Spreads                                | 
 | Timid:0/0/4/252/0/252 35.202%          | 
 | Calm:200/0/32/0/120/156 30.393%        | 
 | Timid:4/0/0/252/0/252 26.512%          | 
 | Jolly:252/0/0/0/4/252  7.893%          | 
 | Other  0.000%                          | 
 +----------------------------------------+ 
 | Moves                                  | 
 | Ice Beam 92.107%                       | 
 | Aura Sphere 61.714%                    | 
 | Psychic 57.481%                        | 
 | Calm Mind 39.434%                      | 
 | Taunt 38.286%                          | 
 | Recover 30.393%                        | 
 | Will-O-Wisp 30.393%                    | 
 | Shadow Ball 22.279%                    | 
 | Self-Destruct  7.893%                  | 
 | Reflect  7.893%                        | 
 | Other 12.126%                          | 
 +----------------------------------------+ 
 | Teammates                              | 
 | Rayquaza +35.265%                      | 
 | Mew +18.822%                           | 
 | Snorlax +16.142%                       | 
 | Ho-Oh +12.173%                         | 
 | Darkrai +9.617%                        | 
 | Gliscor +5.356%                        | 
 | Heracross +2.757%                      | 
 | Tyranitar +2.285%                      | 
 | Bronzong +1.921%                       | 
 | Latias +1.652%                         | 
 | Hippowdon +1.100%                      | 
 +----------------------------------------+ 
 | Checks and Counters                    | 
 +----------------------------------------+ 
 +----------------------------------------+ 
 | Starmie                                | 
 +----------------------------------------+ 
 | Raw count: 22                          | 
 | Avg. weight: 0.0909734173189           | 
 | Viability Ceiling: 74                  | 
 +----------------------------------------+ 
 | Abilities                              | 
 | Natural Cure 100.000%                  | 
 +----------------------------------------+ 
 | Items                                  | 
 | Life Orb 100.000%                      | 
 +----------------------------------------+ 
 | Spreads                                | 
 | Timid:48/0/0/40/204/216 100.000%       | 
 +----------------------------------------+ 
 | Moves                                  | 
 | Surf 100.000%                          | 
 | Thunder 100.000%                       | 
 | Rapid Spin 100.000%                    | 
 | Ice Beam 100.000%                      | 
 +----------------------------------------+ 
 | Teammates                              | 
 | Kingdra +45.811%                       | 
 | Ludicolo +43.312%                      | 
 | Manaphy +43.312%                       | 
 | Palkia +40.296%                        | 
 +----------------------------------------+ 
 | Checks and Counters                    | 
 +----------------------------------------+ 
 +----------------------------------------+ 
 | Kingdra                                | 
 +----------------------------------------+ 
 | Raw count: 24                          | 
 | Avg. weight: 0.083392299209            | 
 | Viability Ceiling: 74                  | 
 +----------------------------------------+ 
 | Abilities                              | 
 | Swift Swim 100.000%                    | 
 | Sniper  0.000%                         | 
 +----------------------------------------+ 
 | Items                                  | 
 | Leftovers 100.000%                     | 
 | Other  0.000%                          | 
 +----------------------------------------+ 
 | Spreads                                | 
 | Quiet:104/0/16/80/252/56 100.000%      | 
 | Other  0.000%                          | 
 +----------------------------------------+ 
 | Moves                                  | 
 | Dragon Dance 100.000%                  | 
 | Rain Dance 100.000%                    | 
 | Waterfall 100.000%                     | 
 | Draco Meteor 100.000%                  | 
 | Other  0.000%                          | 
 +----------------------------------------+ 
 | Teammates                              | 
 | Starmie +45.811%                       | 
 | Ludicolo +43.312%                      | 
 | Manaphy +43.312%                       | 
 | Palkia +40.296%                        | 
 +----------------------------------------+ 
 | Checks and Counters                    | 
 +----------------------------------------+ 
 +----------------------------------------+ 
 | Skarmory                               | 
 +----------------------------------------+ 
 | Raw count: 13                          | 
 | Avg. weight: 0.112721001839            | 
 | Viability Ceiling: 77                  | 
 +----------------------------------------+ 
 | Abilities                              | 
 | Keen Eye 76.932%                       | 
 | Sturdy 23.068%                         | 
 +----------------------------------------+ 
 | Items                                  | 
 | Leftovers 100.000%                     | 
 | Other  0.000%                          | 
 +----------------------------------------+ 
 | Spreads                                | 
 | Impish:248/0/0/0/220/40 50.062%        | 
 | Bold:248/0/0/0/232/28 26.870%          | 
 | Impish:248/0/0/0/212/40 23.068%        | 
 | Other  0.000%                          | 
 +----------------------------------------+ 
 | Moves                                  | 
 | Spikes 100.000%                        | 
 | Taunt 100.000%                         | 
 | Roost 100.000%                         | 
 | Whirlwind 100.000%                     | 
 | Other  0.000%                          | 
 +----------------------------------------+ 
 | Teammates                              | 
 | Tentacruel +39.991%                    | 
 | Groudon +38.272%                       | 
 | Garchomp +36.561%                      | 
 | Latios +31.307%                        | 
 | Gliscor +17.065%                       | 
 | Tyranitar +13.995%                     | 
 | Latias +13.362%                        | 
 +----------------------------------------+ 
 | Checks and Counters                    | 
 +----------------------------------------+ 
 +----------------------------------------+ 
 | Rayquaza                               | 
 +----------------------------------------+ 
 | Raw count: 71                          | 
 | Avg. weight: 0.0160708930876           | 
 | Viability Ceiling: 75                  | 
 +----------------------------------------+ 
 | Abilities                              | 
 | Air Lock 100.000%                      | 
 +----------------------------------------+ 
 | Items                                  | 
 | Choice Band 59.049%                    | 
 | Nothing 39.565%                        | 
 | Other  1.385%                          | 
 +----------------------------------------+ 
 | Spreads                                | 
 | Jolly:0/252/0/0/4/252 59.049%          | 
 | Jolly:32/252/0/0/8/216 39.741%         | 
 | Other  1.209%                          | 
 +----------------------------------------+ 
 | Moves                                  | 
 | Outrage 98.791%                        | 
 | Earthquake 98.791%                     | 
 | Extreme Speed 60.259%                  | 
 | Dragon Claw 60.254%                    | 
 | Dragon Dance 40.946%                   | 
 | Stone Edge 39.565%                     | 
 | Other  1.395%                          | 
 +----------------------------------------+ 
 | Teammates                              | 
 | Mewtwo +68.396%                        | 
 | Mew +35.983%                           | 
 | Snorlax +33.429%                       | 
 | Ho-Oh +29.460%                         | 
 | Darkrai +18.507%                       | 
 | Kyogre +17.477%                        | 
 | Scizor +3.828%                         | 
 | Deoxys-Speed +1.166%                   | 
 | Heracross +1.001%                      | 
 +----------------------------------------+ 
 | Checks and Counters                    | 
 +----------------------------------------+ 
 +----------------------------------------+ 
 | Garchomp                               | 
 +----------------------------------------+ 
 | Raw count: 96                          | 
 | Avg. weight: 0.0147526825409           | 
 | Viability Ceiling: 77                  | 
 +----------------------------------------+ 
 | Abilities                              | 
 | Sand Veil 100.000%                     | 
 +----------------------------------------+ 
 | Items                                  | 
 | Haban Berry 75.053%                    | 
 | Choice Scarf 22.775%                   | 
 | Other  2.171%                          | 
 +----------------------------------------+ 
 | Spreads                                | 
 | Jolly:0/252/0/0/4/252 51.185%          | 
 | Jolly:0/252/4/0/0/252 26.039%          | 
 | Adamant:0/252/0/0/4/252 22.775%        | 
 | Other -0.000%                          | 
 +----------------------------------------+ 
 | Moves                                  | 
 | Dragon Claw 100.000%                   | 
 | Earthquake 100.000%                    | 
 | Swords Dance 77.225%                   | 
 | Fire Fang 75.053%                      | 
 | Outrage 22.775%                        | 
 | Stone Edge 22.775%                     | 
 | Other  2.171%                          | 
 +----------------------------------------+ 
 | Teammates                              | 
 | Tentacruel +41.722%                    | 
 | Groudon +40.004%                       | 
 | Skarmory +37.478%                      | 
 | Latios +33.039%                        | 
 | Jirachi +12.631%                       | 
 | Shedinja +7.690%                       | 
 | Hippowdon +1.753%                      | 
 +----------------------------------------+ 
 | Checks and Counters                    | 
 +----------------------------------------+ 
 +----------------------------------------+ 
 | Groudon                                | 
 +----------------------------------------+ 
 | Raw count: 80                          | 
 | Avg. weight: 0.0126324044652           | 
 | Viability Ceiling: 77                  | 
 +----------------------------------------+ 
 | Abilities                              | 
 | Drought 100.000%                       | 
 +----------------------------------------+ 
 | Items                                  | 
 | Leftovers 72.609%                      | 
 | Lum Berry 15.827%                      | 
 | Life Orb 11.564%                       | 
 | Other  0.000%                          | 
 +----------------------------------------+ 
 | Spreads                                | 
 | Adamant:248/120/0/0/0/140 72.410%      | 
 | Adamant:108/252/0/0/0/150 15.827%      | 
 | Adamant:8/252/0/0/196/54  9.161%       | 
 | Other  2.601%                          | 
 +----------------------------------------+ 
 | Moves                                  | 
 | Earthquake 100.000%                    | 
 | Fire Punch 88.237%                     | 
 | Dragon Claw 88.237%                    | 
 | Stealth Rock 72.410%                   | 
 | Stone Edge 15.827%                     | 
 | Rock Polish 10.204%                    | 
 | Rock Slide 10.204%                     | 
 | Other 14.880%                          | 
 +----------------------------------------+ 
 | Teammates                              | 
 | Tentacruel +62.463%                    | 
 | Garchomp +59.034%                      | 
 | Skarmory +58.218%                      | 
 | Latios +53.780%                        | 
 | Dialga +8.879%                         | 
 | Giratina +6.032%                       | 
 | Blissey +4.859%                        | 
 | Lugia +4.859%                          | 
 | Forretress +4.859%                     | 
 | Bronzong +4.586%                       | 
 | Heracross +4.268%                      | 
 | Deoxys-Speed +1.344%                   | 
 +----------------------------------------+ 
 | Checks and Counters                    | 
 +----------------------------------------+ 
 +----------------------------------------+ 
 | Deoxys-Attack                          | 
 +----------------------------------------+ 
 | Raw count: 73                          | 
 | Avg. weight: 0.013412583967            | 
 | Viability Ceiling: 70                  | 
 +----------------------------------------+ 
 | Abilities                              | 
 | Pressure 100.000%                      | 
 +----------------------------------------+ 
 | Items                                  | 
 | Life Orb 69.675%                       | 
 | Choice Band 30.325%                    | 
 | Other  0.000%                          | 
 +----------------------------------------+ 
 | Spreads                                | 
 | Hasty:8/180/0/208/0/112 42.680%        | 
 | Jolly:0/252/0/0/4/252 30.325%          | 
 | Naive:0/4/0/252/0/252 24.973%          | 
 | Other  2.023%                          | 
 +----------------------------------------+ 
 | Moves                                  | 
 | Ice Beam 69.675%                       | 
 | Superpower 69.675%                     | 
 | Grass Knot 44.703%                     | 
 | Psycho Boost 44.703%                   | 
 | Extreme Speed 30.325%                  | 
 | Body Slam 30.325%                      | 
 | Drain Punch 30.325%                    | 
 | Brick Break 30.325%                    | 
 | Shadow Ball 24.973%                    | 
 | Thunder 24.973%                        | 
 | Other  0.000%                          | 
 +----------------------------------------+ 
 | Teammates                              | 
 | Darkrai +56.752%                       | 
 | Latios +46.610%                        | 
 | Smeargle +35.744%                      | 
 | Palkia +18.596%                        | 
 | Giratina-Origin +17.743%               | 
 | Ho-Oh +13.903%                         | 
 | Shedinja +11.942%                      | 
 | Jirachi +10.764%                       | 
 | Dialga +1.709%                         | 
 +----------------------------------------+ 
 | Checks and Counters                    | 
 +----------------------------------------+ 
 +----------------------------------------+ 
 | Ho-Oh                                  | 
 +----------------------------------------+ 
 | Raw count: 71                          | 
 | Avg. weight: 0.014967174805            | 
 | Viability Ceiling: 72                  | 
 +----------------------------------------+ 
 | Abilities                              | 
 | Pressure 100.000%                      | 
 +----------------------------------------+ 
 | Items                                  | 
 | Life Orb 70.424%                       | 
 | Leftovers 19.872%                      | 
 | Power Herb  9.704%                     | 
 | Other  0.000%                          | 
 +----------------------------------------+ 
 | Spreads                                | 
 | Adamant:232/252/0/0/0/24 62.355%       | 
 | Mild:248/8/0/252/0/0 27.941%           | 
 | Jolly:0/252/4/0/0/252  9.704%          | 
 | Other  0.000%                          | 
 +----------------------------------------+ 
 | Moves                                  | 
 | Sacred Fire 100.000%                   | 
 | Roost 72.059%                          | 
 | Earthquake 62.355%                     | 
 | Brave Bird 62.355%                     | 
 | Air Cutter 27.941%                     | 
 | Ancient Power 27.941%                  | 
 | Defog 27.941%                          | 
 | Other 19.408%                          | 
 +----------------------------------------+ 
 | Teammates                              | 
 | Darkrai +42.341%                       | 
 | Snorlax +36.346%                       | 
 | Rayquaza +28.780%                      | 
 | Mewtwo +23.917%                        | 
 | Giratina-Origin +15.855%               | 
 | Deoxys-Attack +11.605%                 | 
 | Blissey +4.583%                        | 
 | Lugia +4.583%                          | 
 | Forretress +4.583%                     | 
 | Giratina +4.396%                       | 
 | Latios +3.491%                         | 
 +----------------------------------------+ 
 | Checks and Counters                    | 
 +----------------------------------------+ 
 +----------------------------------------+ 
 | Tentacruel                             | 
 +----------------------------------------+ 
 | Raw count: 2                           | 
 | Avg. weight: 0.365886930975            | 
 | Viability Ceiling: 77                  | 
 +----------------------------------------+ 
 | Abilities                              | 
 | Clear Body 53.807%                     | 
 | Liquid Ooze 46.193%                    | 
 +----------------------------------------+ 
 | Items                                  | 
 | Lum Berry 100.000%                     | 
 +----------------------------------------+ 
 | Spreads                                | 
 | Timid:4/0/0/252/0/252 53.807%          | 
 | Timid:0/0/0/252/4/252 46.193%          | 
 +----------------------------------------+ 
 | Moves                                  | 
 | Icy Wind 100.000%                      | 
 | Hydro Pump 100.000%                    | 
 | Toxic Spikes 100.000%                  | 
 | Rapid Spin 100.000%                    | 
 +----------------------------------------+ 
 | Teammates                              | 
 | Groudon +88.335%                       | 
 | Garchomp +86.623%                      | 
 | Skarmory +85.808%                      | 
 | Latios +81.370%                        | 
 | Dialga +36.469%                        | 
 +----------------------------------------+ 
 | Checks and Counters                    | 
 +----------------------------------------+ 
 +----------------------------------------+ 
 | Mew                                    | 
 +----------------------------------------+ 
 | Raw count: 21                          | 
 | Avg. weight: 0.0378618404409           | 
 | Viability Ceiling: 72                  | 
 +----------------------------------------+ 
 | Abilities                              | 
 | Synchronize 100.000%                   | 
 +----------------------------------------+ 
 | Items                                  | 
 | Lum Berry 85.193%                      | 
 | Leftovers 14.807%                      | 
 | Other  0.000%                          | 
 +----------------------------------------+ 
 | Spreads                                | 
 | Jolly:252/36/0/0/0/220 65.076%         | 
 | Calm:252/0/0/0/190/68 20.117%          | 
 | Calm:248/0/0/4/216/40 14.807%          | 
 | Other -0.000%                          | 
 +----------------------------------------+ 
 | Moves                                  | 
 | Taunt 100.000%                         | 
 | Stealth Rock 65.076%                   | 
 | Explosion 65.076%                      | 
 | U-turn 65.076%                         | 
 | Rock Polish 20.117%                    | 
 | Baton Pass 20.117%                     | 
 | Swords Dance 20.117%                   | 
 | Ice Beam 14.807%                       | 
 | Will-O-Wisp 14.807%                    | 
 | Other 14.807%                          | 
 +----------------------------------------+ 
 | Teammates                              | 
 | Mewtwo +53.267%                        | 
 | Rayquaza +51.374%                      | 
 | Scizor +21.508%                        | 
 | Gliscor +10.562%                       | 
 | Tyranitar +7.492%                      | 
 | Latias +6.859%                         | 
 | Bronzong +6.026%                       | 
 | Heracross +5.708%                      | 
 | Dialga +1.545%                         | 
 | Skarmory +0.615%                       | 
 +----------------------------------------+ 
 | Checks and Counters                    | 
 +----------------------------------------+ 
 +----------------------------------------+ 
 | Latias                                 | 
 +----------------------------------------+ 
 | Raw count: 20                          | 
 | Avg. weight: 0.0742989841326           | 
 | Viability Ceiling: 74                  | 
 +----------------------------------------+ 
 | Abilities                              | 
 | Levitate 100.000%                      | 
 +----------------------------------------+ 
 | Items                                  | 
 | Soul Dew 94.168%                       | 
 | Light Clay  5.832%                     | 
 | Other  0.000%                          | 
 +----------------------------------------+ 
 | Spreads                                | 
 | Timid:196/0/8/0/52/252 49.368%         | 
 | Timid:4/0/0/252/0/252 30.453%          | 
 | Timid:0/0/4/252/0/252 14.211%          | 
 | Timid:248/0/0/0/8/252  5.832%          | 
 | Other  0.135%                          | 
 +----------------------------------------+ 
 | Moves                                  | 
 | Calm Mind 94.168%                      | 
 | Roost 79.821%                          | 
 | Dragon Pulse 63.714%                   | 
 | Thunder 49.368%                        | 
 | Psychic 30.453%                        | 
 | Draco Meteor 30.453%                   | 
 | Energy Ball 14.211%                    | 
 | Roar 14.211%                           | 
 | Recover  5.967%                        | 
 | Other 17.631%                          | 
 +----------------------------------------+ 
 | Teammates                              | 
 | Gliscor +16.770%                       | 
 | Tyranitar +13.699%                     | 
 | Kabutops +9.870%                       | 
 | Skarmory +6.823%                       | 
 | Darkrai +4.584%                        | 
 | Jirachi +2.821%                        | 
 +----------------------------------------+ 
 | Checks and Counters                    | 
 +----------------------------------------+ 
 +----------------------------------------+ 
 | Tyranitar                              | 
 +----------------------------------------+ 
 | Raw count: 18                          | 
 | Avg. weight: 0.0533049240907           | 
 | Viability Ceiling: 74                  | 
 +----------------------------------------+ 
 | Abilities                              | 
 | Sand Stream 100.000%                   | 
 +----------------------------------------+ 
 | Items                                  | 
 | Leftovers 76.457%                      | 
 | Lum Berry 23.543%                      | 
 | Other  0.000%                          | 
 +----------------------------------------+ 
 | Spreads                                | 
 | Sassy:248/48/0/0/212/0 76.457%         | 
 | Brave:252/52/0/0/204/0 23.543%         | 
 | Other  0.000%                          | 
 +----------------------------------------+ 
 | Moves                                  | 
 | Stealth Rock 100.000%                  | 
 | Fire Blast 100.000%                    | 
 | Superpower 100.000%                    | 
 | Crunch 76.457%                         | 
 | Payback 23.543%                        | 
 | Other  0.000%                          | 
 +----------------------------------------+ 
 | Teammates                              | 
 | Gliscor +28.301%                       | 
 | Latias +24.597%                        | 
 | Quagsire +20.472%                      | 
 | Heatran +20.472%                       | 
 | Cresselia +20.472%                     | 
 | Lucario +20.472%                       | 
 | Skarmory +18.354%                      | 
 | Giratina-Origin +17.277%               | 
 | Darkrai +10.283%                       | 
 | Mew +2.906%                            | 
 | Mewtwo +1.710%                         | 
 +----------------------------------------+ 
 | Checks and Counters                    | 
 +----------------------------------------+ 
 +----------------------------------------+ 
 | Giratina-Origin                        | 
 +----------------------------------------+ 
 | Raw count: 96                          | 
 | Avg. weight: 0.00791022210428          | 
 | Viability Ceiling: 75                  | 
 +----------------------------------------+ 
 | Abilities                              | 
 | Levitate 100.000%                      | 
 +----------------------------------------+ 
 | Items                                  | 
 | Griseous Orb 100.000%                  | 
 +----------------------------------------+ 
 | Spreads                                | 
 | Modest:248/0/0/252/8/0 39.100%         | 
 | Naive:0/28/80/148/0/252 29.747%        | 
 | Adamant:84/216/0/0/96/112 21.338%      | 
 | Naive:0/0/132/124/0/252  9.816%        | 
 | Other -0.000%                          | 
 +----------------------------------------+ 
 | Moves                                  | 
 | Shadow Sneak 39.562%                   | 
 | Thunder 39.562%                        | 
 | Draco Meteor 39.562%                   | 
 | Dragon Pulse 39.100%                   | 
 | Destiny Bond 39.100%                   | 
 | Ancient Power 39.100%                  | 
 | Dark Pulse 39.100%                     | 
 | Earthquake 31.154%                     | 
 | Aura Sphere 29.747%                    | 
 | Substitute 21.338%                     | 
 | Outrage 21.338%                        | 
 | Shadow Force 21.338%                   | 
 | Other -0.000%                          | 
 +----------------------------------------+ 
 | Teammates                              | 
 | Quagsire +26.676%                      | 
 | Heatran +26.676%                       | 
 | Cresselia +26.676%                     | 
 | Lucario +26.676%                       | 
 | Tyranitar +22.431%                     | 
 | Ho-Oh +20.850%                         | 
 | Deoxys-Attack +20.439%                 | 
 | Latios +12.326%                        | 
 | Darkrai +8.693%                        | 
 +----------------------------------------+ 
 | Checks and Counters                    | 
 +----------------------------------------+ 
 +----------------------------------------+ 
 | Snorlax                                | 
 +----------------------------------------+ 
 | Raw count: 22                          | 
 | Avg. weight: 0.0205206427695           | 
 | Viability Ceiling: 71                  | 
 +----------------------------------------+ 
 | Abilities                              | 
 | Thick Fat 100.000%                     | 
 | Immunity  0.000%                       | 
 +----------------------------------------+ 
 | Items                                  | 
 | Leftovers 100.000%                     | 
 | Other  0.000%                          | 
 +----------------------------------------+ 
 | Spreads                                | 
 | Careful:188/0/104/0/216/0 100.000%     | 
 | Other  0.000%                          | 
 +----------------------------------------+ 
 | Moves                                  | 
 | Curse 100.000%                         | 
 | Return 100.000%                        | 
 | Ice Punch 100.000%                     | 
 | Earthquake 100.000%                    | 
 | Other  0.000%                          | 
 +----------------------------------------+ 
 | Teammates                              | 
 | Ho-Oh +89.894%                         | 
 | Rayquaza +86.297%                      | 
 | Mewtwo +81.434%                        | 
 | Darkrai +77.737%                       | 
 | Kyogre +29.311%                        | 
 +----------------------------------------+ 
 | Checks and Counters                    | 
 +----------------------------------------+ 
 +----------------------------------------+ 
 | Smeargle                               | 
 +----------------------------------------+ 
 | Raw count: 24                          | 
 | Avg. weight: 0.0182371177833           | 
 | Viability Ceiling: 70                  | 
 +----------------------------------------+ 
 | Abilities                              | 
 | Own Tempo 100.000%                     | 
 | Technician  0.000%                     | 
 +----------------------------------------+ 
 | Items                                  | 
 | Focus Sash 100.000%                    | 
 | Other  0.000%                          | 
 +----------------------------------------+ 
 | Spreads                                | 
 | Jolly:0/0/0/0/0/252 67.520%            | 
 | Jolly:0/0/0/0/0/236 32.480%            | 
 | Other  0.000%                          | 
 +----------------------------------------+ 
 | Moves                                  | 
 | Spore 100.000%                         | 
 | Stealth Rock 100.000%                  | 
 | Endeavor 100.000%                      | 
 | Destiny Bond 100.000%                  | 
 | Other  0.000%                          | 
 +----------------------------------------+ 
 | Teammates                              | 
 | Deoxys-Attack +81.719%                 | 
 | Latios +73.605%                        | 
 | Darkrai +69.972%                       | 
 | Palkia +69.599%                        | 
 | Dialga +28.704%                        | 
 +----------------------------------------+ 
 | Checks and Counters                    | 
 +----------------------------------------+ 
 +----------------------------------------+ 
 | Gliscor                                | 
 +----------------------------------------+ 
 | Raw count: 17                          | 
 | Avg. weight: 0.0431528918799           | 
 | Viability Ceiling: 74                  | 
 +----------------------------------------+ 
 | Abilities                              | 
 | Hyper Cutter 64.979%                   | 
 | Sand Veil 35.021%                      | 
 +----------------------------------------+ 
 | Items                                  | 
 | Leftovers 100.000%                     | 
 | Other  0.000%                          | 
 +----------------------------------------+ 
 | Spreads                                | 
 | Careful:248/0/52/0/208/0 100.000%      | 
 | Other  0.000%                          | 
 +----------------------------------------+ 
 | Moves                                  | 
 | Toxic 100.000%                         | 
 | Taunt 100.000%                         | 
 | Roost 100.000%                         | 
 | Earthquake 100.000%                    | 
 | Other  0.000%                          | 
 +----------------------------------------+ 
 | Teammates                              | 
 | Tyranitar +35.252%                     | 
 | Latias +34.619%                        | 
 | Skarmory +28.375%                      | 
 | Darkrai +20.304%                       | 
 | Mewtwo +7.953%                         | 
 | Mew +6.684%                            | 
 +----------------------------------------+ 
 | Checks and Counters                    | 
 +----------------------------------------+ 
 +----------------------------------------+ 
 | Cresselia                              | 
 +----------------------------------------+ 
 | Raw count: 12                          | 
 | Avg. weight: 0.0188241226396           | 
 | Viability Ceiling: 73                  | 
 +----------------------------------------+ 
 | Abilities                              | 
 | Levitate 100.000%                      | 
 +----------------------------------------+ 
 | Items                                  | 
 | Leftovers 100.000%                     | 
 | Other  0.000%                          | 
 +----------------------------------------+ 
 | Spreads                                | 
 | Bold:248/0/252/4/0/4 100.000%          | 
 | Other  0.000%                          | 
 +----------------------------------------+ 
 | Moves                                  | 
 | Calm Mind 100.000%                     | 
 | Psychic 100.000%                       | 
 | Ice Beam 100.000%                      | 
 | Rest 100.000%                          | 
 | Other  0.000%                          | 
 +----------------------------------------+ 
 | Teammates                              | 
 | Quagsire +96.929%                      | 
 | Lucario +96.929%                       | 
 | Heatran +96.929%                       | 
 | Giratina-Origin +93.734%               | 
 | Tyranitar +92.685%                     | 
 | Tyranitar +92.685%                     | | 
 +----------------------------------------+ 
 | Checks and Counters                    | 
 +----------------------------------------+ 
 +----------------------------------------+ 
 | Lucario                                | 
 +----------------------------------------+ 
 | Raw count: 25                          | 
 | Avg. weight: 0.00903557886701          | 
 | Viability Ceiling: 73                  | 
 +----------------------------------------+ 
 | Abilities                              | 
 | Inner Focus 100.000%                   | 
 | Steadfast  0.000%                      | 
 +----------------------------------------+ 
 | Items                                  | 
 | Choice Scarf 100.000%                  | 
 | Other  0.000%                          | 
 +----------------------------------------+ 
 | Spreads                                | 
 | Adamant:0/252/0/0/4/252 100.000%       | 
 | Other  0.000%                          | 
 +----------------------------------------+ 
 | Moves                                  | 
 | Close Combat 100.000%                  | 
 | Crunch 100.000%                        | 
 | Ice Punch 100.000%                     | 
 | Stone Edge 100.000%                    | 
 | Other  0.000%                          | 
 +----------------------------------------+ 
 | Teammates                              | 
 | Quagsire +96.929%                      | 
 | Heatran +96.929%                       | 
 | Cresselia +96.929%                     | 
 | Giratina-Origin +93.734%               | 
 | Tyranitar +92.685%                     | 
 | Tyranitar +92.685%                     | | 
 +----------------------------------------+ 
 | Checks and Counters                    | 
 +----------------------------------------+ 
 +----------------------------------------+ 
 | Quagsire                               | 
 +----------------------------------------+ 
 | Raw count: 4                           | 
 | Avg. weight: 0.0564723679188           | 
 | Viability Ceiling: 73                  | 
 +----------------------------------------+ 
 | Abilities                              | 
 | Water Absorb 100.000%                  | 
 +----------------------------------------+ 
 | Items                                  | 
 | Leftovers 100.000%                     | 
 +----------------------------------------+ 
 | Spreads                                | 
 | Careful:248/0/4/0/252/4 100.000%       | 
 | Other  0.000%                          | 
 +----------------------------------------+ 
 | Moves                                  | 
 | Toxic 100.000%                         | 
 | Recover 100.000%                       | 
 | Earthquake 100.000%                    | 
 | Encore 100.000%                        | 
 | Other  0.000%                          | 
 +----------------------------------------+ 
 | Teammates                              | 
 | Cresselia +96.929%                     | 
 | Lucario +96.929%                       | 
 | Heatran +96.929%                       | 
 | Giratina-Origin +93.734%               | 
 | Tyranitar +92.685%                     | 
 | Tyranitar +92.685%                     | | 
 +----------------------------------------+ 
 | Checks and Counters                    | 
 +----------------------------------------+ 
 +----------------------------------------+ 
 | Heatran                                | 
 +----------------------------------------+ 
 | Raw count: 15                          | 
 | Avg. weight: 0.0150592981117           | 
 | Viability Ceiling: 73                  | 
 +----------------------------------------+ 
 | Abilities                              | 
 | Flash Fire 100.000%                    | 
 +----------------------------------------+ 
 | Items                                  | 
 | Leftovers 100.000%                     | 
 | Other  0.000%                          | 
 +----------------------------------------+ 
 | Spreads                                | 
 | Calm:248/0/0/0/252/8 100.000%          | 
 | Other  0.000%                          | 
 +----------------------------------------+ 
 | Moves                                  | 
 | Dragon Pulse 100.000%                  | 
 | Taunt 100.000%                         | 
 | Toxic 100.000%                         | 
 | Flamethrower 100.000%                  | 
 | Other  0.000%                          | 
 +----------------------------------------+ 
 | Teammates                              | 
 | Quagsire +96.929%                      | 
 | Cresselia +96.929%                     | 
 | Lucario +96.929%                       | 
 | Giratina-Origin +93.734%               | 
 | Tyranitar +92.685%                     | 
 | Tyranitar +92.685%                     | | 
 +----------------------------------------+ 
 | Checks and Counters                    | 
 +----------------------------------------+ 
 +----------------------------------------+ 
 | Jirachi                                | 
 +----------------------------------------+ 
 | Raw count: 7                           | 
 | Avg. weight: 0.0473107171555           | 
 | Viability Ceiling: 69                  | 
 +----------------------------------------+ 
 | Abilities                              | 
 | Serene Grace 100.000%                  | 
 +----------------------------------------+ 
 | Items                                  | 
 | Choice Scarf 100.000%                  | 
 | Other  0.000%                          | 
 +----------------------------------------+ 
 | Spreads                                | 
 | Jolly:4/252/0/0/0/252 100.000%         | 
 | Other  0.000%                          | 
 +----------------------------------------+ 
 | Moves                                  | 
 | U-turn 100.000%                        | 
 | Ice Punch 100.000%                     | 
 | Trick 100.000%                         | 
 | Iron Head 100.000%                     | 
 | Other  0.000%                          | 
 +----------------------------------------+ 
 | Teammates                              | 
 | Garchomp +53.518%                      | 
 | Darkrai +44.632%                       | 
 | Shedinja +38.893%                      | 
 | Deoxys-Attack +30.210%                 | 
 | Wobbuffet +28.204%                     | 
 | Latias +18.220%                        | 
 +----------------------------------------+ 
 | Checks and Counters                    | 
 +----------------------------------------+ 
 +----------------------------------------+ 
 | Kabutops                               | 
 +----------------------------------------+ 
 | Raw count: 7                           | 
 | Avg. weight: 0.0646473859401           | 
 | Viability Ceiling: 73                  | 
 +----------------------------------------+ 
 | Abilities                              | 
 | Swift Swim 100.000%                    | 
 +----------------------------------------+ 
 | Items                                  | 
 | Life Orb 100.000%                      | 
 | Other  0.000%                          | 
 +----------------------------------------+ 
 | Spreads                                | 
 | Adamant:0/252/0/0/4/252 100.000%       | 
 | Other  0.000%                          | 
 +----------------------------------------+ 
 | Moves                                  | 
 | Aqua Jet 100.000%                      | 
 | Swords Dance 100.000%                  | 
 | Waterfall 100.000%                     | 
 | Stone Edge 100.000%                    | 
 | Other  0.000%                          | 
 +----------------------------------------+ 
 | Teammates                              | 
 | Latias +32.667%                        | 
 | Ludicolo +20.996%                      | 
 | Manaphy +20.996%                       | 
 +----------------------------------------+ 
 | Checks and Counters                    | 
 +----------------------------------------+ 
 +----------------------------------------+ 
 | Shedinja                               | 
 +----------------------------------------+ 
 | Raw count: 4                           | 
 | Avg. weight: 0.0611277977401           | 
 | Viability Ceiling: 69                  | 
 +----------------------------------------+ 
 | Abilities                              | 
 | Wonder Guard 100.000%                  | 
 +----------------------------------------+ 
 | Items                                  | 
 | Focus Sash 100.000%                    | 
 | Other  0.000%                          | 
 +----------------------------------------+ 
 | Spreads                                | 
 | Jolly:0/252/4/0/0/252 100.000%         | 
 | Other  0.000%                          | 
 +----------------------------------------+ 
 | Moves                                  | 
 | Swords Dance 100.000%                  | 
 | Sucker Punch 100.000%                  | 
 | X-Scissor 100.000%                     | 
 | Will-O-Wisp 100.000%                   | 
 | Other  0.000%                          | 
 +----------------------------------------+ 
 | Teammates                              | 
 | Jirachi +52.149%                       | 
 | Deoxys-Attack +44.644%                 | 
 | Garchomp +41.784%                      | 
 | Darkrai +32.898%                       | 
 | Wobbuffet +16.470%                     | 
 +----------------------------------------+ 
 | Checks and Counters                    | 
 +----------------------------------------+ 
 +----------------------------------------+ 
 | Heracross                              | 
 +----------------------------------------+ 
 | Raw count: 7                           | 
 | Avg. weight: 0.0300104446564           | 
 | Viability Ceiling: 67                  | 
 +----------------------------------------+ 
 | Abilities                              | 
 | Guts 100.000%                          | 
 +----------------------------------------+ 
 | Items                                  | 
 | Choice Band 100.000%                   | 
 | Other  0.000%                          | 
 +----------------------------------------+ 
 | Spreads                                | 
 | Adamant:248/232/0/0/28/0 100.000%      | 
 | Other  0.000%                          | 
 +----------------------------------------+ 
 | Moves                                  | 
 | Close Combat 100.000%                  | 
 | Megahorn 100.000%                      | 
 | Sleep Talk 100.000%                    | 
 | Stone Edge 100.000%                    | 
 | Other  0.000%                          | 
 +----------------------------------------+ 
 | Teammates                              | 
 | Bronzong +24.842%                      | 
 | Mewtwo +18.138%                        | 
 | Mew +16.208%                           | 
 | Groudon +13.907%                       | 
 +----------------------------------------+ 
 | Checks and Counters                    | 
 +----------------------------------------+ 
 +----------------------------------------+ 
 | Giratina                               | 
 +----------------------------------------+ 
 | Raw count: 59                          | 
 | Avg. weight: 0.0019807524053           | 
 | Viability Ceiling: 62                  | 
 +----------------------------------------+ 
 | Abilities                              | 
 | Pressure 100.000%                      | 
 +----------------------------------------+ 
 | Items                                  | 
 | Leftovers 88.240%                      | 
 | Power Herb 11.760%                     | 
 | Other  0.000%                          | 
 +----------------------------------------+ 
 | Spreads                                | 
 | Serious:0/0/252/0/252/4 88.240%        | 
 | Gentle:248/8/0/0/252/0 11.760%         | 
 | Other  0.000%                          | 
 +----------------------------------------+ 
 | Moves                                  | 
 | Shadow Force 100.000%                  | 
 | Toxic 88.240%                          | 
 | Draco Meteor 88.240%                   | 
 | Will-O-Wisp 79.221%                    | 
 | Rest 11.760%                           | 
 | Dragon Pulse 11.760%                   | 
 | Sleep Talk 11.760%                     | 
 | Other  9.019%                          | 
 +----------------------------------------+ 
 | Teammates                              | 
 | Groudon +48.801%                       | 
 | Forretress +47.932%                    | 
 | Blissey +47.932%                       | 
 | Lugia +47.932%                         | 
 | Ho-Oh +38.600%                         | 
 | Deoxys-Speed +11.546%                  | 
 +----------------------------------------+ 
 | Checks and Counters                    | 
 +----------------------------------------+ 
 +----------------------------------------+ 
 | Blissey                                | 
 +----------------------------------------+ 
 | Raw count: 30                          | 
 | Avg. weight: 0.00343736608219          | 
 | Viability Ceiling: 62                  | 
 +----------------------------------------+ 
 | Abilities                              | 
 | Natural Cure 100.000%                  | 
 +----------------------------------------+ 
 | Items                                  | 
 | Leftovers 100.000%                     | 
 | Other  0.000%                          | 
 +----------------------------------------+ 
 | Spreads                                | 
 | Calm:252/0/0/0/252/4 100.000%          | 
 | Other  0.000%                          | 
 +----------------------------------------+ 
 | Moves                                  | 
 | Protect 100.000%                       | 
 | Wish 100.000%                          | 
 | Toxic 100.000%                         | 
 | Light Screen 100.000%                  | 
 | Other  0.000%                          | 
 +----------------------------------------+ 
 | Teammates                              | 
 | Lugia +54.424%                         | 
 | Forretress +54.424%                    | 
 | Giratina +54.237%                      | 
 | Ho-Oh +45.092%                         | 
 | Groudon +43.532%                       | 
 +----------------------------------------+ 
 | Checks and Counters                    | 
 +----------------------------------------+ 
 +----------------------------------------+ 
 | Lugia                                  | 
 +----------------------------------------+ 
 | Raw count: 51                          | 
 | Avg. weight: 0.00202198004835          | 
 | Viability Ceiling: 62                  | 
 +----------------------------------------+ 
 | Abilities                              | 
 | Pressure 100.000%                      | 
 +----------------------------------------+ 
 | Items                                  | 
 | Leftovers 100.000%                     | 
 | Other  0.000%                          | 
 +----------------------------------------+ 
 | Spreads                                | 
 | Calm:252/0/136/120/0/0 100.000%        | 
 | Other  0.000%                          | 
 +----------------------------------------+ 
 | Moves                                  | 
 | Recover 100.000%                       | 
 | Calm Mind 100.000%                     | 
 | Aeroblast 100.000%                     | 
 | Reflect 100.000%                       | 
 | Other  0.000%                          | 
 +----------------------------------------+ 
 | Teammates                              | 
 | Forretress +54.424%                    | 
 | Blissey +54.424%                       | 
 | Giratina +54.237%                      | 
 | Ho-Oh +45.092%                         | 
 | Groudon +43.532%                       | 
 +----------------------------------------+ 
 | Checks and Counters                    | 
 +----------------------------------------+ 
 +----------------------------------------+ 
 | Forretress                             | 
 +----------------------------------------+ 
 | Raw count: 37                          | 
 | Avg. weight: 0.00278705358015          | 
 | Viability Ceiling: 75                  | 
 +----------------------------------------+ 
 | Abilities                              | 
 | Sturdy 100.000%                        | 
 +----------------------------------------+ 
 | Items                                  | 
 | Leftovers 100.000%                     | 
 | Other  0.000%                          | 
 +----------------------------------------+ 
 | Spreads                                | 
 | Impish:4/0/252/0/252/0 100.000%        | 
 | Other  0.000%                          | 
 +----------------------------------------+ 
 | Moves                                  | 
 | Spikes 100.000%                        | 
 | Toxic Spikes 100.000%                  | 
 | Stealth Rock 100.000%                  | 
 | Rapid Spin 100.000%                    | 
 | Other  0.000%                          | 
 +----------------------------------------+ 
 | Teammates                              | 
 | Blissey +54.424%                       | 
 | Lugia +54.424%                         | 
 | Giratina +54.237%                      | 
 | Ho-Oh +45.092%                         | 
 | Groudon +43.532%                       | 
 +----------------------------------------+ 
 | Checks and Counters                    | 
 +----------------------------------------+ 
 +----------------------------------------+ 
 | Bronzong                               | 
 +----------------------------------------+ 
 | Raw count: 13                          | 
 | Avg. weight: 0.0123035991765           | 
 | Viability Ceiling: 68                  | 
 +----------------------------------------+ 
 | Abilities                              | 
 | Levitate 100.000%                      | 
 +----------------------------------------+ 
 | Items                                  | 
 | Leftovers 100.000%                     | 
 | Other  0.000%                          | 
 +----------------------------------------+ 
 | Spreads                                | 
 | Careful:252/0/60/0/196/0 100.000%      | 
 | Other  0.000%                          | 
 +----------------------------------------+ 
 | Moves                                  | 
 | Explosion 100.000%                     | 
 | Hypnosis 100.000%                      | 
 | Reflect 100.000%                       | 
 | Light Screen 100.000%                  | 
 | Other  0.000%                          | 
 +----------------------------------------+ 
 | Teammates                              | 
 | Heracross +32.538%                     | 
 | Mew +24.222%                           | 
 | Groudon +21.921%                       | 
 | Mewtwo +15.020%                        | 
 +----------------------------------------+ 
 | Checks and Counters                    | 
 +----------------------------------------+ 
 +----------------------------------------+ 
 | Hippowdon                              | 
 +----------------------------------------+ 
 | Raw count: 3                           | 
 | Avg. weight: 0.0102501101789           | 
 | Viability Ceiling: 64                  | 
 +----------------------------------------+ 
 | Abilities                              | 
 | Sand Stream 100.000%                   | 
 +----------------------------------------+ 
 | Items                                  | 
 | Lum Berry 100.000%                     | 
 | Other  0.000%                          | 
 +----------------------------------------+ 
 | Spreads                                | 
 | Careful:252/0/4/0/252/0 100.000%       | 
 | Other  0.000%                          | 
 +----------------------------------------+ 
 | Moves                                  | 
 | Slack Off 100.000%                     | 
 | Stealth Rock 100.000%                  | 
 | Ice Fang 100.000%                      | 
 | Earthquake 100.000%                    | 
 | Other  0.000%                          | 
 +----------------------------------------+ 
 | Teammates                              | 
 | Garchomp +86.623%                      | 
 | Mewtwo +81.434%                        | 
 | Scizor +56.432%                        | 
 | Dialga +36.469%                        | 
 | Kyogre +29.311%                        | 
 +----------------------------------------+ 
 | Checks and Counters                    | 
 +----------------------------------------+ 
 +----------------------------------------+ 
 | Deoxys-Speed                           | 
 +----------------------------------------+ 
 | Raw count: 34                          | 
 | Avg. weight: 0.00265554833743          | 
 | Viability Ceiling: 67                  | 
 +----------------------------------------+ 
 | Abilities                              | 
 | Pressure 100.000%                      | 
 +----------------------------------------+ 
 | Items                                  | 
 | Colbur Berry 82.555%                   | 
 | Focus Sash 15.222%                     | 
 | Other  2.223%                          | 
 +----------------------------------------+ 
 | Spreads                                | 
 | Jolly:252/0/0/0/164/92 82.555%         | 
 | Jolly:248/8/0/0/0/252 15.222%          | 
 | Other  2.223%                          | 
 +----------------------------------------+ 
 | Moves                                  | 
 | Extreme Speed 100.000%                 | 
 | Spikes 100.000%                        | 
 | Superpower 82.555%                     | 
 | Shadow Ball 82.555%                    | 
 | Stealth Rock 17.445%                   | 
 | Other 17.445%                          | 
 +----------------------------------------+ 
 | Teammates                              | 
 | Giratina +14.261%                      | 
 | Groudon +5.780%                        | 
 | Rayquaza +3.742%                       | 
 +----------------------------------------+ 
 | Checks and Counters                    | 
 +----------------------------------------+ 
 +----------------------------------------+ 
 | Machamp                                | 
 +----------------------------------------+ 
 | Raw count: 5                           | 
 | Avg. weight: 0.00175785428588          | 
 | Viability Ceiling: 58                  | 
 +----------------------------------------+ 
 | Abilities                              | 
 | No Guard 100.000%                      | 
 | Guts  0.000%                           | 
 +----------------------------------------+ 
 | Items                                  | 
 | Lum Berry 100.000%                     | 
 | Other  0.000%                          | 
 +----------------------------------------+ 
 | Spreads                                | 
 | Adamant:240/248/0/0/16/4 100.000%      | 
 | Other  0.000%                          | 
 +----------------------------------------+ 
 | Moves                                  | 
 | Dynamic Punch 100.000%                 | 
 | Bullet Punch 100.000%                  | 
 | Ice Punch 100.000%                     | 
 | Fire Punch 100.000%                    | 
 | Other  0.000%                          | 
 +----------------------------------------+ 
 | Teammates                              | 
 | Mewtwo +81.434%                        | 
 | Salamence +63.444%                     | 
 | Scizor +56.432%                        | 
 | Dialga +36.469%                        | 
 | Kyogre +29.311%                        | 
 +----------------------------------------+ 
 | Checks and Counters                    | 
 +----------------------------------------+ 
