 +----------------------------------------+ 
 | Ambipom                                | 
 +----------------------------------------+ 
 | Raw count: 16                          | 
 | Avg. weight: 0.0109916454006           | 
 | Viability Ceiling: 70                  | 
 +----------------------------------------+ 
 | Abilities                              | 
 | Technician 100.000%                    | 
 +----------------------------------------+ 
 | Items                                  | 
 | Heat Rock 96.086%                      | 
 | Other  3.914%                          | 
 +----------------------------------------+ 
 | Spreads                                | 
 | Jolly:4/252/0/0/0/252 100.000%         | 
 | Other  0.000%                          | 
 +----------------------------------------+ 
 | Moves                                  | 
 | U-turn 100.000%                        | 
 | Fake Out 100.000%                      | 
 | Sunny Day 96.086%                      | 
 | Taunt 96.086%                          | 
 | Other  7.828%                          | 
 +----------------------------------------+ 
 | Teammates                              | 
 +----------------------------------------+ 
 | Checks and Counters                    | 
 +----------------------------------------+ 
 +----------------------------------------+ 
 | Moltres                                | 
 +----------------------------------------+ 
 | Raw count: 5                           | 
 | Avg. weight: 0.0337965390535           | 
 | Viability Ceiling: 79                  | 
 +----------------------------------------+ 
 | Abilities                              | 
 | Pressure 100.000%                      | 
 +----------------------------------------+ 
 | Items                                  | 
 | Life Orb 100.000%                      | 
 | Other  0.000%                          | 
 +----------------------------------------+ 
 | Spreads                                | 
 | Timid:4/0/0/252/0/252 100.000%         | 
 | Other  0.000%                          | 
 +----------------------------------------+ 
 | Moves                                  | 
 | Roost 100.000%                         | 
 | Solar Beam 100.000%                    | 
 | Air Slash 100.000%                     | 
 | Fire Blast 100.000%                    | 
 | Other  0.000%                          | 
 +----------------------------------------+ 
 | Teammates                              | 
 | Kabutops +2.759%                       | 
 | Dugtrio +2.759%                        | 
 | Hitmontop +2.759%                      | 
 | Shiftry +2.759%                        | 
 +----------------------------------------+ 
 | Checks and Counters                    | 
 +----------------------------------------+ 
 +----------------------------------------+ 
 | Shiftry                                | 
 +----------------------------------------+ 
 | Raw count: 2                           | 
 | Avg. weight: 0.0844913476337           | 
 | Viability Ceiling: 70                  | 
 +----------------------------------------+ 
 | Abilities                              | 
 | Chlorophyll 100.000%                   | 
 +----------------------------------------+ 
 | Items                                  | 
 | Life Orb 100.000%                      | 
 +----------------------------------------+ 
 | Spreads                                | 
 | Adamant:4/252/0/0/0/252 100.000%       | 
 +----------------------------------------+ 
 | Moves                                  | 
 | Swords Dance 100.000%                  | 
 | Low Kick 100.000%                      | 
 | Sucker Punch 100.000%                  | 
 | Seed Bomb 100.000%                     | 
 +----------------------------------------+ 
 | Teammates                              | 
 | Hitmontop +2.759%                      | 
 | Kabutops +2.759%                       | 
 | Moltres +2.759%                        | 
 | Dugtrio +2.759%                        | 
 +----------------------------------------+ 
 | Checks and Counters                    | 
 +----------------------------------------+ 
 +----------------------------------------+ 
 | Kabutops                               | 
 +----------------------------------------+ 
 | Raw count: 3                           | 
 | Avg. weight: 0.0563275650891           | 
 | Viability Ceiling: 70                  | 
 +----------------------------------------+ 
 | Abilities                              | 
 | Swift Swim 100.000%                    | 
 +----------------------------------------+ 
 | Items                                  | 
 | Leftovers 100.000%                     | 
 | Other  0.000%                          | 
 +----------------------------------------+ 
 | Spreads                                | 
 | Jolly:4/252/0/0/0/252 100.000%         | 
 | Other  0.000%                          | 
 +----------------------------------------+ 
 | Moves                                  | 
 | Aqua Jet 100.000%                      | 
 | Stealth Rock 100.000%                  | 
 | Rapid Spin 100.000%                    | 
 | Stone Edge 100.000%                    | 
 | Other  0.000%                          | 
 +----------------------------------------+ 
 | Teammates                              | 
 | Moltres +2.759%                        | 
 | Hitmontop +2.759%                      | 
 | Shiftry +2.759%                        | 
 | Dugtrio +2.759%                        | 
 +----------------------------------------+ 
 | Checks and Counters                    | 
 +----------------------------------------+ 
 +----------------------------------------+ 
 | Dugtrio                                | 
 +----------------------------------------+ 
 | Raw count: 2                           | 
 | Avg. weight: 0.0844913476337           | 
 | Viability Ceiling: 70                  | 
 +----------------------------------------+ 
 | Abilities                              | 
 | Arena Trap 100.000%                    | 
 +----------------------------------------+ 
 | Items                                  | 
 | Choice Band 100.000%                   | 
 +----------------------------------------+ 
 | Spreads                                | 
 | Adamant:4/252/0/0/0/252 100.000%       | 
 +----------------------------------------+ 
 | Moves                                  | 
 | Sucker Punch 100.000%                  | 
 | Pursuit 100.000%                       | 
 | Earthquake 100.000%                    | 
 | Stone Edge 100.000%                    | 
 +----------------------------------------+ 
 | Teammates                              | 
 | Hitmontop +2.759%                      | 
 | Kabutops +2.759%                       | 
 | Shiftry +2.759%                        | 
 | Moltres +2.759%                        | 
 +----------------------------------------+ 
 | Checks and Counters                    | 
 +----------------------------------------+ 
 +----------------------------------------+ 
 | Hitmontop                              | 
 +----------------------------------------+ 
 | Raw count: 3                           | 
 | Avg. weight: 0.0563275650891           | 
 | Viability Ceiling: 70                  | 
 +----------------------------------------+ 
 | Abilities                              | 
 | Intimidate 100.000%                    | 
 | Technician  0.000%                     | 
 +----------------------------------------+ 
 | Items                                  | 
 | Heat Rock 100.000%                     | 
 | Other  0.000%                          | 
 +----------------------------------------+ 
 | Spreads                                | 
 | Impish:252/0/252/0/0/4 100.000%        | 
 | Other  0.000%                          | 
 +----------------------------------------+ 
 | Moves                                  | 
 | Sunny Day 100.000%                     | 
 | Close Combat 100.000%                  | 
 | Rapid Spin 100.000%                    | 
 | Stone Edge 100.000%                    | 
 | Other  0.000%                          | 
 +----------------------------------------+ 
 | Teammates                              | 
 | Kabutops +2.759%                       | 
 | Moltres +2.759%                        | 
 | Shiftry +2.759%                        | 
 | Dugtrio +2.759%                        | 
 +----------------------------------------+ 
 | Checks and Counters                    | 
 +----------------------------------------+ 
 +----------------------------------------+ 
 | Spiritomb                              | 
 +----------------------------------------+ 
 | Raw count: 18                          | 
 | Avg. weight: 0.000382423952352         | 
 | Viability Ceiling: 65                  | 
 +----------------------------------------+ 
 | Abilities                              | 
 | Pressure 100.000%                      | 
 +----------------------------------------+ 
 | Items                                  | 
 | Choice Band 100.000%                   | 
 | Other  0.000%                          | 
 +----------------------------------------+ 
 | Spreads                                | 
 | Adamant:252/252/4/0/0/0 100.000%       | 
 | Other  0.000%                          | 
 +----------------------------------------+ 
 | Moves                                  | 
 | Shadow Sneak 100.000%                  | 
 | Trick 100.000%                         | 
 | Sucker Punch 100.000%                  | 
 | Pursuit 100.000%                       | 
 | Other  0.000%                          | 
 +----------------------------------------+ 
 | Teammates                              | 
 | Sceptile +66.900%                      | 
 | Slowbro +66.900%                       | 
 | Registeel +66.900%                     | 
 | Houndoom +66.900%                      | 
 +----------------------------------------+ 
 | Checks and Counters                    | 
 +----------------------------------------+ 
 +----------------------------------------+ 
 | Registeel                              | 
 +----------------------------------------+ 
 | Raw count: 15                          | 
 | Avg. weight: 0.000458908742822         | 
 | Viability Ceiling: 61                  | 
 +----------------------------------------+ 
 | Abilities                              | 
 | Clear Body 100.000%                    | 
 +----------------------------------------+ 
 | Items                                  | 
 | Nothing 66.029%                        | 
 | Leftovers 33.971%                      | 
 +----------------------------------------+ 
 | Spreads                                | 
 | Adamant:148/168/72/0/120/0 100.000%    | 
 | Other  0.000%                          | 
 +----------------------------------------+ 
 | Moves                                  | 
 | Toxic 100.000%                         | 
 | Iron Defense 100.000%                  | 
 | Rest 100.000%                          | 
 | Iron Head 100.000%                     | 
 | Other  0.000%                          | 
 +----------------------------------------+ 
 | Teammates                              | 
 | Sceptile +66.900%                      | 
 | Slowbro +66.900%                       | 
 | Houndoom +66.900%                      | 
 | Spiritomb +66.900%                     | 
 +----------------------------------------+ 
 | Checks and Counters                    | 
 +----------------------------------------+ 
 +----------------------------------------+ 
 | Sceptile                               | 
 +----------------------------------------+ 
 | Raw count: 13                          | 
 | Avg. weight: 0.000529510087872         | 
 | Viability Ceiling: 55                  | 
 +----------------------------------------+ 
 | Abilities                              | 
 | Overgrow 100.000%                      | 
 +----------------------------------------+ 
 | Items                                  | 
 | Choice Specs 100.000%                  | 
 | Other  0.000%                          | 
 +----------------------------------------+ 
 | Spreads                                | 
 | Timid:4/0/0/252/0/252 100.000%         | 
 | Other  0.000%                          | 
 +----------------------------------------+ 
 | Moves                                  | 
 | Dragon Pulse 100.000%                  | 
 | Focus Blast 100.000%                   | 
 | Leaf Storm 100.000%                    | 
 | Hidden Power Rock 100.000%             | 
 | Other  0.000%                          | 
 +----------------------------------------+ 
 | Teammates                              | 
 | Slowbro +66.900%                       | 
 | Spiritomb +66.900%                     | 
 | Registeel +66.900%                     | 
 | Houndoom +66.900%                      | 
 +----------------------------------------+ 
 | Checks and Counters                    | 
 +----------------------------------------+ 
 +----------------------------------------+ 
 | Houndoom                               | 
 +----------------------------------------+ 
 | Raw count: 17                          | 
 | Avg. weight: 0.000404919478961         | 
 | Viability Ceiling: 62                  | 
 +----------------------------------------+ 
 | Abilities                              | 
 | Early Bird 100.000%                    | 
 | Flash Fire  0.000%                     | 
 +----------------------------------------+ 
 | Items                                  | 
 | Life Orb 100.000%                      | 
 | Other  0.000%                          | 
 +----------------------------------------+ 
 | Spreads                                | 
 | Timid:4/0/0/252/0/252 100.000%         | 
 | Other  0.000%                          | 
 +----------------------------------------+ 
 | Moves                                  | 
 | Sludge Bomb 100.000%                   | 
 | Dark Pulse 100.000%                    | 
 | Taunt 100.000%                         | 
 | Fire Blast 100.000%                    | 
 | Other  0.000%                          | 
 +----------------------------------------+ 
 | Teammates                              | 
 | Sceptile +66.900%                      | 
 | Spiritomb +66.900%                     | 
 | Slowbro +66.900%                       | 
 | Registeel +66.900%                     | 
 +----------------------------------------+ 
 | Checks and Counters                    | 
 +----------------------------------------+ 
 +----------------------------------------+ 
 | Slowbro                                | 
 +----------------------------------------+ 
 | Raw count: 15                          | 
 | Avg. weight: 0.000458908742822         | 
 | Viability Ceiling: 79                  | 
 +----------------------------------------+ 
 | Abilities                              | 
 | Oblivious 100.000%                     | 
 | Own Tempo  0.000%                      | 
 +----------------------------------------+ 
 | Items                                  | 
 | Leftovers 100.000%                     | 
 | Other  0.000%                          | 
 +----------------------------------------+ 
 | Spreads                                | 
 | Calm:156/0/252/76/24/0 100.000%        | 
 | Other  0.000%                          | 
 +----------------------------------------+ 
 | Moves                                  | 
 | Surf 100.000%                          | 
 | Slack Off 100.000%                     | 
 | Ice Beam 100.000%                      | 
 | Toxic 100.000%                         | 
 | Other  0.000%                          | 
 +----------------------------------------+ 
 | Teammates                              | 
 | Sceptile +66.900%                      | 
 | Spiritomb +66.900%                     | 
 | Houndoom +66.900%                      | 
 | Registeel +66.900%                     | 
 +----------------------------------------+ 
 | Checks and Counters                    | 
 +----------------------------------------+ 
