 Total leads: 1396874
 + ---- + ------------------ + --------- + ------ + ------- + 
 | Rank | Pokemon            | Usage %   | Raw    | %       | 
 + ---- + ------------------ + --------- + ------ + ------- + 
 | 1    | Groudon-Primal     |  6.83235% | 33690  |  2.412% | 
 | 2    | Arceus             |  6.37943% | 19737  |  1.413% | 
 | 3    | Rayquaza-Mega      |  5.02868% | 30911  |  2.213% | 
 | 4    | Xerneas            |  4.93000% | 24922  |  1.784% | 
 | 5    | Darkrai            |  4.84903% | 42167  |  3.019% | 
 | 6    | Smeargle           |  4.19343% | 46743  |  3.346% | 
 | 7    | Klefki             |  3.60918% | 18764  |  1.343% | 
 | 8    | Deoxys-Attack      |  2.31432% | 7411   |  0.531% | 
 | 9    | Deoxys-Speed       |  2.21238% | 8548   |  0.612% | 
 | 10   | Scolipede          |  1.74100% | 16465  |  1.179% | 
 | 11   | Diancie-Mega       |  1.60672% | 7020   |  0.503% | 
 | 12   | Greninja           |  1.47017% | 29101  |  2.083% | 
 | 13   | Sableye-Mega       |  1.36404% | 10398  |  0.744% | 
 | 14   | Kyogre-Primal      |  1.24591% | 13463  |  0.964% | 
 | 15   | Ferrothorn         |  1.01559% | 16853  |  1.206% | 
 | 16   | Talonflame         |  0.98890% | 10508  |  0.752% | 
 | 17   | Kangaskhan-Mega    |  0.97406% | 11965  |  0.857% | 
 | 18   | Blaziken           |  0.92839% | 12581  |  0.901% | 
 | 19   | Ninjask            |  0.88038% | 17394  |  1.245% | 
 | 20   | Cloyster           |  0.86768% | 14590  |  1.044% | 
 | 21   | Shuckle            |  0.79507% | 13028  |  0.933% | 
 | 22   | Drifblim           |  0.79391% | 13802  |  0.988% | 
 | 23   | Mewtwo-Mega-Y      |  0.78091% | 8235   |  0.590% | 
 | 24   | Galvantula         |  0.74746% | 10982  |  0.786% | 
 | 25   | Groudon            |  0.72669% | 2268   |  0.162% | 
 | 26   | Gengar-Mega        |  0.72560% | 10571  |  0.757% | 
 | 27   | Arceus-Fairy       |  0.71556% | 2867   |  0.205% | 
 | 28   | Skarmory           |  0.71099% | 10105  |  0.723% | 
 | 29   | Yveltal            |  0.68044% | 5107   |  0.366% | 
 | 30   | Forretress         |  0.67369% | 12253  |  0.877% | 
 | 31   | Gliscor            |  0.64632% | 11723  |  0.839% | 
 | 32   | Genesect           |  0.63918% | 3994   |  0.286% | 
 | 33   | Arceus-Ghost       |  0.63056% | 2870   |  0.205% | 
 | 34   | Whimsicott         |  0.60277% | 6220   |  0.445% | 
 | 35   | Ditto              |  0.59254% | 14350  |  1.027% | 
 | 36   | Shaymin-Sky        |  0.58972% | 3432   |  0.246% | 
 | 37   | Thundurus          |  0.54839% | 2473   |  0.177% | 
 | 38   | Ho-Oh              |  0.54827% | 3047   |  0.218% | 
 | 39   | Garchomp           |  0.52068% | 8323   |  0.596% | 
 | 40   | Arceus-Ground      |  0.50512% | 1443   |  0.103% | 
 | 41   | Gengar             |  0.50447% | 10669  |  0.764% | 
 | 42   | Dialga             |  0.48987% | 4134   |  0.296% | 
 | 43   | Sableye            |  0.45073% | 4964   |  0.355% | 
 | 44   | Blaziken-Mega      |  0.44361% | 10084  |  0.722% | 
 | 45   | Kyogre             |  0.44003% | 2761   |  0.198% | 
 | 46   | Aegislash          |  0.43873% | 9471   |  0.678% | 
 | 47   | Mew                |  0.41830% | 10159  |  0.727% | 
 | 48   | Lopunny-Mega       |  0.41143% | 5353   |  0.383% | 
 | 49   | Mewtwo             |  0.40916% | 4294   |  0.307% | 
 | 50   | Liepard            |  0.39381% | 4070   |  0.291% | 
 | 51   | Dragonite          |  0.38603% | 9889   |  0.708% | 
 | 52   | Arceus-Steel       |  0.38102% | 1941   |  0.139% | 
 | 53   | Lugia              |  0.37860% | 4331   |  0.310% | 
 | 54   | Espeon             |  0.37786% | 8240   |  0.590% | 
 | 55   | Deoxys-Defense     |  0.37729% | 4347   |  0.311% | 
 | 56   | Mewtwo-Mega-X      |  0.36199% | 7013   |  0.502% | 
 | 57   | Excadrill          |  0.36060% | 3867   |  0.277% | 
 | 58   | Weavile            |  0.35088% | 8440   |  0.604% | 
 | 59   | Arceus-Rock        |  0.34337% | 712    |  0.051% | 
 | 60   | Infernape          |  0.33207% | 7288   |  0.522% | 
 | 61   | Clefable           |  0.31563% | 5472   |  0.392% | 
 | 62   | Breloom            |  0.31283% | 7520   |  0.538% | 
 | 63   | Giratina-Origin    |  0.30842% | 3900   |  0.279% | 
 | 64   | Serperior          |  0.30371% | 6697   |  0.479% | 
 | 65   | Tyranitar          |  0.29617% | 8341   |  0.597% | 
 | 66   | Zapdos             |  0.29026% | 3404   |  0.244% | 
 | 67   | Durant             |  0.29024% | 5514   |  0.395% | 
 | 68   | Togekiss           |  0.27560% | 6349   |  0.455% | 
 | 69   | Landorus-Therian   |  0.26871% | 3031   |  0.217% | 
 | 70   | Rattata            |  0.26571% | 17033  |  1.219% | 
 | 71   | Volcarona          |  0.25845% | 5032   |  0.360% | 
 | 72   | Chansey            |  0.25785% | 4068   |  0.291% | 
 | 73   | Jirachi            |  0.25612% | 3302   |  0.236% | 
 | 74   | Landorus           |  0.24523% | 1098   |  0.079% | 
 | 75   | Aerodactyl         |  0.24319% | 2273   |  0.163% | 
 | 76   | Charizard-Mega-X   |  0.22929% | 11752  |  0.841% | 
 | 77   | Arceus-Water       |  0.22859% | 1054   |  0.075% | 
 | 78   | Hippowdon          |  0.22769% | 4101   |  0.294% | 
 | 79   | Nosepass           |  0.22513% | 3550   |  0.254% | 
 | 80   | Ambipom            |  0.21696% | 4872   |  0.349% | 
 | 81   | Heatran            |  0.21264% | 2576   |  0.184% | 
 | 82   | Salamence-Mega     |  0.20141% | 3333   |  0.239% | 
 | 83   | Jolteon            |  0.20034% | 6444   |  0.461% | 
 | 84   | Zekrom             |  0.19958% | 2837   |  0.203% | 
 | 85   | Azumarill          |  0.19525% | 5258   |  0.376% | 
 | 86   | Lucario-Mega       |  0.19331% | 7290   |  0.522% | 
 | 87   | Rotom-Wash         |  0.18919% | 3757   |  0.269% | 
 | 88   | Wobbuffet          |  0.18683% | 4177   |  0.299% | 
 | 89   | Donphan            |  0.18542% | 2015   |  0.144% | 
 | 90   | Blissey            |  0.18513% | 5332   |  0.382% | 
 | 91   | Rayquaza           |  0.17902% | 1917   |  0.137% | 
 | 92   | Shedinja           |  0.17776% | 6040   |  0.432% | 
 | 93   | Pikachu            |  0.17542% | 11963  |  0.856% | 
 | 94   | Snorlax            |  0.17534% | 8146   |  0.583% | 
 | 95   | Machamp            |  0.16688% | 4217   |  0.302% | 
 | 96   | Kyurem-White       |  0.16263% | 1780   |  0.127% | 
 | 97   | Umbreon            |  0.16158% | 5092   |  0.365% | 
 | 98   | Politoed           |  0.16154% | 3195   |  0.229% | 
 | 99   | Milotic            |  0.15757% | 2450   |  0.175% | 
 | 100  | Arceus-Dragon      |  0.15110% | 1638   |  0.117% | 
 | 101  | Articuno           |  0.15085% | 4218   |  0.302% | 
 | 102  | Nidoking           |  0.15069% | 4500   |  0.322% | 
 | 103  | Bisharp            |  0.14813% | 4615   |  0.330% | 
 | 104  | Drapion            |  0.14643% | 3770   |  0.270% | 
 | 105  | Mamoswine          |  0.14425% | 2341   |  0.168% | 
 | 106  | Sylveon            |  0.14091% | 4500   |  0.322% | 
 | 107  | Hoopa-Unbound      |  0.14052% | 2659   |  0.190% | 
 | 108  | Crobat             |  0.14036% | 4417   |  0.316% | 
 | 109  | Giratina           |  0.13991% | 1282   |  0.092% | 
 | 110  | Staraptor          |  0.13938% | 4256   |  0.305% | 
 | 111  | Metagross-Mega     |  0.13820% | 4332   |  0.310% | 
 | 112  | Scizor             |  0.13763% | 2912   |  0.208% | 
 | 113  | Charizard-Mega-Y   |  0.13622% | 6221   |  0.445% | 
 | 114  | Meowstic           |  0.13263% | 2706   |  0.194% | 
 | 115  | Empoleon           |  0.13156% | 3250   |  0.233% | 
 | 116  | Swampert           |  0.13055% | 2508   |  0.180% | 
 | 117  | Azelf              |  0.12948% | 2272   |  0.163% | 
 | 118  | Volcanion          |  0.12462% | 2738   |  0.196% | 
 | 119  | Palkia             |  0.12315% | 2016   |  0.144% | 
 | 120  | Latios             |  0.12279% | 1611   |  0.115% | 
 | 121  | Froslass           |  0.11997% | 3627   |  0.260% | 
 | 122  | Absol-Mega         |  0.11991% | 2530   |  0.181% | 
 | 123  | Porygon-Z          |  0.11945% | 3499   |  0.250% | 
 | 124  | Slurpuff           |  0.11684% | 2947   |  0.211% | 
 | 125  | Arceus-Fire        |  0.11526% | 1067   |  0.076% | 
 | 126  | Victini            |  0.11519% | 2713   |  0.194% | 
 | 127  | Nidoqueen          |  0.11350% | 2597   |  0.186% | 
 | 128  | Golem              |  0.11348% | 2878   |  0.206% | 
 | 129  | Tentacruel         |  0.11310% | 2858   |  0.205% | 
 | 130  | Mawile-Mega        |  0.11215% | 1995   |  0.143% | 
 | 131  | Beedrill-Mega      |  0.11078% | 2206   |  0.158% | 
 | 132  | Golurk             |  0.10971% | 1953   |  0.140% | 
 | 133  | Scizor-Mega        |  0.10887% | 2461   |  0.176% | 
 | 134  | Hitmonlee          |  0.10800% | 2450   |  0.175% | 
 | 135  | Aggron-Mega        |  0.10786% | 2528   |  0.181% | 
 | 136  | Tyranitar-Mega     |  0.10668% | 3476   |  0.249% | 
 | 137  | Krookodile         |  0.10636% | 3123   |  0.224% | 
 | 138  | Roserade           |  0.10540% | 3412   |  0.244% | 
 | 139  | Chandelure         |  0.10480% | 3413   |  0.244% | 
 | 140  | Cofagrigus         |  0.10330% | 3026   |  0.217% | 
 | 141  | Arceus-Electric    |  0.10199% | 1018   |  0.073% | 
 | 142  | Magnemite          |  0.10175% | 2495   |  0.179% | 
 | 143  | Conkeldurr         |  0.10017% | 2148   |  0.154% | 
 | 144  | Gyarados           |  0.09998% | 2818   |  0.202% | 
 | 145  | Volbeat            |  0.09955% | 1271   |  0.091% | 
 | 146  | Zoroark            |  0.09759% | 3857   |  0.276% | 
 | 147  | Hawlucha           |  0.09620% | 5481   |  0.392% | 
 | 148  | Swampert-Mega      |  0.09545% | 2498   |  0.179% | 
 | 149  | Salamence          |  0.09507% | 2670   |  0.191% | 
 | 150  | Arcanine           |  0.09479% | 3547   |  0.254% | 
 | 151  | Tyrantrum          |  0.09395% | 2405   |  0.172% | 
 | 152  | Chatot             |  0.09359% | 1915   |  0.137% | 
 | 153  | Bastiodon          |  0.09292% | 1833   |  0.131% | 
 | 154  | Metagross          |  0.09230% | 3095   |  0.222% | 
 | 155  | Gyarados-Mega      |  0.09107% | 2486   |  0.178% | 
 | 156  | Noivern            |  0.09030% | 3561   |  0.255% | 
 | 157  | Gorebyss           |  0.08917% | 1673   |  0.120% | 
 | 158  | Steelix            |  0.08777% | 2533   |  0.181% | 
 | 159  | Electivire         |  0.08727% | 4353   |  0.312% | 
 | 160  | Cinccino           |  0.08712% | 2128   |  0.152% | 
 | 161  | Feraligatr         |  0.08677% | 2548   |  0.182% | 
 | 162  | Arceus-Poison      |  0.08649% | 557    |  0.040% | 
 | 163  | Gallade-Mega       |  0.08571% | 3065   |  0.219% | 
 | 164  | Rotom-Heat         |  0.08378% | 1228   |  0.088% | 
 | 165  | Arceus-Dark        |  0.08273% | 899    |  0.064% | 
 | 166  | Cottonee           |  0.08204% | 988    |  0.071% | 
 | 167  | Hydreigon          |  0.08032% | 2652   |  0.190% | 
 | 168  | Amoonguss          |  0.07985% | 1830   |  0.131% | 
 | 169  | Malamar            |  0.07928% | 2171   |  0.155% | 
 | 170  | Garchomp-Mega      |  0.07925% | 3548   |  0.254% | 
 | 171  | Sigilyph           |  0.07915% | 3508   |  0.251% | 
 | 172  | Keldeo             |  0.07868% | 1456   |  0.104% | 
 | 173  | Haxorus            |  0.07853% | 2856   |  0.204% | 
 | 174  | Gardevoir-Mega     |  0.07776% | 3877   |  0.278% | 
 | 175  | Darmanitan         |  0.07647% | 1955   |  0.140% | 
 | 176  | Kyurem-Black       |  0.07635% | 2311   |  0.165% | 
 | 177  | Gigalith           |  0.07549% | 1487   |  0.106% | 
 | 178  | Torkoal            |  0.07535% | 1186   |  0.085% | 
 | 179  | Pineco             |  0.07527% | 1255   |  0.090% | 
 | 180  | Aron               |  0.07509% | 1474   |  0.106% | 
 | 181  | Venusaur-Mega      |  0.07478% | 2727   |  0.195% | 
 | 182  | Vivillon           |  0.07436% | 2258   |  0.162% | 
 | 183  | Lucario            |  0.07416% | 2887   |  0.207% | 
 | 184  | Aerodactyl-Mega    |  0.07399% | 1577   |  0.113% | 
 | 185  | Dusclops           |  0.07390% | 1245   |  0.089% | 
 | 186  | Ninetales          |  0.07346% | 2863   |  0.205% | 
 | 187  | Mienshao           |  0.07048% | 1617   |  0.116% | 
 | 188  | Vaporeon           |  0.06974% | 2546   |  0.182% | 
 | 189  | Rhyperior          |  0.06936% | 1994   |  0.143% | 
 | 190  | Alakazam-Mega      |  0.06921% | 2452   |  0.176% | 
 | 191  | Goodra             |  0.06886% | 3470   |  0.248% | 
 | 192  | Weezing            |  0.06868% | 1511   |  0.108% | 
 | 193  | Murkrow            |  0.06802% | 1194   |  0.085% | 
 | 194  | Porygon2           |  0.06783% | 1374   |  0.098% | 
 | 195  | Starly             |  0.06751% | 5478   |  0.392% | 
 | 196  | Rhyhorn            |  0.06678% | 630    |  0.045% | 
 | 197  | Alakazam           |  0.06677% | 2910   |  0.208% | 
 | 198  | Zygarde            |  0.06523% | 1430   |  0.102% | 
 | 199  | Magnezone          |  0.06471% | 2237   |  0.160% | 
 | 200  | Lapras             |  0.06451% | 2975   |  0.213% | 
 | 201  | Raichu             |  0.06363% | 3458   |  0.248% | 
 | 202  | Heracross-Mega     |  0.06362% | 2363   |  0.169% | 
 | 203  | Medicham-Mega      |  0.06293% | 1475   |  0.106% | 
 | 204  | Thundurus-Therian  |  0.06196% | 1182   |  0.085% | 
 | 205  | Linoone            |  0.06074% | 1765   |  0.126% | 
 | 206  | Rotom              |  0.06063% | 1301   |  0.093% | 
 | 207  | Starmie            |  0.05918% | 2202   |  0.158% | 
 | 208  | Bronzong           |  0.05867% | 1491   |  0.107% | 
 | 209  | Eelektross         |  0.05687% | 2259   |  0.162% | 
 | 210  | Kingdra            |  0.05665% | 2362   |  0.169% | 
 | 211  | Suicune            |  0.05614% | 1096   |  0.078% | 
 | 212  | Typhlosion         |  0.05498% | 2480   |  0.178% | 
 | 213  | Flygon             |  0.05361% | 1656   |  0.119% | 
 | 214  | Cresselia          |  0.05275% | 747    |  0.053% | 
 | 215  | Reshiram           |  0.05168% | 1453   |  0.104% | 
 | 216  | Spiritomb          |  0.05088% | 2198   |  0.157% | 
 | 217  | Venomoth           |  0.05072% | 1508   |  0.108% | 
 | 218  | Gardevoir          |  0.04892% | 2282   |  0.163% | 
 | 219  | Charizard          |  0.04856% | 2621   |  0.188% | 
 | 220  | Dugtrio            |  0.04813% | 1672   |  0.120% | 
 | 221  | Probopass          |  0.04812% | 1191   |  0.085% | 
 | 222  | Arceus-Fighting    |  0.04773% | 526    |  0.038% | 
 | 223  | Ariados            |  0.04700% | 2301   |  0.165% | 
 | 224  | Sceptile-Mega      |  0.04689% | 2997   |  0.215% | 
 | 225  | Lopunny            |  0.04672% | 1002   |  0.072% | 
 | 226  | Torterra           |  0.04669% | 2297   |  0.164% | 
 | 227  | Aggron             |  0.04659% | 2270   |  0.163% | 
 | 228  | Scyther            |  0.04652% | 1045   |  0.075% | 
 | 229  | Arceus-Bug         |  0.04647% | 264    |  0.019% | 
 | 230  | Steelix-Mega       |  0.04616% | 1729   |  0.124% | 
 | 231  | Latias             |  0.04571% | 672    |  0.048% | 
 | 232  | Terrakion          |  0.04549% | 708    |  0.051% | 
 | 233  | Slowbro            |  0.04417% | 1463   |  0.105% | 
 | 234  | Raticate           |  0.04416% | 1111   |  0.080% | 
 | 235  | Pidgeot-Mega       |  0.04399% | 1523   |  0.109% | 
 | 236  | Gothitelle         |  0.04340% | 1366   |  0.098% | 
 | 237  | Arceus-Grass       |  0.04300% | 404    |  0.029% | 
 | 238  | Arceus-Psychic     |  0.04140% | 433    |  0.031% | 
 | 239  | Muk                |  0.04118% | 1697   |  0.121% | 
 | 240  | Luxray             |  0.04113% | 2191   |  0.157% | 
 | 241  | Manaphy            |  0.04007% | 1166   |  0.083% | 
 | 242  | Crustle            |  0.03993% | 1089   |  0.078% | 
 | 243  | Quagsire           |  0.03945% | 938    |  0.067% | 
 | 244  | Scrafty            |  0.03916% | 1875   |  0.134% | 
 | 245  | Electrode          |  0.03913% | 1511   |  0.108% | 
 | 246  | Raikou             |  0.03897% | 1457   |  0.104% | 
 | 247  | Dragalge           |  0.03878% | 1510   |  0.108% | 
 | 248  | Manectric-Mega     |  0.03864% | 1467   |  0.105% | 
 | 249  | Banette-Mega       |  0.03856% | 1435   |  0.103% | 
 | 250  | Druddigon          |  0.03812% | 747    |  0.053% | 
 | 251  | Arceus-Flying      |  0.03807% | 305    |  0.022% | 
 | 252  | Bibarel            |  0.03769% | 1113   |  0.080% | 
 | 253  | Slaking            |  0.03757% | 1593   |  0.114% | 
 | 254  | Trevenant          |  0.03723% | 1571   |  0.112% | 
 | 255  | Celebi             |  0.03720% | 1236   |  0.088% | 
 | 256  | Accelgor           |  0.03678% | 1122   |  0.080% | 
 | 257  | Rhydon             |  0.03611% | 977    |  0.070% | 
 | 258  | Heracross          |  0.03579% | 1375   |  0.098% | 
 | 259  | Mismagius          |  0.03566% | 1108   |  0.079% | 
 | 260  | Glalie             |  0.03556% | 674    |  0.048% | 
 | 261  | Chesnaught         |  0.03531% | 1632   |  0.117% | 
 | 262  | Cradily            |  0.03509% | 1228   |  0.088% | 
 | 263  | Uxie               |  0.03487% | 582    |  0.042% | 
 | 264  | Exploud            |  0.03452% | 731    |  0.052% | 
 | 265  | Reuniclus          |  0.03391% | 760    |  0.054% | 
 | 266  | Slowbro-Mega       |  0.03388% | 871    |  0.062% | 
 | 267  | Bidoof             |  0.03385% | 1134   |  0.081% | 
 | 268  | Pangoro            |  0.03378% | 1706   |  0.122% | 
 | 269  | Swellow            |  0.03364% | 1211   |  0.087% | 
 | 270  | Onix               |  0.03359% | 839    |  0.060% | 
 | 271  | Delphox            |  0.03358% | 1755   |  0.126% | 
 | 272  | Regirock           |  0.03306% | 805    |  0.058% | 
 | 273  | Omastar            |  0.03303% | 1625   |  0.116% | 
 | 274  | Spinda             |  0.03303% | 1800   |  0.129% | 
 | 275  | Ludicolo           |  0.03292% | 1619   |  0.116% | 
 | 276  | Blastoise-Mega     |  0.03250% | 2451   |  0.175% | 
 | 277  | Toxicroak          |  0.03249% | 1722   |  0.123% | 
 | 278  | Honchkrow          |  0.03200% | 1477   |  0.106% | 
 | 279  | Venusaur           |  0.03183% | 1686   |  0.121% | 
 | 280  | Mr. Mime           |  0.03178% | 1236   |  0.088% | 
 | 281  | Octillery          |  0.03143% | 651    |  0.047% | 
 | 282  | Yanmega            |  0.03142% | 1771   |  0.127% | 
 | 283  | Relicanth          |  0.03139% | 519    |  0.037% | 
 | 284  | Huntail            |  0.03138% | 1106   |  0.079% | 
 | 285  | Hitmonchan         |  0.03118% | 1271   |  0.091% | 
 | 286  | Entei              |  0.03064% | 688    |  0.049% | 
 | 287  | Swoobat            |  0.03027% | 823    |  0.059% | 
 | 288  | Magmortar          |  0.03008% | 1324   |  0.095% | 
 | 289  | Zangoose           |  0.02977% | 1186   |  0.085% | 
 | 290  | Blastoise          |  0.02921% | 1632   |  0.117% | 
 | 291  | Crawdaunt          |  0.02904% | 1445   |  0.103% | 
 | 292  | Sceptile           |  0.02896% | 1856   |  0.133% | 
 | 293  | Masquerain         |  0.02885% | 767    |  0.055% | 
 | 294  | Dusknoir           |  0.02856% | 1346   |  0.096% | 
 | 295  | Flareon            |  0.02804% | 1477   |  0.106% | 
 | 296  | Jellicent          |  0.02773% | 710    |  0.051% | 
 | 297  | Sharpedo           |  0.02744% | 916    |  0.066% | 
 | 298  | Meloetta           |  0.02721% | 916    |  0.066% | 
 | 299  | Clawitzer          |  0.02721% | 1107   |  0.079% | 
 | 300  | Regigigas          |  0.02638% | 1145   |  0.082% | 
 | 301  | Jynx               |  0.02628% | 474    |  0.034% | 
 | 302  | Primeape           |  0.02625% | 951    |  0.068% | 
 | 303  | Ampharos-Mega      |  0.02592% | 1050   |  0.075% | 
 | 304  | Diancie            |  0.02586% | 598    |  0.043% | 
 | 305  | Tangrowth          |  0.02546% | 764    |  0.055% | 
 | 306  | Diggersby          |  0.02539% | 1437   |  0.103% | 
 | 307  | Altaria-Mega       |  0.02530% | 1338   |  0.096% | 
 | 308  | Mandibuzz          |  0.02459% | 628    |  0.045% | 
 | 309  | Doublade           |  0.02442% | 681    |  0.049% | 
 | 310  | Exeggutor          |  0.02429% | 1169   |  0.084% | 
 | 311  | Dedenne            |  0.02361% | 1238   |  0.089% | 
 | 312  | Pinsir-Mega        |  0.02335% | 1058   |  0.076% | 
 | 313  | Archeops           |  0.02325% | 915    |  0.066% | 
 | 314  | Arceus-Ice         |  0.02324% | 344    |  0.025% | 
 | 315  | Dunsparce          |  0.02313% | 1278   |  0.091% | 
 | 316  | Aurorus            |  0.02292% | 886    |  0.063% | 
 | 317  | Rampardos          |  0.02272% | 834    |  0.060% | 
 | 318  | Sawsbuck           |  0.02270% | 457    |  0.033% | 
 | 319  | Glalie-Mega        |  0.02173% | 904    |  0.065% | 
 | 320  | Gallade            |  0.02138% | 1238   |  0.089% | 
 | 321  | Magikarp           |  0.02137% | 1899   |  0.136% | 
 | 322  | Tornadus-Therian   |  0.02132% | 498    |  0.036% | 
 | 323  | Persian            |  0.02123% | 1326   |  0.095% | 
 | 324  | Minun              |  0.02108% | 261    |  0.019% | 
 | 325  | Registeel          |  0.02101% | 574    |  0.041% | 
 | 326  | Gastrodon          |  0.02071% | 716    |  0.051% | 
 | 327  | Heliolisk          |  0.01998% | 1271   |  0.091% | 
 | 328  | Seismitoad         |  0.01988% | 794    |  0.057% | 
 | 329  | Miltank            |  0.01966% | 1574   |  0.113% | 
 | 330  | Deoxys             |  0.01944% | 624    |  0.045% | 
 | 331  | Jumpluff           |  0.01941% | 594    |  0.043% | 
 | 332  | Latios-Mega        |  0.01858% | 864    |  0.062% | 
 | 333  | Medicham           |  0.01828% | 665    |  0.048% | 
 | 334  | Kecleon            |  0.01822% | 883    |  0.063% | 
 | 335  | Hitmontop          |  0.01811% | 889    |  0.064% | 
 | 336  | Emboar             |  0.01789% | 963    |  0.069% | 
 | 337  | Camerupt-Mega      |  0.01774% | 551    |  0.039% | 
 | 338  | Rotom-Mow          |  0.01744% | 518    |  0.037% | 
 | 339  | Lanturn            |  0.01732% | 748    |  0.054% | 
 | 340  | Rapidash           |  0.01711% | 808    |  0.058% | 
 | 341  | Kabutops           |  0.01703% | 641    |  0.046% | 
 | 342  | Musharna           |  0.01693% | 501    |  0.036% | 
 | 343  | Ursaring           |  0.01678% | 921    |  0.066% | 
 | 344  | Florges            |  0.01658% | 799    |  0.057% | 
 | 345  | Abomasnow-Mega     |  0.01648% | 1136   |  0.081% | 
 | 346  | Alomomola          |  0.01620% | 326    |  0.023% | 
 | 347  | Houndoom-Mega      |  0.01617% | 1013   |  0.073% | 
 | 348  | Cobalion           |  0.01594% | 611    |  0.044% | 
 | 349  | Carbink            |  0.01576% | 667    |  0.048% | 
 | 350  | Mesprit            |  0.01575% | 257    |  0.018% | 
 | 351  | Carracosta         |  0.01550% | 691    |  0.049% | 
 | 352  | Sharpedo-Mega      |  0.01530% | 716    |  0.051% | 
 | 353  | Butterfree         |  0.01519% | 948    |  0.068% | 
 | 354  | Stunfisk           |  0.01516% | 524    |  0.038% | 
 | 355  | Xatu               |  0.01509% | 1206   |  0.086% | 
 | 356  | Ralts              |  0.01491% | 403    |  0.029% | 
 | 357  | Lickilicky         |  0.01470% | 526    |  0.038% | 
 | 358  | Samurott           |  0.01465% | 893    |  0.064% | 
 | 359  | Tornadus           |  0.01446% | 270    |  0.019% | 
 | 360  | Rotom-Fan          |  0.01429% | 612    |  0.044% | 
 | 361  | Togetic            |  0.01415% | 461    |  0.033% | 
 | 362  | Purrloin           |  0.01408% | 186    |  0.013% | 
 | 363  | Gourgeist-Super    |  0.01408% | 522    |  0.037% | 
 | 364  | Moltres            |  0.01400% | 943    |  0.068% | 
 | 365  | Dodrio             |  0.01399% | 1075   |  0.077% | 
 | 366  | Glaceon            |  0.01373% | 1015   |  0.073% | 
 | 367  | Golduck            |  0.01371% | 454    |  0.033% | 
 | 368  | Qwilfish           |  0.01367% | 644    |  0.046% | 
 | 369  | Kangaskhan         |  0.01360% | 402    |  0.029% | 
 | 370  | Shiftry            |  0.01353% | 603    |  0.043% | 
 | 371  | Lilligant          |  0.01322% | 615    |  0.044% | 
 | 372  | Kingler            |  0.01317% | 625    |  0.045% | 
 | 373  | Magcargo           |  0.01303% | 559    |  0.040% | 
 | 374  | Braviary           |  0.01299% | 829    |  0.059% | 
 | 375  | Rotom-Frost        |  0.01287% | 464    |  0.033% | 
 | 376  | Slowking           |  0.01287% | 611    |  0.044% | 
 | 377  | Poliwrath          |  0.01272% | 945    |  0.068% | 
 | 378  | Bulbasaur          |  0.01236% | 472    |  0.034% | 
 | 379  | Manectric          |  0.01228% | 676    |  0.048% | 
 | 380  | Marshtomp          |  0.01227% | 133    |  0.010% | 
 | 381  | Klinklang          |  0.01177% | 642    |  0.046% | 
 | 382  | Sandslash          |  0.01167% | 807    |  0.058% | 
 | 383  | Wigglytuff         |  0.01167% | 659    |  0.047% | 
 | 384  | Hippopotas         |  0.01162% | 551    |  0.039% | 
 | 385  | Sudowoodo          |  0.01121% | 520    |  0.037% | 
 | 386  | Marowak            |  0.01103% | 1518   |  0.109% | 
 | 387  | Pidgeot            |  0.01101% | 691    |  0.049% | 
 | 388  | Absol              |  0.01077% | 975    |  0.070% | 
 | 389  | Leavanny           |  0.01066% | 642    |  0.046% | 
 | 390  | Regice             |  0.01065% | 586    |  0.042% | 
 | 391  | Houndoom           |  0.01064% | 796    |  0.057% | 
 | 392  | Taillow            |  0.01054% | 743    |  0.053% | 
 | 393  | Hypno              |  0.01047% | 600    |  0.043% | 
 | 394  | Delibird           |  0.01045% | 390    |  0.028% | 
 | 395  | Mightyena          |  0.01037% | 583    |  0.042% | 
 | 396  | Ferroseed          |  0.01036% | 316    |  0.023% | 
 | 397  | Walrein            |  0.01034% | 537    |  0.038% | 
 | 398  | Emolga             |  0.01022% | 614    |  0.044% | 
 | 399  | Unfezant           |  0.01022% | 868    |  0.062% | 
 | 400  | Floatzel           |  0.01015% | 682    |  0.049% | 
 | 401  | Armaldo            |  0.01009% | 422    |  0.030% | 
 | 402  | Gligar             |  0.01004% | 285    |  0.020% | 
 | 403  | Piloswine          |  0.01000% | 191    |  0.014% | 
 | 404  | Vigoroth           |  0.00999% | 262    |  0.019% | 
 | 405  | Wailord            |  0.00968% | 851    |  0.061% | 
 | 406  | Garbodor           |  0.00960% | 758    |  0.054% | 
 | 407  | Pyroar             |  0.00945% | 620    |  0.044% | 
 | 408  | Leafeon            |  0.00936% | 861    |  0.062% | 
 | 409  | Barbaracle         |  0.00923% | 632    |  0.045% | 
 | 410  | Electabuzz         |  0.00919% | 248    |  0.018% | 
 | 411  | Escavalier         |  0.00890% | 396    |  0.028% | 
 | 412  | Combusken          |  0.00890% | 500    |  0.036% | 
 | 413  | Noctowl            |  0.00880% | 549    |  0.039% | 
 | 414  | Abomasnow          |  0.00879% | 643    |  0.046% | 
 | 415  | Magneton           |  0.00872% | 378    |  0.027% | 
 | 416  | Delcatty           |  0.00866% | 351    |  0.025% | 
 | 417  | Eevee              |  0.00843% | 843    |  0.060% | 
 | 418  | Sawk               |  0.00842% | 546    |  0.039% | 
 | 419  | Latias-Mega        |  0.00830% | 368    |  0.026% | 
 | 420  | Unown              |  0.00823% | 412    |  0.029% | 
 | 421  | Tauros             |  0.00816% | 666    |  0.048% | 
 | 422  | Hariyama           |  0.00789% | 741    |  0.053% | 
 | 423  | Gogoat             |  0.00785% | 394    |  0.028% | 
 | 424  | Meganium           |  0.00784% | 654    |  0.047% | 
 | 425  | Metapod            |  0.00781% | 390    |  0.028% | 
 | 426  | Ampharos           |  0.00773% | 608    |  0.044% | 
 | 427  | Doduo              |  0.00764% | 365    |  0.026% | 
 | 428  | Claydol            |  0.00759% | 493    |  0.035% | 
 | 429  | Meditite           |  0.00755% | 158    |  0.011% | 
 | 430  | Wynaut             |  0.00728% | 361    |  0.026% | 
 | 431  | Avalugg            |  0.00722% | 522    |  0.037% | 
 | 432  | Furfrou            |  0.00711% | 324    |  0.023% | 
 | 433  | Tropius            |  0.00700% | 558    |  0.040% | 
 | 434  | Haunter            |  0.00696% | 532    |  0.038% | 
 | 435  | Bouffalant         |  0.00663% | 248    |  0.018% | 
 | 436  | Arbok              |  0.00662% | 696    |  0.050% | 
 | 437  | Pichu              |  0.00660% | 246    |  0.018% | 
 | 438  | Gourgeist          |  0.00648% | 110    |  0.008% | 
 | 439  | Clefairy           |  0.00644% | 323    |  0.023% | 
 | 440  | Banette            |  0.00641% | 388    |  0.028% | 
 | 441  | Sunkern            |  0.00638% | 178    |  0.013% | 
 | 442  | Ponyta             |  0.00631% | 318    |  0.023% | 
 | 443  | Drifloon           |  0.00621% | 131    |  0.009% | 
 | 444  | Swalot             |  0.00620% | 275    |  0.020% | 
 | 445  | Pachirisu          |  0.00616% | 456    |  0.033% | 
 | 446  | Hoopa              |  0.00614% | 363    |  0.026% | 
 | 447  | Altaria            |  0.00598% | 376    |  0.027% | 
 | 448  | Maractus           |  0.00584% | 272    |  0.019% | 
 | 449  | Kyurem             |  0.00583% | 377    |  0.027% | 
 | 450  | Furret             |  0.00581% | 620    |  0.044% | 
 | 451  | Dragonair          |  0.00578% | 402    |  0.029% | 
 | 452  | Beedrill           |  0.00572% | 564    |  0.040% | 
 | 453  | Staravia           |  0.00572% | 370    |  0.026% | 
 | 454  | Luvdisc            |  0.00570% | 185    |  0.013% | 
 | 455  | Gothorita          |  0.00562% | 119    |  0.009% | 
 | 456  | Vespiquen          |  0.00562% | 310    |  0.022% | 
 | 457  | Darumaka           |  0.00560% | 102    |  0.007% | 
 | 458  | Sunflora           |  0.00558% | 179    |  0.013% | 
 | 459  | Stoutland          |  0.00547% | 316    |  0.023% | 
 | 460  | Corsola            |  0.00528% | 231    |  0.017% | 
 | 461  | Cryogonal          |  0.00523% | 335    |  0.024% | 
 | 462  | Misdreavus         |  0.00520% | 151    |  0.011% | 
 | 463  | Illumise           |  0.00519% | 361    |  0.026% | 
 | 464  | Skuntank           |  0.00513% | 295    |  0.021% | 
 | 465  | Throh              |  0.00512% | 207    |  0.015% | 
 | 466  | Trubbish           |  0.00506% | 474    |  0.034% | 
 | 467  | Seaking            |  0.00500% | 266    |  0.019% | 
 | 468  | Whiscash           |  0.00477% | 369    |  0.026% | 
 | 469  | Camerupt           |  0.00467% | 234    |  0.017% | 
 | 470  | Charmander         |  0.00466% | 340    |  0.024% | 
 | 471  | Litwick            |  0.00465% | 58     |  0.004% | 
 | 472  | Pawniard           |  0.00461% | 113    |  0.008% | 
 | 473  | Dewott             |  0.00459% | 132    |  0.009% | 
 | 474  | Zubat              |  0.00453% | 169    |  0.012% | 
 | 475  | Swanna             |  0.00450% | 258    |  0.018% | 
 | 476  | Solrock            |  0.00438% | 343    |  0.025% | 
 | 477  | Machoke            |  0.00436% | 226    |  0.016% | 
 | 478  | Jigglypuff         |  0.00434% | 423    |  0.030% | 
 | 479  | Zebstrika          |  0.00430% | 566    |  0.041% | 
 | 480  | Beheeyem           |  0.00422% | 176    |  0.013% | 
 | 481  | Yamask             |  0.00414% | 315    |  0.023% | 
 | 482  | Basculin           |  0.00413% | 143    |  0.010% | 
 | 483  | Graveler           |  0.00413% | 138    |  0.010% | 
 | 484  | Mawile             |  0.00410% | 329    |  0.024% | 
 | 485  | Squirtle           |  0.00402% | 408    |  0.029% | 
 | 486  | Kirlia             |  0.00396% | 199    |  0.014% | 
 | 487  | Roselia            |  0.00395% | 103    |  0.007% | 
 | 488  | Granbull           |  0.00392% | 412    |  0.029% | 
 | 489  | Vileplume          |  0.00384% | 317    |  0.023% | 
 | 490  | Audino-Mega        |  0.00379% | 334    |  0.024% | 
 | 491  | Castform           |  0.00375% | 458    |  0.033% | 
 | 492  | Farfetch'd         |  0.00371% | 263    |  0.019% | 
 | 493  | Virizion           |  0.00368% | 284    |  0.020% | 
 | 494  | Dewgong            |  0.00367% | 317    |  0.023% | 
 | 495  | Fearow             |  0.00356% | 220    |  0.016% | 
 | 496  | Swadloon           |  0.00345% | 120    |  0.009% | 
 | 497  | Shaymin            |  0.00342% | 222    |  0.016% | 
 | 498  | Girafarig          |  0.00341% | 370    |  0.026% | 
 | 499  | Riolu              |  0.00339% | 392    |  0.028% | 
 | 500  | Victreebel         |  0.00332% | 372    |  0.027% | 
 | 501  | Munchlax           |  0.00332% | 195    |  0.014% | 
 | 502  | Diglett            |  0.00326% | 550    |  0.039% | 
 | 503  | Meowth             |  0.00316% | 460    |  0.033% | 
 | 504  | Aipom              |  0.00316% | 220    |  0.016% | 
 | 505  | Krokorok           |  0.00292% | 73     |  0.005% | 
 | 506  | NidoranF           |  0.00291% | 43     |  0.003% | 
 | 507  | Purugly            |  0.00286% | 244    |  0.017% | 
 | 508  | Gourgeist-Small    |  0.00284% | 66     |  0.005% | 
 | 509  | Seviper            |  0.00280% | 331    |  0.024% | 
 | 510  | Cacturne           |  0.00279% | 621    |  0.044% | 
 | 511  | Kricketune         |  0.00277% | 262    |  0.019% | 
 | 512  | Gible              |  0.00274% | 140    |  0.010% | 
 | 513  | Omanyte            |  0.00274% | 260    |  0.019% | 
 | 514  | Numel              |  0.00266% | 154    |  0.011% | 
 | 515  | Weedle             |  0.00253% | 143    |  0.010% | 
 | 516  | Dustox             |  0.00251% | 149    |  0.011% | 
 | 517  | Fletchinder        |  0.00250% | 102    |  0.007% | 
 | 518  | Magmar             |  0.00249% | 225    |  0.016% | 
 | 519  | Gabite             |  0.00248% | 84     |  0.006% | 
 | 520  | Grumpig            |  0.00240% | 108    |  0.008% | 
 | 521  | Swinub             |  0.00239% | 87     |  0.006% | 
 | 522  | Clamperl           |  0.00239% | 178    |  0.013% | 
 | 523  | Mantine            |  0.00238% | 193    |  0.014% | 
 | 524  | Parasect           |  0.00235% | 257    |  0.018% | 
 | 525  | Pinsir             |  0.00226% | 200    |  0.014% | 
 | 526  | Geodude            |  0.00225% | 372    |  0.027% | 
 | 527  | Braixen            |  0.00223% | 228    |  0.016% | 
 | 528  | Natu               |  0.00222% | 88     |  0.006% | 
 | 529  | Sealeo             |  0.00221% | 51     |  0.004% | 
 | 530  | Aromatisse         |  0.00220% | 208    |  0.015% | 
 | 531  | Seel               |  0.00218% | 52     |  0.004% | 
 | 532  | Gastly             |  0.00215% | 262    |  0.019% | 
 | 533  | Bellsprout         |  0.00213% | 42     |  0.003% | 
 | 534  | Eelektrik          |  0.00213% | 40     |  0.003% | 
 | 535  | Golbat             |  0.00210% | 200    |  0.014% | 
 | 536  | Pelipper           |  0.00203% | 107    |  0.008% | 
 | 537  | Lombre             |  0.00201% | 56     |  0.004% | 
 | 538  | Kadabra            |  0.00200% | 95     |  0.007% | 
 | 539  | Buneary            |  0.00198% | 161    |  0.012% | 
 | 540  | Shelmet            |  0.00195% | 52     |  0.004% | 
 | 541  | Beautifly          |  0.00195% | 160    |  0.011% | 
 | 542  | Stantler           |  0.00193% | 127    |  0.009% | 
 | 543  | Monferno           |  0.00189% | 229    |  0.016% | 
 | 544  | Litleo             |  0.00189% | 30     |  0.002% | 
 | 545  | Whirlipede         |  0.00188% | 76     |  0.005% | 
 | 546  | Cubone             |  0.00187% | 116    |  0.008% | 
 | 547  | Froakie            |  0.00183% | 167    |  0.012% | 
 | 548  | Charmeleon         |  0.00178% | 204    |  0.015% | 
 | 549  | Turtwig            |  0.00178% | 108    |  0.008% | 
 | 550  | Treecko            |  0.00172% | 186    |  0.013% | 
 | 551  | Tangela            |  0.00171% | 160    |  0.011% | 
 | 552  | Piplup             |  0.00171% | 218    |  0.016% | 
 | 553  | Chimchar           |  0.00163% | 120    |  0.009% | 
 | 554  | Ledian             |  0.00159% | 138    |  0.010% | 
 | 555  | Stunky             |  0.00157% | 15     |  0.001% | 
 | 556  | Porygon            |  0.00155% | 201    |  0.014% | 
 | 557  | Dwebble            |  0.00154% | 67     |  0.005% | 
 | 558  | Simipour           |  0.00153% | 101    |  0.007% | 
 | 559  | Hoothoot           |  0.00151% | 30     |  0.002% | 
 | 560  | Mankey             |  0.00150% | 63     |  0.005% | 
 | 561  | Skiploom           |  0.00149% | 24     |  0.002% | 
 | 562  | Vanilluxe          |  0.00149% | 335    |  0.024% | 
 | 563  | Totodile           |  0.00147% | 121    |  0.009% | 
 | 564  | Pumpkaboo          |  0.00146% | 34     |  0.002% | 
 | 565  | Pumpkaboo-Large    |  0.00145% | 12     |  0.001% | 
 | 566  | Sneasel            |  0.00145% | 201    |  0.014% | 
 | 567  | Bayleef            |  0.00144% | 182    |  0.013% | 
 | 568  | Dratini            |  0.00141% | 147    |  0.011% | 
 | 569  | Gourgeist-Large    |  0.00139% | 67     |  0.005% | 
 | 570  | Spheal             |  0.00138% | 46     |  0.003% | 
 | 571  | Caterpie           |  0.00138% | 117    |  0.008% | 
 | 572  | Herdier            |  0.00137% | 26     |  0.002% | 
 | 573  | Mothim             |  0.00134% | 95     |  0.007% | 
 | 574  | Zorua              |  0.00131% | 94     |  0.007% | 
 | 575  | Shellos            |  0.00126% | 37     |  0.003% | 
 | 576  | Lampent            |  0.00122% | 51     |  0.004% | 
 | 577  | Koffing            |  0.00121% | 147    |  0.011% | 
 | 578  | Tepig              |  0.00118% | 42     |  0.003% | 
 | 579  | Ivysaur            |  0.00118% | 103    |  0.007% | 
 | 580  | Joltik             |  0.00116% | 42     |  0.003% | 
 | 581  | Psyduck            |  0.00114% | 76     |  0.005% | 
 | 582  | Grotle             |  0.00112% | 113    |  0.008% | 
 | 583  | Snivy              |  0.00111% | 157    |  0.011% | 
 | 584  | Carnivine          |  0.00110% | 81     |  0.006% | 
 | 585  | Watchog            |  0.00109% | 156    |  0.011% | 
 | 586  | Lumineon           |  0.00109% | 186    |  0.013% | 
 | 587  | Lunatone           |  0.00107% | 239    |  0.017% | 
 | 588  | Axew               |  0.00106% | 65     |  0.005% | 
 | 589  | Seadra             |  0.00105% | 71     |  0.005% | 
 | 590  | Archen             |  0.00105% | 44     |  0.003% | 
 | 591  | Growlithe          |  0.00101% | 48     |  0.003% | 
 | 592  | Mudkip             |  0.00101% | 273    |  0.020% | 
 | 593  | Plusle             |  0.00100% | 193    |  0.014% | 
 | 594  | Snover             |  0.00100% | 43     |  0.003% | 
 | 595  | Abra               |  0.00097% | 145    |  0.010% | 
 | 596  | Sliggoo            |  0.00096% | 50     |  0.004% | 
 | 597  | Lairon             |  0.00093% | 142    |  0.010% | 
 | 598  | Heatmor            |  0.00093% | 110    |  0.008% | 
 | 599  | Beartic            |  0.00093% | 227    |  0.016% | 
 | 600  | Wooper             |  0.00092% | 95     |  0.007% | 
 | 601  | Lileep             |  0.00087% | 23     |  0.002% | 
 | 602  | Bellossom          |  0.00086% | 205    |  0.015% | 
 | 603  | Goomy              |  0.00086% | 68     |  0.005% | 
 | 604  | Togepi             |  0.00086% | 389    |  0.028% | 
 | 605  | Yanma              |  0.00084% | 69     |  0.005% | 
 | 606  | Spritzee           |  0.00083% | 34     |  0.002% | 
 | 607  | Tyrogue            |  0.00081% | 53     |  0.004% | 
 | 608  | Hoppip             |  0.00078% | 46     |  0.003% | 
 | 609  | Chingling          |  0.00077% | 28     |  0.002% | 
 | 610  | Palpitoad          |  0.00077% | 70     |  0.005% | 
 | 611  | Solosis            |  0.00077% | 120    |  0.009% | 
 | 612  | Frogadier          |  0.00077% | 140    |  0.010% | 
 | 613  | Bronzor            |  0.00077% | 55     |  0.004% | 
 | 614  | Phanpy             |  0.00076% | 56     |  0.004% | 
 | 615  | Snorunt            |  0.00075% | 69     |  0.005% | 
 | 616  | Teddiursa          |  0.00074% | 63     |  0.005% | 
 | 617  | Surskit            |  0.00073% | 159    |  0.011% | 
 | 618  | Quilladin          |  0.00072% | 52     |  0.004% | 
 | 619  | NidoranM           |  0.00071% | 46     |  0.003% | 
 | 620  | Staryu             |  0.00071% | 48     |  0.003% | 
 | 621  | Combee             |  0.00071% | 132    |  0.009% | 
 | 622  | Kakuna             |  0.00070% | 65     |  0.005% | 
 | 623  | Bonsly             |  0.00069% | 82     |  0.006% | 
 | 624  | Boldore            |  0.00069% | 195    |  0.014% | 
 | 625  | Buizel             |  0.00067% | 153    |  0.011% | 
 | 626  | Vanillite          |  0.00066% | 46     |  0.003% | 
 | 627  | Drowzee            |  0.00066% | 36     |  0.003% | 
 | 628  | Zigzagoon          |  0.00066% | 68     |  0.005% | 
 | 629  | Slowpoke           |  0.00065% | 67     |  0.005% | 
 | 630  | Mareep             |  0.00065% | 13     |  0.001% | 
 | 631  | Magby              |  0.00064% | 39     |  0.003% | 
 | 632  | Vulpix             |  0.00063% | 70     |  0.005% | 
 | 633  | Trapinch           |  0.00063% | 49     |  0.004% | 
 | 634  | Simisear           |  0.00063% | 102    |  0.007% | 
 | 635  | Mime Jr.           |  0.00063% | 86     |  0.006% | 
 | 636  | Pupitar            |  0.00063% | 35     |  0.003% | 
 | 637  | Swirlix            |  0.00062% | 48     |  0.003% | 
 | 638  | Nidorina           |  0.00062% | 31     |  0.002% | 
 | 639  | Mienfoo            |  0.00061% | 54     |  0.004% | 
 | 640  | Cleffa             |  0.00061% | 92     |  0.007% | 
 | 641  | Wartortle          |  0.00060% | 149    |  0.011% | 
 | 642  | Grimer             |  0.00059% | 44     |  0.003% | 
 | 643  | Audino             |  0.00058% | 88     |  0.006% | 
 | 644  | Venipede           |  0.00057% | 57     |  0.004% | 
 | 645  | Wingull            |  0.00057% | 31     |  0.002% | 
 | 646  | Roggenrola         |  0.00054% | 51     |  0.004% | 
 | 647  | Azurill            |  0.00054% | 47     |  0.003% | 
 | 648  | Corphish           |  0.00054% | 104    |  0.007% | 
 | 649  | Sewaddle           |  0.00053% | 29     |  0.002% | 
 | 650  | Nidorino           |  0.00053% | 28     |  0.002% | 
 | 651  | Chikorita          |  0.00050% | 140    |  0.010% | 
 | 652  | Shelgon            |  0.00050% | 61     |  0.004% | 
 | 653  | Cherubi            |  0.00050% | 43     |  0.003% | 
 | 654  | Duskull            |  0.00049% | 65     |  0.005% | 
 | 655  | Cherrim            |  0.00048% | 75     |  0.005% | 
 | 656  | Pidgeotto          |  0.00048% | 64     |  0.005% | 
 | 657  | Nuzleaf            |  0.00047% | 31     |  0.002% | 
 | 658  | Servine            |  0.00047% | 53     |  0.004% | 
 | 659  | Torchic            |  0.00046% | 182    |  0.013% | 
 | 660  | Sandile            |  0.00046% | 31     |  0.002% | 
 | 661  | Luxio              |  0.00046% | 19     |  0.001% | 
 | 662  | Metang             |  0.00045% | 71     |  0.005% | 
 | 663  | Pidgey             |  0.00044% | 112    |  0.008% | 
 | 664  | Bagon              |  0.00044% | 35     |  0.003% | 
 | 665  | Barboach           |  0.00042% | 17     |  0.001% | 
 | 666  | Grovyle            |  0.00041% | 129    |  0.009% | 
 | 667  | Feebas             |  0.00041% | 57     |  0.004% | 
 | 668  | Kabuto             |  0.00040% | 51     |  0.004% | 
 | 669  | Skitty             |  0.00039% | 114    |  0.008% | 
 | 670  | Espurr             |  0.00039% | 42     |  0.003% | 
 | 671  | Shieldon           |  0.00038% | 49     |  0.004% | 
 | 672  | Poliwag            |  0.00038% | 76     |  0.005% | 
 | 673  | Pancham            |  0.00037% | 58     |  0.004% | 
 | 674  | Honedge            |  0.00037% | 54     |  0.004% | 
 | 675  | Inkay              |  0.00036% | 92     |  0.007% | 
 | 676  | Cacnea             |  0.00035% | 45     |  0.003% | 
 | 677  | Burmy              |  0.00035% | 26     |  0.002% | 
 | 678  | Simisage           |  0.00035% | 145    |  0.010% | 
 | 679  | Mantyke            |  0.00033% | 34     |  0.002% | 
 | 680  | Lickitung          |  0.00033% | 53     |  0.004% | 
 | 681  | Woobat             |  0.00032% | 45     |  0.003% | 
 | 682  | Fletchling         |  0.00032% | 53     |  0.004% | 
 | 683  | Quilava            |  0.00031% | 71     |  0.005% | 
 | 684  | Chinchou           |  0.00031% | 12     |  0.001% | 
 | 685  | Amaura             |  0.00031% | 57     |  0.004% | 
 | 686  | Klang              |  0.00030% | 43     |  0.003% | 
 | 687  | Chimecho           |  0.00029% | 92     |  0.007% | 
 | 688  | Wormadam-Trash     |  0.00029% | 101    |  0.007% | 
 | 689  | Smoochum           |  0.00029% | 39     |  0.003% | 
 | 690  | Poliwhirl          |  0.00028% | 47     |  0.003% | 
 | 691  | Helioptile         |  0.00027% | 22     |  0.002% | 
 | 692  | Lotad              |  0.00027% | 41     |  0.003% | 
 | 693  | Voltorb            |  0.00026% | 142    |  0.010% | 
 | 694  | Oshawott           |  0.00026% | 111    |  0.008% | 
 | 695  | Pignite            |  0.00026% | 81     |  0.006% | 
 | 696  | Pidove             |  0.00026% | 20     |  0.001% | 
 | 697  | Tirtouga           |  0.00025% | 81     |  0.006% | 
 | 698  | Tentacool          |  0.00024% | 26     |  0.002% | 
 | 699  | Exeggcute          |  0.00024% | 40     |  0.003% | 
 | 700  | Deerling           |  0.00024% | 20     |  0.001% | 
 | 701  | Zweilous           |  0.00023% | 27     |  0.002% | 
 | 702  | Shuppet            |  0.00023% | 89     |  0.006% | 
 | 703  | Frillish           |  0.00023% | 24     |  0.002% | 
 | 704  | Glameow            |  0.00022% | 32     |  0.002% | 
 | 705  | Phione             |  0.00022% | 68     |  0.005% | 
 | 706  | Scraggy            |  0.00022% | 107    |  0.008% | 
 | 707  | Carvanha           |  0.00021% | 45     |  0.003% | 
 | 708  | Pumpkaboo-Small    |  0.00021% | 9      |  0.001% | 
 | 709  | Sandshrew          |  0.00020% | 70     |  0.005% | 
 | 710  | Ducklett           |  0.00020% | 65     |  0.005% | 
 | 711  | Vanillish          |  0.00020% | 21     |  0.002% | 
 | 712  | Igglybuff          |  0.00019% | 67     |  0.005% | 
 | 713  | Binacle            |  0.00019% | 32     |  0.002% | 
 | 714  | Pumpkaboo-Super    |  0.00019% | 65     |  0.005% | 
 | 715  | Golett             |  0.00018% | 12     |  0.001% | 
 | 716  | Tyrunt             |  0.00017% | 74     |  0.005% | 
 | 717  | Skorupi            |  0.00016% | 30     |  0.002% | 
 | 718  | Cyndaquil          |  0.00016% | 59     |  0.004% | 
 | 719  | Wormadam-Sandy     |  0.00016% | 46     |  0.003% | 
 | 720  | Machop             |  0.00016% | 31     |  0.002% | 
 | 721  | Happiny            |  0.00016% | 23     |  0.002% | 
 | 722  | Vullaby            |  0.00016% | 19     |  0.001% | 
 | 723  | Shellder           |  0.00016% | 52     |  0.004% | 
 | 724  | Cranidos           |  0.00016% | 15     |  0.001% | 
 | 725  | Shroomish          |  0.00016% | 37     |  0.003% | 
 | 726  | Croagunk           |  0.00016% | 61     |  0.004% | 
 | 727  | Noibat             |  0.00016% | 47     |  0.003% | 
 | 728  | Elgyem             |  0.00016% | 22     |  0.002% | 
 | 729  | Spewpa             |  0.00015% | 12     |  0.001% | 
 | 730  | Wormadam           |  0.00015% | 28     |  0.002% | 
 | 731  | Wurmple            |  0.00015% | 24     |  0.002% | 
 | 732  | Paras              |  0.00014% | 34     |  0.002% | 
 | 733  | Elekid             |  0.00013% | 65     |  0.005% | 
 | 734  | Gurdurr            |  0.00013% | 32     |  0.002% | 
 | 735  | Floette            |  0.00012% | 33     |  0.002% | 
 | 736  | Slakoth            |  0.00012% | 9      |  0.001% | 
 | 737  | Gulpin             |  0.00011% | 26     |  0.002% | 
 | 738  | Seedot             |  0.00011% | 31     |  0.002% | 
 | 739  | Duosion            |  0.00010% | 26     |  0.002% | 
 | 740  | Weepinbell         |  0.00010% | 28     |  0.002% | 
 | 741  | Cascoon            |  0.00010% | 27     |  0.002% | 
 | 742  | Slugma             |  0.00010% | 10     |  0.001% | 
 | 743  | Tynamo             |  0.00010% | 23     |  0.002% | 
 | 744  | Croconaw           |  0.00010% | 60     |  0.004% | 
 | 745  | Spinarak           |  0.00009% | 129    |  0.009% | 
 | 746  | Chespin            |  0.00009% | 86     |  0.006% | 
 | 747  | Drilbur            |  0.00009% | 12     |  0.001% | 
 | 748  | Pansage            |  0.00009% | 43     |  0.003% | 
 | 749  | Deino              |  0.00009% | 46     |  0.003% | 
 | 750  | Prinplup           |  0.00008% | 39     |  0.003% | 
 | 751  | Spearow            |  0.00008% | 19     |  0.001% | 
 | 752  | Cubchoo            |  0.00008% | 27     |  0.002% | 
 | 753  | Flaaffy            |  0.00008% | 33     |  0.002% | 
 | 754  | Vibrava            |  0.00008% | 15     |  0.001% | 
 | 755  | Snubbull           |  0.00008% | 19     |  0.001% | 
 | 756  | Oddish             |  0.00008% | 59     |  0.004% | 
 | 757  | Bunnelby           |  0.00007% | 111    |  0.008% | 
 | 758  | Skrelp             |  0.00007% | 11     |  0.001% | 
 | 759  | Phantump           |  0.00007% | 39     |  0.003% | 
 | 760  | Fennekin           |  0.00007% | 72     |  0.005% | 
 | 761  | Tranquill          |  0.00007% | 10     |  0.001% | 
 | 762  | Gloom              |  0.00007% | 36     |  0.003% | 
 | 763  | Remoraid           |  0.00006% | 30     |  0.002% | 
 | 764  | Makuhita           |  0.00006% | 15     |  0.001% | 
 | 765  | Rufflet            |  0.00006% | 25     |  0.002% | 
 | 766  | Kricketot          |  0.00006% | 12     |  0.001% | 
 | 767  | Foongus            |  0.00006% | 77     |  0.006% | 
 | 768  | Scatterbug         |  0.00006% | 8      |  0.001% | 
 | 769  | Timburr            |  0.00005% | 10     |  0.001% | 
 | 770  | Wailmer            |  0.00004% | 39     |  0.003% | 
 | 771  | Minccino           |  0.00004% | 29     |  0.002% | 
 | 772  | Sentret            |  0.00004% | 11     |  0.001% | 
 | 773  | Houndour           |  0.00004% | 16     |  0.001% | 
 | 774  | Baltoy             |  0.00003% | 58     |  0.004% | 
 | 775  | Bergmite           |  0.00003% | 33     |  0.002% | 
 | 776  | Silcoon            |  0.00003% | 16     |  0.001% | 
 | 777  | Krabby             |  0.00003% | 65     |  0.005% | 
 | 778  | Spoink             |  0.00003% | 48     |  0.003% | 
 | 779  | Beldum             |  0.00003% | 23     |  0.002% | 
 | 780  | Ledyba             |  0.00003% | 14     |  0.001% | 
 | 781  | Ekans              |  0.00002% | 16     |  0.001% | 
 | 782  | Shinx              |  0.00002% | 27     |  0.002% | 
 | 783  | Budew              |  0.00002% | 13     |  0.001% | 
 | 784  | Munna              |  0.00002% | 32     |  0.002% | 
 | 785  | Gothita            |  0.00002% | 48     |  0.003% | 
 | 786  | Venonat            |  0.00002% | 46     |  0.003% | 
 | 787  | Lillipup           |  0.00001% | 11     |  0.001% | 
 | 788  | Pansear            |  0.00001% | 18     |  0.001% | 
 | 789  | Larvitar           |  0.00001% | 46     |  0.003% | 
 | 790  | Marill             |  0.00001% | 45     |  0.003% | 
 | 791  | Anorith            |  0.00001% | 36     |  0.003% | 
 | 792  | Poochyena          |  0.00001% | 60     |  0.004% | 
 | 793  | Tympole            |  0.00001% | 12     |  0.001% | 
 | 794  | Patrat             |  0.00001% | 21     |  0.002% | 
 | 795  | Fraxure            |  0.00001% | 30     |  0.002% | 
 | 796  | Petilil            |  0.00001% | 18     |  0.001% | 
 | 797  | Skiddo             |  0.00000% | 7      |  0.001% | 
 | 798  | Goldeen            |  0.00000% | 6      |  0.000% | 
 | 799  | Horsea             |  0.00000% | 25     |  0.002% | 
 | 800  | Whismur            |  0.00000% | 16     |  0.001% | 
 | 801  | Nincada            |  0.00000% | 10     |  0.001% | 
 | 802  | Blitzle            |  0.00000% | 7      |  0.001% | 
 | 803  | Larvesta           |  0.00000% | 19     |  0.001% | 
 | 804  | Electrike          |  0.00000% | 9      |  0.001% | 
 | 805  | Panpour            |  0.00000% | 18     |  0.001% | 
 | 806  | Flabebe            |  0.00000% | 17     |  0.001% | 
 | 807  | Finneon            |  0.00000% | 21     |  0.002% | 
 | 808  | Loudred            |  0.00000% | 20     |  0.001% | 
 | 809  | Karrablast         |  0.00000% | 11     |  0.001% | 
 | 810  | Swablu             |  0.00000% | 27     |  0.002% | 
 | 811  | Clauncher          |  0.00000% | 16     |  0.001% | 
 | 812  | Klink              |  0.00000% | 3      |  0.000% | 
 + ---- + ------------------ + --------- + ------ + ------- + 
