 Total leads: 227534
 + ---- + ------------------ + --------- + ------ + ------- + 
 | Rank | Pokemon            | Usage %   | Raw    | %       | 
 + ---- + ------------------ + --------- + ------ + ------- + 
 | 1    | Shedinja           |  7.52428% | 17121  |  7.525% | 
 | 2    | Rayquaza-Mega      |  6.23874% | 14195  |  6.239% | 
 | 3    | Deoxys-Speed       |  5.25425% | 11955  |  5.254% | 
 | 4    | Shuckle            |  3.65930% | 8326   |  3.659% | 
 | 5    | Gengar-Mega        |  3.54009% | 8055   |  3.540% | 
 | 6    | Diancie-Mega       |  3.17936% | 7234   |  3.179% | 
 | 7    | Giratina           |  3.09278% | 7037   |  3.093% | 
 | 8    | Mewtwo-Mega-X      |  2.61889% | 5959   |  2.619% | 
 | 9    | Chansey            |  2.58911% | 5891   |  2.589% | 
 | 10   | Mewtwo-Mega-Y      |  2.25728% | 5136   |  2.257% | 
 | 11   | Deoxys-Defense     |  2.02391% | 4605   |  2.024% | 
 | 12   | Blissey            |  1.89074% | 4302   |  1.891% | 
 | 13   | Aegislash          |  1.59891% | 3638   |  1.599% | 
 | 14   | Deoxys-Attack      |  1.56595% | 3563   |  1.566% | 
 | 15   | Registeel          |  1.48640% | 3382   |  1.486% | 
 | 16   | Regigigas          |  1.37125% | 3120   |  1.371% | 
 | 17   | Slaking            |  1.35806% | 3090   |  1.358% | 
 | 18   | Aerodactyl-Mega    |  1.28335% | 2920   |  1.283% | 
 | 19   | Kyurem-Black       |  1.25258% | 2850   |  1.253% | 
 | 20   | Lugia              |  1.09304% | 2487   |  1.093% | 
 | 21   | Arceus             |  1.07239% | 2440   |  1.072% | 
 | 22   | Steelix-Mega       |  1.00690% | 2291   |  1.007% | 
 | 23   | Garchomp-Mega      |  0.86318% | 1964   |  0.863% | 
 | 24   | Aggron-Mega        |  0.79110% | 1800   |  0.791% | 
 | 25   | Blaziken-Mega      |  0.78363% | 1783   |  0.784% | 
 | 26   | Yveltal            |  0.69441% | 1580   |  0.694% | 
 | 27   | Dialga             |  0.67332% | 1532   |  0.673% | 
 | 28   | Tyranitar-Mega     |  0.67024% | 1525   |  0.670% | 
 | 29   | Ferrothorn         |  0.66639% | 1517   |  0.667% | 
 | 30   | Darkrai            |  0.64343% | 1464   |  0.643% | 
 | 31   | Audino-Mega        |  0.63992% | 1456   |  0.640% | 
 | 32   | Xerneas            |  0.62409% | 1420   |  0.624% | 
 | 33   | Magikarp           |  0.60212% | 1370   |  0.602% | 
 | 34   | Metagross-Mega     |  0.58937% | 1341   |  0.589% | 
 | 35   | Lucario-Mega       |  0.55905% | 1272   |  0.559% | 
 | 36   | Latios-Mega        |  0.55597% | 1265   |  0.556% | 
 | 37   | Giratina-Origin    |  0.55158% | 1255   |  0.552% | 
 | 38   | Alakazam-Mega      |  0.54235% | 1234   |  0.542% | 
 | 39   | Charizard-Mega-X   |  0.53795% | 1224   |  0.538% | 
 | 40   | Sableye-Mega       |  0.51158% | 1164   |  0.512% | 
 | 41   | Greninja           |  0.49840% | 1134   |  0.498% | 
 | 42   | Groudon            |  0.49312% | 1122   |  0.493% | 
 | 43   | Scizor-Mega        |  0.48653% | 1107   |  0.487% | 
 | 44   | Ho-Oh              |  0.47334% | 1077   |  0.473% | 
 | 45   | Charizard-Mega-Y   |  0.47203% | 1074   |  0.472% | 
 | 46   | Arceus-Ghost       |  0.46587% | 1060   |  0.466% | 
 | 47   | Sceptile-Mega      |  0.45972% | 1046   |  0.460% | 
 | 48   | Kyogre             |  0.44082% | 1003   |  0.441% | 
 | 49   | Kyurem-White       |  0.42324% | 963    |  0.423% | 
 | 50   | Hoopa-Unbound      |  0.40610% | 924    |  0.406% | 
 | 51   | Gardevoir-Mega     |  0.40083% | 912    |  0.401% | 
 | 52   | Venusaur-Mega      |  0.38281% | 871    |  0.383% | 
 | 53   | Weavile            |  0.38281% | 871    |  0.383% | 
 | 54   | Heracross-Mega     |  0.38237% | 870    |  0.382% | 
 | 55   | Rattata            |  0.37621% | 856    |  0.376% | 
 | 56   | Cresselia          |  0.37050% | 843    |  0.370% | 
 | 57   | Ninjask            |  0.36830% | 838    |  0.368% | 
 | 58   | Swampert-Mega      |  0.35863% | 816    |  0.359% | 
 | 59   | Snorlax            |  0.35776% | 814    |  0.358% | 
 | 60   | Kangaskhan-Mega    |  0.35292% | 803    |  0.353% | 
 | 61   | Groudon-Primal     |  0.35160% | 800    |  0.352% | 
 | 62   | Slowbro-Mega       |  0.33622% | 765    |  0.336% | 
 | 63   | Lopunny-Mega       |  0.33612% | 765    |  0.336% | 
 | 64   | Banette-Mega       |  0.31996% | 728    |  0.320% | 
 | 65   | Pikachu            |  0.31600% | 719    |  0.316% | 
 | 66   | Gyarados-Mega      |  0.31468% | 716    |  0.315% | 
 | 67   | Salamence-Mega     |  0.30853% | 702    |  0.309% | 
 | 68   | Heatran            |  0.30721% | 699    |  0.307% | 
 | 69   | Mew                |  0.28568% | 650    |  0.286% | 
 | 70   | Beedrill-Mega      |  0.27908% | 635    |  0.279% | 
 | 71   | Latias-Mega        |  0.26898% | 612    |  0.269% | 
 | 72   | Palkia             |  0.26634% | 606    |  0.266% | 
 | 73   | Genesect           |  0.26282% | 598    |  0.263% | 
 | 74   | Gallade-Mega       |  0.25271% | 575    |  0.253% | 
 | 75   | Blastoise-Mega     |  0.23425% | 533    |  0.234% | 
 | 76   | Smeargle           |  0.22810% | 519    |  0.228% | 
 | 77   | Victini            |  0.22371% | 509    |  0.224% | 
 | 78   | Manectric-Mega     |  0.22195% | 505    |  0.222% | 
 | 79   | Ditto              |  0.20041% | 456    |  0.200% | 
 | 80   | Reshiram           |  0.19646% | 447    |  0.196% | 
 | 81   | Absol-Mega         |  0.19558% | 445    |  0.196% | 
 | 82   | Dragonite          |  0.19118% | 435    |  0.191% | 
 | 83   | Regirock           |  0.18371% | 418    |  0.184% | 
 | 84   | Arceus-Fairy       |  0.18239% | 415    |  0.182% | 
 | 85   | Pidgeot-Mega       |  0.18239% | 415    |  0.182% | 
 | 86   | Zygarde            |  0.18195% | 414    |  0.182% | 
 | 87   | Umbreon            |  0.17668% | 402    |  0.177% | 
 | 88   | Goodra             |  0.17448% | 397    |  0.174% | 
 | 89   | Zekrom             |  0.17448% | 397    |  0.174% | 
 | 90   | Aron               |  0.17053% | 388    |  0.171% | 
 | 91   | Infernape          |  0.16877% | 384    |  0.169% | 
 | 92   | Wobbuffet          |  0.16086% | 366    |  0.161% | 
 | 93   | Volcanion          |  0.16042% | 365    |  0.160% | 
 | 94   | Arceus-Steel       |  0.15822% | 360    |  0.158% | 
 | 95   | Dusclops           |  0.15734% | 358    |  0.157% | 
 | 96   | Chandelure         |  0.14767% | 336    |  0.148% | 
 | 97   | Pinsir-Mega        |  0.14635% | 333    |  0.146% | 
 | 98   | Darmanitan         |  0.14460% | 329    |  0.145% | 
 | 99   | Shaymin-Sky        |  0.14460% | 329    |  0.145% | 
 | 100  | Mawile-Mega        |  0.14064% | 320    |  0.141% | 
 | 101  | Gengar             |  0.13888% | 316    |  0.139% | 
 | 102  | Forretress         |  0.13317% | 303    |  0.133% | 
 | 103  | Altaria-Mega       |  0.13273% | 302    |  0.133% | 
 | 104  | Empoleon           |  0.13141% | 299    |  0.131% | 
 | 105  | Gliscor            |  0.13053% | 297    |  0.131% | 
 | 106  | Ampharos-Mega      |  0.12570% | 286    |  0.126% | 
 | 107  | Serperior          |  0.12218% | 278    |  0.122% | 
 | 108  | Hippowdon          |  0.11911% | 271    |  0.119% | 
 | 109  | Abomasnow-Mega     |  0.11867% | 270    |  0.119% | 
 | 110  | Arceus-Electric    |  0.11603% | 264    |  0.116% | 
 | 111  | Crobat             |  0.11427% | 260    |  0.114% | 
 | 112  | Regice             |  0.11251% | 256    |  0.113% | 
 | 113  | Camerupt-Mega      |  0.11207% | 255    |  0.112% | 
 | 114  | Volcarona          |  0.11032% | 251    |  0.110% | 
 | 115  | Thundurus-Therian  |  0.10768% | 245    |  0.108% | 
 | 116  | Zapdos             |  0.10724% | 244    |  0.107% | 
 | 117  | Landorus-Therian   |  0.10592% | 241    |  0.106% | 
 | 118  | Jolteon            |  0.10372% | 236    |  0.104% | 
 | 119  | Sylveon            |  0.10196% | 232    |  0.102% | 
 | 120  | Jirachi            |  0.10109% | 230    |  0.101% | 
 | 121  | Spiritomb          |  0.10109% | 230    |  0.101% | 
 | 122  | Arceus-Psychic     |  0.09889% | 225    |  0.099% | 
 | 123  | Klefki             |  0.09713% | 221    |  0.097% | 
 | 124  | Arceus-Poison      |  0.09669% | 220    |  0.097% | 
 | 125  | Deoxys             |  0.09581% | 218    |  0.096% | 
 | 126  | Archeops           |  0.09537% | 217    |  0.095% | 
 | 127  | Breloom            |  0.09274% | 211    |  0.093% | 
 | 128  | Arceus-Fire        |  0.09186% | 209    |  0.092% | 
 | 129  | Clefable           |  0.09142% | 208    |  0.091% | 
 | 130  | Meloetta           |  0.09098% | 207    |  0.091% | 
 | 131  | Cloyster           |  0.09098% | 207    |  0.091% | 
 | 132  | Houndoom-Mega      |  0.08922% | 203    |  0.089% | 
 | 133  | Togekiss           |  0.08394% | 191    |  0.084% | 
 | 134  | Medicham-Mega      |  0.08351% | 190    |  0.084% | 
 | 135  | Arceus-Dragon      |  0.08307% | 189    |  0.083% | 
 | 136  | Skarmory           |  0.08263% | 188    |  0.083% | 
 | 137  | Doublade           |  0.08087% | 184    |  0.081% | 
 | 138  | Cofagrigus         |  0.08087% | 184    |  0.081% | 
 | 139  | Sunkern            |  0.08043% | 183    |  0.080% | 
 | 140  | Garchomp           |  0.07999% | 182    |  0.080% | 
 | 141  | Scolipede          |  0.07999% | 182    |  0.080% | 
 | 142  | Arcanine           |  0.07911% | 180    |  0.079% | 
 | 143  | Rhyperior          |  0.07911% | 180    |  0.079% | 
 | 144  | Kyogre-Primal      |  0.07735% | 176    |  0.077% | 
 | 145  | Arceus-Ground      |  0.07647% | 174    |  0.076% | 
 | 146  | Bidoof             |  0.07559% | 172    |  0.076% | 
 | 147  | Wailord            |  0.07428% | 169    |  0.074% | 
 | 148  | Magnezone          |  0.07428% | 169    |  0.074% | 
 | 149  | Talonflame         |  0.07428% | 169    |  0.074% | 
 | 150  | Mewtwo             |  0.07428% | 169    |  0.074% | 
 | 151  | Bisharp            |  0.07384% | 168    |  0.074% | 
 | 152  | Whimsicott         |  0.07252% | 165    |  0.073% | 
 | 153  | Azelf              |  0.07208% | 164    |  0.072% | 
 | 154  | Suicune            |  0.07164% | 163    |  0.072% | 
 | 155  | Dusknoir           |  0.07032% | 160    |  0.070% | 
 | 156  | Porygon-Z          |  0.06988% | 159    |  0.070% | 
 | 157  | Electivire         |  0.06988% | 159    |  0.070% | 
 | 158  | Amoonguss          |  0.06944% | 158    |  0.069% | 
 | 159  | Bastiodon          |  0.06900% | 157    |  0.069% | 
 | 160  | Arceus-Water       |  0.06812% | 155    |  0.068% | 
 | 161  | Galvantula         |  0.06768% | 154    |  0.068% | 
 | 162  | Diancie            |  0.06768% | 154    |  0.068% | 
 | 163  | Hawlucha           |  0.06636% | 151    |  0.066% | 
 | 164  | Accelgor           |  0.06636% | 151    |  0.066% | 
 | 165  | Keldeo             |  0.06505% | 148    |  0.065% | 
 | 166  | Staraptor          |  0.06505% | 148    |  0.065% | 
 | 167  | Hydreigon          |  0.06417% | 146    |  0.064% | 
 | 168  | Raikou             |  0.06373% | 145    |  0.064% | 
 | 169  | Thundurus          |  0.06373% | 145    |  0.064% | 
 | 170  | Floette-Eternal-Flower |  0.06373% | 145    |  0.064% | 
 | 171  | Rotom-Heat         |  0.06329% | 144    |  0.063% | 
 | 172  | Mamoswine          |  0.06285% | 143    |  0.063% | 
 | 173  | Magnemite          |  0.06241% | 142    |  0.062% | 
 | 174  | Zoroark            |  0.06197% | 141    |  0.062% | 
 | 175  | Dunsparce          |  0.06153% | 140    |  0.062% | 
 | 176  | Tyranitar          |  0.06153% | 140    |  0.062% | 
 | 177  | Milotic            |  0.05977% | 136    |  0.060% | 
 | 178  | Arceus-Ice         |  0.05933% | 135    |  0.059% | 
 | 179  | Arceus-Dark        |  0.05889% | 134    |  0.059% | 
 | 180  | Blaziken           |  0.05845% | 133    |  0.058% | 
 | 181  | Eevee              |  0.05626% | 128    |  0.056% | 
 | 182  | Moltres            |  0.05626% | 128    |  0.056% | 
 | 183  | Marowak            |  0.05626% | 128    |  0.056% | 
 | 184  | Haxorus            |  0.05626% | 128    |  0.056% | 
 | 185  | Noivern            |  0.05582% | 127    |  0.056% | 
 | 186  | Avalugg            |  0.05494% | 125    |  0.055% | 
 | 187  | Metapod            |  0.05450% | 124    |  0.054% | 
 | 188  | Excadrill          |  0.05450% | 124    |  0.054% | 
 | 189  | Articuno           |  0.05362% | 122    |  0.054% | 
 | 190  | Mr. Mime           |  0.05328% | 122    |  0.054% | 
 | 191  | Manaphy            |  0.05274% | 120    |  0.053% | 
 | 192  | Arceus-Flying      |  0.05230% | 119    |  0.052% | 
 | 193  | Entei              |  0.05186% | 118    |  0.052% | 
 | 194  | Rampardos          |  0.05186% | 118    |  0.052% | 
 | 195  | Dugtrio            |  0.05142% | 117    |  0.051% | 
 | 196  | Latios             |  0.05054% | 115    |  0.051% | 
 | 197  | Torterra           |  0.05054% | 115    |  0.051% | 
 | 198  | Glaceon            |  0.05010% | 114    |  0.050% | 
 | 199  | Starly             |  0.04966% | 113    |  0.050% | 
 | 200  | Roserade           |  0.04878% | 111    |  0.049% | 
 | 201  | Torkoal            |  0.04835% | 110    |  0.048% | 
 | 202  | Vaporeon           |  0.04835% | 110    |  0.048% | 
 | 203  | Sharpedo-Mega      |  0.04791% | 109    |  0.048% | 
 | 204  | Drapion            |  0.04703% | 107    |  0.047% | 
 | 205  | Aggron             |  0.04659% | 106    |  0.047% | 
 | 206  | Electrode          |  0.04659% | 106    |  0.047% | 
 | 207  | Glalie-Mega        |  0.04659% | 106    |  0.047% | 
 | 208  | Porygon2           |  0.04659% | 106    |  0.047% | 
 | 209  | Ariados            |  0.04615% | 105    |  0.046% | 
 | 210  | Tornadus-Therian   |  0.04615% | 105    |  0.046% | 
 | 211  | Espeon             |  0.04615% | 105    |  0.046% | 
 | 212  | Celebi             |  0.04571% | 104    |  0.046% | 
 | 213  | Sableye            |  0.04571% | 104    |  0.046% | 
 | 214  | Mudkip             |  0.04527% | 103    |  0.045% | 
 | 215  | Drifblim           |  0.04483% | 102    |  0.045% | 
 | 216  | Arceus-Bug         |  0.04483% | 102    |  0.045% | 
 | 217  | Ursaring           |  0.04483% | 102    |  0.045% | 
 | 218  | Diglett            |  0.04439% | 101    |  0.044% | 
 | 219  | Flareon            |  0.04395% | 100    |  0.044% | 
 | 220  | Machamp            |  0.04351% | 99     |  0.044% | 
 | 221  | Raichu             |  0.04351% | 99     |  0.044% | 
 | 222  | Lapras             |  0.04263% | 97     |  0.043% | 
 | 223  | Bulbasaur          |  0.04263% | 97     |  0.043% | 
 | 224  | Nosepass           |  0.04263% | 97     |  0.043% | 
 | 225  | Vivillon           |  0.04175% | 95     |  0.042% | 
 | 226  | Leafeon            |  0.04131% | 94     |  0.041% | 
 | 227  | Escavalier         |  0.04043% | 92     |  0.040% | 
 | 228  | Seedot             |  0.03956% | 90     |  0.040% | 
 | 229  | Jigglypuff         |  0.03956% | 90     |  0.040% | 
 | 230  | Kingdra            |  0.03912% | 89     |  0.039% | 
 | 231  | Feraligatr         |  0.03868% | 88     |  0.039% | 
 | 232  | Zangoose           |  0.03824% | 87     |  0.038% | 
 | 233  | Arceus-Rock        |  0.03824% | 87     |  0.038% | 
 | 234  | Meowstic           |  0.03780% | 86     |  0.038% | 
 | 235  | Unown              |  0.03780% | 86     |  0.038% | 
 | 236  | Arceus-Fighting    |  0.03736% | 85     |  0.037% | 
 | 237  | Froslass           |  0.03736% | 85     |  0.037% | 
 | 238  | Pidgey             |  0.03736% | 85     |  0.037% | 
 | 239  | Weedle             |  0.03692% | 84     |  0.037% | 
 | 240  | Bellossom          |  0.03648% | 83     |  0.036% | 
 | 241  | Mismagius          |  0.03648% | 83     |  0.036% | 
 | 242  | Florges            |  0.03604% | 82     |  0.036% | 
 | 243  | Delphox            |  0.03604% | 82     |  0.036% | 
 | 244  | Tyrantrum          |  0.03604% | 82     |  0.036% | 
 | 245  | Rotom-Wash         |  0.03516% | 80     |  0.035% | 
 | 246  | Azumarill          |  0.03472% | 79     |  0.035% | 
 | 247  | Rayquaza           |  0.03472% | 79     |  0.035% | 
 | 248  | Golem              |  0.03428% | 78     |  0.034% | 
 | 249  | Gastly             |  0.03384% | 77     |  0.034% | 
 | 250  | Probopass          |  0.03384% | 77     |  0.034% | 
 | 251  | Scizor             |  0.03252% | 74     |  0.033% | 
 | 252  | Nidoking           |  0.03208% | 73     |  0.032% | 
 | 253  | Charizard          |  0.03208% | 73     |  0.032% | 
 | 254  | Trevenant          |  0.03164% | 72     |  0.032% | 
 | 255  | Gyarados           |  0.03120% | 71     |  0.031% | 
 | 256  | Terrakion          |  0.03077% | 70     |  0.031% | 
 | 257  | Luxray             |  0.03077% | 70     |  0.031% | 
 | 258  | Eelektross         |  0.03033% | 69     |  0.030% | 
 | 259  | Sunflora           |  0.02989% | 68     |  0.030% | 
 | 260  | Typhlosion         |  0.02989% | 68     |  0.030% | 
 | 261  | Lucario            |  0.02989% | 68     |  0.030% | 
 | 262  | Durant             |  0.02945% | 67     |  0.029% | 
 | 263  | Pyroar             |  0.02945% | 67     |  0.029% | 
 | 264  | Gardevoir          |  0.02945% | 67     |  0.029% | 
 | 265  | Carbink            |  0.02901% | 66     |  0.029% | 
 | 266  | Shaymin            |  0.02857% | 65     |  0.029% | 
 | 267  | Rotom              |  0.02813% | 64     |  0.028% | 
 | 268  | Sigilyph           |  0.02813% | 64     |  0.028% | 
 | 269  | Duskull            |  0.02813% | 64     |  0.028% | 
 | 270  | Farfetch'd         |  0.02813% | 64     |  0.028% | 
 | 271  | Landorus           |  0.02725% | 62     |  0.027% | 
 | 272  | Castform           |  0.02725% | 62     |  0.027% | 
 | 273  | Starmie            |  0.02681% | 61     |  0.027% | 
 | 274  | Pichu              |  0.02681% | 61     |  0.027% | 
 | 275  | Chesnaught         |  0.02681% | 61     |  0.027% | 
 | 276  | Scrafty            |  0.02681% | 61     |  0.027% | 
 | 277  | Krookodile         |  0.02637% | 60     |  0.026% | 
 | 278  | Weezing            |  0.02593% | 59     |  0.026% | 
 | 279  | Conkeldurr         |  0.02549% | 58     |  0.025% | 
 | 280  | Zubat              |  0.02549% | 58     |  0.025% | 
 | 281  | Raticate           |  0.02461% | 56     |  0.025% | 
 | 282  | Cobalion           |  0.02461% | 56     |  0.025% | 
 | 283  | Caterpie           |  0.02461% | 56     |  0.025% | 
 | 284  | Slakoth            |  0.02417% | 55     |  0.024% | 
 | 285  | Kabutops           |  0.02417% | 55     |  0.024% | 
 | 286  | Alakazam           |  0.02373% | 54     |  0.024% | 
 | 287  | Dedenne            |  0.02373% | 54     |  0.024% | 
 | 288  | Arbok              |  0.02373% | 54     |  0.024% | 
 | 289  | Charmander         |  0.02329% | 53     |  0.023% | 
 | 290  | Mandibuzz          |  0.02241% | 51     |  0.022% | 
 | 291  | Tangrowth          |  0.02241% | 51     |  0.022% | 
 | 292  | Ambipom            |  0.02241% | 51     |  0.022% | 
 | 293  | Cottonee           |  0.02241% | 51     |  0.022% | 
 | 294  | Jellicent          |  0.02198% | 50     |  0.022% | 
 | 295  | Ledian             |  0.02154% | 49     |  0.022% | 
 | 296  | Scyther            |  0.02154% | 49     |  0.022% | 
 | 297  | Quagsire           |  0.02154% | 49     |  0.022% | 
 | 298  | Rhydon             |  0.02154% | 49     |  0.022% | 
 | 299  | Golurk             |  0.02154% | 49     |  0.022% | 
 | 300  | Vanillite          |  0.02154% | 49     |  0.022% | 
 | 301  | Octillery          |  0.02110% | 48     |  0.021% | 
 | 302  | Flygon             |  0.02110% | 48     |  0.021% | 
 | 303  | Wurmple            |  0.02110% | 48     |  0.021% | 
 | 304  | Munchlax           |  0.02110% | 48     |  0.021% | 
 | 305  | Alomomola          |  0.02066% | 47     |  0.021% | 
 | 306  | Pachirisu          |  0.02066% | 47     |  0.021% | 
 | 307  | Politoed           |  0.02022% | 46     |  0.020% | 
 | 308  | Ninetales          |  0.01934% | 44     |  0.019% | 
 | 309  | Bellsprout         |  0.01934% | 44     |  0.019% | 
 | 310  | Wynaut             |  0.01934% | 44     |  0.019% | 
 | 311  | Wigglytuff         |  0.01934% | 44     |  0.019% | 
 | 312  | Hoopa              |  0.01890% | 43     |  0.019% | 
 | 313  | Grovyle            |  0.01890% | 43     |  0.019% | 
 | 314  | Gastrodon          |  0.01890% | 43     |  0.019% | 
 | 315  | Tentacruel         |  0.01890% | 43     |  0.019% | 
 | 316  | Sceptile           |  0.01846% | 42     |  0.018% | 
 | 317  | Linoone            |  0.01846% | 42     |  0.018% | 
 | 318  | Kyurem             |  0.01846% | 42     |  0.018% | 
 | 319  | Ludicolo           |  0.01846% | 42     |  0.018% | 
 | 320  | Swampert           |  0.01846% | 42     |  0.018% | 
 | 321  | Metagross          |  0.01802% | 41     |  0.018% | 
 | 322  | Seismitoad         |  0.01802% | 41     |  0.018% | 
 | 323  | Dodrio             |  0.01802% | 41     |  0.018% | 
 | 324  | Sudowoodo          |  0.01802% | 41     |  0.018% | 
 | 325  | Haunter            |  0.01802% | 41     |  0.018% | 
 | 326  | Cinccino           |  0.01802% | 41     |  0.018% | 
 | 327  | Spinda             |  0.01802% | 41     |  0.018% | 
 | 328  | Arceus-Grass       |  0.01802% | 41     |  0.018% | 
 | 329  | Omanyte            |  0.01758% | 40     |  0.018% | 
 | 330  | Magcargo           |  0.01758% | 40     |  0.018% | 
 | 331  | Salamence          |  0.01758% | 40     |  0.018% | 
 | 332  | Miltank            |  0.01758% | 40     |  0.018% | 
 | 333  | Rapidash           |  0.01714% | 39     |  0.017% | 
 | 334  | Exeggutor          |  0.01626% | 37     |  0.016% | 
 | 335  | Emboar             |  0.01626% | 37     |  0.016% | 
 | 336  | Squirtle           |  0.01626% | 37     |  0.016% | 
 | 337  | Bronzong           |  0.01626% | 37     |  0.016% | 
 | 338  | Muk                |  0.01626% | 37     |  0.016% | 
 | 339  | Malamar            |  0.01582% | 36     |  0.016% | 
 | 340  | Bibarel            |  0.01538% | 35     |  0.015% | 
 | 341  | Magmortar          |  0.01538% | 35     |  0.015% | 
 | 342  | Ralts              |  0.01538% | 35     |  0.015% | 
 | 343  | Kakuna             |  0.01538% | 35     |  0.015% | 
 | 344  | Jumpluff           |  0.01538% | 35     |  0.015% | 
 | 345  | Oddish             |  0.01538% | 35     |  0.015% | 
 | 346  | Armaldo            |  0.01538% | 35     |  0.015% | 
 | 347  | Samurott           |  0.01538% | 35     |  0.015% | 
 | 348  | Reuniclus          |  0.01494% | 34     |  0.015% | 
 | 349  | Hitmonchan         |  0.01494% | 34     |  0.015% | 
 | 350  | Uxie               |  0.01494% | 34     |  0.015% | 
 | 351  | Sawsbuck           |  0.01494% | 34     |  0.015% | 
 | 352  | Omastar            |  0.01406% | 32     |  0.014% | 
 | 353  | Jynx               |  0.01406% | 32     |  0.014% | 
 | 354  | Steelix            |  0.01406% | 32     |  0.014% | 
 | 355  | Latias             |  0.01406% | 32     |  0.014% | 
 | 356  | Gigalith           |  0.01406% | 32     |  0.014% | 
 | 357  | Virizion           |  0.01406% | 32     |  0.014% | 
 | 358  | Gourgeist-Super    |  0.01406% | 32     |  0.014% | 
 | 359  | Absol              |  0.01362% | 31     |  0.014% | 
 | 360  | Vespiquen          |  0.01362% | 31     |  0.014% | 
 | 361  | Hariyama           |  0.01362% | 31     |  0.014% | 
 | 362  | Lopunny            |  0.01362% | 31     |  0.014% | 
 | 363  | Delibird           |  0.01362% | 31     |  0.014% | 
 | 364  | Meganium           |  0.01362% | 31     |  0.014% | 
 | 365  | Mime Jr.           |  0.01319% | 30     |  0.013% | 
 | 366  | Venusaur           |  0.01319% | 30     |  0.013% | 
 | 367  | Rotom-Fan          |  0.01319% | 30     |  0.013% | 
 | 368  | Aurorus            |  0.01319% | 30     |  0.013% | 
 | 369  | Dragonair          |  0.01319% | 30     |  0.013% | 
 | 370  | Slowbro            |  0.01275% | 29     |  0.013% | 
 | 371  | Dragalge           |  0.01275% | 29     |  0.013% | 
 | 372  | Budew              |  0.01275% | 29     |  0.013% | 
 | 373  | Honchkrow          |  0.01275% | 29     |  0.013% | 
 | 374  | Lairon             |  0.01275% | 29     |  0.013% | 
 | 375  | Igglybuff          |  0.01275% | 29     |  0.013% | 
 | 376  | Swinub             |  0.01275% | 29     |  0.013% | 
 | 377  | Mienshao           |  0.01275% | 29     |  0.013% | 
 | 378  | Tangela            |  0.01231% | 28     |  0.012% | 
 | 379  | Stoutland          |  0.01231% | 28     |  0.012% | 
 | 380  | Gallade            |  0.01231% | 28     |  0.012% | 
 | 381  | Braviary           |  0.01231% | 28     |  0.012% | 
 | 382  | Donphan            |  0.01231% | 28     |  0.012% | 
 | 383  | Zigzagoon          |  0.01231% | 28     |  0.012% | 
 | 384  | Lilligant          |  0.01231% | 28     |  0.012% | 
 | 385  | Tynamo             |  0.01231% | 28     |  0.012% | 
 | 386  | Cradily            |  0.01231% | 28     |  0.012% | 
 | 387  | Hoppip             |  0.01231% | 28     |  0.012% | 
 | 388  | Butterfree         |  0.01187% | 27     |  0.012% | 
 | 389  | Cherrim            |  0.01187% | 27     |  0.012% | 
 | 390  | Zebstrika          |  0.01187% | 27     |  0.012% | 
 | 391  | Ferroseed          |  0.01187% | 27     |  0.012% | 
 | 392  | Noctowl            |  0.01187% | 27     |  0.012% | 
 | 393  | Sawk               |  0.01187% | 27     |  0.012% | 
 | 394  | Mantyke            |  0.01187% | 27     |  0.012% | 
 | 395  | Piplup             |  0.01143% | 26     |  0.011% | 
 | 396  | Granbull           |  0.01143% | 26     |  0.011% | 
 | 397  | Togetic            |  0.01143% | 26     |  0.011% | 
 | 398  | Onix               |  0.01143% | 26     |  0.011% | 
 | 399  | Slowking           |  0.01143% | 26     |  0.011% | 
 | 400  | Mightyena          |  0.01143% | 26     |  0.011% | 
 | 401  | Emolga             |  0.01099% | 25     |  0.011% | 
 | 402  | Tornadus           |  0.01099% | 25     |  0.011% | 
 | 403  | Gligar             |  0.01099% | 25     |  0.011% | 
 | 404  | Pangoro            |  0.01099% | 25     |  0.011% | 
 | 405  | Tauros             |  0.01099% | 25     |  0.011% | 
 | 406  | Riolu              |  0.01099% | 25     |  0.011% | 
 | 407  | Ampharos           |  0.01055% | 24     |  0.011% | 
 | 408  | Venomoth           |  0.01055% | 24     |  0.011% | 
 | 409  | Chatot             |  0.01055% | 24     |  0.011% | 
 | 410  | Corsola            |  0.01055% | 24     |  0.011% | 
 | 411  | Hitmonlee          |  0.01055% | 24     |  0.011% | 
 | 412  | Slurpuff           |  0.01055% | 24     |  0.011% | 
 | 413  | Persian            |  0.01055% | 24     |  0.011% | 
 | 414  | Goomy              |  0.01055% | 24     |  0.011% | 
 | 415  | Stunfisk           |  0.01055% | 24     |  0.011% | 
 | 416  | Sneasel            |  0.01055% | 24     |  0.011% | 
 | 417  | Blastoise          |  0.01011% | 23     |  0.010% | 
 | 418  | Swellow            |  0.00967% | 22     |  0.010% | 
 | 419  | Garbodor           |  0.00967% | 22     |  0.010% | 
 | 420  | Snivy              |  0.00967% | 22     |  0.010% | 
 | 421  | Rotom-Mow          |  0.00923% | 21     |  0.009% | 
 | 422  | Floatzel           |  0.00923% | 21     |  0.009% | 
 | 423  | Luvdisc            |  0.00923% | 21     |  0.009% | 
 | 424  | Taillow            |  0.00923% | 21     |  0.009% | 
 | 425  | Furret             |  0.00923% | 21     |  0.009% | 
 | 426  | Hypno              |  0.00923% | 21     |  0.009% | 
 | 427  | Porygon            |  0.00923% | 21     |  0.009% | 
 | 428  | Honedge            |  0.00923% | 21     |  0.009% | 
 | 429  | Sliggoo            |  0.00923% | 21     |  0.009% | 
 | 430  | Delcatty           |  0.00923% | 21     |  0.009% | 
 | 431  | Diggersby          |  0.00923% | 21     |  0.009% | 
 | 432  | Barbaracle         |  0.00923% | 21     |  0.009% | 
 | 433  | Cubone             |  0.00923% | 21     |  0.009% | 
 | 434  | Snubbull           |  0.00879% | 20     |  0.009% | 
 | 435  | Lickitung          |  0.00879% | 20     |  0.009% | 
 | 436  | Qwilfish           |  0.00879% | 20     |  0.009% | 
 | 437  | Altaria            |  0.00879% | 20     |  0.009% | 
 | 438  | Silcoon            |  0.00879% | 20     |  0.009% | 
 | 439  | Tropius            |  0.00879% | 20     |  0.009% | 
 | 440  | Feebas             |  0.00879% | 20     |  0.009% | 
 | 441  | Misdreavus         |  0.00879% | 20     |  0.009% | 
 | 442  | Unfezant           |  0.00879% | 20     |  0.009% | 
 | 443  | Poliwrath          |  0.00835% | 19     |  0.008% | 
 | 444  | Victreebel         |  0.00835% | 19     |  0.008% | 
 | 445  | Solrock            |  0.00835% | 19     |  0.008% | 
 | 446  | Liepard            |  0.00835% | 19     |  0.008% | 
 | 447  | Chimecho           |  0.00835% | 19     |  0.008% | 
 | 448  | Ducklett           |  0.00835% | 19     |  0.008% | 
 | 449  | Machoke            |  0.00835% | 19     |  0.008% | 
 | 450  | Pelipper           |  0.00835% | 19     |  0.008% | 
 | 451  | Hitmontop          |  0.00835% | 19     |  0.008% | 
 | 452  | Slowpoke           |  0.00791% | 18     |  0.008% | 
 | 453  | Abra               |  0.00791% | 18     |  0.008% | 
 | 454  | Girafarig          |  0.00791% | 18     |  0.008% | 
 | 455  | Heliolisk          |  0.00791% | 18     |  0.008% | 
 | 456  | Masquerain         |  0.00791% | 18     |  0.008% | 
 | 457  | Camerupt           |  0.00791% | 18     |  0.008% | 
 | 458  | Golbat             |  0.00791% | 18     |  0.008% | 
 | 459  | Braixen            |  0.00791% | 18     |  0.008% | 
 | 460  | Foongus            |  0.00791% | 18     |  0.008% | 
 | 461  | Mantine            |  0.00791% | 18     |  0.008% | 
 | 462  | Shelgon            |  0.00791% | 18     |  0.008% | 
 | 463  | Yamask             |  0.00791% | 18     |  0.008% | 
 | 464  | Kricketune         |  0.00791% | 18     |  0.008% | 
 | 465  | Skuntank           |  0.00747% | 17     |  0.007% | 
 | 466  | Archen             |  0.00747% | 17     |  0.007% | 
 | 467  | Claydol            |  0.00747% | 17     |  0.007% | 
 | 468  | Pumpkaboo-Super    |  0.00747% | 17     |  0.007% | 
 | 469  | Clawitzer          |  0.00747% | 17     |  0.007% | 
 | 470  | Heracross          |  0.00747% | 17     |  0.007% | 
 | 471  | Magmar             |  0.00747% | 17     |  0.007% | 
 | 472  | Crawdaunt          |  0.00703% | 16     |  0.007% | 
 | 473  | Pawniard           |  0.00703% | 16     |  0.007% | 
 | 474  | Floette            |  0.00703% | 16     |  0.007% | 
 | 475  | Yanmega            |  0.00703% | 16     |  0.007% | 
 | 476  | Dratini            |  0.00703% | 16     |  0.007% | 
 | 477  | Teddiursa          |  0.00703% | 16     |  0.007% | 
 | 478  | Darumaka           |  0.00703% | 16     |  0.007% | 
 | 479  | Shiftry            |  0.00703% | 16     |  0.007% | 
 | 480  | Psyduck            |  0.00659% | 15     |  0.007% | 
 | 481  | Lanturn            |  0.00659% | 15     |  0.007% | 
 | 482  | Wooper             |  0.00659% | 15     |  0.007% | 
 | 483  | Sharpedo           |  0.00659% | 15     |  0.007% | 
 | 484  | Nidoqueen          |  0.00659% | 15     |  0.007% | 
 | 485  | Furfrou            |  0.00659% | 15     |  0.007% | 
 | 486  | Pineco             |  0.00659% | 15     |  0.007% | 
 | 487  | Primeape           |  0.00659% | 15     |  0.007% | 
 | 488  | Relicanth          |  0.00659% | 15     |  0.007% | 
 | 489  | Happiny            |  0.00659% | 15     |  0.007% | 
 | 490  | Klinklang          |  0.00659% | 15     |  0.007% | 
 | 491  | Kingler            |  0.00659% | 15     |  0.007% | 
 | 492  | Golett             |  0.00659% | 15     |  0.007% | 
 | 493  | Whirlipede         |  0.00615% | 14     |  0.006% | 
 | 494  | Lickilicky         |  0.00615% | 14     |  0.006% | 
 | 495  | Vigoroth           |  0.00615% | 14     |  0.006% | 
 | 496  | Toxicroak          |  0.00615% | 14     |  0.006% | 
 | 497  | Voltorb            |  0.00615% | 14     |  0.006% | 
 | 498  | Snover             |  0.00615% | 14     |  0.006% | 
 | 499  | Gogoat             |  0.00615% | 14     |  0.006% | 
 | 500  | Bagon              |  0.00615% | 14     |  0.006% | 
 | 501  | Lunatone           |  0.00615% | 14     |  0.006% | 
 | 502  | Natu               |  0.00615% | 14     |  0.006% | 
 | 503  | Lillipup           |  0.00571% | 13     |  0.006% | 
 | 504  | Exploud            |  0.00571% | 13     |  0.006% | 
 | 505  | Maractus           |  0.00571% | 13     |  0.006% | 
 | 506  | Clamperl           |  0.00571% | 13     |  0.006% | 
 | 507  | Sandslash          |  0.00571% | 13     |  0.006% | 
 | 508  | Lotad              |  0.00571% | 13     |  0.006% | 
 | 509  | Sewaddle           |  0.00571% | 13     |  0.006% | 
 | 510  | Manectric          |  0.00571% | 13     |  0.006% | 
 | 511  | Pumpkaboo-Small    |  0.00571% | 13     |  0.006% | 
 | 512  | Swadloon           |  0.00571% | 13     |  0.006% | 
 | 513  | Druddigon          |  0.00571% | 13     |  0.006% | 
 | 514  | Gabite             |  0.00571% | 13     |  0.006% | 
 | 515  | Beheeyem           |  0.00571% | 13     |  0.006% | 
 | 516  | Dewgong            |  0.00571% | 13     |  0.006% | 
 | 517  | Swanna             |  0.00527% | 12     |  0.005% | 
 | 518  | Treecko            |  0.00527% | 12     |  0.005% | 
 | 519  | Aerodactyl         |  0.00527% | 12     |  0.005% | 
 | 520  | Hoothoot           |  0.00527% | 12     |  0.005% | 
 | 521  | Combusken          |  0.00527% | 12     |  0.005% | 
 | 522  | Beartic            |  0.00527% | 12     |  0.005% | 
 | 523  | Swirlix            |  0.00483% | 11     |  0.005% | 
 | 524  | Fennekin           |  0.00483% | 11     |  0.005% | 
 | 525  | Simipour           |  0.00483% | 11     |  0.005% | 
 | 526  | Mareep             |  0.00483% | 11     |  0.005% | 
 | 527  | Chespin            |  0.00483% | 11     |  0.005% | 
 | 528  | Vileplume          |  0.00483% | 11     |  0.005% | 
 | 529  | Litwick            |  0.00483% | 11     |  0.005% | 
 | 530  | Combee             |  0.00483% | 11     |  0.005% | 
 | 531  | Exeggcute          |  0.00483% | 11     |  0.005% | 
 | 532  | Zorua              |  0.00440% | 10     |  0.004% | 
 | 533  | Walrein            |  0.00440% | 10     |  0.004% | 
 | 534  | Gourgeist-Small    |  0.00440% | 10     |  0.004% | 
 | 535  | Leavanny           |  0.00440% | 10     |  0.004% | 
 | 536  | Clefairy           |  0.00440% | 10     |  0.004% | 
 | 537  | Glalie             |  0.00440% | 10     |  0.004% | 
 | 538  | Joltik             |  0.00440% | 10     |  0.004% | 
 | 539  | Wingull            |  0.00440% | 10     |  0.004% | 
 | 540  | Carracosta         |  0.00440% | 10     |  0.004% | 
 | 541  | Swoobat            |  0.00440% | 10     |  0.004% | 
 | 542  | Mesprit            |  0.00440% | 10     |  0.004% | 
 | 543  | Phantump           |  0.00440% | 10     |  0.004% | 
 | 544  | Amaura             |  0.00440% | 10     |  0.004% | 
 | 545  | Ivysaur            |  0.00440% | 10     |  0.004% | 
 | 546  | Murkrow            |  0.00440% | 10     |  0.004% | 
 | 547  | Volbeat            |  0.00440% | 10     |  0.004% | 
 | 548  | Simisage           |  0.00440% | 10     |  0.004% | 
 | 549  | Musharna           |  0.00440% | 10     |  0.004% | 
 | 550  | Bonsly             |  0.00440% | 10     |  0.004% | 
 | 551  | Magneton           |  0.00440% | 10     |  0.004% | 
 | 552  | Charmeleon         |  0.00440% | 10     |  0.004% | 
 | 553  | Beautifly          |  0.00440% | 10     |  0.004% | 
 | 554  | Fearow             |  0.00440% | 10     |  0.004% | 
 | 555  | Rhyhorn            |  0.00440% | 10     |  0.004% | 
 | 556  | Buneary            |  0.00396% | 9      |  0.004% | 
 | 557  | Minccino           |  0.00396% | 9      |  0.004% | 
 | 558  | Weepinbell         |  0.00396% | 9      |  0.004% | 
 | 559  | Throh              |  0.00396% | 9      |  0.004% | 
 | 560  | Cacturne           |  0.00396% | 9      |  0.004% | 
 | 561  | Bouffalant         |  0.00396% | 9      |  0.004% | 
 | 562  | Swalot             |  0.00396% | 9      |  0.004% | 
 | 563  | Seviper            |  0.00352% | 8      |  0.004% | 
 | 564  | Huntail            |  0.00352% | 8      |  0.004% | 
 | 565  | Abomasnow          |  0.00352% | 8      |  0.004% | 
 | 566  | Marill             |  0.00352% | 8      |  0.004% | 
 | 567  | Chikorita          |  0.00352% | 8      |  0.004% | 
 | 568  | Medicham           |  0.00352% | 8      |  0.004% | 
 | 569  | Crustle            |  0.00352% | 8      |  0.004% | 
 | 570  | Xatu               |  0.00352% | 8      |  0.004% | 
 | 571  | Seaking            |  0.00352% | 8      |  0.004% | 
 | 572  | Rotom-Frost        |  0.00352% | 8      |  0.004% | 
 | 573  | Kangaskhan         |  0.00352% | 8      |  0.004% | 
 | 574  | Geodude            |  0.00352% | 8      |  0.004% | 
 | 575  | Tyrogue            |  0.00352% | 8      |  0.004% | 
 | 576  | Heatmor            |  0.00352% | 8      |  0.004% | 
 | 577  | Turtwig            |  0.00352% | 8      |  0.004% | 
 | 578  | Houndoom           |  0.00352% | 8      |  0.004% | 
 | 579  | Tyrunt             |  0.00352% | 8      |  0.004% | 
 | 580  | Pidgeot            |  0.00352% | 8      |  0.004% | 
 | 581  | Cleffa             |  0.00308% | 7      |  0.003% | 
 | 582  | Metang             |  0.00308% | 7      |  0.003% | 
 | 583  | Shuppet            |  0.00308% | 7      |  0.003% | 
 | 584  | Togepi             |  0.00308% | 7      |  0.003% | 
 | 585  | Ponyta             |  0.00308% | 7      |  0.003% | 
 | 586  | Watchog            |  0.00308% | 7      |  0.003% | 
 | 587  | Sandshrew          |  0.00308% | 7      |  0.003% | 
 | 588  | Larvitar           |  0.00308% | 7      |  0.003% | 
 | 589  | Drowzee            |  0.00308% | 7      |  0.003% | 
 | 590  | Golduck            |  0.00308% | 7      |  0.003% | 
 | 591  | Flaaffy            |  0.00308% | 7      |  0.003% | 
 | 592  | Smoochum           |  0.00308% | 7      |  0.003% | 
 | 593  | Totodile           |  0.00308% | 7      |  0.003% | 
 | 594  | Chimchar           |  0.00308% | 7      |  0.003% | 
 | 595  | Bronzor            |  0.00308% | 7      |  0.003% | 
 | 596  | Trapinch           |  0.00308% | 7      |  0.003% | 
 | 597  | Litleo             |  0.00308% | 7      |  0.003% | 
 | 598  | Meowth             |  0.00308% | 7      |  0.003% | 
 | 599  | Monferno           |  0.00308% | 7      |  0.003% | 
 | 600  | Numel              |  0.00308% | 7      |  0.003% | 
 | 601  | Skitty             |  0.00308% | 7      |  0.003% | 
 | 602  | Gloom              |  0.00308% | 7      |  0.003% | 
 | 603  | Seadra             |  0.00308% | 7      |  0.003% | 
 | 604  | Frogadier          |  0.00264% | 6      |  0.003% | 
 | 605  | Pignite            |  0.00264% | 6      |  0.003% | 
 | 606  | Doduo              |  0.00264% | 6      |  0.003% | 
 | 607  | Vanillish          |  0.00264% | 6      |  0.003% | 
 | 608  | Kirlia             |  0.00264% | 6      |  0.003% | 
 | 609  | Minun              |  0.00264% | 6      |  0.003% | 
 | 610  | Tepig              |  0.00264% | 6      |  0.003% | 
 | 611  | Wartortle          |  0.00264% | 6      |  0.003% | 
 | 612  | Venipede           |  0.00264% | 6      |  0.003% | 
 | 613  | Carvanha           |  0.00264% | 6      |  0.003% | 
 | 614  | Poochyena          |  0.00264% | 6      |  0.003% | 
 | 615  | Cyndaquil          |  0.00264% | 6      |  0.003% | 
 | 616  | Kadabra            |  0.00264% | 6      |  0.003% | 
 | 617  | Roselia            |  0.00264% | 6      |  0.003% | 
 | 618  | Banette            |  0.00264% | 6      |  0.003% | 
 | 619  | Plusle             |  0.00264% | 6      |  0.003% | 
 | 620  | Croagunk           |  0.00264% | 6      |  0.003% | 
 | 621  | Tympole            |  0.00264% | 6      |  0.003% | 
 | 622  | Kricketot          |  0.00264% | 6      |  0.003% | 
 | 623  | Bergmite           |  0.00264% | 6      |  0.003% | 
 | 624  | Gurdurr            |  0.00264% | 6      |  0.003% | 
 | 625  | Dwebble            |  0.00264% | 6      |  0.003% | 
 | 626  | Vanilluxe          |  0.00264% | 6      |  0.003% | 
 | 627  | Marshtomp          |  0.00264% | 6      |  0.003% | 
 | 628  | Vibrava            |  0.00264% | 6      |  0.003% | 
 | 629  | Snorunt            |  0.00264% | 6      |  0.003% | 
 | 630  | Krabby             |  0.00264% | 6      |  0.003% | 
 | 631  | Froakie            |  0.00264% | 6      |  0.003% | 
 | 632  | Gothitelle         |  0.00220% | 5      |  0.002% | 
 | 633  | Remoraid           |  0.00220% | 5      |  0.002% | 
 | 634  | Barboach           |  0.00220% | 5      |  0.002% | 
 | 635  | Kecleon            |  0.00220% | 5      |  0.002% | 
 | 636  | Spearow            |  0.00220% | 5      |  0.002% | 
 | 637  | Buizel             |  0.00220% | 5      |  0.002% | 
 | 638  | Beedrill           |  0.00220% | 5      |  0.002% | 
 | 639  | Pinsir             |  0.00220% | 5      |  0.002% | 
 | 640  | Wormadam-Trash     |  0.00220% | 5      |  0.002% | 
 | 641  | Trubbish           |  0.00220% | 5      |  0.002% | 
 | 642  | Finneon            |  0.00220% | 5      |  0.002% | 
 | 643  | Grumpig            |  0.00220% | 5      |  0.002% | 
 | 644  | Shinx              |  0.00220% | 5      |  0.002% | 
 | 645  | Croconaw           |  0.00220% | 5      |  0.002% | 
 | 646  | Palpitoad          |  0.00220% | 5      |  0.002% | 
 | 647  | Phione             |  0.00220% | 5      |  0.002% | 
 | 648  | Shieldon           |  0.00220% | 5      |  0.002% | 
 | 649  | Pupitar            |  0.00220% | 5      |  0.002% | 
 | 650  | Cryogonal          |  0.00220% | 5      |  0.002% | 
 | 651  | Torchic            |  0.00220% | 5      |  0.002% | 
 | 652  | Flabebe            |  0.00220% | 5      |  0.002% | 
 | 653  | Mankey             |  0.00176% | 4      |  0.002% | 
 | 654  | Basculin           |  0.00176% | 4      |  0.002% | 
 | 655  | Zweilous           |  0.00176% | 4      |  0.002% | 
 | 656  | Paras              |  0.00176% | 4      |  0.002% | 
 | 657  | Pidove             |  0.00176% | 4      |  0.002% | 
 | 658  | Purrloin           |  0.00176% | 4      |  0.002% | 
 | 659  | Parasect           |  0.00176% | 4      |  0.002% | 
 | 660  | Vulpix             |  0.00176% | 4      |  0.002% | 
 | 661  | Noibat             |  0.00176% | 4      |  0.002% | 
 | 662  | Gible              |  0.00176% | 4      |  0.002% | 
 | 663  | Mothim             |  0.00176% | 4      |  0.002% | 
 | 664  | Audino             |  0.00176% | 4      |  0.002% | 
 | 665  | Sentret            |  0.00176% | 4      |  0.002% | 
 | 666  | Servine            |  0.00176% | 4      |  0.002% | 
 | 667  | Growlithe          |  0.00176% | 4      |  0.002% | 
 | 668  | Simisear           |  0.00176% | 4      |  0.002% | 
 | 669  | Drilbur            |  0.00176% | 4      |  0.002% | 
 | 670  | Beldum             |  0.00142% | 4      |  0.002% | 
 | 671  | Roggenrola         |  0.00132% | 3      |  0.001% | 
 | 672  | Skiploom           |  0.00132% | 3      |  0.001% | 
 | 673  | Yanma              |  0.00132% | 3      |  0.001% | 
 | 674  | Gourgeist          |  0.00132% | 3      |  0.001% | 
 | 675  | Electabuzz         |  0.00132% | 3      |  0.001% | 
 | 676  | Bunnelby           |  0.00132% | 3      |  0.001% | 
 | 677  | Cherubi            |  0.00132% | 3      |  0.001% | 
 | 678  | Staryu             |  0.00132% | 3      |  0.001% | 
 | 679  | Baltoy             |  0.00132% | 3      |  0.001% | 
 | 680  | Quilava            |  0.00132% | 3      |  0.001% | 
 | 681  | Whiscash           |  0.00132% | 3      |  0.001% | 
 | 682  | Illumise           |  0.00132% | 3      |  0.001% | 
 | 683  | Spewpa             |  0.00132% | 3      |  0.001% | 
 | 684  | Purugly            |  0.00132% | 3      |  0.001% | 
 | 685  | Shellos            |  0.00132% | 3      |  0.001% | 
 | 686  | Corphish           |  0.00132% | 3      |  0.001% | 
 | 687  | Hippopotas         |  0.00132% | 3      |  0.001% | 
 | 688  | Mawile             |  0.00132% | 3      |  0.001% | 
 | 689  | Dewott             |  0.00132% | 3      |  0.001% | 
 | 690  | Horsea             |  0.00132% | 3      |  0.001% | 
 | 691  | Inkay              |  0.00132% | 3      |  0.001% | 
 | 692  | Shelmet            |  0.00132% | 3      |  0.001% | 
 | 693  | Aromatisse         |  0.00132% | 3      |  0.001% | 
 | 694  | Houndour           |  0.00132% | 3      |  0.001% | 
 | 695  | Cacnea             |  0.00132% | 3      |  0.001% | 
 | 696  | Fletchinder        |  0.00088% | 2      |  0.001% | 
 | 697  | Azurill            |  0.00088% | 2      |  0.001% | 
 | 698  | Klink              |  0.00088% | 2      |  0.001% | 
 | 699  | Skrelp             |  0.00088% | 2      |  0.001% | 
 | 700  | Piloswine          |  0.00088% | 2      |  0.001% | 
 | 701  | Deino              |  0.00088% | 2      |  0.001% | 
 | 702  | NidoranM           |  0.00088% | 2      |  0.001% | 
 | 703  | Fletchling         |  0.00088% | 2      |  0.001% | 
 | 704  | Gulpin             |  0.00088% | 2      |  0.001% | 
 | 705  | Cascoon            |  0.00088% | 2      |  0.001% | 
 | 706  | Surskit            |  0.00088% | 2      |  0.001% | 
 | 707  | Bayleef            |  0.00088% | 2      |  0.001% | 
 | 708  | Lumineon           |  0.00088% | 2      |  0.001% | 
 | 709  | Prinplup           |  0.00088% | 2      |  0.001% | 
 | 710  | Gorebyss           |  0.00088% | 2      |  0.001% | 
 | 711  | Lampent            |  0.00088% | 2      |  0.001% | 
 | 712  | Woobat             |  0.00088% | 2      |  0.001% | 
 | 713  | Koffing            |  0.00088% | 2      |  0.001% | 
 | 714  | Shellder           |  0.00088% | 2      |  0.001% | 
 | 715  | Swablu             |  0.00088% | 2      |  0.001% | 
 | 716  | Sandile            |  0.00088% | 2      |  0.001% | 
 | 717  | Patrat             |  0.00088% | 2      |  0.001% | 
 | 718  | Spritzee           |  0.00088% | 2      |  0.001% | 
 | 719  | Karrablast         |  0.00088% | 2      |  0.001% | 
 | 720  | Grimer             |  0.00088% | 2      |  0.001% | 
 | 721  | Wailmer            |  0.00088% | 2      |  0.001% | 
 | 722  | Gourgeist-Large    |  0.00088% | 2      |  0.001% | 
 | 723  | Graveler           |  0.00088% | 2      |  0.001% | 
 | 724  | Pumpkaboo-Large    |  0.00088% | 2      |  0.001% | 
 | 725  | Elekid             |  0.00088% | 2      |  0.001% | 
 | 726  | Krokorok           |  0.00088% | 2      |  0.001% | 
 | 727  | Scatterbug         |  0.00088% | 2      |  0.001% | 
 | 728  | Espurr             |  0.00088% | 2      |  0.001% | 
 | 729  | Carnivine          |  0.00088% | 2      |  0.001% | 
 | 730  | Machop             |  0.00088% | 2      |  0.001% | 
 | 731  | Spinarak           |  0.00088% | 2      |  0.001% | 
 | 732  | Nidorina           |  0.00088% | 2      |  0.001% | 
 | 733  | Ledyba             |  0.00088% | 2      |  0.001% | 
 | 734  | Duosion            |  0.00044% | 1      |  0.000% | 
 | 735  | Binacle            |  0.00044% | 1      |  0.000% | 
 | 736  | Eelektrik          |  0.00044% | 1      |  0.000% | 
 | 737  | Pansear            |  0.00044% | 1      |  0.000% | 
 | 738  | Pansage            |  0.00044% | 1      |  0.000% | 
 | 739  | Seel               |  0.00044% | 1      |  0.000% | 
 | 740  | NidoranF           |  0.00044% | 1      |  0.000% | 
 | 741  | Larvesta           |  0.00044% | 1      |  0.000% | 
 | 742  | Pumpkaboo          |  0.00044% | 1      |  0.000% | 
 | 743  | Chinchou           |  0.00044% | 1      |  0.000% | 
 | 744  | Wormadam-Sandy     |  0.00044% | 1      |  0.000% | 
 | 745  | Cubchoo            |  0.00044% | 1      |  0.000% | 
 | 746  | Spoink             |  0.00044% | 1      |  0.000% | 
 | 747  | Dustox             |  0.00044% | 1      |  0.000% | 
 | 748  | Staravia           |  0.00044% | 1      |  0.000% | 
 | 749  | Lombre             |  0.00044% | 1      |  0.000% | 
 | 750  | Poliwhirl          |  0.00044% | 1      |  0.000% | 
 | 751  | Skorupi            |  0.00044% | 1      |  0.000% | 
 | 752  | Drifloon           |  0.00044% | 1      |  0.000% | 
 | 753  | Pancham            |  0.00044% | 1      |  0.000% | 
 | 754  | Nincada            |  0.00044% | 1      |  0.000% | 
 | 755  | Kabuto             |  0.00044% | 1      |  0.000% | 
 | 756  | Stantler           |  0.00044% | 1      |  0.000% | 
 | 757  | Glameow            |  0.00044% | 1      |  0.000% | 
 | 758  | Petilil            |  0.00044% | 1      |  0.000% | 
 | 759  | Tentacool          |  0.00044% | 1      |  0.000% | 
 | 760  | Vullaby            |  0.00044% | 1      |  0.000% | 
 | 761  | Oshawott           |  0.00044% | 1      |  0.000% | 
 | 762  | Quilladin          |  0.00044% | 1      |  0.000% | 
 | 763  | Herdier            |  0.00044% | 1      |  0.000% | 
 | 764  | Mienfoo            |  0.00044% | 1      |  0.000% | 
 | 765  | Deerling           |  0.00044% | 1      |  0.000% | 
 | 766  | Grotle             |  0.00044% | 1      |  0.000% | 
 | 767  | Tirtouga           |  0.00044% | 1      |  0.000% | 
 | 768  | Slugma             |  0.00044% | 1      |  0.000% | 
 | 769  | Whismur            |  0.00044% | 1      |  0.000% | 
 | 770  | Cranidos           |  0.00044% | 1      |  0.000% | 
 | 771  | Burmy              |  0.00044% | 1      |  0.000% | 
 + ---- + ------------------ + --------- + ------ + ------- + 
