 Total leads: 227534
 + ---- + ------------------ + --------- + ------ + ------- + 
 | Rank | Pokemon            | Usage %   | Raw    | %       | 
 + ---- + ------------------ + --------- + ------ + ------- + 
 | 1    | Rayquaza-Mega      | 10.95916% | 14195  |  6.239% | 
 | 2    | Diancie-Mega       |  7.23975% | 7234   |  3.179% | 
 | 3    | Giratina           |  6.12772% | 7037   |  3.093% | 
 | 4    | Deoxys-Speed       |  5.59280% | 11955  |  5.254% | 
 | 5    | Chansey            |  4.20875% | 5891   |  2.589% | 
 | 6    | Mewtwo-Mega-X      |  3.98309% | 5959   |  2.619% | 
 | 7    | Shedinja           |  3.97816% | 17121  |  7.525% | 
 | 8    | Registeel          |  3.95386% | 3382   |  1.486% | 
 | 9    | Gengar-Mega        |  3.53087% | 8055   |  3.540% | 
 | 10   | Mewtwo-Mega-Y      |  2.85102% | 5136   |  2.257% | 
 | 11   | Aegislash          |  2.65177% | 3638   |  1.599% | 
 | 12   | Aerodactyl-Mega    |  2.42420% | 2920   |  1.283% | 
 | 13   | Kyurem-Black       |  2.40671% | 2850   |  1.253% | 
 | 14   | Regigigas          |  1.89103% | 3120   |  1.371% | 
 | 15   | Yveltal            |  1.77860% | 1580   |  0.694% | 
 | 16   | Deoxys-Attack      |  1.62185% | 3563   |  1.566% | 
 | 17   | Slaking            |  1.38486% | 3090   |  1.358% | 
 | 18   | Arceus             |  1.32209% | 2440   |  1.072% | 
 | 19   | Tyranitar-Mega     |  1.28894% | 1525   |  0.670% | 
 | 20   | Shuckle            |  1.20940% | 8326   |  3.659% | 
 | 21   | Lugia              |  1.18705% | 2487   |  1.093% | 
 | 22   | Garchomp-Mega      |  1.18261% | 1964   |  0.863% | 
 | 23   | Audino-Mega        |  1.11468% | 1456   |  0.640% | 
 | 24   | Deoxys-Defense     |  1.03215% | 4605   |  2.024% | 
 | 25   | Groudon            |  1.01978% | 1122   |  0.493% | 
 | 26   | Kyogre             |  1.01827% | 1003   |  0.441% | 
 | 27   | Metagross-Mega     |  1.01230% | 1341   |  0.589% | 
 | 28   | Steelix-Mega       |  0.98114% | 2291   |  1.007% | 
 | 29   | Blissey            |  0.87188% | 4302   |  1.891% | 
 | 30   | Dialga             |  0.87120% | 1532   |  0.673% | 
 | 31   | Latios-Mega        |  0.87046% | 1265   |  0.556% | 
 | 32   | Arceus-Ghost       |  0.84664% | 1060   |  0.466% | 
 | 33   | Giratina-Origin    |  0.78194% | 1255   |  0.552% | 
 | 34   | Ho-Oh              |  0.74716% | 1077   |  0.473% | 
 | 35   | Aggron-Mega        |  0.71732% | 1800   |  0.791% | 
 | 36   | Xerneas            |  0.64302% | 1420   |  0.624% | 
 | 37   | Ferrothorn         |  0.62844% | 1517   |  0.667% | 
 | 38   | Groudon-Primal     |  0.59316% | 800    |  0.352% | 
 | 39   | Gyarados-Mega      |  0.52962% | 716    |  0.315% | 
 | 40   | Slowbro-Mega       |  0.42853% | 765    |  0.336% | 
 | 41   | Swampert-Mega      |  0.39715% | 816    |  0.359% | 
 | 42   | Charizard-Mega-Y   |  0.39026% | 1074   |  0.472% | 
 | 43   | Blaziken-Mega      |  0.35476% | 1783   |  0.784% | 
 | 44   | Arceus-Poison      |  0.32469% | 220    |  0.097% | 
 | 45   | Regirock           |  0.32074% | 418    |  0.184% | 
 | 46   | Alakazam-Mega      |  0.31870% | 1234   |  0.542% | 
 | 47   | Kyurem-White       |  0.31533% | 963    |  0.423% | 
 | 48   | Cresselia          |  0.30291% | 843    |  0.370% | 
 | 49   | Latias-Mega        |  0.30031% | 612    |  0.269% | 
 | 50   | Sceptile-Mega      |  0.29614% | 1046   |  0.460% | 
 | 51   | Banette-Mega       |  0.26990% | 728    |  0.320% | 
 | 52   | Palkia             |  0.26790% | 606    |  0.266% | 
 | 53   | Heatran            |  0.26020% | 699    |  0.307% | 
 | 54   | Venusaur-Mega      |  0.25729% | 871    |  0.383% | 
 | 55   | Reshiram           |  0.25226% | 447    |  0.196% | 
 | 56   | Scizor-Mega        |  0.24129% | 1107   |  0.487% | 
 | 57   | Doublade           |  0.21651% | 184    |  0.081% | 
 | 58   | Weavile            |  0.20452% | 871    |  0.383% | 
 | 59   | Gardevoir-Mega     |  0.19874% | 912    |  0.401% | 
 | 60   | Diancie            |  0.18677% | 154    |  0.068% | 
 | 61   | Arceus-Bug         |  0.17401% | 102    |  0.045% | 
 | 62   | Zekrom             |  0.16627% | 397    |  0.174% | 
 | 63   | Arceus-Fairy       |  0.16430% | 415    |  0.182% | 
 | 64   | Hoopa-Unbound      |  0.16057% | 924    |  0.406% | 
 | 65   | Avalugg            |  0.15411% | 125    |  0.055% | 
 | 66   | Pikachu            |  0.14769% | 719    |  0.316% | 
 | 67   | Lucario-Mega       |  0.14219% | 1272   |  0.559% | 
 | 68   | Lopunny-Mega       |  0.13802% | 765    |  0.336% | 
 | 69   | Manectric-Mega     |  0.13275% | 505    |  0.222% | 
 | 70   | Chandelure         |  0.12795% | 336    |  0.148% | 
 | 71   | Landorus-Therian   |  0.12018% | 241    |  0.106% | 
 | 72   | Heracross-Mega     |  0.11506% | 870    |  0.382% | 
 | 73   | Darkrai            |  0.11309% | 1464   |  0.643% | 
 | 74   | Salamence-Mega     |  0.11284% | 702    |  0.309% | 
 | 75   | Dusclops           |  0.10981% | 358    |  0.157% | 
 | 76   | Kangaskhan-Mega    |  0.10696% | 803    |  0.353% | 
 | 77   | Ninjask            |  0.10337% | 838    |  0.368% | 
 | 78   | Magikarp           |  0.09882% | 1370   |  0.602% | 
 | 79   | Sableye-Mega       |  0.09548% | 1164   |  0.512% | 
 | 80   | Arceus-Dragon      |  0.09449% | 189    |  0.083% | 
 | 81   | Arceus-Steel       |  0.09240% | 360    |  0.158% | 
 | 82   | Arceus-Fire        |  0.08558% | 209    |  0.092% | 
 | 83   | Charizard-Mega-X   |  0.08512% | 1224   |  0.538% | 
 | 84   | Porygon2           |  0.08297% | 106    |  0.047% | 
 | 85   | Mawile-Mega        |  0.07728% | 320    |  0.141% | 
 | 86   | Pinsir-Mega        |  0.07571% | 333    |  0.146% | 
 | 87   | Wobbuffet          |  0.07565% | 366    |  0.161% | 
 | 88   | Arceus-Dark        |  0.07555% | 134    |  0.059% | 
 | 89   | Volcanion          |  0.07226% | 365    |  0.160% | 
 | 90   | Shaymin-Sky        |  0.07191% | 329    |  0.145% | 
 | 91   | Mamoswine          |  0.06864% | 143    |  0.063% | 
 | 92   | Genesect           |  0.06622% | 598    |  0.263% | 
 | 93   | Arceus-Flying      |  0.06429% | 119    |  0.052% | 
 | 94   | Mew                |  0.06426% | 650    |  0.286% | 
 | 95   | Blastoise-Mega     |  0.06416% | 533    |  0.234% | 
 | 96   | Forretress         |  0.06378% | 303    |  0.133% | 
 | 97   | Greninja           |  0.06080% | 1134   |  0.498% | 
 | 98   | Ledian             |  0.05912% | 49     |  0.022% | 
 | 99   | Snorlax            |  0.05812% | 814    |  0.358% | 
 | 100  | Gallade-Mega       |  0.05393% | 575    |  0.253% | 
 | 101  | Porygon-Z          |  0.05298% | 159    |  0.070% | 
 | 102  | Darmanitan         |  0.05152% | 329    |  0.145% | 
 | 103  | Deoxys             |  0.04966% | 218    |  0.096% | 
 | 104  | Arceus-Electric    |  0.04860% | 264    |  0.116% | 
 | 105  | Camerupt-Mega      |  0.04813% | 255    |  0.112% | 
 | 106  | Arceus-Ground      |  0.04674% | 174    |  0.076% | 
 | 107  | Absol-Mega         |  0.04607% | 445    |  0.196% | 
 | 108  | Beedrill-Mega      |  0.04376% | 635    |  0.279% | 
 | 109  | Archeops           |  0.04149% | 217    |  0.095% | 
 | 110  | Abomasnow-Mega     |  0.04147% | 270    |  0.119% | 
 | 111  | Victini            |  0.04139% | 509    |  0.224% | 
 | 112  | Smeargle           |  0.04126% | 519    |  0.228% | 
 | 113  | Ampharos-Mega      |  0.04095% | 286    |  0.126% | 
 | 114  | Amoonguss          |  0.04085% | 158    |  0.069% | 
 | 115  | Meloetta           |  0.04055% | 207    |  0.091% | 
 | 116  | Spiritomb          |  0.04053% | 230    |  0.101% | 
 | 117  | Zapdos             |  0.04008% | 244    |  0.107% | 
 | 118  | Arceus-Water       |  0.03959% | 155    |  0.068% | 
 | 119  | Gengar             |  0.03746% | 316    |  0.139% | 
 | 120  | Umbreon            |  0.03690% | 402    |  0.177% | 
 | 121  | Corsola            |  0.03498% | 24     |  0.011% | 
 | 122  | Altaria-Mega       |  0.03442% | 302    |  0.133% | 
 | 123  | Aron               |  0.03384% | 388    |  0.171% | 
 | 124  | Dugtrio            |  0.03375% | 117    |  0.051% | 
 | 125  | Rotom-Heat         |  0.03367% | 144    |  0.063% | 
 | 126  | Dusknoir           |  0.03211% | 160    |  0.070% | 
 | 127  | Regice             |  0.03159% | 256    |  0.113% | 
 | 128  | Thundurus-Therian  |  0.03143% | 245    |  0.108% | 
 | 129  | Hippowdon          |  0.03120% | 271    |  0.119% | 
 | 130  | Arceus-Ice         |  0.02999% | 135    |  0.059% | 
 | 131  | Bastiodon          |  0.02997% | 157    |  0.069% | 
 | 132  | Zygarde            |  0.02882% | 414    |  0.182% | 
 | 133  | Rattata            |  0.02810% | 856    |  0.376% | 
 | 134  | Crobat             |  0.02797% | 260    |  0.114% | 
 | 135  | Thundurus          |  0.02694% | 145    |  0.064% | 
 | 136  | Pidgeot-Mega       |  0.02591% | 415    |  0.182% | 
 | 137  | Jirachi            |  0.02563% | 230    |  0.101% | 
 | 138  | Eevee              |  0.02480% | 128    |  0.056% | 
 | 139  | Suicune            |  0.02463% | 163    |  0.072% | 
 | 140  | Ditto              |  0.02376% | 456    |  0.200% | 
 | 141  | Bellossom          |  0.02297% | 83     |  0.036% | 
 | 142  | Trevenant          |  0.02247% | 72     |  0.032% | 
 | 143  | Empoleon           |  0.02182% | 299    |  0.131% | 
 | 144  | Klefki             |  0.02177% | 221    |  0.097% | 
 | 145  | Chimecho           |  0.02123% | 19     |  0.008% | 
 | 146  | Latios             |  0.02048% | 115    |  0.051% | 
 | 147  | Arceus-Rock        |  0.01965% | 87     |  0.038% | 
 | 148  | Mandibuzz          |  0.01899% | 51     |  0.022% | 
 | 149  | Skarmory           |  0.01882% | 188    |  0.083% | 
 | 150  | Keldeo             |  0.01812% | 148    |  0.065% | 
 | 151  | Cofagrigus         |  0.01804% | 184    |  0.081% | 
 | 152  | Linoone            |  0.01800% | 42     |  0.018% | 
 | 153  | Volcarona          |  0.01775% | 251    |  0.110% | 
 | 154  | Probopass          |  0.01764% | 77     |  0.034% | 
 | 155  | Arceus-Psychic     |  0.01747% | 225    |  0.099% | 
 | 156  | Goodra             |  0.01734% | 397    |  0.174% | 
 | 157  | Dragonite          |  0.01727% | 435    |  0.191% | 
 | 158  | Arceus-Fighting    |  0.01697% | 85     |  0.037% | 
 | 159  | Lapras             |  0.01625% | 97     |  0.043% | 
 | 160  | Electrode          |  0.01524% | 106    |  0.047% | 
 | 161  | Rhyperior          |  0.01463% | 180    |  0.079% | 
 | 162  | Staraptor          |  0.01424% | 148    |  0.065% | 
 | 163  | Jolteon            |  0.01421% | 236    |  0.104% | 
 | 164  | Drapion            |  0.01328% | 107    |  0.047% | 
 | 165  | Togekiss           |  0.01308% | 191    |  0.084% | 
 | 166  | Arcanine           |  0.01283% | 180    |  0.079% | 
 | 167  | Infernape          |  0.01249% | 384    |  0.169% | 
 | 168  | Arceus-Grass       |  0.01241% | 41     |  0.018% | 
 | 169  | Zubat              |  0.01200% | 58     |  0.025% | 
 | 170  | Espeon             |  0.01160% | 105    |  0.046% | 
 | 171  | Landorus           |  0.01143% | 62     |  0.027% | 
 | 172  | Drifblim           |  0.01137% | 102    |  0.045% | 
 | 173  | Kyogre-Primal      |  0.01061% | 176    |  0.077% | 
 | 174  | Pangoro            |  0.01050% | 25     |  0.011% | 
 | 175  | Talonflame         |  0.01044% | 169    |  0.074% | 
 | 176  | Torterra           |  0.01039% | 115    |  0.051% | 
 | 177  | Rhydon             |  0.01038% | 49     |  0.022% | 
 | 178  | Crawdaunt          |  0.01034% | 16     |  0.007% | 
 | 179  | Clefable           |  0.01027% | 208    |  0.091% | 
 | 180  | Ambipom            |  0.01017% | 51     |  0.022% | 
 | 181  | Gallade            |  0.01003% | 28     |  0.012% | 
 | 182  | Bidoof             |  0.00984% | 172    |  0.076% | 
 | 183  | Mewtwo             |  0.00947% | 169    |  0.074% | 
 | 184  | Accelgor           |  0.00920% | 151    |  0.066% | 
 | 185  | Azelf              |  0.00913% | 164    |  0.072% | 
 | 186  | Gliscor            |  0.00898% | 297    |  0.131% | 
 | 187  | Duskull            |  0.00897% | 64     |  0.028% | 
 | 188  | Magnezone          |  0.00870% | 169    |  0.074% | 
 | 189  | Entei              |  0.00868% | 118    |  0.052% | 
 | 190  | Flareon            |  0.00844% | 100    |  0.044% | 
 | 191  | Haunter            |  0.00836% | 41     |  0.018% | 
 | 192  | Serperior          |  0.00835% | 278    |  0.122% | 
 | 193  | Garchomp           |  0.00817% | 182    |  0.080% | 
 | 194  | Seedot             |  0.00806% | 90     |  0.040% | 
 | 195  | Nosepass           |  0.00801% | 97     |  0.043% | 
 | 196  | Rotom-Wash         |  0.00800% | 80     |  0.035% | 
 | 197  | Breloom            |  0.00799% | 211    |  0.093% | 
 | 198  | Tyranitar          |  0.00784% | 140    |  0.062% | 
 | 199  | Excadrill          |  0.00779% | 124    |  0.054% | 
 | 200  | Shaymin            |  0.00778% | 65     |  0.029% | 
 | 201  | Gyarados           |  0.00778% | 71     |  0.031% | 
 | 202  | Glalie-Mega        |  0.00777% | 106    |  0.047% | 
 | 203  | Raikou             |  0.00774% | 145    |  0.064% | 
 | 204  | Cobalion           |  0.00757% | 56     |  0.025% | 
 | 205  | Floette-Eternal-Flower |  0.00756% | 145    |  0.064% | 
 | 206  | Sunkern            |  0.00756% | 183    |  0.080% | 
 | 207  | Marowak            |  0.00747% | 128    |  0.056% | 
 | 208  | Caterpie           |  0.00725% | 56     |  0.025% | 
 | 209  | Politoed           |  0.00712% | 46     |  0.020% | 
 | 210  | Glaceon            |  0.00689% | 114    |  0.050% | 
 | 211  | Charizard          |  0.00684% | 73     |  0.032% | 
 | 212  | Hydreigon          |  0.00682% | 146    |  0.064% | 
 | 213  | Galvantula         |  0.00680% | 154    |  0.068% | 
 | 214  | Ninetales          |  0.00677% | 44     |  0.019% | 
 | 215  | Hariyama           |  0.00667% | 31     |  0.014% | 
 | 216  | Jumpluff           |  0.00656% | 35     |  0.015% | 
 | 217  | Skuntank           |  0.00633% | 17     |  0.007% | 
 | 218  | Slowbro            |  0.00631% | 29     |  0.013% | 
 | 219  | Sableye            |  0.00627% | 104    |  0.046% | 
 | 220  | Noivern            |  0.00618% | 127    |  0.056% | 
 | 221  | Oddish             |  0.00614% | 35     |  0.015% | 
 | 222  | Sharpedo-Mega      |  0.00593% | 109    |  0.048% | 
 | 223  | Whimsicott         |  0.00582% | 165    |  0.073% | 
 | 224  | Zoroark            |  0.00580% | 141    |  0.062% | 
 | 225  | Tornadus-Therian   |  0.00574% | 105    |  0.046% | 
 | 226  | Spinda             |  0.00573% | 41     |  0.018% | 
 | 227  | Honedge            |  0.00547% | 21     |  0.009% | 
 | 228  | Magmortar          |  0.00530% | 35     |  0.015% | 
 | 229  | Tyrantrum          |  0.00527% | 82     |  0.036% | 
 | 230  | Houndoom-Mega      |  0.00520% | 203    |  0.089% | 
 | 231  | Hawlucha           |  0.00520% | 151    |  0.066% | 
 | 232  | Sylveon            |  0.00517% | 232    |  0.102% | 
 | 233  | Golett             |  0.00511% | 15     |  0.007% | 
 | 234  | Electivire         |  0.00506% | 159    |  0.070% | 
 | 235  | Braviary           |  0.00498% | 28     |  0.012% | 
 | 236  | Manaphy            |  0.00498% | 120    |  0.053% | 
 | 237  | Ursaring           |  0.00494% | 102    |  0.045% | 
 | 238  | Sewaddle           |  0.00491% | 13     |  0.006% | 
 | 239  | Chesnaught         |  0.00490% | 61     |  0.027% | 
 | 240  | Dedenne            |  0.00487% | 54     |  0.024% | 
 | 241  | Abomasnow          |  0.00480% | 8      |  0.004% | 
 | 242  | Gastrodon          |  0.00451% | 43     |  0.019% | 
 | 243  | Cloyster           |  0.00443% | 207    |  0.091% | 
 | 244  | Sandslash          |  0.00442% | 13     |  0.006% | 
 | 245  | Medicham-Mega      |  0.00440% | 190    |  0.084% | 
 | 246  | Celebi             |  0.00440% | 104    |  0.046% | 
 | 247  | Unown              |  0.00435% | 86     |  0.038% | 
 | 248  | Lilligant          |  0.00435% | 28     |  0.012% | 
 | 249  | Kyurem             |  0.00433% | 42     |  0.018% | 
 | 250  | Mismagius          |  0.00433% | 83     |  0.036% | 
 | 251  | Articuno           |  0.00425% | 122    |  0.054% | 
 | 252  | Starly             |  0.00423% | 113    |  0.050% | 
 | 253  | Octillery          |  0.00416% | 48     |  0.021% | 
 | 254  | Starmie            |  0.00411% | 61     |  0.027% | 
 | 255  | Misdreavus         |  0.00409% | 20     |  0.009% | 
 | 256  | Ponyta             |  0.00405% | 7      |  0.003% | 
 | 257  | Machamp            |  0.00401% | 99     |  0.044% | 
 | 258  | Farfetch'd         |  0.00400% | 64     |  0.028% | 
 | 259  | Eelektross         |  0.00395% | 69     |  0.030% | 
 | 260  | Weedle             |  0.00394% | 84     |  0.037% | 
 | 261  | Typhlosion         |  0.00392% | 68     |  0.030% | 
 | 262  | Mudkip             |  0.00391% | 103    |  0.045% | 
 | 263  | Vivillon           |  0.00383% | 95     |  0.042% | 
 | 264  | Bronzong           |  0.00380% | 37     |  0.016% | 
 | 265  | Ampharos           |  0.00374% | 24     |  0.011% | 
 | 266  | Durant             |  0.00373% | 67     |  0.029% | 
 | 267  | Magnemite          |  0.00368% | 142    |  0.062% | 
 | 268  | Lucario            |  0.00366% | 68     |  0.030% | 
 | 269  | Swampert           |  0.00364% | 42     |  0.018% | 
 | 270  | Snivy              |  0.00362% | 22     |  0.010% | 
 | 271  | Diglett            |  0.00350% | 101    |  0.044% | 
 | 272  | Cottonee           |  0.00343% | 51     |  0.022% | 
 | 273  | Escavalier         |  0.00341% | 92     |  0.040% | 
 | 274  | Conkeldurr         |  0.00331% | 58     |  0.025% | 
 | 275  | Alomomola          |  0.00330% | 47     |  0.021% | 
 | 276  | Milotic            |  0.00321% | 136    |  0.060% | 
 | 277  | Bisharp            |  0.00320% | 168    |  0.074% | 
 | 278  | Budew              |  0.00300% | 29     |  0.013% | 
 | 279  | Sigilyph           |  0.00298% | 64     |  0.028% | 
 | 280  | Scyther            |  0.00296% | 49     |  0.022% | 
 | 281  | Pyroar             |  0.00295% | 67     |  0.029% | 
 | 282  | Golbat             |  0.00295% | 18     |  0.008% | 
 | 283  | Roserade           |  0.00294% | 111    |  0.049% | 
 | 284  | Seadra             |  0.00293% | 7      |  0.003% | 
 | 285  | Golurk             |  0.00293% | 49     |  0.022% | 
 | 286  | Jellicent          |  0.00289% | 50     |  0.022% | 
 | 287  | Weezing            |  0.00286% | 59     |  0.026% | 
 | 288  | Aggron             |  0.00274% | 106    |  0.047% | 
 | 289  | Froslass           |  0.00267% | 85     |  0.037% | 
 | 290  | Minun              |  0.00260% | 6      |  0.003% | 
 | 291  | Kingdra            |  0.00246% | 89     |  0.039% | 
 | 292  | Mr. Mime           |  0.00245% | 122    |  0.054% | 
 | 293  | Carbink            |  0.00243% | 66     |  0.029% | 
 | 294  | Ralts              |  0.00243% | 35     |  0.015% | 
 | 295  | Venomoth           |  0.00241% | 24     |  0.011% | 
 | 296  | Tentacruel         |  0.00239% | 43     |  0.019% | 
 | 297  | Scizor             |  0.00224% | 74     |  0.033% | 
 | 298  | Vileplume          |  0.00224% | 11     |  0.005% | 
 | 299  | Kabutops           |  0.00223% | 55     |  0.024% | 
 | 300  | Blastoise          |  0.00222% | 23     |  0.010% | 
 | 301  | Abra               |  0.00222% | 18     |  0.008% | 
 | 302  | Zorua              |  0.00218% | 10     |  0.004% | 
 | 303  | Florges            |  0.00212% | 82     |  0.036% | 
 | 304  | Gourgeist-Super    |  0.00208% | 32     |  0.014% | 
 | 305  | Pachirisu          |  0.00207% | 47     |  0.021% | 
 | 306  | Rotom              |  0.00204% | 64     |  0.028% | 
 | 307  | Alakazam           |  0.00202% | 54     |  0.024% | 
 | 308  | Beartic            |  0.00201% | 12     |  0.005% | 
 | 309  | Rapidash           |  0.00201% | 39     |  0.017% | 
 | 310  | Nidoking           |  0.00199% | 73     |  0.032% | 
 | 311  | Feraligatr         |  0.00195% | 88     |  0.039% | 
 | 312  | Rampardos          |  0.00193% | 118    |  0.052% | 
 | 313  | Haxorus            |  0.00193% | 128    |  0.056% | 
 | 314  | Pelipper           |  0.00191% | 19     |  0.008% | 
 | 315  | Uxie               |  0.00183% | 34     |  0.015% | 
 | 316  | Archen             |  0.00176% | 17     |  0.007% | 
 | 317  | Porygon            |  0.00175% | 21     |  0.009% | 
 | 318  | Bulbasaur          |  0.00171% | 97     |  0.043% | 
 | 319  | Honchkrow          |  0.00170% | 29     |  0.013% | 
 | 320  | Scolipede          |  0.00169% | 182    |  0.080% | 
 | 321  | Leafeon            |  0.00167% | 94     |  0.041% | 
 | 322  | Wailord            |  0.00163% | 169    |  0.074% | 
 | 323  | Golem              |  0.00161% | 78     |  0.034% | 
 | 324  | Victreebel         |  0.00157% | 19     |  0.008% | 
 | 325  | Meganium           |  0.00155% | 31     |  0.014% | 
 | 326  | Snubbull           |  0.00150% | 20     |  0.009% | 
 | 327  | Mienshao           |  0.00148% | 29     |  0.013% | 
 | 328  | Wurmple            |  0.00148% | 48     |  0.021% | 
 | 329  | Muk                |  0.00147% | 37     |  0.016% | 
 | 330  | Latias             |  0.00144% | 32     |  0.014% | 
 | 331  | Blaziken           |  0.00140% | 133    |  0.058% | 
 | 332  | Arbok              |  0.00139% | 54     |  0.024% | 
 | 333  | Terrakion          |  0.00139% | 70     |  0.031% | 
 | 334  | Vaporeon           |  0.00139% | 110    |  0.048% | 
 | 335  | Venusaur           |  0.00137% | 30     |  0.013% | 
 | 336  | Ludicolo           |  0.00131% | 42     |  0.018% | 
 | 337  | Raichu             |  0.00130% | 99     |  0.044% | 
 | 338  | Bellsprout         |  0.00129% | 44     |  0.019% | 
 | 339  | Zigzagoon          |  0.00124% | 28     |  0.012% | 
 | 340  | Quilava            |  0.00122% | 3      |  0.001% | 
 | 341  | Barboach           |  0.00121% | 5      |  0.002% | 
 | 342  | Tangrowth          |  0.00121% | 51     |  0.022% | 
 | 343  | Azumarill          |  0.00120% | 79     |  0.035% | 
 | 344  | Castform           |  0.00120% | 62     |  0.027% | 
 | 345  | Smoochum           |  0.00119% | 7      |  0.003% | 
 | 346  | Qwilfish           |  0.00118% | 20     |  0.009% | 
 | 347  | Swinub             |  0.00114% | 29     |  0.013% | 
 | 348  | Hoopa              |  0.00111% | 43     |  0.019% | 
 | 349  | Armaldo            |  0.00108% | 35     |  0.015% | 
 | 350  | Gardevoir          |  0.00107% | 67     |  0.029% | 
 | 351  | Emolga             |  0.00105% | 25     |  0.011% | 
 | 352  | Buneary            |  0.00104% | 9      |  0.004% | 
 | 353  | Joltik             |  0.00101% | 10     |  0.004% | 
 | 354  | Delphox            |  0.00101% | 82     |  0.036% | 
 | 355  | Masquerain         |  0.00097% | 18     |  0.008% | 
 | 356  | Dunsparce          |  0.00097% | 140    |  0.062% | 
 | 357  | Butterfree         |  0.00096% | 27     |  0.012% | 
 | 358  | Cubone             |  0.00096% | 21     |  0.009% | 
 | 359  | Granbull           |  0.00094% | 26     |  0.011% | 
 | 360  | Krokorok           |  0.00092% | 2      |  0.001% | 
 | 361  | Phantump           |  0.00091% | 10     |  0.004% | 
 | 362  | Cinccino           |  0.00091% | 41     |  0.018% | 
 | 363  | Metapod            |  0.00089% | 124    |  0.054% | 
 | 364  | Magcargo           |  0.00089% | 40     |  0.018% | 
 | 365  | Emboar             |  0.00088% | 37     |  0.016% | 
 | 366  | Tropius            |  0.00088% | 20     |  0.009% | 
 | 367  | Kakuna             |  0.00082% | 35     |  0.015% | 
 | 368  | Raticate           |  0.00082% | 56     |  0.025% | 
 | 369  | Grovyle            |  0.00079% | 43     |  0.019% | 
 | 370  | Swadloon           |  0.00079% | 13     |  0.006% | 
 | 371  | Igglybuff          |  0.00078% | 29     |  0.013% | 
 | 372  | Unfezant           |  0.00078% | 20     |  0.009% | 
 | 373  | Gastly             |  0.00077% | 77     |  0.034% | 
 | 374  | Steelix            |  0.00074% | 32     |  0.014% | 
 | 375  | Remoraid           |  0.00071% | 5      |  0.002% | 
 | 376  | Bagon              |  0.00071% | 14     |  0.006% | 
 | 377  | Plusle             |  0.00066% | 6      |  0.003% | 
 | 378  | Fearow             |  0.00066% | 10     |  0.004% | 
 | 379  | Omanyte            |  0.00065% | 40     |  0.018% | 
 | 380  | Samurott           |  0.00064% | 35     |  0.015% | 
 | 381  | Hitmonlee          |  0.00064% | 24     |  0.011% | 
 | 382  | Trapinch           |  0.00063% | 7      |  0.003% | 
 | 383  | Gigalith           |  0.00062% | 32     |  0.014% | 
 | 384  | Persian            |  0.00062% | 24     |  0.011% | 
 | 385  | Happiny            |  0.00061% | 15     |  0.007% | 
 | 386  | Ariados            |  0.00060% | 105    |  0.046% | 
 | 387  | Vullaby            |  0.00059% | 1      |  0.000% | 
 | 388  | Tornadus           |  0.00059% | 25     |  0.011% | 
 | 389  | Kadabra            |  0.00059% | 6      |  0.003% | 
 | 390  | Krookodile         |  0.00057% | 60     |  0.026% | 
 | 391  | Clamperl           |  0.00057% | 13     |  0.006% | 
 | 392  | Munchlax           |  0.00055% | 48     |  0.021% | 
 | 393  | Miltank            |  0.00055% | 40     |  0.018% | 
 | 394  | Scrafty            |  0.00054% | 61     |  0.027% | 
 | 395  | Moltres            |  0.00054% | 128    |  0.056% | 
 | 396  | Girafarig          |  0.00054% | 18     |  0.008% | 
 | 397  | Omastar            |  0.00053% | 32     |  0.014% | 
 | 398  | Yanmega            |  0.00053% | 16     |  0.007% | 
 | 399  | Flygon             |  0.00053% | 48     |  0.021% | 
 | 400  | Togetic            |  0.00052% | 26     |  0.011% | 
 | 401  | Gourgeist-Small    |  0.00052% | 10     |  0.004% | 
 | 402  | Shellos            |  0.00052% | 3      |  0.001% | 
 | 403  | Torkoal            |  0.00049% | 110    |  0.048% | 
 | 404  | Finneon            |  0.00048% | 5      |  0.002% | 
 | 405  | Lickitung          |  0.00047% | 20     |  0.009% | 
 | 406  | Parasect           |  0.00047% | 4      |  0.002% | 
 | 407  | Weepinbell         |  0.00047% | 9      |  0.004% | 
 | 408  | Pineco             |  0.00045% | 15     |  0.007% | 
 | 409  | Vespiquen          |  0.00045% | 31     |  0.014% | 
 | 410  | Druddigon          |  0.00044% | 13     |  0.006% | 
 | 411  | Aurorus            |  0.00044% | 30     |  0.013% | 
 | 412  | Toxicroak          |  0.00043% | 14     |  0.006% | 
 | 413  | Malamar            |  0.00043% | 36     |  0.016% | 
 | 414  | Noctowl            |  0.00042% | 27     |  0.012% | 
 | 415  | Lairon             |  0.00040% | 29     |  0.013% | 
 | 416  | Donphan            |  0.00040% | 28     |  0.012% | 
 | 417  | Hoothoot           |  0.00038% | 12     |  0.005% | 
 | 418  | Murkrow            |  0.00038% | 10     |  0.004% | 
 | 419  | Rotom-Mow          |  0.00038% | 21     |  0.009% | 
 | 420  | Musharna           |  0.00038% | 10     |  0.004% | 
 | 421  | Pidgey             |  0.00036% | 85     |  0.037% | 
 | 422  | Pignite            |  0.00036% | 6      |  0.003% | 
 | 423  | Sneasel            |  0.00036% | 24     |  0.011% | 
 | 424  | Vanillite          |  0.00036% | 49     |  0.022% | 
 | 425  | Tauros             |  0.00034% | 25     |  0.011% | 
 | 426  | Floette            |  0.00033% | 16     |  0.007% | 
 | 427  | Gurdurr            |  0.00033% | 6      |  0.003% | 
 | 428  | Darumaka           |  0.00031% | 16     |  0.007% | 
 | 429  | Liepard            |  0.00031% | 19     |  0.008% | 
 | 430  | Goomy              |  0.00031% | 24     |  0.011% | 
 | 431  | Rayquaza           |  0.00030% | 79     |  0.035% | 
 | 432  | Chatot             |  0.00030% | 24     |  0.011% | 
 | 433  | Cradily            |  0.00029% | 28     |  0.012% | 
 | 434  | Leavanny           |  0.00028% | 10     |  0.004% | 
 | 435  | Bergmite           |  0.00027% | 6      |  0.003% | 
 | 436  | Swanna             |  0.00027% | 12     |  0.005% | 
 | 437  | Cherrim            |  0.00027% | 27     |  0.012% | 
 | 438  | Hypno              |  0.00027% | 21     |  0.009% | 
 | 439  | Whirlipede         |  0.00027% | 14     |  0.006% | 
 | 440  | Reuniclus          |  0.00026% | 34     |  0.015% | 
 | 441  | Gabite             |  0.00026% | 13     |  0.006% | 
 | 442  | Hitmontop          |  0.00025% | 19     |  0.008% | 
 | 443  | Slakoth            |  0.00024% | 55     |  0.024% | 
 | 444  | Claydol            |  0.00024% | 17     |  0.007% | 
 | 445  | Trubbish           |  0.00024% | 5      |  0.002% | 
 | 446  | Delcatty           |  0.00024% | 21     |  0.009% | 
 | 447  | Houndour           |  0.00023% | 3      |  0.001% | 
 | 448  | Aerodactyl         |  0.00023% | 12     |  0.005% | 
 | 449  | Seviper            |  0.00023% | 8      |  0.004% | 
 | 450  | Wynaut             |  0.00022% | 44     |  0.019% | 
 | 451  | Dodrio             |  0.00021% | 41     |  0.018% | 
 | 452  | Croagunk           |  0.00021% | 6      |  0.003% | 
 | 453  | Swellow            |  0.00021% | 22     |  0.010% | 
 | 454  | Totodile           |  0.00021% | 7      |  0.003% | 
 | 455  | Quagsire           |  0.00021% | 49     |  0.022% | 
 | 456  | Luvdisc            |  0.00020% | 21     |  0.009% | 
 | 457  | Heliolisk          |  0.00020% | 18     |  0.008% | 
 | 458  | Roselia            |  0.00020% | 6      |  0.003% | 
 | 459  | Barbaracle         |  0.00020% | 21     |  0.009% | 
 | 460  | Salamence          |  0.00019% | 40     |  0.018% | 
 | 461  | Maractus           |  0.00019% | 13     |  0.006% | 
 | 462  | Tynamo             |  0.00019% | 28     |  0.012% | 
 | 463  | Chimchar           |  0.00017% | 7      |  0.003% | 
 | 464  | Lunatone           |  0.00017% | 14     |  0.006% | 
 | 465  | Sudowoodo          |  0.00017% | 41     |  0.018% | 
 | 466  | Luxray             |  0.00016% | 70     |  0.031% | 
 | 467  | Feebas             |  0.00016% | 20     |  0.009% | 
 | 468  | Pumpkaboo-Super    |  0.00016% | 17     |  0.007% | 
 | 469  | Squirtle           |  0.00015% | 37     |  0.016% | 
 | 470  | Sentret            |  0.00015% | 4      |  0.002% | 
 | 471  | Dragonair          |  0.00014% | 30     |  0.013% | 
 | 472  | Rotom-Fan          |  0.00014% | 30     |  0.013% | 
 | 473  | Heatmor            |  0.00014% | 8      |  0.004% | 
 | 474  | Exeggutor          |  0.00013% | 37     |  0.016% | 
 | 475  | Clawitzer          |  0.00013% | 17     |  0.007% | 
 | 476  | Zweilous           |  0.00012% | 4      |  0.002% | 
 | 477  | Walrein            |  0.00012% | 10     |  0.004% | 
 | 478  | Wigglytuff         |  0.00012% | 44     |  0.019% | 
 | 479  | Fennekin           |  0.00012% | 11     |  0.005% | 
 | 480  | Virizion           |  0.00011% | 32     |  0.014% | 
 | 481  | Delibird           |  0.00011% | 31     |  0.014% | 
 | 482  | Pichu              |  0.00011% | 61     |  0.027% | 
 | 483  | Stunfisk           |  0.00010% | 24     |  0.011% | 
 | 484  | Vigoroth           |  0.00010% | 14     |  0.006% | 
 | 485  | Lickilicky         |  0.00010% | 14     |  0.006% | 
 | 486  | Cyndaquil          |  0.00010% | 6      |  0.003% | 
 | 487  | Braixen            |  0.00010% | 18     |  0.008% | 
 | 488  | Gourgeist          |  0.00009% | 3      |  0.001% | 
 | 489  | Kirlia             |  0.00009% | 6      |  0.003% | 
 | 490  | Drowzee            |  0.00009% | 7      |  0.003% | 
 | 491  | Dragalge           |  0.00009% | 29     |  0.013% | 
 | 492  | Crustle            |  0.00009% | 8      |  0.004% | 
 | 493  | Hitmonchan         |  0.00008% | 34     |  0.015% | 
 | 494  | Lanturn            |  0.00008% | 15     |  0.007% | 
 | 495  | Sunflora           |  0.00008% | 68     |  0.030% | 
 | 496  | Simipour           |  0.00008% | 11     |  0.005% | 
 | 497  | Shuppet            |  0.00008% | 7      |  0.003% | 
 | 498  | Vanilluxe          |  0.00007% | 6      |  0.003% | 
 | 499  | Jigglypuff         |  0.00007% | 90     |  0.040% | 
 | 500  | Tyrunt             |  0.00007% | 8      |  0.004% | 
 | 501  | Meowth             |  0.00006% | 7      |  0.003% | 
 | 502  | Cacturne           |  0.00006% | 9      |  0.004% | 
 | 503  | Amaura             |  0.00006% | 10     |  0.004% | 
 | 504  | Swirlix            |  0.00006% | 11     |  0.005% | 
 | 505  | Dewgong            |  0.00006% | 13     |  0.006% | 
 | 506  | Riolu              |  0.00005% | 25     |  0.011% | 
 | 507  | Sliggoo            |  0.00005% | 21     |  0.009% | 
 | 508  | Sceptile           |  0.00005% | 42     |  0.018% | 
 | 509  | Slurpuff           |  0.00005% | 24     |  0.011% | 
 | 510  | Hippopotas         |  0.00004% | 3      |  0.001% | 
 | 511  | Phione             |  0.00004% | 5      |  0.002% | 
 | 512  | Nidoqueen          |  0.00004% | 15     |  0.007% | 
 | 513  | Dratini            |  0.00004% | 16     |  0.007% | 
 | 514  | Cherubi            |  0.00004% | 3      |  0.001% | 
 | 515  | Pumpkaboo-Small    |  0.00004% | 13     |  0.006% | 
 | 516  | Beautifly          |  0.00004% | 10     |  0.004% | 
 | 517  | Paras              |  0.00004% | 4      |  0.002% | 
 | 518  | Absol              |  0.00004% | 31     |  0.014% | 
 | 519  | Shiftry            |  0.00003% | 16     |  0.007% | 
 | 520  | Gogoat             |  0.00003% | 14     |  0.006% | 
 | 521  | Silcoon            |  0.00003% | 20     |  0.009% | 
 | 522  | Combusken          |  0.00003% | 12     |  0.005% | 
 | 523  | Bibarel            |  0.00003% | 35     |  0.015% | 
 | 524  | Glalie             |  0.00003% | 10     |  0.004% | 
 | 525  | Yamask             |  0.00003% | 18     |  0.008% | 
 | 526  | Tirtouga           |  0.00003% | 1      |  0.000% | 
 | 527  | Ivysaur            |  0.00003% | 10     |  0.004% | 
 | 528  | Altaria            |  0.00003% | 20     |  0.009% | 
 | 529  | Gulpin             |  0.00003% | 2      |  0.001% | 
 | 530  | Vanillish          |  0.00003% | 6      |  0.003% | 
 | 531  | Ferroseed          |  0.00002% | 27     |  0.012% | 
 | 532  | Furret             |  0.00002% | 21     |  0.009% | 
 | 533  | Heracross          |  0.00002% | 17     |  0.007% | 
 | 534  | Minccino           |  0.00002% | 9      |  0.004% | 
 | 535  | Croconaw           |  0.00002% | 5      |  0.002% | 
 | 536  | Charmander         |  0.00002% | 53     |  0.023% | 
 | 537  | Klink              |  0.00002% | 2      |  0.001% | 
 | 538  | Houndoom           |  0.00002% | 8      |  0.004% | 
 | 539  | Torchic            |  0.00002% | 5      |  0.002% | 
 | 540  | Foongus            |  0.00002% | 18     |  0.008% | 
 | 541  | Flabebe            |  0.00002% | 5      |  0.002% | 
 | 542  | Clefairy           |  0.00002% | 10     |  0.004% | 
 | 543  | Swalot             |  0.00001% | 9      |  0.004% | 
 | 544  | Zangoose           |  0.00001% | 87     |  0.038% | 
 | 545  | Wooper             |  0.00001% | 15     |  0.007% | 
 | 546  | Wormadam-Sandy     |  0.00001% | 1      |  0.000% | 
 | 547  | Gloom              |  0.00001% | 7      |  0.003% | 
 | 548  | Tangela            |  0.00001% | 28     |  0.012% | 
 | 549  | Garbodor           |  0.00001% | 22     |  0.010% | 
 | 550  | Jynx               |  0.00001% | 32     |  0.014% | 
 | 551  | Bayleef            |  0.00001% | 2      |  0.001% | 
 | 552  | Lopunny            |  0.00001% | 31     |  0.014% | 
 | 553  | Tentacool          |  0.00001% | 1      |  0.000% | 
 | 554  | Rotom-Frost        |  0.00001% | 8      |  0.004% | 
 | 555  | Carracosta         |  0.00001% | 10     |  0.004% | 
 | 556  | Natu               |  0.00001% | 14     |  0.006% | 
 | 557  | Floatzel           |  0.00001% | 21     |  0.009% | 
 | 558  | Solrock            |  0.00001% | 19     |  0.008% | 
 | 559  | Numel              |  0.00001% | 7      |  0.003% | 
 | 560  | Cryogonal          |  0.00001% | 5      |  0.002% | 
 | 561  | Exploud            |  0.00001% | 13     |  0.006% | 
 | 562  | Mantine            |  0.00001% | 18     |  0.008% | 
 | 563  | Kingler            |  0.00000% | 15     |  0.007% | 
 | 564  | Drifloon           |  0.00000% | 1      |  0.000% | 
 | 565  | Tepig              |  0.00000% | 6      |  0.003% | 
 | 566  | Mareep             |  0.00000% | 11     |  0.005% | 
 | 567  | Sawsbuck           |  0.00000% | 34     |  0.015% | 
 | 568  | Palpitoad          |  0.00000% | 5      |  0.002% | 
 | 569  | Magneton           |  0.00000% | 10     |  0.004% | 
 | 570  | Snorunt            |  0.00000% | 6      |  0.003% | 
 | 571  | Skitty             |  0.00000% | 7      |  0.003% | 
 | 572  | Stantler           |  0.00000% | 1      |  0.000% | 
 | 573  | Medicham           |  0.00000% | 8      |  0.004% | 
 | 574  | Hoppip             |  0.00000% | 28     |  0.012% | 
 | 575  | Machoke            |  0.00000% | 19     |  0.008% | 
 | 576  | Poliwrath          |  0.00000% | 19     |  0.008% | 
 | 577  | Tyrogue            |  0.00000% | 8      |  0.004% | 
 | 578  | Grimer             |  0.00000% | 2      |  0.001% | 
 | 579  | Furfrou            |  0.00000% | 15     |  0.007% | 
 | 580  | Marill             |  0.00000% | 8      |  0.004% | 
 | 581  | Servine            |  0.00000% | 4      |  0.002% | 
 | 582  | Doduo              |  0.00000% | 6      |  0.003% | 
 | 583  | Swoobat            |  0.00000% | 10     |  0.004% | 
 | 584  | Stoutland          |  0.00000% | 28     |  0.012% | 
 | 585  | Meowstic           |  0.00000% | 86     |  0.038% | 
 | 586  | Watchog            |  0.00000% | 7      |  0.003% | 
 | 587  | Volbeat            |  0.00000% | 10     |  0.004% | 
 | 588  | Mantyke            |  0.00000% | 27     |  0.012% | 
 | 589  | Lotad              |  0.00000% | 13     |  0.006% | 
 | 590  | Simisage           |  0.00000% | 10     |  0.004% | 
 | 591  | Treecko            |  0.00000% | 12     |  0.005% | 
 | 592  | Koffing            |  0.00000% | 2      |  0.001% | 
 | 593  | Charmeleon         |  0.00000% | 10     |  0.004% | 
 | 594  | Quilladin          |  0.00000% | 1      |  0.000% | 
 | 595  | Zebstrika          |  0.00000% | 27     |  0.012% | 
 | 596  | Bunnelby           |  0.00000% | 3      |  0.001% | 
 | 597  | Burmy              |  0.00000% | 1      |  0.000% | 
 | 598  | Lillipup           |  0.00000% | 13     |  0.006% | 
 | 599  | Dwebble            |  0.00000% | 6      |  0.003% | 
 | 600  | Throh              |  0.00000% | 9      |  0.004% | 
 | 601  | Mightyena          |  0.00000% | 26     |  0.011% | 
 | 602  | Patrat             |  0.00000% | 2      |  0.001% | 
 | 603  | Slowking           |  0.00000% | 26     |  0.011% | 
 | 604  | Ducklett           |  0.00000% | 19     |  0.008% | 
 | 605  | Fletchinder        |  0.00000% | 2      |  0.001% | 
 | 606  | Buizel             |  0.00000% | 5      |  0.002% | 
 | 607  | Chikorita          |  0.00000% | 8      |  0.004% | 
 | 608  | Gorebyss           |  0.00000% | 2      |  0.001% | 
 | 609  | Slowpoke           |  0.00000% | 18     |  0.008% | 
 | 610  | Seismitoad         |  0.00000% | 41     |  0.018% | 
 | 611  | Aromatisse         |  0.00000% | 3      |  0.001% | 
 | 612  | Gligar             |  0.00000% | 25     |  0.011% | 
 | 613  | Sawk               |  0.00000% | 27     |  0.012% | 
 | 614  | Chinchou           |  0.00000% | 1      |  0.000% | 
 | 615  | Sharpedo           |  0.00000% | 15     |  0.007% | 
 | 616  | Shelmet            |  0.00000% | 3      |  0.001% | 
 | 617  | Litwick            |  0.00000% | 11     |  0.005% | 
 | 618  | Togepi             |  0.00000% | 7      |  0.003% | 
 | 619  | Onix               |  0.00000% | 26     |  0.011% | 
 | 620  | Marshtomp          |  0.00000% | 6      |  0.003% | 
 | 621  | Froakie            |  0.00000% | 6      |  0.003% | 
 | 622  | Gourgeist-Large    |  0.00000% | 2      |  0.001% | 
 | 623  | Snover             |  0.00000% | 14     |  0.006% | 
 | 624  | Klinklang          |  0.00000% | 15     |  0.007% | 
 | 625  | Psyduck            |  0.00000% | 15     |  0.007% | 
 | 626  | Bonsly             |  0.00000% | 10     |  0.004% | 
 | 627  | Noibat             |  0.00000% | 4      |  0.002% | 
 | 628  | Piplup             |  0.00000% | 26     |  0.011% | 
 | 629  | Metagross          |  0.00000% | 41     |  0.018% | 
 | 630  | Diggersby          |  0.00000% | 21     |  0.009% | 
 | 631  | Shelgon            |  0.00000% | 18     |  0.008% | 
 | 632  | Voltorb            |  0.00000% | 14     |  0.006% | 
 | 633  | Seaking            |  0.00000% | 8      |  0.004% | 
 | 634  | Kecleon            |  0.00000% | 5      |  0.002% | 
 | 635  | Pidgeot            |  0.00000% | 8      |  0.004% | 
 | 636  | Grumpig            |  0.00000% | 5      |  0.002% | 
 | 637  | Electabuzz         |  0.00000% | 3      |  0.001% | 
 | 638  | Pupitar            |  0.00000% | 5      |  0.002% | 
 | 639  | Pawniard           |  0.00000% | 16     |  0.007% | 
 | 640  | Camerupt           |  0.00000% | 18     |  0.008% | 
 | 641  | Primeape           |  0.00000% | 15     |  0.007% | 
 | 642  | Combee             |  0.00000% | 11     |  0.005% | 
 | 643  | Mime Jr.           |  0.00000% | 30     |  0.013% | 
 | 644  | Manectric          |  0.00000% | 13     |  0.006% | 
 | 645  | Lumineon           |  0.00000% | 2      |  0.001% | 
 | 646  | Geodude            |  0.00000% | 8      |  0.004% | 
 | 647  | Simisear           |  0.00000% | 4      |  0.002% | 
 | 648  | Spewpa             |  0.00000% | 3      |  0.001% | 
 | 649  | Beheeyem           |  0.00000% | 13     |  0.006% | 
 | 650  | Beedrill           |  0.00000% | 5      |  0.002% | 
 | 651  | Pinsir             |  0.00000% | 5      |  0.002% | 
 | 652  | Relicanth          |  0.00000% | 15     |  0.007% | 
 | 653  | Kangaskhan         |  0.00000% | 8      |  0.004% | 
 | 654  | Golduck            |  0.00000% | 7      |  0.003% | 
 | 655  | Woobat             |  0.00000% | 2      |  0.001% | 
 | 656  | Shellder           |  0.00000% | 2      |  0.001% | 
 | 657  | Wartortle          |  0.00000% | 6      |  0.003% | 
 | 658  | Kricketune         |  0.00000% | 18     |  0.008% | 
 | 659  | Purugly            |  0.00000% | 3      |  0.001% | 
 | 660  | Drilbur            |  0.00000% | 4      |  0.002% | 
 | 661  | Bronzor            |  0.00000% | 7      |  0.003% | 
 | 662  | Taillow            |  0.00000% | 21     |  0.009% | 
 | 663  | Teddiursa          |  0.00000% | 16     |  0.007% | 
 | 664  | Magmar             |  0.00000% | 17     |  0.007% | 
 | 665  | Spearow            |  0.00000% | 5      |  0.002% | 
 | 666  | Carvanha           |  0.00000% | 6      |  0.003% | 
 | 667  | Illumise           |  0.00000% | 3      |  0.001% | 
 | 668  | Pumpkaboo-Large    |  0.00000% | 2      |  0.001% | 
 | 669  | Banette            |  0.00000% | 6      |  0.003% | 
 | 670  | Shieldon           |  0.00000% | 5      |  0.002% | 
 | 671  | Slugma             |  0.00000% | 1      |  0.000% | 
 | 672  | Roggenrola         |  0.00000% | 3      |  0.001% | 
 | 673  | Metang             |  0.00000% | 7      |  0.003% | 
 | 674  | Mesprit            |  0.00000% | 10     |  0.004% | 
 | 675  | Larvitar           |  0.00000% | 7      |  0.003% | 
 | 676  | Chespin            |  0.00000% | 11     |  0.005% | 
 | 677  | Basculin           |  0.00000% | 4      |  0.002% | 
 | 678  | Swablu             |  0.00000% | 2      |  0.001% | 
 | 679  | Xatu               |  0.00000% | 8      |  0.004% | 
 | 680  | Vibrava            |  0.00000% | 6      |  0.003% | 
 | 681  | Pidove             |  0.00000% | 4      |  0.002% | 
 | 682  | Duosion            |  0.00000% | 1      |  0.000% | 
 | 683  | Frogadier          |  0.00000% | 6      |  0.003% | 
 | 684  | Azurill            |  0.00000% | 2      |  0.001% | 
 | 685  | Cleffa             |  0.00000% | 7      |  0.003% | 
 | 686  | Mankey             |  0.00000% | 4      |  0.002% | 
 | 687  | Skrelp             |  0.00000% | 2      |  0.001% | 
 | 688  | Binacle            |  0.00000% | 1      |  0.000% | 
 | 689  | Eelektrik          |  0.00000% | 1      |  0.000% | 
 | 690  | Huntail            |  0.00000% | 8      |  0.004% | 
 | 691  | Piloswine          |  0.00000% | 2      |  0.001% | 
 | 692  | Pansear            |  0.00000% | 1      |  0.000% | 
 | 693  | Pansage            |  0.00000% | 1      |  0.000% | 
 | 694  | Gothitelle         |  0.00000% | 5      |  0.002% | 
 | 695  | Skiploom           |  0.00000% | 3      |  0.001% | 
 | 696  | Deino              |  0.00000% | 2      |  0.001% | 
 | 697  | NidoranM           |  0.00000% | 2      |  0.001% | 
 | 698  | Seel               |  0.00000% | 1      |  0.000% | 
 | 699  | Yanma              |  0.00000% | 3      |  0.001% | 
 | 700  | NidoranF           |  0.00000% | 1      |  0.000% | 
 | 701  | Larvesta           |  0.00000% | 1      |  0.000% | 
 | 702  | Pumpkaboo          |  0.00000% | 1      |  0.000% | 
 | 703  | Fletchling         |  0.00000% | 2      |  0.001% | 
 | 704  | Wingull            |  0.00000% | 10     |  0.004% | 
 | 705  | Staryu             |  0.00000% | 3      |  0.001% | 
 | 706  | Purrloin           |  0.00000% | 4      |  0.002% | 
 | 707  | Cubchoo            |  0.00000% | 1      |  0.000% | 
 | 708  | Cascoon            |  0.00000% | 2      |  0.001% | 
 | 709  | Surskit            |  0.00000% | 2      |  0.001% | 
 | 710  | Baltoy             |  0.00000% | 3      |  0.001% | 
 | 711  | Venipede           |  0.00000% | 6      |  0.003% | 
 | 712  | Vulpix             |  0.00000% | 4      |  0.002% | 
 | 713  | Whiscash           |  0.00000% | 3      |  0.001% | 
 | 714  | Beldum             |  0.00000% | 4      |  0.002% | 
 | 715  | Sandshrew          |  0.00000% | 7      |  0.003% | 
 | 716  | Spoink             |  0.00000% | 1      |  0.000% | 
 | 717  | Dustox             |  0.00000% | 1      |  0.000% | 
 | 718  | Poochyena          |  0.00000% | 6      |  0.003% | 
 | 719  | Staravia           |  0.00000% | 1      |  0.000% | 
 | 720  | Prinplup           |  0.00000% | 2      |  0.001% | 
 | 721  | Lombre             |  0.00000% | 1      |  0.000% | 
 | 722  | Lampent            |  0.00000% | 2      |  0.001% | 
 | 723  | Poliwhirl          |  0.00000% | 1      |  0.000% | 
 | 724  | Skorupi            |  0.00000% | 1      |  0.000% | 
 | 725  | Corphish           |  0.00000% | 3      |  0.001% | 
 | 726  | Wormadam-Trash     |  0.00000% | 5      |  0.002% | 
 | 727  | Tympole            |  0.00000% | 6      |  0.003% | 
 | 728  | Mawile             |  0.00000% | 3      |  0.001% | 
 | 729  | Kricketot          |  0.00000% | 6      |  0.003% | 
 | 730  | Sandile            |  0.00000% | 2      |  0.001% | 
 | 731  | Gible              |  0.00000% | 4      |  0.002% | 
 | 732  | Flaaffy            |  0.00000% | 7      |  0.003% | 
 | 733  | Dewott             |  0.00000% | 3      |  0.001% | 
 | 734  | Mothim             |  0.00000% | 4      |  0.002% | 
 | 735  | Audino             |  0.00000% | 4      |  0.002% | 
 | 736  | Pancham            |  0.00000% | 1      |  0.000% | 
 | 737  | Spritzee           |  0.00000% | 2      |  0.001% | 
 | 738  | Karrablast         |  0.00000% | 2      |  0.001% | 
 | 739  | Nincada            |  0.00000% | 1      |  0.000% | 
 | 740  | Kabuto             |  0.00000% | 1      |  0.000% | 
 | 741  | Turtwig            |  0.00000% | 8      |  0.004% | 
 | 742  | Glameow            |  0.00000% | 1      |  0.000% | 
 | 743  | Horsea             |  0.00000% | 3      |  0.001% | 
 | 744  | Petilil            |  0.00000% | 1      |  0.000% | 
 | 745  | Shinx              |  0.00000% | 5      |  0.002% | 
 | 746  | Wailmer            |  0.00000% | 2      |  0.001% | 
 | 747  | Growlithe          |  0.00000% | 4      |  0.002% | 
 | 748  | Bouffalant         |  0.00000% | 9      |  0.004% | 
 | 749  | Oshawott           |  0.00000% | 1      |  0.000% | 
 | 750  | Litleo             |  0.00000% | 7      |  0.003% | 
 | 751  | Graveler           |  0.00000% | 2      |  0.001% | 
 | 752  | Herdier            |  0.00000% | 1      |  0.000% | 
 | 753  | Inkay              |  0.00000% | 3      |  0.001% | 
 | 754  | Monferno           |  0.00000% | 7      |  0.003% | 
 | 755  | Mienfoo            |  0.00000% | 1      |  0.000% | 
 | 756  | Elekid             |  0.00000% | 2      |  0.001% | 
 | 757  | Deerling           |  0.00000% | 1      |  0.000% | 
 | 758  | Grotle             |  0.00000% | 1      |  0.000% | 
 | 759  | Scatterbug         |  0.00000% | 2      |  0.001% | 
 | 760  | Exeggcute          |  0.00000% | 11     |  0.005% | 
 | 761  | Krabby             |  0.00000% | 6      |  0.003% | 
 | 762  | Espurr             |  0.00000% | 2      |  0.001% | 
 | 763  | Whismur            |  0.00000% | 1      |  0.000% | 
 | 764  | Carnivine          |  0.00000% | 2      |  0.001% | 
 | 765  | Machop             |  0.00000% | 2      |  0.001% | 
 | 766  | Spinarak           |  0.00000% | 2      |  0.001% | 
 | 767  | Cacnea             |  0.00000% | 3      |  0.001% | 
 | 768  | Nidorina           |  0.00000% | 2      |  0.001% | 
 | 769  | Cranidos           |  0.00000% | 1      |  0.000% | 
 | 770  | Rhyhorn            |  0.00000% | 10     |  0.004% | 
 | 771  | Ledyba             |  0.00000% | 2      |  0.001% | 
 + ---- + ------------------ + --------- + ------ + ------- + 
