 Total leads: 4
 + ---- + ------------------ + --------- + ------ + ------- + 
 | Rank | Pokemon            | Usage %   | Raw    | %       | 
 + ---- + ------------------ + --------- + ------ + ------- + 
 | 1    | Altaria            | 31.40614% | 1      | 25.000% | 
 | 2    | Slowpoke           | 31.40614% | 1      | 25.000% | 
 | 3    | Electabuzz         | 18.59386% | 1      | 25.000% | 
 | 4    | Shuckle            | 18.59386% | 1      | 25.000% | 
 + ---- + ------------------ + --------- + ------ + ------- + 
