 Total leads: 149526
 + ---- + ------------------ + --------- + ------ + ------- + 
 | Rank | Pokemon            | Usage %   | Raw    | %       | 
 + ---- + ------------------ + --------- + ------ + ------- + 
 | 1    | Shuckle            | 10.70537% | 11374  |  7.607% | 
 | 2    | Sableye-Mega       |  8.01478% | 4679   |  3.129% | 
 | 3    | Deoxys-Attack      |  4.33528% | 5245   |  3.508% | 
 | 4    | Diancie-Mega       |  3.89928% | 4707   |  3.148% | 
 | 5    | Lopunny-Mega       |  3.27905% | 1078   |  0.721% | 
 | 6    | Smeargle           |  3.07640% | 4161   |  2.783% | 
 | 7    | Excadrill          |  3.04069% | 1860   |  1.244% | 
 | 8    | Tyranitar          |  2.97947% | 992    |  0.663% | 
 | 9    | Skarmory           |  2.93510% | 2838   |  1.898% | 
 | 10   | Talonflame         |  2.62044% | 3735   |  2.498% | 
 | 11   | Swellow            |  2.61597% | 2612   |  1.747% | 
 | 12   | Azelf              |  2.48577% | 1875   |  1.254% | 
 | 13   | Ferrothorn         |  2.42617% | 2657   |  1.777% | 
 | 14   | Serperior          |  2.09823% | 3052   |  2.041% | 
 | 15   | Groudon-Primal     |  2.00040% | 1631   |  1.091% | 
 | 16   | Heracross-Mega     |  1.62221% | 1804   |  1.206% | 
 | 17   | Heatran            |  1.47202% | 1057   |  0.707% | 
 | 18   | Klefki             |  1.39306% | 2568   |  1.717% | 
 | 19   | Landorus-Therian   |  1.38224% | 2048   |  1.370% | 
 | 20   | Kyogre             |  1.35638% | 1073   |  0.718% | 
 | 21   | Politoed           |  1.30681% | 733    |  0.490% | 
 | 22   | Rotom-Wash         |  1.06237% | 2371   |  1.586% | 
 | 23   | Forretress         |  1.00590% | 1085   |  0.726% | 
 | 24   | Garchomp           |  0.95558% | 917    |  0.613% | 
 | 25   | Ditto              |  0.88009% | 1251   |  0.837% | 
 | 26   | Cloyster           |  0.81961% | 1413   |  0.945% | 
 | 27   | Scizor-Mega        |  0.80610% | 802    |  0.536% | 
 | 28   | Rhyperior          |  0.79823% | 783    |  0.524% | 
 | 29   | Dugtrio            |  0.66490% | 669    |  0.447% | 
 | 30   | Clefable           |  0.62054% | 1277   |  0.854% | 
 | 31   | Gliscor            |  0.58870% | 1442   |  0.964% | 
 | 32   | Hippowdon          |  0.55240% | 880    |  0.589% | 
 | 33   | Scizor             |  0.53934% | 671    |  0.449% | 
 | 34   | Empoleon           |  0.53471% | 345    |  0.231% | 
 | 35   | Ampharos-Mega      |  0.52544% | 720    |  0.482% | 
 | 36   | Scolipede          |  0.52193% | 944    |  0.631% | 
 | 37   | Deoxys-Speed       |  0.44539% | 1356   |  0.907% | 
 | 38   | Xerneas            |  0.41735% | 296    |  0.198% | 
 | 39   | Magnezone          |  0.41384% | 606    |  0.405% | 
 | 40   | Nidoqueen          |  0.38536% | 320    |  0.214% | 
 | 41   | Rampardos          |  0.37994% | 758    |  0.507% | 
 | 42   | Jirachi            |  0.36824% | 846    |  0.566% | 
 | 43   | Arceus             |  0.36687% | 824    |  0.551% | 
 | 44   | Electrode          |  0.36551% | 673    |  0.450% | 
 | 45   | Crobat             |  0.36462% | 647    |  0.433% | 
 | 46   | Yveltal            |  0.35726% | 175    |  0.117% | 
 | 47   | Pikachu            |  0.33564% | 1444   |  0.966% | 
 | 48   | Thundurus          |  0.33069% | 376    |  0.251% | 
 | 49   | Tangrowth          |  0.31913% | 675    |  0.451% | 
 | 50   | Alomomola          |  0.30054% | 258    |  0.173% | 
 | 51   | Zygarde            |  0.29920% | 163    |  0.109% | 
 | 52   | Victini            |  0.29891% | 825    |  0.552% | 
 | 53   | Crawdaunt          |  0.29805% | 515    |  0.344% | 
 | 54   | Amoonguss          |  0.29150% | 516    |  0.345% | 
 | 55   | Steelix-Mega       |  0.29127% | 340    |  0.227% | 
 | 56   | Banette-Mega       |  0.28794% | 182    |  0.122% | 
 | 57   | Hoopa-Unbound      |  0.28490% | 438    |  0.293% | 
 | 58   | Manaphy            |  0.27588% | 387    |  0.259% | 
 | 59   | Sableye            |  0.25873% | 796    |  0.532% | 
 | 60   | Whimsicott         |  0.25792% | 395    |  0.264% | 
 | 61   | Dialga             |  0.25568% | 506    |  0.338% | 
 | 62   | Metagross-Mega     |  0.25539% | 420    |  0.281% | 
 | 63   | Kyurem-White       |  0.25378% | 503    |  0.336% | 
 | 64   | Gigalith           |  0.24662% | 225    |  0.150% | 
 | 65   | Breloom            |  0.24177% | 1072   |  0.717% | 
 | 66   | Giratina-Origin    |  0.24019% | 328    |  0.219% | 
 | 67   | Sylveon            |  0.23560% | 411    |  0.275% | 
 | 68   | Arceus-Water       |  0.23544% | 212    |  0.142% | 
 | 69   | Volcanion          |  0.23542% | 840    |  0.562% | 
 | 70   | Arceus-Ghost       |  0.23322% | 335    |  0.224% | 
 | 71   | Arceus-Fairy       |  0.22554% | 197    |  0.132% | 
 | 72   | Aggron-Mega        |  0.22369% | 664    |  0.444% | 
 | 73   | Cobalion           |  0.22130% | 244    |  0.163% | 
 | 74   | Tentacruel         |  0.21773% | 434    |  0.290% | 
 | 75   | Giratina           |  0.21576% | 288    |  0.193% | 
 | 76   | Tornadus-Therian   |  0.21303% | 387    |  0.259% | 
 | 77   | Donphan            |  0.21241% | 473    |  0.316% | 
 | 78   | Camerupt-Mega      |  0.20775% | 587    |  0.393% | 
 | 79   | Weavile            |  0.20718% | 1023   |  0.684% | 
 | 80   | Slowbro-Mega       |  0.20257% | 362    |  0.242% | 
 | 81   | Kyurem-Black       |  0.20119% | 514    |  0.344% | 
 | 82   | Diancie            |  0.19513% | 367    |  0.245% | 
 | 83   | Tyranitar-Mega     |  0.19239% | 369    |  0.247% | 
 | 84   | Keldeo             |  0.19118% | 481    |  0.322% | 
 | 85   | Espeon             |  0.18911% | 298    |  0.199% | 
 | 86   | Gardevoir-Mega     |  0.18686% | 455    |  0.304% | 
 | 87   | Ninjask            |  0.18173% | 839    |  0.561% | 
 | 88   | Cofagrigus         |  0.17575% | 337    |  0.225% | 
 | 89   | Mewtwo             |  0.16307% | 358    |  0.239% | 
 | 90   | Bisharp            |  0.16046% | 602    |  0.403% | 
 | 91   | Mew                |  0.15698% | 538    |  0.360% | 
 | 92   | Marowak            |  0.15544% | 350    |  0.234% | 
 | 93   | Seismitoad         |  0.15173% | 67     |  0.045% | 
 | 94   | Arceus-Poison      |  0.14864% | 47     |  0.031% | 
 | 95   | Gengar             |  0.14836% | 1007   |  0.673% | 
 | 96   | Beedrill-Mega      |  0.14730% | 628    |  0.420% | 
 | 97   | Azumarill          |  0.14259% | 676    |  0.452% | 
 | 98   | Vaporeon           |  0.14138% | 160    |  0.107% | 
 | 99   | Infernape          |  0.14128% | 565    |  0.378% | 
 | 100  | Machamp            |  0.14113% | 453    |  0.303% | 
 | 101  | Groudon            |  0.13850% | 123    |  0.082% | 
 | 102  | Kyogre-Primal      |  0.13322% | 260    |  0.174% | 
 | 103  | Lanturn            |  0.13062% | 76     |  0.051% | 
 | 104  | Suicune            |  0.12563% | 185    |  0.124% | 
 | 105  | Raikou             |  0.11497% | 332    |  0.222% | 
 | 106  | Dragonite          |  0.11211% | 669    |  0.447% | 
 | 107  | Togekiss           |  0.11124% | 445    |  0.298% | 
 | 108  | Starmie            |  0.11104% | 499    |  0.334% | 
 | 109  | Charizard-Mega-Y   |  0.10652% | 481    |  0.322% | 
 | 110  | Galvantula         |  0.10601% | 705    |  0.471% | 
 | 111  | Golem              |  0.10569% | 130    |  0.087% | 
 | 112  | Conkeldurr         |  0.10363% | 414    |  0.277% | 
 | 113  | Probopass          |  0.10350% | 151    |  0.101% | 
 | 114  | Kecleon            |  0.10233% | 213    |  0.142% | 
 | 115  | Snorlax            |  0.10232% | 499    |  0.334% | 
 | 116  | Cresselia          |  0.09822% | 197    |  0.132% | 
 | 117  | Escavalier         |  0.09744% | 207    |  0.138% | 
 | 118  | Blastoise          |  0.09688% | 86     |  0.058% | 
 | 119  | Mamoswine          |  0.09451% | 205    |  0.137% | 
 | 120  | Aggron             |  0.09324% | 235    |  0.157% | 
 | 121  | Ho-Oh              |  0.09222% | 315    |  0.211% | 
 | 122  | Druddigon          |  0.09014% | 109    |  0.073% | 
 | 123  | Linoone            |  0.08816% | 393    |  0.263% | 
 | 124  | Gyarados-Mega      |  0.08705% | 223    |  0.149% | 
 | 125  | Gothitelle         |  0.08680% | 68     |  0.045% | 
 | 126  | Hawlucha           |  0.08554% | 483    |  0.323% | 
 | 127  | Cinccino           |  0.08548% | 266    |  0.178% | 
 | 128  | Absol-Mega         |  0.08507% | 303    |  0.203% | 
 | 129  | Alakazam           |  0.08468% | 360    |  0.241% | 
 | 130  | Dusknoir           |  0.08146% | 316    |  0.211% | 
 | 131  | Nidoking           |  0.08122% | 491    |  0.328% | 
 | 132  | Dedenne            |  0.08048% | 67     |  0.045% | 
 | 133  | Aerodactyl         |  0.08018% | 242    |  0.162% | 
 | 134  | Latios             |  0.07966% | 212    |  0.142% | 
 | 135  | Hoopa              |  0.07863% | 134    |  0.090% | 
 | 136  | Garchomp-Mega      |  0.07663% | 405    |  0.271% | 
 | 137  | Rotom-Heat         |  0.07419% | 96     |  0.064% | 
 | 138  | Goodra             |  0.07340% | 263    |  0.176% | 
 | 139  | Bronzong           |  0.07112% | 237    |  0.159% | 
 | 140  | Mewtwo-Mega-Y      |  0.06840% | 472    |  0.316% | 
 | 141  | Wobbuffet          |  0.06805% | 145    |  0.097% | 
 | 142  | Volcarona          |  0.06627% | 476    |  0.318% | 
 | 143  | Chandelure         |  0.06625% | 223    |  0.149% | 
 | 144  | Deoxys-Defense     |  0.06510% | 173    |  0.116% | 
 | 145  | Charizard-Mega-X   |  0.06333% | 1062   |  0.710% | 
 | 146  | Entei              |  0.06301% | 170    |  0.114% | 
 | 147  | Abomasnow-Mega     |  0.06266% | 178    |  0.119% | 
 | 148  | Aerodactyl-Mega    |  0.06221% | 140    |  0.094% | 
 | 149  | Sharpedo           |  0.06161% | 131    |  0.088% | 
 | 150  | Venusaur-Mega      |  0.06115% | 260    |  0.174% | 
 | 151  | Wynaut             |  0.05960% | 50     |  0.033% | 
 | 152  | Rhydon             |  0.05948% | 102    |  0.068% | 
 | 153  | Latias             |  0.05903% | 149    |  0.100% | 
 | 154  | Slowbro            |  0.05875% | 306    |  0.205% | 
 | 155  | Blastoise-Mega     |  0.05809% | 360    |  0.241% | 
 | 156  | Eelektross         |  0.05627% | 66     |  0.044% | 
 | 157  | Registeel          |  0.05601% | 168    |  0.112% | 
 | 158  | Salamence          |  0.05565% | 93     |  0.062% | 
 | 159  | Thundurus-Therian  |  0.05463% | 159    |  0.106% | 
 | 160  | Spinda             |  0.05431% | 95     |  0.064% | 
 | 161  | Quagsire           |  0.05322% | 117    |  0.078% | 
 | 162  | Vivillon           |  0.05316% | 62     |  0.041% | 
 | 163  | Altaria-Mega       |  0.05164% | 194    |  0.130% | 
 | 164  | Ludicolo           |  0.05057% | 102    |  0.068% | 
 | 165  | Volbeat            |  0.04852% | 105    |  0.070% | 
 | 166  | Tauros             |  0.04791% | 257    |  0.172% | 
 | 167  | Dragalge           |  0.04755% | 143    |  0.096% | 
 | 168  | Alakazam-Mega      |  0.04747% | 246    |  0.165% | 
 | 169  | Arceus-Rock        |  0.04693% | 60     |  0.040% | 
 | 170  | Darmanitan         |  0.04670% | 276    |  0.185% | 
 | 171  | Arceus-Steel       |  0.04628% | 274    |  0.183% | 
 | 172  | Cryogonal          |  0.04562% | 27     |  0.018% | 
 | 173  | Mandibuzz          |  0.04480% | 137    |  0.092% | 
 | 174  | Ambipom            |  0.04439% | 303    |  0.203% | 
 | 175  | Rayquaza-Mega      |  0.04432% | 316    |  0.211% | 
 | 176  | Manectric-Mega     |  0.04422% | 322    |  0.215% | 
 | 177  | Staraptor          |  0.04414% | 165    |  0.110% | 
 | 178  | Deoxys             |  0.04223% | 178    |  0.119% | 
 | 179  | Arceus-Ground      |  0.04219% | 78     |  0.052% | 
 | 180  | Xatu               |  0.04099% | 77     |  0.051% | 
 | 181  | Heracross          |  0.03943% | 59     |  0.039% | 
 | 182  | Accelgor           |  0.03744% | 344    |  0.230% | 
 | 183  | Palkia             |  0.03644% | 127    |  0.085% | 
 | 184  | Pinsir-Mega        |  0.03616% | 201    |  0.134% | 
 | 185  | Arceus-Electric    |  0.03614% | 62     |  0.041% | 
 | 186  | Avalugg            |  0.03575% | 180    |  0.120% | 
 | 187  | Bastiodon          |  0.03501% | 324    |  0.217% | 
 | 188  | Aegislash          |  0.03490% | 100    |  0.067% | 
 | 189  | Milotic            |  0.03487% | 143    |  0.096% | 
 | 190  | Latias-Mega        |  0.03421% | 66     |  0.044% | 
 | 191  | Persian            |  0.03392% | 164    |  0.110% | 
 | 192  | Doublade           |  0.03235% | 122    |  0.082% | 
 | 193  | Porygon-Z          |  0.03221% | 170    |  0.114% | 
 | 194  | Umbreon            |  0.03166% | 174    |  0.116% | 
 | 195  | Clamperl           |  0.03116% | 87     |  0.058% | 
 | 196  | Tyrantrum          |  0.03099% | 181    |  0.121% | 
 | 197  | Jolteon            |  0.03098% | 235    |  0.157% | 
 | 198  | Zapdos             |  0.02998% | 208    |  0.139% | 
 | 199  | Lucario            |  0.02983% | 252    |  0.169% | 
 | 200  | Noivern            |  0.02912% | 316    |  0.211% | 
 | 201  | Mewtwo-Mega-X      |  0.02872% | 407    |  0.272% | 
 | 202  | Roserade           |  0.02864% | 72     |  0.048% | 
 | 203  | Drapion            |  0.02856% | 124    |  0.083% | 
 | 204  | Steelix            |  0.02802% | 186    |  0.124% | 
 | 205  | Durant             |  0.02759% | 83     |  0.056% | 
 | 206  | Murkrow            |  0.02747% | 52     |  0.035% | 
 | 207  | Floatzel           |  0.02736% | 22     |  0.015% | 
 | 208  | Florges            |  0.02698% | 144    |  0.096% | 
 | 209  | Swampert-Mega      |  0.02634% | 188    |  0.126% | 
 | 210  | Terrakion          |  0.02540% | 163    |  0.109% | 
 | 211  | Audino-Mega        |  0.02527% | 48     |  0.032% | 
 | 212  | Pidgeot-Mega       |  0.02440% | 187    |  0.125% | 
 | 213  | Metagross          |  0.02370% | 174    |  0.116% | 
 | 214  | Kangaskhan-Mega    |  0.02343% | 87     |  0.058% | 
 | 215  | Lugia              |  0.02273% | 184    |  0.123% | 
 | 216  | Raticate           |  0.02254% | 28     |  0.019% | 
 | 217  | Darkrai            |  0.02243% | 205    |  0.137% | 
 | 218  | Uxie               |  0.02243% | 131    |  0.088% | 
 | 219  | Ariados            |  0.02161% | 123    |  0.082% | 
 | 220  | Golurk             |  0.02117% | 125    |  0.084% | 
 | 221  | Zekrom             |  0.02116% | 77     |  0.051% | 
 | 222  | Aurorus            |  0.02094% | 80     |  0.054% | 
 | 223  | Shedinja           |  0.02067% | 442    |  0.296% | 
 | 224  | Carbink            |  0.02060% | 153    |  0.102% | 
 | 225  | Hitmontop          |  0.02060% | 107    |  0.072% | 
 | 226  | Fletchinder        |  0.01937% | 41     |  0.027% | 
 | 227  | Lopunny            |  0.01925% | 59     |  0.039% | 
 | 228  | Dusclops           |  0.01898% | 107    |  0.072% | 
 | 229  | Arcanine           |  0.01871% | 153    |  0.102% | 
 | 230  | Magcargo           |  0.01868% | 39     |  0.026% | 
 | 231  | Jynx               |  0.01864% | 24     |  0.016% | 
 | 232  | Weezing            |  0.01863% | 85     |  0.057% | 
 | 233  | Scrafty            |  0.01835% | 176    |  0.118% | 
 | 234  | Ninetales          |  0.01826% | 188    |  0.126% | 
 | 235  | Claydol            |  0.01791% | 123    |  0.082% | 
 | 236  | Mismagius          |  0.01791% | 96     |  0.064% | 
 | 237  | Slurpuff           |  0.01773% | 273    |  0.183% | 
 | 238  | Ledian             |  0.01746% | 94     |  0.063% | 
 | 239  | Wailord            |  0.01677% | 118    |  0.079% | 
 | 240  | Jumpluff           |  0.01653% | 45     |  0.030% | 
 | 241  | Spiritomb          |  0.01635% | 117    |  0.078% | 
 | 242  | Klinklang          |  0.01606% | 24     |  0.016% | 
 | 243  | Typhlosion         |  0.01604% | 103    |  0.069% | 
 | 244  | Arceus-Fire        |  0.01533% | 21     |  0.014% | 
 | 245  | Nosepass           |  0.01489% | 39     |  0.026% | 
 | 246  | Carracosta         |  0.01356% | 90     |  0.060% | 
 | 247  | Relicanth          |  0.01283% | 40     |  0.027% | 
 | 248  | Chatot             |  0.01274% | 57     |  0.038% | 
 | 249  | Haxorus            |  0.01244% | 143    |  0.096% | 
 | 250  | Drifblim           |  0.01223% | 137    |  0.092% | 
 | 251  | Flygon             |  0.01213% | 103    |  0.069% | 
 | 252  | Sawk               |  0.01184% | 11     |  0.007% | 
 | 253  | Omastar            |  0.01175% | 103    |  0.069% | 
 | 254  | Emboar             |  0.01173% | 36     |  0.024% | 
 | 255  | Lickilicky         |  0.01167% | 26     |  0.017% | 
 | 256  | Archeops           |  0.01125% | 30     |  0.020% | 
 | 257  | Sigilyph           |  0.01120% | 91     |  0.061% | 
 | 258  | Gastrodon          |  0.01087% | 40     |  0.027% | 
 | 259  | Mienshao           |  0.01075% | 135    |  0.090% | 
 | 260  | Kingdra            |  0.01040% | 191    |  0.128% | 
 | 261  | Toxicroak          |  0.01025% | 42     |  0.028% | 
 | 262  | Gourgeist-Small    |  0.01021% | 22     |  0.015% | 
 | 263  | Miltank            |  0.01015% | 44     |  0.029% | 
 | 264  | Reuniclus          |  0.00984% | 119    |  0.080% | 
 | 265  | Mothim             |  0.00955% | 26     |  0.017% | 
 | 266  | Gallade-Mega       |  0.00920% | 172    |  0.115% | 
 | 267  | Stunfisk           |  0.00888% | 17     |  0.011% | 
 | 268  | Furfrou            |  0.00872% | 66     |  0.044% | 
 | 269  | Muk                |  0.00866% | 26     |  0.017% | 
 | 270  | Aron               |  0.00849% | 85     |  0.057% | 
 | 271  | Absol              |  0.00798% | 39     |  0.026% | 
 | 272  | Froslass           |  0.00776% | 121    |  0.081% | 
 | 273  | Feraligatr         |  0.00774% | 171    |  0.114% | 
 | 274  | Slowking           |  0.00766% | 52     |  0.035% | 
 | 275  | Shaymin-Sky        |  0.00765% | 35     |  0.023% | 
 | 276  | Wigglytuff         |  0.00718% | 52     |  0.035% | 
 | 277  | Tornadus           |  0.00704% | 56     |  0.037% | 
 | 278  | Zoroark            |  0.00679% | 179    |  0.120% | 
 | 279  | Porygon2           |  0.00672% | 53     |  0.035% | 
 | 280  | Krookodile         |  0.00656% | 118    |  0.079% | 
 | 281  | Throh              |  0.00634% | 15     |  0.010% | 
 | 282  | Yanmega            |  0.00630% | 74     |  0.049% | 
 | 283  | Sharpedo-Mega      |  0.00608% | 64     |  0.043% | 
 | 284  | Clawitzer          |  0.00587% | 60     |  0.040% | 
 | 285  | Purugly            |  0.00579% | 48     |  0.032% | 
 | 286  | Sceptile-Mega      |  0.00564% | 167    |  0.112% | 
 | 287  | Gengar-Mega        |  0.00559% | 159    |  0.106% | 
 | 288  | Rayquaza           |  0.00543% | 34     |  0.023% | 
 | 289  | Pangoro            |  0.00535% | 131    |  0.088% | 
 | 290  | Swoobat            |  0.00534% | 44     |  0.029% | 
 | 291  | Jellicent          |  0.00533% | 105    |  0.070% | 
 | 292  | Swampert           |  0.00532% | 67     |  0.045% | 
 | 293  | Meloetta           |  0.00530% | 44     |  0.029% | 
 | 294  | Octillery          |  0.00530% | 14     |  0.009% | 
 | 295  | Celebi             |  0.00524% | 39     |  0.026% | 
 | 296  | Malamar            |  0.00510% | 185    |  0.124% | 
 | 297  | Corsola            |  0.00509% | 60     |  0.040% | 
 | 298  | Ursaring           |  0.00502% | 189    |  0.126% | 
 | 299  | Whiscash           |  0.00494% | 17     |  0.011% | 
 | 300  | Electivire         |  0.00488% | 222    |  0.148% | 
 | 301  | Frogadier          |  0.00488% | 37     |  0.025% | 
 | 302  | Regice             |  0.00462% | 48     |  0.032% | 
 | 303  | Liepard            |  0.00445% | 196    |  0.131% | 
 | 304  | Mantine            |  0.00436% | 52     |  0.035% | 
 | 305  | Arceus-Dark        |  0.00430% | 33     |  0.022% | 
 | 306  | Torkoal            |  0.00415% | 60     |  0.040% | 
 | 307  | Kricketune         |  0.00414% | 15     |  0.010% | 
 | 308  | Zangoose           |  0.00381% | 24     |  0.016% | 
 | 309  | Hitmonlee          |  0.00374% | 108    |  0.072% | 
 | 310  | Gyarados           |  0.00361% | 112    |  0.075% | 
 | 311  | Mesprit            |  0.00348% | 62     |  0.041% | 
 | 312  | Barbaracle         |  0.00346% | 34     |  0.023% | 
 | 313  | Salamence-Mega     |  0.00341% | 67     |  0.045% | 
 | 314  | Arceus-Ice         |  0.00338% | 19     |  0.013% | 
 | 315  | Reshiram           |  0.00336% | 65     |  0.043% | 
 | 316  | Rotom-Mow          |  0.00328% | 20     |  0.013% | 
 | 317  | Pineco             |  0.00326% | 98     |  0.066% | 
 | 318  | Mightyena          |  0.00319% | 15     |  0.010% | 
 | 319  | Sceptile           |  0.00306% | 73     |  0.049% | 
 | 320  | Rattata            |  0.00298% | 202    |  0.135% | 
 | 321  | Honchkrow          |  0.00295% | 33     |  0.022% | 
 | 322  | Exploud            |  0.00281% | 101    |  0.068% | 
 | 323  | Regirock           |  0.00266% | 96     |  0.064% | 
 | 324  | Genesect           |  0.00262% | 31     |  0.021% | 
 | 325  | Bouffalant         |  0.00244% | 17     |  0.011% | 
 | 326  | Pyroar             |  0.00236% | 83     |  0.056% | 
 | 327  | Audino             |  0.00217% | 15     |  0.010% | 
 | 328  | Latios-Mega        |  0.00203% | 55     |  0.037% | 
 | 329  | Torterra           |  0.00186% | 69     |  0.046% | 
 | 330  | Scyther            |  0.00182% | 23     |  0.015% | 
 | 331  | Houndoom-Mega      |  0.00177% | 64     |  0.043% | 
 | 332  | Crustle            |  0.00162% | 26     |  0.017% | 
 | 333  | Granbull           |  0.00152% | 24     |  0.016% | 
 | 334  | NidoranM           |  0.00151% | 6      |  0.004% | 
 | 335  | Hariyama           |  0.00150% | 46     |  0.031% | 
 | 336  | Gallade            |  0.00141% | 32     |  0.021% | 
 | 337  | Shaymin            |  0.00138% | 16     |  0.011% | 
 | 338  | Dodrio             |  0.00135% | 36     |  0.024% | 
 | 339  | Trapinch           |  0.00135% | 4      |  0.003% | 
 | 340  | Kabutops           |  0.00134% | 19     |  0.013% | 
 | 341  | Hydreigon          |  0.00134% | 132    |  0.088% | 
 | 342  | Raichu             |  0.00132% | 124    |  0.083% | 
 | 343  | Grumpig            |  0.00130% | 26     |  0.017% | 
 | 344  | Chesnaught         |  0.00117% | 88     |  0.059% | 
 | 345  | Sneasel            |  0.00113% | 10     |  0.007% | 
 | 346  | Gardevoir          |  0.00113% | 86     |  0.058% | 
 | 347  | Onix               |  0.00109% | 16     |  0.011% | 
 | 348  | Mawile             |  0.00102% | 24     |  0.016% | 
 | 349  | Exeggutor          |  0.00092% | 59     |  0.039% | 
 | 350  | Greninja           |  0.00082% | 340    |  0.227% | 
 | 351  | Happiny            |  0.00081% | 27     |  0.018% | 
 | 352  | Farfetch'd         |  0.00079% | 12     |  0.008% | 
 | 353  | Feebas             |  0.00076% | 14     |  0.009% | 
 | 354  | Cradily            |  0.00069% | 43     |  0.029% | 
 | 355  | Arceus-Grass       |  0.00063% | 34     |  0.023% | 
 | 356  | Trevenant          |  0.00063% | 53     |  0.035% | 
 | 357  | Kangaskhan         |  0.00059% | 22     |  0.015% | 
 | 358  | Lapras             |  0.00055% | 121    |  0.081% | 
 | 359  | Ferroseed          |  0.00055% | 25     |  0.017% | 
 | 360  | Rotom              |  0.00055% | 9      |  0.006% | 
 | 361  | Sawsbuck           |  0.00047% | 3      |  0.002% | 
 | 362  | Luvdisc            |  0.00045% | 7      |  0.005% | 
 | 363  | Riolu              |  0.00045% | 9      |  0.006% | 
 | 364  | Beheeyem           |  0.00045% | 13     |  0.009% | 
 | 365  | Articuno           |  0.00043% | 69     |  0.046% | 
 | 366  | Dunsparce          |  0.00042% | 22     |  0.015% | 
 | 367  | Dustox             |  0.00041% | 22     |  0.015% | 
 | 368  | Leavanny           |  0.00037% | 23     |  0.015% | 
 | 369  | Magnemite          |  0.00037% | 16     |  0.011% | 
 | 370  | Armaldo            |  0.00037% | 14     |  0.009% | 
 | 371  | Sandslash          |  0.00037% | 20     |  0.013% | 
 | 372  | Cottonee           |  0.00036% | 72     |  0.048% | 
 | 373  | Poliwrath          |  0.00036% | 34     |  0.023% | 
 | 374  | Hitmonchan         |  0.00033% | 44     |  0.029% | 
 | 375  | Blaziken-Mega      |  0.00031% | 91     |  0.061% | 
 | 376  | Starly             |  0.00031% | 44     |  0.029% | 
 | 377  | Zebstrika          |  0.00030% | 13     |  0.009% | 
 | 378  | Illumise           |  0.00030% | 11     |  0.007% | 
 | 379  | Virizion           |  0.00029% | 16     |  0.011% | 
 | 380  | Arceus-Dragon      |  0.00028% | 41     |  0.027% | 
 | 381  | Rapidash           |  0.00027% | 27     |  0.018% | 
 | 382  | Meowstic           |  0.00027% | 36     |  0.024% | 
 | 383  | Musharna           |  0.00026% | 5      |  0.003% | 
 | 384  | Venusaur           |  0.00025% | 48     |  0.032% | 
 | 385  | Doduo              |  0.00025% | 8      |  0.005% | 
 | 386  | Dwebble            |  0.00025% | 8      |  0.005% | 
 | 387  | Venomoth           |  0.00023% | 39     |  0.026% | 
 | 388  | Delphox            |  0.00022% | 48     |  0.032% | 
 | 389  | Tropius            |  0.00020% | 14     |  0.009% | 
 | 390  | Shroomish          |  0.00017% | 21     |  0.014% | 
 | 391  | Lilligant          |  0.00017% | 13     |  0.009% | 
 | 392  | Stoutland          |  0.00014% | 16     |  0.011% | 
 | 393  | Qwilfish           |  0.00013% | 26     |  0.017% | 
 | 394  | Flareon            |  0.00011% | 63     |  0.042% | 
 | 395  | Sudowoodo          |  0.00011% | 14     |  0.009% | 
 | 396  | Maractus           |  0.00009% | 18     |  0.012% | 
 | 397  | Walrein            |  0.00009% | 9      |  0.006% | 
 | 398  | Gothorita          |  0.00009% | 10     |  0.007% | 
 | 399  | Pachirisu          |  0.00009% | 10     |  0.007% | 
 | 400  | Charizard          |  0.00008% | 90     |  0.060% | 
 | 401  | Magneton           |  0.00008% | 13     |  0.009% | 
 | 402  | Luxray             |  0.00008% | 185    |  0.124% | 
 | 403  | Gourgeist-Super    |  0.00007% | 25     |  0.017% | 
 | 404  | Diggersby          |  0.00007% | 20     |  0.013% | 
 | 405  | Magikarp           |  0.00007% | 42     |  0.028% | 
 | 406  | Pelipper           |  0.00006% | 10     |  0.007% | 
 | 407  | Golduck            |  0.00006% | 11     |  0.007% | 
 | 408  | Meganium           |  0.00005% | 18     |  0.012% | 
 | 409  | Unfezant           |  0.00005% | 18     |  0.012% | 
 | 410  | Castform           |  0.00005% | 5      |  0.003% | 
 | 411  | Primeape           |  0.00005% | 22     |  0.015% | 
 | 412  | Kingler            |  0.00004% | 25     |  0.017% | 
 | 413  | Abomasnow          |  0.00004% | 21     |  0.014% | 
 | 414  | Lumineon           |  0.00003% | 3      |  0.002% | 
 | 415  | Glalie-Mega        |  0.00003% | 38     |  0.025% | 
 | 416  | Bibarel            |  0.00003% | 12     |  0.008% | 
 | 417  | Heliolisk          |  0.00002% | 39     |  0.026% | 
 | 418  | Geodude            |  0.00002% | 4      |  0.003% | 
 | 419  | Moltres            |  0.00002% | 64     |  0.043% | 
 | 420  | Aromatisse         |  0.00002% | 13     |  0.009% | 
 | 421  | Natu               |  0.00002% | 1      |  0.001% | 
 | 422  | Magmar             |  0.00002% | 9      |  0.006% | 
 | 423  | Arceus-Fighting    |  0.00002% | 14     |  0.009% | 
 | 424  | Slaking            |  0.00002% | 42     |  0.028% | 
 | 425  | Gorebyss           |  0.00002% | 14     |  0.009% | 
 | 426  | Samurott           |  0.00002% | 40     |  0.027% | 
 | 427  | Unown              |  0.00001% | 5      |  0.003% | 
 | 428  | Weedle             |  0.00001% | 9      |  0.006% | 
 | 429  | Lucario-Mega       |  0.00001% | 116    |  0.078% | 
 | 430  | Gourgeist          |  0.00001% | 9      |  0.006% | 
 | 431  | Regigigas          |  0.00001% | 73     |  0.049% | 
 | 432  | Blaziken           |  0.00001% | 44     |  0.029% | 
 | 433  | Braviary           |  0.00001% | 25     |  0.017% | 
 | 434  | Altaria            |  0.00001% | 13     |  0.009% | 
 | 435  | Emolga             |  0.00001% | 19     |  0.013% | 
 | 436  | Glaceon            |  0.00001% | 20     |  0.013% | 
 | 437  | Braixen            |  0.00001% | 12     |  0.008% | 
 | 438  | Huntail            |  0.00001% | 17     |  0.011% | 
 | 439  | Beedrill           |  0.00001% | 7      |  0.005% | 
 | 440  | Gligar             |  0.00001% | 66     |  0.044% | 
 | 441  | Delcatty           |  0.00001% | 4      |  0.003% | 
 | 442  | Carnivine          |  0.00001% | 2      |  0.001% | 
 | 443  | Basculin           |  0.00000% | 17     |  0.011% | 
 | 444  | Delibird           |  0.00000% | 11     |  0.007% | 
 | 445  | Servine            |  0.00000% | 1      |  0.001% | 
 | 446  | Vileplume          |  0.00000% | 17     |  0.011% | 
 | 447  | Combusken          |  0.00000% | 27     |  0.018% | 
 | 448  | Grotle             |  0.00000% | 2      |  0.001% | 
 | 449  | Cubone             |  0.00000% | 6      |  0.004% | 
 | 450  | Glalie             |  0.00000% | 10     |  0.007% | 
 | 451  | Lunatone           |  0.00000% | 6      |  0.004% | 
 | 452  | Swalot             |  0.00000% | 8      |  0.005% | 
 | 453  | Poliwhirl          |  0.00000% | 2      |  0.001% | 
 | 454  | Magmortar          |  0.00000% | 74     |  0.049% | 
 | 455  | Anorith            |  0.00000% | 1      |  0.001% | 
 | 456  | Simipour           |  0.00000% | 2      |  0.001% | 
 | 457  | Diglett            |  0.00000% | 4      |  0.003% | 
 | 458  | Shiftry            |  0.00000% | 9      |  0.006% | 
 | 459  | Noctowl            |  0.00000% | 19     |  0.013% | 
 | 460  | Wartortle          |  0.00000% | 5      |  0.003% | 
 | 461  | Pichu              |  0.00000% | 4      |  0.003% | 
 | 462  | Mr. Mime           |  0.00000% | 30     |  0.020% | 
 | 463  | Seaking            |  0.00000% | 5      |  0.003% | 
 | 464  | Froakie            |  0.00000% | 8      |  0.005% | 
 | 465  | Haunter            |  0.00000% | 14     |  0.009% | 
 | 466  | Eevee              |  0.00000% | 23     |  0.015% | 
 | 467  | Charmeleon         |  0.00000% | 7      |  0.005% | 
 | 468  | Garbodor           |  0.00000% | 5      |  0.003% | 
 | 469  | Sandshrew          |  0.00000% | 1      |  0.001% | 
 | 470  | Mime Jr.           |  0.00000% | 3      |  0.002% | 
 | 471  | Kirlia             |  0.00000% | 5      |  0.003% | 
 | 472  | Yamask             |  0.00000% | 7      |  0.005% | 
 | 473  | Gastly             |  0.00000% | 36     |  0.024% | 
 | 474  | Ivysaur            |  0.00000% | 1      |  0.001% | 
 | 475  | Igglybuff          |  0.00000% | 4      |  0.003% | 
 | 476  | Pancham            |  0.00000% | 3      |  0.002% | 
 | 477  | Ponyta             |  0.00000% | 3      |  0.002% | 
 | 478  | Palpitoad          |  0.00000% | 5      |  0.003% | 
 | 479  | Zweilous           |  0.00000% | 2      |  0.001% | 
 | 480  | Furret             |  0.00000% | 2      |  0.001% | 
 | 481  | Machoke            |  0.00000% | 5      |  0.003% | 
 | 482  | Bulbasaur          |  0.00000% | 8      |  0.005% | 
 | 483  | Camerupt           |  0.00000% | 10     |  0.007% | 
 | 484  | Squirtle           |  0.00000% | 12     |  0.008% | 
 | 485  | Leafeon            |  0.00000% | 16     |  0.011% | 
 | 486  | Boldore            |  0.00000% | 4      |  0.003% | 
 | 487  | Magby              |  0.00000% | 7      |  0.005% | 
 | 488  | Sandile            |  0.00000% | 3      |  0.002% | 
 | 489  | Arceus-Flying      |  0.00000% | 15     |  0.010% | 
 | 490  | Skuntank           |  0.00000% | 6      |  0.004% | 
 | 491  | Duosion            |  0.00000% | 2      |  0.001% | 
 | 492  | Ampharos           |  0.00000% | 22     |  0.015% | 
 | 493  | Solrock            |  0.00000% | 4      |  0.003% | 
 | 494  | Pidgeotto          |  0.00000% | 2      |  0.001% | 
 | 495  | Quilladin          |  0.00000% | 1      |  0.001% | 
 | 496  | Wormadam-Trash     |  0.00000% | 6      |  0.004% | 
 | 497  | Charmander         |  0.00000% | 12     |  0.008% | 
 | 498  | Beartic            |  0.00000% | 5      |  0.003% | 
 | 499  | Masquerain         |  0.00000% | 10     |  0.007% | 
 | 500  | Gurdurr            |  0.00000% | 2      |  0.001% | 
 | 501  | Togetic            |  0.00000% | 6      |  0.004% | 
 | 502  | Larvitar           |  0.00000% | 3      |  0.002% | 
 | 503  | Purrloin           |  0.00000% | 9      |  0.006% | 
 | 504  | Trubbish           |  0.00000% | 1      |  0.001% | 
 | 505  | Seviper            |  0.00000% | 9      |  0.006% | 
 | 506  | Treecko            |  0.00000% | 10     |  0.007% | 
 | 507  | Chikorita          |  0.00000% | 4      |  0.003% | 
 | 508  | Manectric          |  0.00000% | 18     |  0.012% | 
 | 509  | Banette            |  0.00000% | 3      |  0.002% | 
 | 510  | Marshtomp          |  0.00000% | 1      |  0.001% | 
 | 511  | Pidgeot            |  0.00000% | 7      |  0.005% | 
 | 512  | Vespiquen          |  0.00000% | 2      |  0.001% | 
 | 513  | Gogoat             |  0.00000% | 7      |  0.005% | 
 | 514  | Chimchar           |  0.00000% | 2      |  0.001% | 
 | 515  | Houndoom           |  0.00000% | 21     |  0.014% | 
 | 516  | Oshawott           |  0.00000% | 1      |  0.001% | 
 | 517  | Cherubi            |  0.00000% | 1      |  0.001% | 
 | 518  | Munchlax           |  0.00000% | 7      |  0.005% | 
 | 519  | Corphish           |  0.00000% | 3      |  0.002% | 
 | 520  | Kyurem             |  0.00000% | 11     |  0.007% | 
 | 521  | Buneary            |  0.00000% | 3      |  0.002% | 
 | 522  | Butterfree         |  0.00000% | 5      |  0.003% | 
 | 523  | Tangela            |  0.00000% | 2      |  0.001% | 
 | 524  | Lillipup           |  0.00000% | 1      |  0.001% | 
 | 525  | Snubbull           |  0.00000% | 1      |  0.001% | 
 | 526  | Psyduck            |  0.00000% | 1      |  0.001% | 
 | 527  | Slakoth            |  0.00000% | 1      |  0.001% | 
 | 528  | Girafarig          |  0.00000% | 3      |  0.002% | 
 | 529  | Pansage            |  0.00000% | 2      |  0.001% | 
 | 530  | Swanna             |  0.00000% | 3      |  0.002% | 
 | 531  | Skiploom           |  0.00000% | 2      |  0.001% | 
 | 532  | Deino              |  0.00000% | 2      |  0.001% | 
 | 533  | Klang              |  0.00000% | 2      |  0.001% | 
 | 534  | Remoraid           |  0.00000% | 1      |  0.001% | 
 | 535  | Wooper             |  0.00000% | 2      |  0.001% | 
 | 536  | Minccino           |  0.00000% | 1      |  0.001% | 
 | 537  | Seel               |  0.00000% | 5      |  0.003% | 
 | 538  | Snorunt            |  0.00000% | 4      |  0.003% | 
 | 539  | Yanma              |  0.00000% | 2      |  0.001% | 
 | 540  | Fennekin           |  0.00000% | 2      |  0.001% | 
 | 541  | Metang             |  0.00000% | 2      |  0.001% | 
 | 542  | Victreebel         |  0.00000% | 8      |  0.005% | 
 | 543  | Togepi             |  0.00000% | 2      |  0.001% | 
 | 544  | Electabuzz         |  0.00000% | 10     |  0.007% | 
 | 545  | Venonat            |  0.00000% | 1      |  0.001% | 
 | 546  | Scraggy            |  0.00000% | 2      |  0.001% | 
 | 547  | Fletchling         |  0.00000% | 5      |  0.003% | 
 | 548  | Bunnelby           |  0.00000% | 1      |  0.001% | 
 | 549  | Arceus-Bug         |  0.00000% | 4      |  0.003% | 
 | 550  | Wormadam-Sandy     |  0.00000% | 1      |  0.001% | 
 | 551  | Prinplup           |  0.00000% | 1      |  0.001% | 
 | 552  | Omanyte            |  0.00000% | 1      |  0.001% | 
 | 553  | Slowpoke           |  0.00000% | 3      |  0.002% | 
 | 554  | Parasect           |  0.00000% | 8      |  0.005% | 
 | 555  | Minun              |  0.00000% | 1      |  0.001% | 
 | 556  | Mudkip             |  0.00000% | 2      |  0.001% | 
 | 557  | Tepig              |  0.00000% | 2      |  0.001% | 
 | 558  | Cubchoo            |  0.00000% | 1      |  0.001% | 
 | 559  | Marill             |  0.00000% | 7      |  0.005% | 
 | 560  | Piplup             |  0.00000% | 4      |  0.003% | 
 | 561  | Jigglypuff         |  0.00000% | 1      |  0.001% | 
 | 562  | Abra               |  0.00000% | 1      |  0.001% | 
 | 563  | Ralts              |  0.00000% | 2      |  0.001% | 
 | 564  | Pignite            |  0.00000% | 3      |  0.002% | 
 | 565  | Pawniard           |  0.00000% | 2      |  0.001% | 
 | 566  | Vulpix             |  0.00000% | 2      |  0.001% | 
 | 567  | Vigoroth           |  0.00000% | 2      |  0.001% | 
 | 568  | Phantump           |  0.00000% | 2      |  0.001% | 
 | 569  | Axew               |  0.00000% | 3      |  0.002% | 
 | 570  | Metapod            |  0.00000% | 1      |  0.001% | 
 | 571  | Bayleef            |  0.00000% | 5      |  0.003% | 
 | 572  | Quilava            |  0.00000% | 5      |  0.003% | 
 | 573  | Taillow            |  0.00000% | 2      |  0.001% | 
 | 574  | Medicham           |  0.00000% | 9      |  0.006% | 
 | 575  | Golbat             |  0.00000% | 5      |  0.003% | 
 | 576  | Rotom-Fan          |  0.00000% | 10     |  0.007% | 
 | 577  | Arceus-Psychic     |  0.00000% | 8      |  0.005% | 
 | 578  | Floette            |  0.00000% | 2      |  0.001% | 
 | 579  | Buizel             |  0.00000% | 7      |  0.005% | 
 | 580  | Cyndaquil          |  0.00000% | 1      |  0.001% | 
 | 581  | Staravia           |  0.00000% | 4      |  0.003% | 
 | 582  | Clefairy           |  0.00000% | 1      |  0.001% | 
 | 583  | Rotom-Frost        |  0.00000% | 5      |  0.003% | 
 | 584  | Foongus            |  0.00000% | 2      |  0.001% | 
 | 585  | Sunflora           |  0.00000% | 7      |  0.005% | 
 | 586  | Silcoon            |  0.00000% | 2      |  0.001% | 
 | 587  | Lampent            |  0.00000% | 2      |  0.001% | 
 | 588  | Cacturne           |  0.00000% | 6      |  0.004% | 
 | 589  | Sunkern            |  0.00000% | 2      |  0.001% | 
 | 590  | Shellder           |  0.00000% | 1      |  0.001% | 
 | 591  | Dratini            |  0.00000% | 4      |  0.003% | 
 | 592  | Shellos            |  0.00000% | 2      |  0.001% | 
 | 593  | Hippopotas         |  0.00000% | 3      |  0.002% | 
 | 594  | Roselia            |  0.00000% | 1      |  0.001% | 
 | 595  | Pinsir             |  0.00000% | 4      |  0.003% | 
 | 596  | Arbok              |  0.00000% | 4      |  0.003% | 
 | 597  | Plusle             |  0.00000% | 10     |  0.007% | 
 | 598  | Noibat             |  0.00000% | 1      |  0.001% | 
 | 599  | Tyrogue            |  0.00000% | 1      |  0.001% | 
 | 600  | Tympole            |  0.00000% | 2      |  0.001% | 
 | 601  | Swablu             |  0.00000% | 1      |  0.001% | 
 | 602  | Heatmor            |  0.00000% | 2      |  0.001% | 
 | 603  | Gible              |  0.00000% | 2      |  0.001% | 
 | 604  | Voltorb            |  0.00000% | 5      |  0.003% | 
 | 605  | Panpour            |  0.00000% | 1      |  0.001% | 
 | 606  | Dewott             |  0.00000% | 3      |  0.002% | 
 | 607  | Totodile           |  0.00000% | 3      |  0.002% | 
 | 608  | Hypno              |  0.00000% | 16     |  0.011% | 
 | 609  | Porygon            |  0.00000% | 2      |  0.001% | 
 | 610  | Chespin            |  0.00000% | 3      |  0.002% | 
 | 611  | Spritzee           |  0.00000% | 1      |  0.001% | 
 | 612  | Swinub             |  0.00000% | 2      |  0.001% | 
 | 613  | Zubat              |  0.00000% | 5      |  0.003% | 
 | 614  | Turtwig            |  0.00000% | 1      |  0.001% | 
 | 615  | Fraxure            |  0.00000% | 9      |  0.006% | 
 | 616  | Stantler           |  0.00000% | 1      |  0.001% | 
 | 617  | Glameow            |  0.00000% | 1      |  0.001% | 
 | 618  | Helioptile         |  0.00000% | 1      |  0.001% | 
 | 619  | Honedge            |  0.00000% | 1      |  0.001% | 
 | 620  | Sliggoo            |  0.00000% | 3      |  0.002% | 
 | 621  | Wailmer            |  0.00000% | 2      |  0.001% | 
 | 622  | Landorus           |  0.00000% | 6      |  0.004% | 
 | 623  | Zigzagoon          |  0.00000% | 2      |  0.001% | 
 | 624  | Shinx              |  0.00000% | 1      |  0.001% | 
 | 625  | Grimer             |  0.00000% | 4      |  0.003% | 
 | 626  | Bagon              |  0.00000% | 1      |  0.001% | 
 | 627  | Growlithe          |  0.00000% | 1      |  0.001% | 
 | 628  | Munna              |  0.00000% | 1      |  0.001% | 
 | 629  | Dragonair          |  0.00000% | 3      |  0.002% | 
 | 630  | Wurmple            |  0.00000% | 3      |  0.002% | 
 | 631  | Tentacool          |  0.00000% | 1      |  0.001% | 
 | 632  | Vanilluxe          |  0.00000% | 3      |  0.002% | 
 | 633  | Shieldon           |  0.00000% | 18     |  0.012% | 
 | 634  | Vibrava            |  0.00000% | 1      |  0.001% | 
 | 635  | Meditite           |  0.00000% | 1      |  0.001% | 
 | 636  | Litleo             |  0.00000% | 2      |  0.001% | 
 | 637  | Croconaw           |  0.00000% | 1      |  0.001% | 
 | 638  | Lickitung          |  0.00000% | 2      |  0.001% | 
 | 639  | Grovyle            |  0.00000% | 1      |  0.001% | 
 | 640  | Darumaka           |  0.00000% | 4      |  0.003% | 
 | 641  | Gabite             |  0.00000% | 2      |  0.001% | 
 | 642  | Beautifly          |  0.00000% | 2      |  0.001% | 
 | 643  | Meowth             |  0.00000% | 2      |  0.001% | 
 | 644  | Herdier            |  0.00000% | 1      |  0.001% | 
 | 645  | Aipom              |  0.00000% | 1      |  0.001% | 
 | 646  | Inkay              |  0.00000% | 1      |  0.001% | 
 | 647  | Monferno           |  0.00000% | 1      |  0.001% | 
 | 648  | Joltik             |  0.00000% | 1      |  0.001% | 
 | 649  | Pidgey             |  0.00000% | 2      |  0.001% | 
 | 650  | Scatterbug         |  0.00000% | 1      |  0.001% | 
 | 651  | Numel              |  0.00000% | 1      |  0.001% | 
 | 652  | Fearow             |  0.00000% | 1      |  0.001% | 
 | 653  | Krabby             |  0.00000% | 1      |  0.001% | 
 | 654  | Gloom              |  0.00000% | 1      |  0.001% | 
 | 655  | Pupitar            |  0.00000% | 3      |  0.002% | 
 | 656  | Seadra             |  0.00000% | 1      |  0.001% | 
 | 657  | Snivy              |  0.00000% | 3      |  0.002% | 
 | 658  | Caterpie           |  0.00000% | 6      |  0.004% | 
 | 659  | Dewgong            |  0.00000% | 5      |  0.003% | 
 | 660  | Simisage           |  0.00000% | 2      |  0.001% | 
 | 661  | Rhyhorn            |  0.00000% | 3      |  0.002% | 
 + ---- + ------------------ + --------- + ------ + ------- + 
