 +----------------------------------------+ 
 | Starmie                                | 
 +----------------------------------------+ 
 | Raw count: 3                           | 
 | Avg. weight: ---                       | 
 | Viability Ceiling: 0                   | 
 +----------------------------------------+ 
 | Abilities                              | 
 | Natural Cure 100.000%                  | 
 +----------------------------------------+ 
 | Items                                  | 
 | Life Orb 100.000%                      | 
 +----------------------------------------+ 
 | Spreads                                | 
 | Timid:0/0/0/252/4/252 100.000%         | 
 +----------------------------------------+ 
 | Moves                                  | 
 | Hydro Pump 100.000%                    | 
 | Rapid Spin 100.000%                    | 
 | Thunderbolt 100.000%                   | 
 | Ice Beam 100.000%                      | 
 +----------------------------------------+ 
 | Teammates                              | 
 +----------------------------------------+ 
 | Checks and Counters                    | 
 +----------------------------------------+ 
 +----------------------------------------+ 
 | Electivire                             | 
 +----------------------------------------+ 
 | Raw count: 3                           | 
 | Avg. weight: ---                       | 
 | Viability Ceiling: 0                   | 
 +----------------------------------------+ 
 | Abilities                              | 
 | Motor Drive 100.000%                   | 
 +----------------------------------------+ 
 | Items                                  | 
 | Expert Belt 100.000%                   | 
 +----------------------------------------+ 
 | Spreads                                | 
 | Hardy:0/0/0/0/0/0 100.000%             | 
 +----------------------------------------+ 
 | Moves                                  | 
 | Ice Punch 100.000%                     | 
 | Cross Chop 100.000%                    | 
 | Thunder Punch 100.000%                 | 
 | Earthquake 100.000%                    | 
 +----------------------------------------+ 
 | Teammates                              | 
 +----------------------------------------+ 
 | Checks and Counters                    | 
 +----------------------------------------+ 
 +----------------------------------------+ 
 | Scizor                                 | 
 +----------------------------------------+ 
 | Raw count: 3                           | 
 | Avg. weight: ---                       | 
 | Viability Ceiling: 0                   | 
 +----------------------------------------+ 
 | Abilities                              | 
 | Technician 100.000%                    | 
 +----------------------------------------+ 
 | Items                                  | 
 | Choice Band 100.000%                   | 
 +----------------------------------------+ 
 | Spreads                                | 
 | Adamant:200/56/0/0/0/252 100.000%      | 
 +----------------------------------------+ 
 | Moves                                  | 
 | U-turn 100.000%                        | 
 | Bullet Punch 100.000%                  | 
 | Pursuit 100.000%                       | 
 | Superpower 100.000%                    | 
 +----------------------------------------+ 
 | Teammates                              | 
 +----------------------------------------+ 
 | Checks and Counters                    | 
 +----------------------------------------+ 
 +----------------------------------------+ 
 | Skarmory                               | 
 +----------------------------------------+ 
 | Raw count: 3                           | 
 | Avg. weight: ---                       | 
 | Viability Ceiling: 0                   | 
 +----------------------------------------+ 
 | Abilities                              | 
 | Sturdy 100.000%                        | 
 +----------------------------------------+ 
 | Items                                  | 
 | Leftovers 100.000%                     | 
 +----------------------------------------+ 
 | Spreads                                | 
 | Impish:252/0/232/0/0/24 100.000%       | 
 +----------------------------------------+ 
 | Moves                                  | 
 | Spikes 100.000%                        | 
 | Roost 100.000%                         | 
 | Brave Bird 100.000%                    | 
 | Whirlwind 100.000%                     | 
 +----------------------------------------+ 
 | Teammates                              | 
 +----------------------------------------+ 
 | Checks and Counters                    | 
 +----------------------------------------+ 
 +----------------------------------------+ 
 | Garchomp                               | 
 +----------------------------------------+ 
 | Raw count: 3                           | 
 | Avg. weight: ---                       | 
 | Viability Ceiling: 0                   | 
 +----------------------------------------+ 
 | Abilities                              | 
 | Sand Veil 100.000%                     | 
 +----------------------------------------+ 
 | Items                                  | 
 | Life Orb 100.000%                      | 
 +----------------------------------------+ 
 | Spreads                                | 
 | Jolly:0/252/0/0/4/252 100.000%         | 
 +----------------------------------------+ 
 | Moves                                  | 
 | Swords Dance 100.000%                  | 
 | Dragon Claw 100.000%                   | 
 | Earthquake 100.000%                    | 
 | Stone Edge 100.000%                    | 
 +----------------------------------------+ 
 | Teammates                              | 
 +----------------------------------------+ 
 | Checks and Counters                    | 
 +----------------------------------------+ 
 +----------------------------------------+ 
 | Blissey                                | 
 +----------------------------------------+ 
 | Raw count: 3                           | 
 | Avg. weight: ---                       | 
 | Viability Ceiling: 0                   | 
 +----------------------------------------+ 
 | Abilities                              | 
 | Natural Cure 100.000%                  | 
 +----------------------------------------+ 
 | Items                                  | 
 | Leftovers 100.000%                     | 
 +----------------------------------------+ 
 | Spreads                                | 
 | Bold:252/0/252/0/4/0 100.000%          | 
 +----------------------------------------+ 
 | Moves                                  | 
 | Toxic 100.000%                         | 
 | Aromatherapy 100.000%                  | 
 | Seismic Toss 100.000%                  | 
 | Soft-Boiled 100.000%                   | 
 +----------------------------------------+ 
 | Teammates                              | 
 +----------------------------------------+ 
 | Checks and Counters                    | 
 +----------------------------------------+ 
 +----------------------------------------+ 
 | Jirachi                                | 
 +----------------------------------------+ 
 | Raw count: 3                           | 
 | Avg. weight: ---                       | 
 | Viability Ceiling: 0                   | 
 +----------------------------------------+ 
 | Abilities                              | 
 | Serene Grace 100.000%                  | 
 +----------------------------------------+ 
 | Items                                  | 
 | Leftovers 100.000%                     | 
 +----------------------------------------+ 
 | Spreads                                | 
 | Impish:252/4/252/0/0/0 100.000%        | 
 +----------------------------------------+ 
 | Moves                                  | 
 | Wish 100.000%                          | 
 | Protect 100.000%                       | 
 | Fire Punch 100.000%                    | 
 | U-turn 66.667%                         | 
 | Stealth Rock 33.333%                   | 
 +----------------------------------------+ 
 | Teammates                              | 
 +----------------------------------------+ 
 | Checks and Counters                    | 
 +----------------------------------------+ 
 +----------------------------------------+ 
 | Rotom-Wash                             | 
 +----------------------------------------+ 
 | Raw count: 2                           | 
 | Avg. weight: ---                       | 
 | Viability Ceiling: 0                   | 
 +----------------------------------------+ 
 | Abilities                              | 
 | Levitate 100.000%                      | 
 +----------------------------------------+ 
 | Items                                  | 
 | Chesto Berry 100.000%                  | 
 +----------------------------------------+ 
 | Spreads                                | 
 | Calm:248/0/0/8/252/0 100.000%          | 
 +----------------------------------------+ 
 | Moves                                  | 
 | Hydro Pump 100.000%                    | 
 | Thunderbolt 100.000%                   | 
 | Rest 100.000%                          | 
 | Will-O-Wisp 100.000%                   | 
 +----------------------------------------+ 
 | Teammates                              | 
 +----------------------------------------+ 
 | Checks and Counters                    | 
 +----------------------------------------+ 
 +----------------------------------------+ 
 | Breloom                                | 
 +----------------------------------------+ 
 | Raw count: 3                           | 
 | Avg. weight: ---                       | 
 | Viability Ceiling: 0                   | 
 +----------------------------------------+ 
 | Abilities                              | 
 | Poison Heal 100.000%                   | 
 +----------------------------------------+ 
 | Items                                  | 
 | Toxic Orb 100.000%                     | 
 +----------------------------------------+ 
 | Spreads                                | 
 | Jolly:4/252/0/0/0/252 100.000%         | 
 +----------------------------------------+ 
 | Moves                                  | 
 | Swords Dance 100.000%                  | 
 | Spore 100.000%                         | 
 | Seed Bomb 100.000%                     | 
 | Substitute 100.000%                    | 
 +----------------------------------------+ 
 | Teammates                              | 
 +----------------------------------------+ 
 | Checks and Counters                    | 
 +----------------------------------------+ 
 +----------------------------------------+ 
 | Empoleon                               | 
 +----------------------------------------+ 
 | Raw count: 2                           | 
 | Avg. weight: ---                       | 
 | Viability Ceiling: 0                   | 
 +----------------------------------------+ 
 | Abilities                              | 
 | Torrent 100.000%                       | 
 +----------------------------------------+ 
 | Items                                  | 
 | Shuca Berry 100.000%                   | 
 +----------------------------------------+ 
 | Spreads                                | 
 | Calm:252/0/0/4/252/0 100.000%          | 
 +----------------------------------------+ 
 | Moves                                  | 
 | Toxic 100.000%                         | 
 | Hydro Pump 100.000%                    | 
 | Rain Dance 100.000%                    | 
 | Protect 100.000%                       | 
 +----------------------------------------+ 
 | Teammates                              | 
 +----------------------------------------+ 
 | Checks and Counters                    | 
 +----------------------------------------+ 
 +----------------------------------------+ 
 | Infernape                              | 
 +----------------------------------------+ 
 | Raw count: 2                           | 
 | Avg. weight: ---                       | 
 | Viability Ceiling: 0                   | 
 +----------------------------------------+ 
 | Abilities                              | 
 | Blaze 100.000%                         | 
 +----------------------------------------+ 
 | Items                                  | 
 | Choice Scarf 100.000%                  | 
 +----------------------------------------+ 
 | Spreads                                | 
 | Jolly:0/252/0/0/4/252 100.000%         | 
 +----------------------------------------+ 
 | Moves                                  | 
 | U-turn 100.000%                        | 
 | Flare Blitz 100.000%                   | 
 | Earthquake 100.000%                    | 
 | Close Combat 100.000%                  | 
 +----------------------------------------+ 
 | Teammates                              | 
 +----------------------------------------+ 
 | Checks and Counters                    | 
 +----------------------------------------+ 
 +----------------------------------------+ 
 | Yanmega                                | 
 +----------------------------------------+ 
 | Raw count: 3                           | 
 | Avg. weight: ---                       | 
 | Viability Ceiling: 0                   | 
 +----------------------------------------+ 
 | Abilities                              | 
 | Tinted Lens 100.000%                   | 
 +----------------------------------------+ 
 | Items                                  | 
 | Choice Specs 100.000%                  | 
 +----------------------------------------+ 
 | Spreads                                | 
 | Timid:0/0/4/252/0/252 100.000%         | 
 +----------------------------------------+ 
 | Moves                                  | 
 | Bug Buzz 100.000%                      | 
 | Giga Drain 100.000%                    | 
 | Air Slash 100.000%                     | 
 | Psychic 66.667%                        | 
 | U-turn 33.333%                         | 
 +----------------------------------------+ 
 | Teammates                              | 
 +----------------------------------------+ 
 | Checks and Counters                    | 
 +----------------------------------------+ 
