 Total leads: 4
 + ---- + ------------------ + --------- + ------ + ------- + 
 | Rank | Pokemon            | Usage %   | Raw    | %       | 
 + ---- + ------------------ + --------- + ------ + ------- + 
 | 1    | Regirock           | 50.00000% | 2      | 50.000% | 
 | 2    | Pinsir             | 25.00000% | 1      | 25.000% | 
 | 3    | Ninetales          | 25.00000% | 1      | 25.000% | 
 + ---- + ------------------ + --------- + ------ + ------- + 
