 weatherless...................66.12514%
 offense.......................44.60748%
 sand..........................29.88156%
 hyperoffense..................22.76491%
 balance.......................22.23561%
 sandoffense................... 6.01090%
 semistall..................... 5.71219%
 stall......................... 4.67980%
 hail.......................... 2.12766%
 sandstall..................... 2.08574%
 monotype...................... 2.06477%
 rain.......................... 1.88135%
 dragmag....................... 1.85515%
 choice........................ 1.51452%
 voltturn...................... 1.41495%
 rainoffense................... 1.02715%
 hailstall..................... 1.02715%
 batonpass..................... 0.58694%
 monoflying.................... 0.34588%
 trickroom..................... 0.28823%
 monofire...................... 0.28823%
 multiweather.................. 0.26727%
 sun........................... 0.25155%
 monopoison.................... 0.23582%
 monofighting.................. 0.22010%
 monowater..................... 0.19914%
 monobug....................... 0.17294%
 monodark...................... 0.14674%
 monopsychic................... 0.12053%
 monoelectric.................. 0.11005%
 monoground.................... 0.09957%
 hailoffense................... 0.09957%
 monograss..................... 0.09433%
 monoghost..................... 0.05765%
 monoice....................... 0.04716%
 sunoffense.................... 0.03668%
 trapper....................... 0.02096%
 tricksand..................... 0.02096%
 monodragon.................... 0.01048%
 monorock...................... 0.01048%
 mononormal.................... 0.01048%
 monosteel..................... 0.00524%

 Stalliness (mean: -0.265)
     |######
 -1.5|###########
     |####################
 -1.0|###########################
     |########################
 -0.5|##############################
     |#########################
  0.0|#######################
     |################
 +0.5|#############
     |########
 +1.0|########
     |#####
 +1.5|####
     |#####
 +2.0|#
     |##
 +2.5|#
 more negative = more offensive, more positive = more stall
 one # =  0.43%
