 hail.......................... 0.00000%
 choice........................ 0.00000%
 hyperoffense.................. 0.00000%
 hailoffense................... 0.00000%
 offense....................... 0.00000%
 weatherless................... 0.00000%

