 weatherless...................66.97602%
 offense.......................42.92343%
 sand..........................28.07425%
 hyperoffense..................26.14076%
 balance.......................23.35654%
 sandoffense................... 9.51276%
 semistall..................... 5.06574%
 voltturn...................... 3.86698%
 hail.......................... 3.67363%
 stall......................... 2.51353%
 monotype...................... 1.93349%
 sandstall..................... 1.43078%
 choice........................ 1.43078%
 monoice....................... 1.23743%
 rain.......................... 1.08275%
 batonpass..................... 0.73473%
 trickroom..................... 0.50271%
 sun........................... 0.42537%
 tricksand..................... 0.42537%
 dragmag....................... 0.38670%
 monofighting.................. 0.34803%
 monofairy..................... 0.30936%
 hailstall..................... 0.30936%
 multiweather.................. 0.23202%
 rainoffense................... 0.11601%
 hailoffense................... 0.03867%
 monoflying.................... 0.03867%

 Stalliness (mean: -0.349)
     |#######
 -1.5|###########
     |###################
 -1.0|#############################
     |##############################
 -0.5|####################
     |########################
  0.0|####################
     |################
 +0.5|###########
     |###########
 +1.0|########
     |####
 +1.5|###
     |#
 +2.0|##
     |#
 +2.5|#
 more negative = more offensive, more positive = more stall
 one # =  0.46%
