 +----------------------------------------+ 
 | Rayquaza                               | 
 +----------------------------------------+ 
 | Raw count: 8                           | 
 | Avg. weight: 0.00622517773566          | 
 +----------------------------------------+ 
 | Abilities                              | 
 | Air Lock 100.000%                      | 
 +----------------------------------------+ 
 | Items                                  | 
 | Silk Scarf 100.000%                    | 
 | Other  0.000%                          | 
 +----------------------------------------+ 
 | Spreads                                | 
 | Adamant:0/252/4/0/0/252 100.000%       | 
 | Other  0.000%                          | 
 +----------------------------------------+ 
 | Moves                                  | 
 | Extreme Speed 100.000%                 | 
 | Swords Dance 100.000%                  | 
 | Dragon Claw 100.000%                   | 
 | Fire Blast 100.000%                    | 
 | Other  0.000%                          | 
 +----------------------------------------+ 
 | Teammates                              | 
 | Jirachi +70.119%                       | 
 | Skarmory +70.119%                      | 
 | Garchomp +70.119%                      | 
 | Dialga +70.119%                        | 
 | Darkrai +70.119%                       | 
 +----------------------------------------+ 
 | Checks and Counters                    | 
 +----------------------------------------+ 
 +----------------------------------------+ 
 | Darkrai                                | 
 +----------------------------------------+ 
 | Raw count: 7                           | 
 | Avg. weight: 0.00711448884076          | 
 +----------------------------------------+ 
 | Abilities                              | 
 | Bad Dreams 100.000%                    | 
 +----------------------------------------+ 
 | Items                                  | 
 | Chople Berry 100.000%                  | 
 | Other  0.000%                          | 
 +----------------------------------------+ 
 | Spreads                                | 
 | Timid:0/0/4/252/0/252 100.000%         | 
 | Other  0.000%                          | 
 +----------------------------------------+ 
 | Moves                                  | 
 | Dark Void 100.000%                     | 
 | Dark Pulse 100.000%                    | 
 | Focus Blast 100.000%                   | 
 | Will-O-Wisp 100.000%                   | 
 | Other  0.000%                          | 
 +----------------------------------------+ 
 | Teammates                              | 
 | Jirachi +70.119%                       | 
 | Rayquaza +70.119%                      | 
 | Skarmory +70.119%                      | 
 | Garchomp +70.119%                      | 
 | Dialga +70.119%                        | 
 +----------------------------------------+ 
 | Checks and Counters                    | 
 +----------------------------------------+ 
 +----------------------------------------+ 
 | Garchomp                               | 
 +----------------------------------------+ 
 | Raw count: 12                          | 
 | Avg. weight: 0.00415011849044          | 
 +----------------------------------------+ 
 | Abilities                              | 
 | Sand Veil 100.000%                     | 
 +----------------------------------------+ 
 | Items                                  | 
 | Leftovers 100.000%                     | 
 | Other  0.000%                          | 
 +----------------------------------------+ 
 | Spreads                                | 
 | Jolly:0/252/4/0/0/252 100.000%         | 
 | Other  0.000%                          | 
 +----------------------------------------+ 
 | Moves                                  | 
 | Swords Dance 100.000%                  | 
 | Stealth Rock 100.000%                  | 
 | Dragon Claw 100.000%                   | 
 | Earthquake 100.000%                    | 
 | Other  0.000%                          | 
 +----------------------------------------+ 
 | Teammates                              | 
 | Rayquaza +70.119%                      | 
 | Darkrai +70.119%                       | 
 | Jirachi +70.119%                       | 
 | Skarmory +70.119%                      | 
 | Dialga +70.119%                        | 
 +----------------------------------------+ 
 | Checks and Counters                    | 
 +----------------------------------------+ 
 +----------------------------------------+ 
 | Jirachi                                | 
 +----------------------------------------+ 
 | Raw count: 4                           | 
 | Avg. weight: 0.0124503554713           | 
 +----------------------------------------+ 
 | Abilities                              | 
 | Serene Grace 100.000%                  | 
 +----------------------------------------+ 
 | Items                                  | 
 | Choice Scarf 100.000%                  | 
 | Other  0.000%                          | 
 +----------------------------------------+ 
 | Spreads                                | 
 | Jolly:0/252/0/0/4/252 100.000%         | 
 | Other  0.000%                          | 
 +----------------------------------------+ 
 | Moves                                  | 
 | U-turn 100.000%                        | 
 | Ice Punch 100.000%                     | 
 | Trick 100.000%                         | 
 | Iron Head 100.000%                     | 
 | Other  0.000%                          | 
 +----------------------------------------+ 
 | Teammates                              | 
 | Rayquaza +70.119%                      | 
 | Skarmory +70.119%                      | 
 | Garchomp +70.119%                      | 
 | Dialga +70.119%                        | 
 | Darkrai +70.119%                       | 
 +----------------------------------------+ 
 | Checks and Counters                    | 
 +----------------------------------------+ 
 +----------------------------------------+ 
 | Skarmory                               | 
 +----------------------------------------+ 
 | Raw count: 2                           | 
 | Avg. weight: 0.0249007109426           | 
 +----------------------------------------+ 
 | Abilities                              | 
 | Keen Eye 100.000%                      | 
 +----------------------------------------+ 
 | Items                                  | 
 | Leftovers 100.000%                     | 
 +----------------------------------------+ 
 | Spreads                                | 
 | Impish:252/0/0/0/236/20 100.000%       | 
 | Other  0.000%                          | 
 +----------------------------------------+ 
 | Moves                                  | 
 | Spikes 100.000%                        | 
 | Taunt 100.000%                         | 
 | Roost 100.000%                         | 
 | Whirlwind 100.000%                     | 
 | Other  0.000%                          | 
 +----------------------------------------+ 
 | Teammates                              | 
 | Jirachi +70.119%                       | 
 | Rayquaza +70.119%                      | 
 | Darkrai +70.119%                       | 
 | Garchomp +70.119%                      | 
 | Dialga +70.119%                        | 
 +----------------------------------------+ 
 | Checks and Counters                    | 
 +----------------------------------------+ 
 +----------------------------------------+ 
 | Dialga                                 | 
 +----------------------------------------+ 
 | Raw count: 8                           | 
 | Avg. weight: 0.00622517773566          | 
 +----------------------------------------+ 
 | Abilities                              | 
 | Pressure 100.000%                      | 
 +----------------------------------------+ 
 | Items                                  | 
 | Leftovers 100.000%                     | 
 | Other  0.000%                          | 
 +----------------------------------------+ 
 | Spreads                                | 
 | Careful:252/0/4/0/252/0 100.000%       | 
 | Other  0.000%                          | 
 +----------------------------------------+ 
 | Moves                                  | 
 | Sleep Talk 100.000%                    | 
 | Bulk Up 100.000%                       | 
 | Rest 100.000%                          | 
 | Dragon Claw 100.000%                   | 
 | Other  0.000%                          | 
 +----------------------------------------+ 
 | Teammates                              | 
 | Jirachi +70.119%                       | 
 | Rayquaza +70.119%                      | 
 | Skarmory +70.119%                      | 
 | Garchomp +70.119%                      | 
 | Darkrai +70.119%                       | 
 +----------------------------------------+ 
 | Checks and Counters                    | 
 +----------------------------------------+ 
