 +----------------------------------------+ 
 | Palkia                                 | 
 +----------------------------------------+ 
 | Raw count: 12                          | 
 | Avg. weight: 0.602621291266            | 
 +----------------------------------------+ 
 | Abilities                              | 
 | Pressure 100.000%                      | 
 +----------------------------------------+ 
 | Items                                  | 
 | Lustrous Orb 38.802%                   | 
 | Choice Scarf 18.820%                   | 
 | Haban Berry 15.767%                    | 
 | Persim Berry  9.239%                   | 
 | Leftovers  8.686%                      | 
 | Nothing  8.686%                        | 
 +----------------------------------------+ 
 | Spreads                                | 
 | Hasty:0/4/0/252/0/252 33.201%          | 
 | Timid:180/0/0/76/0/252 15.976%         | 
 | Timid:0/0/4/252/0/252 14.141%          | 
 | Hasty:0/0/0/252/4/252 10.625%          | 
 | Hardy:252/252/0/4/0/0  8.686%          | 
 | Bold:252/0/252/0/4/0  8.686%           | 
 | Other  8.686%                          | 
 +----------------------------------------+ 
 | Moves                                  | 
 | Spacial Rend 73.389%                   | 
 | Surf 52.168%                           | 
 | Fire Blast 48.728%                     | 
 | Thunder 45.883%                        | 
 | Outrage 33.201%                        | 
 | Hydro Pump 32.065%                     | 
 | Toxic 24.662%                          | 
 | Ice Beam 17.925%                       | 
 | Aqua Tail 10.625%                      | 
 | Earth Power  9.239%                    | 
 | Flamethrower  8.686%                   | 
 | Blizzard  8.686%                       | 
 | Dragon Pulse  8.686%                   | 
 | Hyper Beam  8.686%                     | 
 | Other 17.372%                          | 
 +----------------------------------------+ 
 | Teammates                              | 
 | Giratina-Origin +9.369%                | 
 | Mewtwo +9.092%                         | 
 | Groudon +8.294%                        | 
 | Scizor +7.746%                         | 
 | Kyogre +6.575%                         | 
 | Rayquaza +5.884%                       | 
 | Dialga +4.512%                         | 
 | Lucario +4.373%                        | 
 | Venusaur +3.802%                       | 
 | Spiritomb +3.802%                      | 
 | Jirachi +3.409%                        | 
 | Latias +3.000%                         | 
 +----------------------------------------+ 
 | Checks and Counters                    | 
 +----------------------------------------+ 
 +----------------------------------------+ 
 | Garchomp                               | 
 +----------------------------------------+ 
 | Raw count: 12                          | 
 | Avg. weight: 0.530634816526            | 
 +----------------------------------------+ 
 | Abilities                              | 
 | Sand Veil 100.000%                     | 
 +----------------------------------------+ 
 | Items                                  | 
 | Nothing 25.749%                        | 
 | Leftovers 22.955%                      | 
 | Salac Berry 16.059%                    | 
 | Quick Claw  9.864%                     | 
 | Lum Berry  7.852%                      | 
 | Life Orb  5.840%                       | 
 | Draco Plate  5.840%                    | 
 | Focus Sash  5.840%                     | 
 +----------------------------------------+ 
 | Spreads                                | 
 | Jolly:0/252/4/0/0/252 29.150%          | 
 | Naive:72/252/0/0/0/184 23.737%         | 
 | Jolly:0/252/0/0/4/252 15.704%          | 
 | Adamant:252/252/4/0/0/0  9.864%        | 
 | Jolly:0/252/0/0/0/252  9.864%          | 
 | Jolly:4/252/0/0/0/252  5.840%          | 
 | Other  5.840%                          | 
 +----------------------------------------+ 
 | Moves                                  | 
 | Earthquake 88.320%                     | 
 | Swords Dance 54.719%                   | 
 | Stealth Rock 32.820%                   | 
 | Dragon Pulse 29.577%                   | 
 | Fire Fang 29.577%                      | 
 | Dragon Claw 28.796%                    | 
 | Outrage 25.923%                        | 
 | Poison Jab 23.737%                     | 
 | Substitute 21.899%                     | 
 | Crunch 19.729%                         | 
 | Dragon Rush 15.704%                    | 
 | Earth Power 11.680%                    | 
 | Other 17.520%                          | 
 +----------------------------------------+ 
 | Teammates                              | 
 | Blissey +14.252%                       | 
 | Shuckle +11.438%                       | 
 | Gengar +11.438%                        | 
 | Ninjask +11.438%                       | 
 | Rhyperior +11.438%                     | 
 | Jirachi +7.794%                        | 
 | Floatzel +4.753%                       | 
 | Deoxys-Attack +4.712%                  | 
 | Rampardos +2.814%                      | 
 | Feraligatr +2.814%                     | 
 | Tyranitar +2.627%                      | 
 | Staraptor +1.727%                      | 
 +----------------------------------------+ 
 | Checks and Counters                    | 
 +----------------------------------------+ 
 +----------------------------------------+ 
 | Rayquaza                               | 
 +----------------------------------------+ 
 | Raw count: 8                           | 
 | Avg. weight: 0.620359734319            | 
 +----------------------------------------+ 
 | Abilities                              | 
 | Air Lock 100.000%                      | 
 +----------------------------------------+ 
 | Items                                  | 
 | Life Orb 47.572%                       | 
 | Nothing 20.150%                        | 
 | Silk Scarf 16.796%                     | 
 | Focus Sash 15.482%                     | 
 +----------------------------------------+ 
 | Spreads                                | 
 | Naive:0/40/0/252/0/216 27.423%         | 
 | Adamant:0/252/4/0/0/252 16.796%        | 
 | Rash:0/32/0/252/0/224 15.482%          | 
 | Hardy:252/252/0/4/0/0 12.656%          | 
 | Adamant:4/252/0/0/0/252 12.656%        | 
 | Modest:248/0/0/252/8/0  7.493%         | 
 | Other  7.493%                          | 
 +----------------------------------------+ 
 | Moves                                  | 
 | Extreme Speed 79.850%                  | 
 | Fire Blast 67.194%                     | 
 | Draco Meteor 63.054%                   | 
 | Earthquake 35.631%                     | 
 | Brick Break 34.916%                    | 
 | Swords Dance 29.453%                   | 
 | Dragon Claw 29.453%                    | 
 | Blizzard 12.656%                       | 
 | Stone Edge 12.656%                     | 
 | Hyper Beam 12.656%                     | 
 | Surf  7.493%                           | 
 | Other 14.986%                          | 
 +----------------------------------------+ 
 | Teammates                              | 
 | Mewtwo +30.045%                        | 
 | Dialga +26.592%                        | 
 | Groudon +20.868%                       | 
 | Scizor +16.348%                        | 
 | Palkia +15.077%                        | 
 | Jirachi +10.922%                       | 
 | Lucario +9.230%                        | 
 | Mew +4.467%                            | 
 | Kyogre +3.256%                         | 
 | Skarmory +3.069%                       | 
 | Darkrai +2.698%                        | 
 +----------------------------------------+ 
 | Checks and Counters                    | 
 +----------------------------------------+ 
 +----------------------------------------+ 
 | Dialga                                 | 
 +----------------------------------------+ 
 | Raw count: 8                           | 
 | Avg. weight: 0.622242620852            | 
 +----------------------------------------+ 
 | Abilities                              | 
 | Pressure 100.000%                      | 
 +----------------------------------------+ 
 | Items                                  | 
 | Adamant Orb 35.826%                    | 
 | Life Orb 27.340%                       | 
 | Leftovers 24.216%                      | 
 | Nothing 12.618%                        | 
 +----------------------------------------+ 
 | Spreads                                | 
 | Hasty:0/4/0/252/0/252 27.340%          | 
 | Timid:100/0/0/156/0/252 23.208%        | 
 | Careful:252/0/4/0/252/0 16.746%        | 
 | Adamant:248/0/200/0/12/48 12.618%      | 
 | Hardy:252/252/0/4/0/0 12.618%          | 
 | Timid:0/0/252/252/4/0  7.471%          | 
 +----------------------------------------+ 
 | Moves                                  | 
 | Draco Meteor 47.428%                   | 
 | Outrage 39.958%                        | 
 | Sleep Talk 29.364%                     | 
 | Bulk Up 29.364%                        | 
 | Rest 29.364%                           | 
 | Dragon Claw 29.364%                    | 
 | Stealth Rock 27.340%                   | 
 | Flamethrower 27.340%                   | 
 | Earth Power 23.208%                    | 
 | Dragon Pulse 23.208%                   | 
 | Flash Cannon 23.208%                   | 
 | Thunder Wave 23.208%                   | 
 | Fire Blast 20.089%                     | 
 | Overheat 12.618%                       | 
 | Other 14.941%                          | 
 +----------------------------------------+ 
 | Teammates                              | 
 | Groudon +28.217%                       | 
 | Rayquaza +24.457%                      | 
 | Darkrai +20.707%                       | 
 | Scizor +16.265%                        | 
 | Kyogre +13.807%                        | 
 | Palkia +10.063%                        | 
 | Giratina-Origin +9.931%                | 
 | Mewtwo +6.987%                         | 
 | Latias +6.300%                         | 
 | Shaymin-Sky +4.444%                    | 
 | Skarmory +3.019%                       | 
 +----------------------------------------+ 
 | Checks and Counters                    | 
 +----------------------------------------+ 
 +----------------------------------------+ 
 | Gliscor                                | 
 +----------------------------------------+ 
 | Raw count: 7                           | 
 | Avg. weight: 0.576219887191            | 
 +----------------------------------------+ 
 | Abilities                              | 
 | Hyper Cutter 59.795%                   | 
 | Sand Veil 40.205%                      | 
 +----------------------------------------+ 
 | Items                                  | 
 | Leftovers 49.425%                      | 
 | Nothing 24.792%                        | 
 | Coba Berry 16.563%                     | 
 | Earth Plate  9.220%                    | 
 +----------------------------------------+ 
 | Spreads                                | 
 | Jolly:248/0/8/0/0/252 21.157%          | 
 | Jolly:252/0/0/0/0/252 19.049%          | 
 | Hardy:84/84/84/84/84/84 18.439%        | 
 | Lax:248/0/188/0/0/72 16.563%           | 
 | Adamant:0/252/0/0/0/252 15.572%        | 
 | Mild:118/90/96/40/70/90  9.220%        | 
 +----------------------------------------+ 
 | Moves                                  | 
 | Earthquake 58.645%                     | 
 | Substitute 40.205%                     | 
 | Taunt 40.205%                          | 
 | Baton Pass 40.205%                     | 
 | Roost 32.136%                          | 
 | Earth Power 32.136%                    | 
 | X-Scissor 25.783%                      | 
 | Sky Attack 18.439%                     | 
 | Brick Break 16.563%                    | 
 | Swords Dance 15.572%                   | 
 | Aerial Ace 15.572%                     | 
 | Hidden Power Ground  9.220%            | 
 | Double-Edge  9.220%                    | 
 | Stone Edge  9.220%                     | 
 | Giga Impact  9.220%                    | 
 | Poison Jab  9.220%                     | 
 | Other 18.439%                          | 
 +----------------------------------------+ 
 | Teammates                              | 
 | Gallade +27.782%                       | 
 | Infernape +24.756%                     | 
 | Staraptor +16.655%                     | 
 | Giratina +14.213%                      | 
 | Heatran +14.213%                       | 
 | Ludicolo +14.213%                      | 
 | Tentacruel +14.213%                    | 
 | Lucario +12.797%                       | 
 | Spiritomb +11.127%                     | 
 | Venusaur +11.127%                      | 
 | Floatzel +10.461%                      | 
 | Skarmory +7.430%                       | 
 +----------------------------------------+ 
 | Checks and Counters                    | 
 +----------------------------------------+ 
 +----------------------------------------+ 
 | Jirachi                                | 
 +----------------------------------------+ 
 | Raw count: 4                           | 
 | Avg. weight: 0.65612095565             | 
 +----------------------------------------+ 
 | Abilities                              | 
 | Serene Grace 100.000%                  | 
 +----------------------------------------+ 
 | Items                                  | 
 | Leftovers 68.238%                      | 
 | Choice Scarf 31.762%                   | 
 +----------------------------------------+ 
 | Spreads                                | 
 | Careful:248/0/0/0/240/20 38.963%       | 
 | Jolly:0/252/0/0/4/252 31.762%          | 
 | Careful:252/0/0/0/216/40 29.276%       | 
 +----------------------------------------+ 
 | Moves                                  | 
 | U-turn 100.000%                        | 
 | Iron Head 100.000%                     | 
 | Wish 68.238%                           | 
 | Protect 38.963%                        | 
 | Ice Punch 31.762%                      | 
 | Trick 31.762%                          | 
 | Stealth Rock 29.276%                   | 
 +----------------------------------------+ 
 | Teammates                              | 
 | Garchomp +35.184%                      | 
 | Rayquaza +28.791%                      | 
 | Palkia +27.754%                        | 
 | Deoxys-Attack +27.616%                 | 
 | Tyranitar +25.531%                     | 
 | Lucario +23.023%                       | 
 | Giratina-Origin +18.215%               | 
 | Skarmory +18.035%                      | 
 | Darkrai +17.663%                       | 
 | Mewtwo +8.923%                         | 
 | Dialga +1.478%                         | 
 +----------------------------------------+ 
 | Checks and Counters                    | 
 +----------------------------------------+ 
 +----------------------------------------+ 
 | Giratina-Origin                        | 
 +----------------------------------------+ 
 | Raw count: 8                           | 
 | Avg. weight: 0.490198838376            | 
 +----------------------------------------+ 
 | Abilities                              | 
 | Levitate 100.000%                      | 
 +----------------------------------------+ 
 | Items                                  | 
 | Griseous Orb 100.000%                  | 
 +----------------------------------------+ 
 | Spreads                                | 
 | Naughty:252/0/0/128/0/128 29.459%      | 
 | Mild:108/56/0/252/0/92 26.075%         | 
 | Hardy:252/252/0/4/0/0 16.017%          | 
 | Adamant:248/176/36/0/32/16  9.483%     | 
 | Jolly:0/252/4/0/252/0  9.483%          | 
 | Hardy:84/84/84/84/84/84  9.483%        | 
 +----------------------------------------+ 
 | Moves                                  | 
 | Shadow Sneak 74.500%                   | 
 | Outrage 61.058%                        | 
 | Draco Meteor 51.575%                   | 
 | Earthquake 34.983%                     | 
 | Dragon Pulse 29.459%                   | 
 | Defog 29.459%                          | 
 | Thunder Wave 29.459%                   | 
 | Hidden Power Fire 26.075%              | 
 | Iron Tail 16.017%                      | 
 | Aura Sphere  9.483%                    | 
 | Shadow Ball  9.483%                    | 
 | Will-O-Wisp  9.483%                    | 
 | Other 18.966%                          | 
 +----------------------------------------+ 
 | Teammates                              | 
 | Deoxys-Attack +24.211%                 | 
 | Kyogre +20.059%                        | 
 | Palkia +15.050%                        | 
 | Tyranitar +12.643%                     | 
 | Latias +9.153%                         | 
 | Darkrai +8.826%                        | 
 | Dialga +8.658%                         | 
 | Shaymin-Sky +6.457%                    | 
 | Groudon +6.288%                        | 
 | Jirachi +4.719%                        | 
 +----------------------------------------+ 
 | Checks and Counters                    | 
 +----------------------------------------+ 
 +----------------------------------------+ 
 | Mewtwo                                 | 
 +----------------------------------------+ 
 | Raw count: 5                           | 
 | Avg. weight: 0.625858014261            | 
 +----------------------------------------+ 
 | Abilities                              | 
 | Pressure 100.000%                      | 
 +----------------------------------------+ 
 | Items                                  | 
 | Life Orb 68.044%                       | 
 | Lum Berry 20.072%                      | 
 | Nothing 11.884%                        | 
 +----------------------------------------+ 
 | Spreads                                | 
 | Hasty:0/24/0/252/0/232 43.491%         | 
 | Naive:0/4/0/252/0/252 24.553%          | 
 | Modest:4/0/0/252/0/252 20.072%         | 
 | Timid:0/0/0/252/4/252 11.884%          | 
 +----------------------------------------+ 
 | Moves                                  | 
 | Flamethrower 100.000%                  | 
 | Aura Sphere 88.116%                    | 
 | Ice Beam 68.044%                       | 
 | Self-Destruct 68.044%                  | 
 | Thunderbolt 20.072%                    | 
 | Calm Mind 20.072%                      | 
 | Psychic 11.884%                        | 
 | Counter 11.884%                        | 
 | Other 11.884%                          | 
 +----------------------------------------+ 
 | Teammates                              | 
 | Rayquaza +47.681%                      | 
 | Scizor +32.417%                        | 
 | Palkia +27.560%                        | 
 | Groudon +24.279%                       | 
 | Lucario +18.301%                       | 
 | Dialga +13.207%                        | 
 | Mew +8.858%                            | 
 | Lugia +3.747%                          | 
 | Jirachi +3.197%                        | 
 +----------------------------------------+ 
 | Checks and Counters                    | 
 +----------------------------------------+ 
 +----------------------------------------+ 
 | Groudon                                | 
 +----------------------------------------+ 
 | Raw count: 6                           | 
 | Avg. weight: 0.560159827889            | 
 +----------------------------------------+ 
 | Abilities                              | 
 | Drought 100.000%                       | 
 +----------------------------------------+ 
 | Items                                  | 
 | Leftovers 62.622%                      | 
 | Nothing 18.689%                        | 
 | Great Ball 18.689%                     | 
 +----------------------------------------+ 
 | Spreads                                | 
 | Adamant:200/112/108/0/0/88 40.493%     | 
 | Hardy:252/252/0/4/0/0 18.689%          | 
 | Calm:84/84/84/84/84/84 18.689%         | 
 | Jolly:0/252/4/0/0/252 11.065%          | 
 | Adamant:128/252/0/0/0/128 11.065%      | 
 +----------------------------------------+ 
 | Moves                                  | 
 | Earthquake 81.311%                     | 
 | Stone Edge 59.182%                     | 
 | Swords Dance 51.558%                   | 
 | Thunder Wave 51.558%                   | 
 | Dragon Claw 22.129%                    | 
 | Dynamic Punch 18.689%                  | 
 | Overheat 18.689%                       | 
 | Focus Blast 18.689%                    | 
 | Eruption 18.689%                       | 
 | Double-Edge 18.689%                    | 
 | Thunder Punch 18.689%                  | 
 | Rock Polish 11.065%                    | 
 | Other 11.065%                          | 
 +----------------------------------------+ 
 | Teammates                              | 
 | Dialga +39.962%                        | 
 | Scizor +29.419%                        | 
 | Rayquaza +26.935%                      | 
 | Mewtwo +20.141%                        | 
 | Palkia +18.698%                        | 
 | Kyogre +9.288%                         | 
 | Giratina-Origin +9.006%                | 
 | Shaymin-Sky +8.039%                    | 
 +----------------------------------------+ 
 | Checks and Counters                    | 
 +----------------------------------------+ 
 +----------------------------------------+ 
 | Infernape                              | 
 +----------------------------------------+ 
 | Raw count: 7                           | 
 | Avg. weight: 0.487405415378            | 
 +----------------------------------------+ 
 | Abilities                              | 
 | Blaze 100.000%                         | 
 +----------------------------------------+ 
 | Items                                  | 
 | Chesto Berry 19.581%                   | 
 | Muscle Band 18.410%                    | 
 | Nothing 18.410%                        | 
 | Charcoal 10.900%                       | 
 | Leftovers 10.900%                      | 
 | Flame Plate 10.900%                    | 
 | Choice Band 10.900%                    | 
 +----------------------------------------+ 
 | Spreads                                | 
 | Hardy:0/88/176/0/176/68 19.581%        | 
 | Hasty:0/4/0/252/0/252 18.410%          | 
 | Adamant:0/252/0/0/0/252 18.410%        | 
 | Adamant:4/252/0/0/0/252 10.900%        | 
 | Lax:68/100/68/100/70/100 10.900%       | 
 | Hardy:84/84/84/84/84/84 10.900%        | 
 | Other 10.900%                          | 
 +----------------------------------------+ 
 | Moves                                  | 
 | Close Combat 89.100%                   | 
 | Flare Blitz 52.280%                    | 
 | Blaze Kick 40.209%                     | 
 | U-turn 29.310%                         | 
 | Fire Blast 29.310%                     | 
 | Rest 19.581%                           | 
 | Solar Beam 19.581%                     | 
 | Brick Break 18.410%                    | 
 | Bulk Up 18.410%                        | 
 | Grass Knot 18.410%                     | 
 | Focus Punch 10.900%                    | 
 | Dig 10.900%                            | 
 | Mach Punch 10.900%                     | 
 | Flamethrower 10.900%                   | 
 | Stone Edge 10.900%                     | 
 | Other 10.900%                          | 
 +----------------------------------------+ 
 | Teammates                              | 
 | Gallade +24.418%                       | 
 | Staraptor +21.173%                     | 
 | Gliscor +19.095%                       | 
 | Torterra +15.747%                      | 
 | Spiritomb +14.145%                     | 
 | Venusaur +14.145%                      | 
 | Floatzel +13.299%                      | 
 | Pikachu +7.874%                        | 
 | Buizel +7.874%                         | 
 | Feraligatr +7.874%                     | 
 | Rampardos +7.874%                      | 
 +----------------------------------------+ 
 | Checks and Counters                    | 
 +----------------------------------------+ 
 +----------------------------------------+ 
 | Blissey                                | 
 +----------------------------------------+ 
 | Raw count: 4                           | 
 | Avg. weight: 0.470835569537            | 
 +----------------------------------------+ 
 | Abilities                              | 
 | Serene Grace 80.254%                   | 
 | Natural Cure 19.746%                   | 
 +----------------------------------------+ 
 | Items                                  | 
 | Nothing 53.706%                        | 
 | Leftovers 46.294%                      | 
 +----------------------------------------+ 
 | Spreads                                | 
 | Lax:252/0/252/0/4/0 100.000%           | 
 +----------------------------------------+ 
 | Moves                                  | 
 | Soft-Boiled 100.000%                   | 
 | Zen Headbutt 80.254%                   | 
 | Shadow Ball 80.254%                    | 
 | Water Pulse 80.254%                    | 
 | Psychic 19.746%                        | 
 | Double-Edge 19.746%                    | 
 | Other 19.746%                          | 
 +----------------------------------------+ 
 | Teammates                              | 
 | Shuckle +67.955%                       | 
 | Gengar +67.955%                        | 
 | Ninjask +67.955%                       | 
 | Rhyperior +67.955%                     | 
 | Garchomp +64.460%                      | 
 | Feraligatr +16.720%                    | 
 | Rampardos +16.720%                     | 
 | Torterra +13.694%                      | 
 | Infernape +3.146%                      | 
 +----------------------------------------+ 
 | Checks and Counters                    | 
 +----------------------------------------+ 
 +----------------------------------------+ 
 | Darkrai                                | 
 +----------------------------------------+ 
 | Raw count: 7                           | 
 | Avg. weight: 0.569837028278            | 
 +----------------------------------------+ 
 | Abilities                              | 
 | Bad Dreams 100.000%                    | 
 +----------------------------------------+ 
 | Items                                  | 
 | Life Orb 28.962%                       | 
 | Chople Berry 20.898%                   | 
 | Choice Scarf 15.747%                   | 
 | Lum Berry 15.747%                      | 
 | Aguav Berry  9.323%                    | 
 | Focus Sash  9.323%                     | 
 +----------------------------------------+ 
 | Spreads                                | 
 | Timid:4/0/0/252/0/252 44.709%          | 
 | Timid:0/0/0/252/4/252 25.070%          | 
 | Timid:0/0/4/252/0/252 20.898%          | 
 | Hardy:84/84/84/84/84/84  9.323%        | 
 +----------------------------------------+ 
 | Moves                                  | 
 | Dark Void 100.000%                     | 
 | Dark Pulse 100.000%                    | 
 | Spacial Rend 44.709%                   | 
 | Nasty Plot 44.709%                     | 
 | Will-O-Wisp 36.645%                    | 
 | Focus Blast 30.221%                    | 
 | Trick 15.747%                          | 
 | Thunderbolt  9.323%                    | 
 | Other 18.646%                          | 
 +----------------------------------------+ 
 | Teammates                              | 
 | Dialga +13.152%                        | 
 | Latias +8.926%                         | 
 | Skarmory +7.171%                       | 
 | Shaymin-Sky +6.297%                    | 
 | Kyogre +3.815%                         | 
 | Giratina-Origin +1.791%                | 
 +----------------------------------------+ 
 | Checks and Counters                    | 
 +----------------------------------------+ 
 +----------------------------------------+ 
 | Skarmory                               | 
 +----------------------------------------+ 
 | Raw count: 2                           | 
 | Avg. weight: 0.843479000981            | 
 +----------------------------------------+ 
 | Abilities                              | 
 | Keen Eye 100.000%                      | 
 +----------------------------------------+ 
 | Items                                  | 
 | Leftovers 100.000%                     | 
 +----------------------------------------+ 
 | Spreads                                | 
 | Impish:248/0/16/0/212/32 50.586%       | 
 | Impish:252/0/0/0/236/20 49.414%        | 
 +----------------------------------------+ 
 | Moves                                  | 
 | Spikes 100.000%                        | 
 | Whirlwind 100.000%                     | 
 | Protect 50.586%                        | 
 | Torment 50.586%                        | 
 | Taunt 49.414%                          | 
 | Roost 49.414%                          | 
 +----------------------------------------+ 
 | Teammates                              | 
 | Ludicolo +43.642%                      | 
 | Giratina +43.642%                      | 
 | Tentacruel +43.642%                    | 
 | Heatran +43.642%                       | 
 | Darkrai +35.315%                       | 
 | Jirachi +28.058%                       | 
 | Gliscor +20.791%                       | 
 | Dialga +19.130%                        | 
 | Rayquaza +17.167%                      | 
 | Garchomp +13.874%                      | 
 +----------------------------------------+ 
 | Checks and Counters                    | 
 +----------------------------------------+ 
 +----------------------------------------+ 
 | Gallade                                | 
 +----------------------------------------+ 
 | Raw count: 3                           | 
 | Avg. weight: 0.556027836908            | 
 +----------------------------------------+ 
 | Abilities                              | 
 | Steadfast 100.000%                     | 
 +----------------------------------------+ 
 | Items                                  | 
 | Nothing 59.949%                        | 
 | Leftovers 40.051%                      | 
 +----------------------------------------+ 
 | Spreads                                | 
 | Lonely:248/252/0/8/0/0 40.051%         | 
 | Adamant:0/252/0/0/0/252 37.655%        | 
 | Hardy:84/84/84/84/84/84 22.294%        | 
 +----------------------------------------+ 
 | Moves                                  | 
 | Drain Punch 77.706%                    | 
 | Psychic 62.345%                        | 
 | Close Combat 59.949%                   | 
 | Ice Punch 40.051%                      | 
 | Poison Jab 40.051%                     | 
 | Psycho Cut 37.655%                     | 
 | Bulk Up 37.655%                        | 
 | Leaf Blade 22.294%                     | 
 | Hidden Power Grass 22.294%             | 
 +----------------------------------------+ 
 | Teammates                              | 
 | Gliscor +70.204%                       | 
 | Infernape +61.107%                     | 
 | Venusaur +34.615%                      | 
 | Spiritomb +34.615%                     | 
 | Floatzel +32.544%                      | 
 | Staraptor +29.518%                     | 
 | Pidgeot +19.268%                       | 
 | Ampharos +19.268%                      | 
 | Blastoise +19.268%                     | 
 | Blaziken +14.156%                      | 
 | Garchomp +2.115%                       | 
 +----------------------------------------+ 
 | Checks and Counters                    | 
 +----------------------------------------+ 
 +----------------------------------------+ 
 | Tyranitar                              | 
 +----------------------------------------+ 
 | Raw count: 5                           | 
 | Avg. weight: 0.530137543384            | 
 +----------------------------------------+ 
 | Abilities                              | 
 | Sand Stream 100.000%                   | 
 +----------------------------------------+ 
 | Items                                  | 
 | Focus Sash 38.577%                     | 
 | Nothing 23.697%                        | 
 | Choice Band 23.697%                    | 
 | Leftovers 14.029%                      | 
 +----------------------------------------+ 
 | Spreads                                | 
 | Hasty:0/252/0/4/0/252 38.577%          | 
 | Hardy:200/120/60/60/34/34 23.697%      | 
 | Adamant:248/252/0/0/8/0 23.697%        | 
 | Impish:252/4/252/0/0/0 14.029%         | 
 +----------------------------------------+ 
 | Moves                                  | 
 | Crunch 76.303%                         | 
 | Earthquake 47.393%                     | 
 | Stealth Rock 38.577%                   | 
 | Fire Blast 38.577%                     | 
 | Stone Edge 28.910%                     | 
 | Blizzard 23.697%                       | 
 | Focus Punch 23.697%                    | 
 | Focus Blast 23.697%                    | 
 | Low Kick 23.697%                       | 
 | Brick Break 23.697%                    | 
 | Dragon Claw 23.697%                    | 
 | Dragon Dance 14.029%                   | 
 | Other 14.029%                          | 
 +----------------------------------------+ 
 | Teammates                              | 
 | Deoxys-Attack +27.231%                 | 
 | Ho-Oh +18.585%                         | 
 | Entei +18.585%                         | 
 | Suicune +18.585%                       | 
 | Raikou +18.585%                        | 
 | Giratina-Origin +17.830%               | 
 | Jirachi +17.221%                       | 
 | Lugia +15.559%                         | 
 | Garchomp +3.037%                       | 
 +----------------------------------------+ 
 | Checks and Counters                    | 
 +----------------------------------------+ 
 +----------------------------------------+ 
 | Shuckle                                | 
 +----------------------------------------+ 
 | Raw count: 3                           | 
 | Avg. weight: 0.503821693229            | 
 +----------------------------------------+ 
 | Abilities                              | 
 | Sturdy 100.000%                        | 
 +----------------------------------------+ 
 | Items                                  | 
 | Nothing 66.920%                        | 
 | Leftovers 33.080%                      | 
 +----------------------------------------+ 
 | Spreads                                | 
 | Impish:252/0/4/0/252/0 100.000%        | 
 +----------------------------------------+ 
 | Moves                                  | 
 | Toxic 100.000%                         | 
 | Earth Power 100.000%                   | 
 | Bug Bite 100.000%                      | 
 | Knock Off 74.638%                      | 
 | Hidden Power Electric 25.362%          | 
 +----------------------------------------+ 
 | Teammates                              | 
 | Ninjask +87.701%                       | 
 | Gengar +87.701%                        | 
 | Rhyperior +87.701%                     | 
 | Blissey +84.675%                       | 
 | Garchomp +64.460%                      | 
 +----------------------------------------+ 
 | Checks and Counters                    | 
 +----------------------------------------+ 
 +----------------------------------------+ 
 | Gengar                                 | 
 +----------------------------------------+ 
 | Raw count: 4                           | 
 | Avg. weight: 0.534896970307            | 
 +----------------------------------------+ 
 | Abilities                              | 
 | Levitate 100.000%                      | 
 +----------------------------------------+ 
 | Items                                  | 
 | Nothing 47.274%                        | 
 | Focus Sash 29.357%                     | 
 | Spell Tag 23.369%                      | 
 +----------------------------------------+ 
 | Spreads                                | 
 | Naive:0/4/0/252/0/252 70.643%          | 
 | Hasty:4/0/0/252/0/252 29.357%          | 
 +----------------------------------------+ 
 | Moves                                  | 
 | Shadow Ball 70.643%                    | 
 | Drain Punch 70.643%                    | 
 | Hypnosis 70.643%                       | 
 | Dream Eater 70.643%                    | 
 | Icy Wind 29.357%                       | 
 | Dark Pulse 29.357%                     | 
 | Counter 29.357%                        | 
 | Taunt 29.357%                          | 
 +----------------------------------------+ 
 | Teammates                              | 
 | Ninjask +58.344%                       | 
 | Shuckle +58.344%                       | 
 | Rhyperior +58.344%                     | 
 | Blissey +55.318%                       | 
 | Garchomp +35.103%                      | 
 +----------------------------------------+ 
 | Checks and Counters                    | 
 +----------------------------------------+ 
 +----------------------------------------+ 
 | Ninjask                                | 
 +----------------------------------------+ 
 | Raw count: 3                           | 
 | Avg. weight: 0.503821693229            | 
 +----------------------------------------+ 
 | Abilities                              | 
 | Speed Boost 100.000%                   | 
 +----------------------------------------+ 
 | Items                                  | 
 | Nothing 66.920%                        | 
 | Focus Sash 33.080%                     | 
 +----------------------------------------+ 
 | Spreads                                | 
 | Naive:0/32/0/252/0/224 100.000%        | 
 +----------------------------------------+ 
 | Moves                                  | 
 | Bug Buzz 100.000%                      | 
 | Hidden Power Rock 100.000%             | 
 | Dig 100.000%                           | 
 | Giga Drain 100.000%                    | 
 +----------------------------------------+ 
 | Teammates                              | 
 | Shuckle +87.701%                       | 
 | Gengar +87.701%                        | 
 | Rhyperior +87.701%                     | 
 | Blissey +84.675%                       | 
 | Garchomp +64.460%                      | 
 +----------------------------------------+ 
 | Checks and Counters                    | 
 +----------------------------------------+ 
 +----------------------------------------+ 
 | Rhyperior                              | 
 +----------------------------------------+ 
 | Raw count: 3                           | 
 | Avg. weight: 0.503821693229            | 
 +----------------------------------------+ 
 | Abilities                              | 
 | Solid Rock 100.000%                    | 
 +----------------------------------------+ 
 | Items                                  | 
 | Nothing 66.920%                        | 
 | Leftovers 33.080%                      | 
 +----------------------------------------+ 
 | Spreads                                | 
 | Hasty:252/252/0/0/0/4 100.000%         | 
 +----------------------------------------+ 
 | Moves                                  | 
 | Hidden Power Flying 100.000%           | 
 | Earthquake 100.000%                    | 
 | Thunder Punch 100.000%                 | 
 | Fire Punch 100.000%                    | 
 +----------------------------------------+ 
 | Teammates                              | 
 | Ninjask +87.701%                       | 
 | Shuckle +87.701%                       | 
 | Gengar +87.701%                        | 
 | Blissey +84.675%                       | 
 | Garchomp +64.460%                      | 
 +----------------------------------------+ 
 | Checks and Counters                    | 
 +----------------------------------------+ 
 +----------------------------------------+ 
 | Deoxys-Attack                          | 
 +----------------------------------------+ 
 | Raw count: 4                           | 
 | Avg. weight: 0.505641228845            | 
 +----------------------------------------+ 
 | Abilities                              | 
 | Pressure 100.000%                      | 
 +----------------------------------------+ 
 | Items                                  | 
 | Life Orb 50.558%                       | 
 | Focus Sash 49.442%                     | 
 +----------------------------------------+ 
 | Spreads                                | 
 | Hasty:0/4/0/252/0/252 50.558%          | 
 | Naughty:0/252/0/4/0/252 31.056%        | 
 | Hasty:0/252/0/252/0/4 18.386%          | 
 +----------------------------------------+ 
 | Moves                                  | 
 | Psycho Boost 100.000%                  | 
 | Extreme Speed 81.614%                  | 
 | Superpower 81.614%                     | 
 | Shadow Ball 50.558%                    | 
 | Ice Punch 31.056%                      | 
 | Knock Off 18.386%                      | 
 | Brick Break 18.386%                    | 
 | Other 18.386%                          | 
 +----------------------------------------+ 
 | Teammates                              | 
 | Giratina-Origin +48.197%               | 
 | Tyranitar +37.126%                     | 
 | Jirachi +29.202%                       | 
 | Shaymin-Sky +15.360%                   | 
 | Garchomp +15.018%                      | 
 | Palkia +10.074%                        | 
 | Darkrai +4.288%                        | 
 +----------------------------------------+ 
 | Checks and Counters                    | 
 +----------------------------------------+ 
 +----------------------------------------+ 
 | Scizor                                 | 
 +----------------------------------------+ 
 | Raw count: 4                           | 
 | Avg. weight: 0.590239741833            | 
 +----------------------------------------+ 
 | Abilities                              | 
 | Technician 100.000%                    | 
 +----------------------------------------+ 
 | Items                                  | 
 | Leftovers 57.644%                      | 
 | Muscle Band 26.605%                    | 
 | Choice Band 15.751%                    | 
 +----------------------------------------+ 
 | Spreads                                | 
 | Careful:244/20/76/0/168/0 57.644%      | 
 | Hardy:248/196/0/0/64/0 26.605%         | 
 | Adamant:248/96/0/0/164/0 15.751%       | 
 +----------------------------------------+ 
 | Moves                                  | 
 | Bullet Punch 100.000%                  | 
 | U-turn 73.395%                         | 
 | Superpower 73.395%                     | 
 | Roost 57.644%                          | 
 | Bug Bite 26.605%                       | 
 | Brick Break 26.605%                    | 
 | Swords Dance 26.605%                   | 
 | Other 15.751%                          | 
 +----------------------------------------+ 
 | Teammates                              | 
 | Groudon +38.433%                       | 
 | Mewtwo +37.292%                        | 
 | Dialga +27.360%                        | 
 | Rayquaza +25.398%                      | 
 | Palkia +17.160%                        | 
 +----------------------------------------+ 
 | Checks and Counters                    | 
 +----------------------------------------+ 
 +----------------------------------------+ 
 | Kyogre                                 | 
 +----------------------------------------+ 
 | Raw count: 4                           | 
 | Avg. weight: 0.602879249444            | 
 +----------------------------------------+ 
 | Abilities                              | 
 | Drizzle 100.000%                       | 
 +----------------------------------------+ 
 | Items                                  | 
 | Leftovers 47.906%                      | 
 | Nothing 26.047%                        | 
 | Choice Specs 26.047%                   | 
 +----------------------------------------+ 
 | Spreads                                | 
 | Bold:0/0/252/4/0/252 47.906%           | 
 | Hardy:252/252/0/4/0/0 26.047%          | 
 | Hardy:84/84/84/84/84/84 26.047%        | 
 +----------------------------------------+ 
 | Moves                                  | 
 | Surf 73.953%                           | 
 | Ice Beam 73.953%                       | 
 | Thunder 73.953%                        | 
 | Water Spout 52.094%                    | 
 | Calm Mind 47.906%                      | 
 | Blizzard 26.047%                       | 
 | Double-Edge 26.047%                    | 
 | Hydro Pump 26.047%                     | 
 +----------------------------------------+ 
 | Teammates                              | 
 | Giratina-Origin +27.159%               | 
 | Dialga +17.622%                        | 
 | Latias +17.570%                        | 
 | Darkrai +7.761%                        | 
 | Palkia +7.422%                         | 
 | Groudon +6.835%                        | 
 +----------------------------------------+ 
 | Checks and Counters                    | 
 +----------------------------------------+ 
 +----------------------------------------+ 
 | Staraptor                              | 
 +----------------------------------------+ 
 | Raw count: 4                           | 
 | Avg. weight: 0.564061400769            | 
 +----------------------------------------+ 
 | Abilities                              | 
 | Intimidate 100.000%                    | 
 +----------------------------------------+ 
 | Items                                  | 
 | Toxic Orb 27.839%                      | 
 | Sitrus Berry 27.839%                   | 
 | Choice Band 27.839%                    | 
 | Leftovers 16.482%                      | 
 +----------------------------------------+ 
 | Spreads                                | 
 | Jolly:0/252/0/0/4/252 27.839%          | 
 | Adamant:0/252/0/0/0/252 27.839%        | 
 | Hardy:84/84/84/84/84/84 27.839%        | 
 | Bold:128/100/68/50/60/100 16.482%      | 
 +----------------------------------------+ 
 | Moves                                  | 
 | Brave Bird 100.000%                    | 
 | Close Combat 100.000%                  | 
 | Quick Attack 44.321%                   | 
 | Fly 27.839%                            | 
 | U-turn 27.839%                         | 
 | Pluck 27.839%                          | 
 | Double-Edge 27.839%                    | 
 | Facade 27.839%                         | 
 | Other 16.482%                          | 
 +----------------------------------------+ 
 | Teammates                              | 
 | Infernape +27.722%                     | 
 | Floatzel +22.728%                      | 
 | Gliscor +14.526%                       | 
 | Gallade +14.266%                       | 
 | Pikachu +13.456%                       | 
 | Buizel +13.456%                        | 
 | Torterra +10.430%                      | 
 +----------------------------------------+ 
 | Checks and Counters                    | 
 +----------------------------------------+ 
 +----------------------------------------+ 
 | Blaziken                               | 
 +----------------------------------------+ 
 | Raw count: 2                           | 
 | Avg. weight: 0.5                       | 
 +----------------------------------------+ 
 | Abilities                              | 
 | Blaze 100.000%                         | 
 +----------------------------------------+ 
 | Items                                  | 
 | Nothing 100.000%                       | 
 +----------------------------------------+ 
 | Spreads                                | 
 | Mild:68/120/0/124/76/120 62.812%       | 
 | Hardy:124/124/32/68/76/84 37.188%      | 
 +----------------------------------------+ 
 | Moves                                  | 
 | Blaze Kick 100.000%                    | 
 | Fire Blast 100.000%                    | 
 | Brave Bird 62.812%                     | 
 | Sky Uppercut 62.812%                   | 
 | Focus Punch 37.188%                    | 
 | Flare Blitz 37.188%                    | 
 +----------------------------------------+ 
 | Teammates                              | 
 | Gardevoir +57.701%                     | 
 | Dragonite +57.701%                     | 
 | Gyarados +57.701%                      | 
 | Snorlax +57.701%                       | 
 | Aggron +57.701%                        | 
 | Pidgeot +34.162%                       | 
 | Ampharos +34.162%                      | 
 | Blastoise +34.162%                     | 
 | Gallade +23.614%                       | 
 | Gliscor +7.392%                        | 
 +----------------------------------------+ 
 | Checks and Counters                    | 
 +----------------------------------------+ 
 +----------------------------------------+ 
 | Lugia                                  | 
 +----------------------------------------+ 
 | Raw count: 3                           | 
 | Avg. weight: 0.542707600513            | 
 +----------------------------------------+ 
 | Abilities                              | 
 | Pressure 100.000%                      | 
 +----------------------------------------+ 
 | Items                                  | 
 | Nothing 61.420%                        | 
 | Leftovers 38.580%                      | 
 +----------------------------------------+ 
 | Spreads                                | 
 | Hardy:200/120/60/60/34/34 38.580%      | 
 | Calm:252/0/4/0/252/0 38.580%           | 
 | Modest:248/0/0/252/8/0 22.841%         | 
 +----------------------------------------+ 
 | Moves                                  | 
 | Aeroblast 100.000%                     | 
 | Psychic 61.420%                        | 
 | Fly 38.580%                            | 
 | Calm Mind 38.580%                      | 
 | Thunder Wave 38.580%                   | 
 | Psycho Boost 38.580%                   | 
 | Whirlwind 38.580%                      | 
 | Blizzard 22.841%                       | 
 | Hyper Beam 22.841%                     | 
 +----------------------------------------+ 
 | Teammates                              | 
 | Ho-Oh +33.468%                         | 
 | Entei +33.468%                         | 
 | Suicune +33.468%                       | 
 | Raikou +33.468%                        | 
 | Tyranitar +25.148%                     | 
 | Mew +19.815%                           | 
 | Mewtwo +2.488%                         | 
 +----------------------------------------+ 
 | Checks and Counters                    | 
 +----------------------------------------+ 
 +----------------------------------------+ 
 | Giratina                               | 
 +----------------------------------------+ 
 | Raw count: 1                           | 
 | Avg. weight: 0.853370198718            | 
 +----------------------------------------+ 
 | Abilities                              | 
 | Pressure 100.000%                      | 
 +----------------------------------------+ 
 | Items                                  | 
 | Choice Scarf 100.000%                  | 
 +----------------------------------------+ 
 | Spreads                                | 
 | Modest:0/4/0/252/0/252 100.000%        | 
 +----------------------------------------+ 
 | Moves                                  | 
 | Aura Sphere 100.000%                   | 
 | Thunder 100.000%                       | 
 | Draco Meteor 100.000%                  | 
 | Shadow Ball 100.000%                   | 
 +----------------------------------------+ 
 | Teammates                              | 
 | Ludicolo +93.056%                      | 
 | Heatran +93.056%                       | 
 | Tentacruel +93.056%                    | 
 | Skarmory +86.273%                      | 
 | Gliscor +70.204%                       | 
 +----------------------------------------+ 
 | Checks and Counters                    | 
 +----------------------------------------+ 
 +----------------------------------------+ 
 | Heatran                                | 
 +----------------------------------------+ 
 | Raw count: 3                           | 
 | Avg. weight: 0.703205267265            | 
 +----------------------------------------+ 
 | Abilities                              | 
 | Flash Fire 100.000%                    | 
 +----------------------------------------+ 
 | Items                                  | 
 | Leftovers 40.451%                      | 
 | Choice Scarf 29.774%                   | 
 | Cherish Ball 29.774%                   | 
 +----------------------------------------+ 
 | Spreads                                | 
 | Calm:248/0/0/0/132/128 40.451%         | 
 | Modest:0/0/0/252/4/252 29.774%         | 
 | Hardy:84/84/84/84/84/84 29.774%        | 
 +----------------------------------------+ 
 | Moves                                  | 
 | Dragon Pulse 40.451%                   | 
 | Roar 40.451%                           | 
 | Stealth Rock 40.451%                   | 
 | Flamethrower 40.451%                   | 
 | Explosion 29.774%                      | 
 | Earth Power 29.774%                    | 
 | Flash Cannon 29.774%                   | 
 | Rock Slide 29.774%                     | 
 | Hidden Power Grass 29.774%             | 
 | Iron Head 29.774%                      | 
 | Overheat 29.774%                       | 
 | Fire Blast 29.774%                     | 
 +----------------------------------------+ 
 | Teammates                              | 
 | Ludicolo +33.507%                      | 
 | Giratina +33.507%                      | 
 | Tentacruel +33.507%                    | 
 | Skarmory +26.724%                      | 
 | Gliscor +10.656%                       | 
 +----------------------------------------+ 
 | Checks and Counters                    | 
 +----------------------------------------+ 
 +----------------------------------------+ 
 | Ludicolo                               | 
 +----------------------------------------+ 
 | Raw count: 1                           | 
 | Avg. weight: 0.853370198718            | 
 +----------------------------------------+ 
 | Abilities                              | 
 | Rain Dish 100.000%                     | 
 +----------------------------------------+ 
 | Items                                  | 
 | Leftovers 100.000%                     | 
 +----------------------------------------+ 
 | Spreads                                | 
 | Sassy:248/0/0/8/252/0 100.000%         | 
 +----------------------------------------+ 
 | Moves                                  | 
 | Leech Seed 100.000%                    | 
 | Protect 100.000%                       | 
 | Substitute 100.000%                    | 
 | Ice Beam 100.000%                      | 
 +----------------------------------------+ 
 | Teammates                              | 
 | Heatran +93.056%                       | 
 | Tentacruel +93.056%                    | 
 | Giratina +93.056%                      | 
 | Skarmory +86.273%                      | 
 | Gliscor +70.204%                       | 
 +----------------------------------------+ 
 | Checks and Counters                    | 
 +----------------------------------------+ 
 +----------------------------------------+ 
 | Tentacruel                             | 
 +----------------------------------------+ 
 | Raw count: 1                           | 
 | Avg. weight: 0.853370198718            | 
 +----------------------------------------+ 
 | Abilities                              | 
 | Liquid Ooze 100.000%                   | 
 +----------------------------------------+ 
 | Items                                  | 
 | Focus Sash 100.000%                    | 
 +----------------------------------------+ 
 | Spreads                                | 
 | Timid:0/0/0/252/4/252 100.000%         | 
 +----------------------------------------+ 
 | Moves                                  | 
 | Hydro Pump 100.000%                    | 
 | Toxic Spikes 100.000%                  | 
 | Rapid Spin 100.000%                    | 
 | Ice Beam 100.000%                      | 
 +----------------------------------------+ 
 | Teammates                              | 
 | Ludicolo +93.056%                      | 
 | Heatran +93.056%                       | 
 | Giratina +93.056%                      | 
 | Skarmory +86.273%                      | 
 | Gliscor +70.204%                       | 
 +----------------------------------------+ 
 | Checks and Counters                    | 
 +----------------------------------------+ 
 +----------------------------------------+ 
 | Lucario                                | 
 +----------------------------------------+ 
 | Raw count: 3                           | 
 | Avg. weight: 0.589443701324            | 
 +----------------------------------------+ 
 | Abilities                              | 
 | Steadfast 64.479%                      | 
 | Inner Focus 35.521%                    | 
 +----------------------------------------+ 
 | Items                                  | 
 | Life Orb 43.450%                       | 
 | Focus Sash 35.521%                     | 
 | Dragon Fang 21.030%                    | 
 +----------------------------------------+ 
 | Spreads                                | 
 | Adamant:0/252/0/0/0/252 43.450%        | 
 | Hasty:0/4/0/252/0/252 35.521%          | 
 | Hasty:4/0/0/252/0/252 21.030%          | 
 +----------------------------------------+ 
 | Moves                                  | 
 | Dragon Pulse 56.550%                   | 
 | Aura Sphere 56.550%                    | 
 | Crunch 43.450%                         | 
 | Extreme Speed 43.450%                  | 
 | Close Combat 43.450%                   | 
 | Swords Dance 43.450%                   | 
 | Bone Rush 35.521%                      | 
 | Force Palm 35.521%                     | 
 | Earthquake 21.030%                     | 
 | Psychic 21.030%                        | 
 +----------------------------------------+ 
 | Teammates                              | 
 | Mewtwo +23.097%                        | 
 | Jirachi +22.094%                       | 
 | Gliscor +13.654%                       | 
 | Rayquaza +11.203%                      | 
 | Palkia +2.965%                         | 
 +----------------------------------------+ 
 | Checks and Counters                    | 
 +----------------------------------------+ 
 +----------------------------------------+ 
 | Torterra                               | 
 +----------------------------------------+ 
 | Raw count: 2                           | 
 | Avg. weight: 0.371877198461            | 
 +----------------------------------------+ 
 | Abilities                              | 
 | Overgrow 100.000%                      | 
 +----------------------------------------+ 
 | Items                                  | 
 | Leftovers 100.000%                     | 
 +----------------------------------------+ 
 | Spreads                                | 
 | Hasty:100/100/96/70/80/58 50.000%      | 
 | Quiet:160/140/0/8/88/0 50.000%         | 
 +----------------------------------------+ 
 | Moves                                  | 
 | Synthesis 100.000%                     | 
 | Crunch 50.000%                         | 
 | Giga Drain 50.000%                     | 
 | Rock Climb 50.000%                     | 
 | Energy Ball 50.000%                    | 
 | Leaf Storm 50.000%                     | 
 | Earthquake 50.000%                     | 
 +----------------------------------------+ 
 | Teammates                              | 
 | Infernape +83.400%                     | 
 | Pikachu +46.974%                       | 
 | Feraligatr +46.974%                    | 
 | Buizel +46.974%                        | 
 | Rampardos +46.974%                     | 
 | Staraptor +41.863%                     | 
 | Blissey +34.675%                       | 
 | Gliscor +20.204%                       | 
 | Garchomp +14.460%                      | 
 +----------------------------------------+ 
 | Checks and Counters                    | 
 +----------------------------------------+ 
 +----------------------------------------+ 
 | Spiritomb                              | 
 +----------------------------------------+ 
 | Raw count: 2                           | 
 | Avg. weight: 0.519980354592            | 
 +----------------------------------------+ 
 | Abilities                              | 
 | Pressure 100.000%                      | 
 +----------------------------------------+ 
 | Items                                  | 
 | Expert Belt 64.241%                    | 
 | Quick Claw 35.759%                     | 
 +----------------------------------------+ 
 | Spreads                                | 
 | Timid:130/0/0/124/0/252 64.241%        | 
 | Modest:248/0/0/252/8/0 35.759%         | 
 +----------------------------------------+ 
 | Moves                                  | 
 | Dark Pulse 100.000%                    | 
 | Psychic 100.000%                       | 
 | Shadow Ball 64.241%                    | 
 | Will-O-Wisp 64.241%                    | 
 | Embargo 35.759%                        | 
 | Silver Wind 35.759%                    | 
 +----------------------------------------+ 
 | Teammates                              | 
 | Venusaur +58.805%                      | 
 | Gallade +50.668%                       | 
 | Infernape +47.642%                     | 
 | Gliscor +34.446%                       | 
 | Palkia +23.757%                        | 
 +----------------------------------------+ 
 | Checks and Counters                    | 
 +----------------------------------------+ 
 +----------------------------------------+ 
 | Venusaur                               | 
 +----------------------------------------+ 
 | Raw count: 1                           | 
 | Avg. weight: 0.668083510724            | 
 +----------------------------------------+ 
 | Abilities                              | 
 | Overgrow 100.000%                      | 
 +----------------------------------------+ 
 | Items                                  | 
 | Leftovers 100.000%                     | 
 +----------------------------------------+ 
 | Spreads                                | 
 | Lonely:248/252/0/8/0/0 100.000%        | 
 +----------------------------------------+ 
 | Moves                                  | 
 | Body Slam 100.000%                     | 
 | Earthquake 100.000%                    | 
 | Seed Bomb 100.000%                     | 
 | Giga Drain 100.000%                    | 
 +----------------------------------------+ 
 | Teammates                              | 
 | Spiritomb +94.564%                     | 
 | Gallade +86.427%                       | 
 | Infernape +83.400%                     | 
 | Gliscor +70.204%                       | 
 | Palkia +59.516%                        | 
 +----------------------------------------+ 
 | Checks and Counters                    | 
 +----------------------------------------+ 
 +----------------------------------------+ 
 | Gyarados                               | 
 +----------------------------------------+ 
 | Raw count: 2                           | 
 | Avg. weight: 0.628122801539            | 
 +----------------------------------------+ 
 | Abilities                              | 
 | Intimidate 100.000%                    | 
 +----------------------------------------+ 
 | Items                                  | 
 | Nothing 50.000%                        | 
 | Lum Berry 50.000%                      | 
 +----------------------------------------+ 
 | Spreads                                | 
 | Lonely:248/252/0/8/0/0 50.000%         | 
 | Naughty:76/212/48/0/48/124 50.000%     | 
 +----------------------------------------+ 
 | Moves                                  | 
 | Ice Fang 100.000%                      | 
 | Hydro Pump 100.000%                    | 
 | Thrash 50.000%                         | 
 | Dragon Dance 50.000%                   | 
 | Bite 50.000%                           | 
 | Outrage 50.000%                        | 
 +----------------------------------------+ 
 | Teammates                              | 
 | Aggron +44.889%                        | 
 | Snorlax +44.889%                       | 
 | Gardevoir +44.889%                     | 
 | Dragonite +44.889%                     | 
 | Blaziken +41.863%                      | 
 +----------------------------------------+ 
 | Checks and Counters                    | 
 +----------------------------------------+ 
 +----------------------------------------+ 
 | Snorlax                                | 
 +----------------------------------------+ 
 | Raw count: 1                           | 
 | Avg. weight: 0.628122801539            | 
 +----------------------------------------+ 
 | Abilities                              | 
 | Immunity 100.000%                      | 
 +----------------------------------------+ 
 | Items                                  | 
 | Nothing 100.000%                       | 
 +----------------------------------------+ 
 | Spreads                                | 
 | Brave:184/148/88/0/88/0 100.000%       | 
 +----------------------------------------+ 
 | Moves                                  | 
 | Mega Kick 100.000%                     | 
 | Belly Drum 100.000%                    | 
 | Snore 100.000%                         | 
 | Rest 100.000%                          | 
 +----------------------------------------+ 
 | Teammates                              | 
 | Aggron +94.889%                        | 
 | Gyarados +94.889%                      | 
 | Gardevoir +94.889%                     | 
 | Dragonite +94.889%                     | 
 | Blaziken +91.863%                      | 
 +----------------------------------------+ 
 | Checks and Counters                    | 
 +----------------------------------------+ 
 +----------------------------------------+ 
 | Raikou                                 | 
 +----------------------------------------+ 
 | Raw count: 1                           | 
 | Avg. weight: 0.628122801539            | 
 +----------------------------------------+ 
 | Abilities                              | 
 | Pressure 100.000%                      | 
 +----------------------------------------+ 
 | Items                                  | 
 | Nothing 100.000%                       | 
 +----------------------------------------+ 
 | Spreads                                | 
 | Rash:200/120/60/60/34/34 100.000%      | 
 +----------------------------------------+ 
 | Moves                                  | 
 | Thunder 100.000%                       | 
 | Thunderbolt 100.000%                   | 
 | Extreme Speed 100.000%                 | 
 | Crunch 100.000%                        | 
 +----------------------------------------+ 
 | Teammates                              | 
 | Ho-Oh +94.889%                         | 
 | Entei +94.889%                         | 
 | Suicune +94.889%                       | 
 | Lugia +91.863%                         | 
 | Tyranitar +86.568%                     | 
 +----------------------------------------+ 
 | Checks and Counters                    | 
 +----------------------------------------+ 
 +----------------------------------------+ 
 | Gardevoir                              | 
 +----------------------------------------+ 
 | Raw count: 1                           | 
 | Avg. weight: 0.628122801539            | 
 +----------------------------------------+ 
 | Abilities                              | 
 | Synchronize 100.000%                   | 
 +----------------------------------------+ 
 | Items                                  | 
 | Nothing 100.000%                       | 
 +----------------------------------------+ 
 | Spreads                                | 
 | Naive:144/0/56/140/20/148 100.000%     | 
 +----------------------------------------+ 
 | Moves                                  | 
 | Hypnosis 100.000%                      | 
 | Psychic 100.000%                       | 
 | Thunderbolt 100.000%                   | 
 | Dream Eater 100.000%                   | 
 +----------------------------------------+ 
 | Teammates                              | 
 | Snorlax +94.889%                       | 
 | Dragonite +94.889%                     | 
 | Gyarados +94.889%                      | 
 | Aggron +94.889%                        | 
 | Blaziken +91.863%                      | 
 +----------------------------------------+ 
 | Checks and Counters                    | 
 +----------------------------------------+ 
 +----------------------------------------+ 
 | Dragonite                              | 
 +----------------------------------------+ 
 | Raw count: 1                           | 
 | Avg. weight: 0.628122801539            | 
 +----------------------------------------+ 
 | Abilities                              | 
 | Inner Focus 100.000%                   | 
 +----------------------------------------+ 
 | Items                                  | 
 | Nothing 100.000%                       | 
 +----------------------------------------+ 
 | Spreads                                | 
 | Naughty:60/252/64/0/0/132 100.000%     | 
 +----------------------------------------+ 
 | Moves                                  | 
 | Outrage 100.000%                       | 
 | Dragon Rush 100.000%                   | 
 | Superpower 100.000%                    | 
 | Aqua Tail 100.000%                     | 
 +----------------------------------------+ 
 | Teammates                              | 
 | Snorlax +94.889%                       | 
 | Gardevoir +94.889%                     | 
 | Gyarados +94.889%                      | 
 | Aggron +94.889%                        | 
 | Blaziken +91.863%                      | 
 +----------------------------------------+ 
 | Checks and Counters                    | 
 +----------------------------------------+ 
 +----------------------------------------+ 
 | Entei                                  | 
 +----------------------------------------+ 
 | Raw count: 1                           | 
 | Avg. weight: 0.628122801539            | 
 +----------------------------------------+ 
 | Abilities                              | 
 | Pressure 100.000%                      | 
 +----------------------------------------+ 
 | Items                                  | 
 | Nothing 100.000%                       | 
 +----------------------------------------+ 
 | Spreads                                | 
 | Adamant:200/120/60/60/34/34 100.000%   | 
 +----------------------------------------+ 
 | Moves                                  | 
 | Fire Blast 100.000%                    | 
 | Eruption 100.000%                      | 
 | Flamethrower 100.000%                  | 
 | Flare Blitz 100.000%                   | 
 +----------------------------------------+ 
 | Teammates                              | 
 | Ho-Oh +94.889%                         | 
 | Raikou +94.889%                        | 
 | Suicune +94.889%                       | 
 | Lugia +91.863%                         | 
 | Tyranitar +86.568%                     | 
 +----------------------------------------+ 
 | Checks and Counters                    | 
 +----------------------------------------+ 
 +----------------------------------------+ 
 | Ho-Oh                                  | 
 +----------------------------------------+ 
 | Raw count: 1                           | 
 | Avg. weight: 0.628122801539            | 
 +----------------------------------------+ 
 | Abilities                              | 
 | Pressure 100.000%                      | 
 +----------------------------------------+ 
 | Items                                  | 
 | Nothing 100.000%                       | 
 +----------------------------------------+ 
 | Spreads                                | 
 | Hardy:200/120/60/60/34/34 100.000%     | 
 +----------------------------------------+ 
 | Moves                                  | 
 | Fire Blast 100.000%                    | 
 | Sacred Fire 100.000%                   | 
 | Brave Bird 100.000%                    | 
 | Zen Headbutt 100.000%                  | 
 +----------------------------------------+ 
 | Teammates                              | 
 | Entei +94.889%                         | 
 | Raikou +94.889%                        | 
 | Suicune +94.889%                       | 
 | Lugia +91.863%                         | 
 | Tyranitar +86.568%                     | 
 +----------------------------------------+ 
 | Checks and Counters                    | 
 +----------------------------------------+ 
 +----------------------------------------+ 
 | Aggron                                 | 
 +----------------------------------------+ 
 | Raw count: 1                           | 
 | Avg. weight: 0.628122801539            | 
 +----------------------------------------+ 
 | Abilities                              | 
 | Sturdy 100.000%                        | 
 +----------------------------------------+ 
 | Items                                  | 
 | Nothing 100.000%                       | 
 +----------------------------------------+ 
 | Spreads                                | 
 | Impish:112/208/104/0/0/84 100.000%     | 
 +----------------------------------------+ 
 | Moves                                  | 
 | Iron Tail 100.000%                     | 
 | Rock Slide 100.000%                    | 
 | Earthquake 100.000%                    | 
 | Iron Defense 100.000%                  | 
 +----------------------------------------+ 
 | Teammates                              | 
 | Snorlax +94.889%                       | 
 | Dragonite +94.889%                     | 
 | Gyarados +94.889%                      | 
 | Gardevoir +94.889%                     | 
 | Blaziken +91.863%                      | 
 +----------------------------------------+ 
 | Checks and Counters                    | 
 +----------------------------------------+ 
 +----------------------------------------+ 
 | Suicune                                | 
 +----------------------------------------+ 
 | Raw count: 2                           | 
 | Avg. weight: 0.628122801539            | 
 +----------------------------------------+ 
 | Abilities                              | 
 | Pressure 100.000%                      | 
 +----------------------------------------+ 
 | Items                                  | 
 | Nothing 50.000%                        | 
 | Leftovers 50.000%                      | 
 +----------------------------------------+ 
 | Spreads                                | 
 | Hardy:200/120/60/60/34/34 50.000%      | 
 | Bold:252/0/252/0/4/0 50.000%           | 
 +----------------------------------------+ 
 | Moves                                  | 
 | Surf 50.000%                           | 
 | Blizzard 50.000%                       | 
 | Calm Mind 50.000%                      | 
 | Rest 50.000%                           | 
 | Sleep Talk 50.000%                     | 
 | Waterfall 50.000%                      | 
 | Ice Beam 50.000%                       | 
 | Hydro Pump 50.000%                     | 
 +----------------------------------------+ 
 | Teammates                              | 
 | Ho-Oh +44.889%                         | 
 | Entei +44.889%                         | 
 | Raikou +44.889%                        | 
 | Lugia +41.863%                         | 
 | Tyranitar +36.568%                     | 
 +----------------------------------------+ 
 | Checks and Counters                    | 
 +----------------------------------------+ 
 +----------------------------------------+ 
 | Floatzel                               | 
 +----------------------------------------+ 
 | Raw count: 2                           | 
 | Avg. weight: 0.5                       | 
 +----------------------------------------+ 
 | Abilities                              | 
 | Swift Swim 100.000%                    | 
 +----------------------------------------+ 
 | Items                                  | 
 | Nothing 62.812%                        | 
 | Splash Plate 37.188%                   | 
 +----------------------------------------+ 
 | Spreads                                | 
 | Adamant:0/252/0/0/0/252 62.812%        | 
 | Hardy:84/84/84/84/84/84 37.188%        | 
 +----------------------------------------+ 
 | Moves                                  | 
 | Aqua Jet 62.812%                       | 
 | Ice Punch 62.812%                      | 
 | Waterfall 62.812%                      | 
 | Attract 62.812%                        | 
 | Blizzard 37.188%                       | 
 | Focus Blast 37.188%                    | 
 | Iron Tail 37.188%                      | 
 | Aqua Tail 37.188%                      | 
 +----------------------------------------+ 
 | Teammates                              | 
 | Staraptor +54.675%                     | 
 | Gallade +49.239%                       | 
 | Infernape +46.213%                     | 
 | Gliscor +33.017%                       | 
 | Garchomp +27.272%                      | 
 +----------------------------------------+ 
 | Checks and Counters                    | 
 +----------------------------------------+ 
 +----------------------------------------+ 
 | Latias                                 | 
 +----------------------------------------+ 
 | Raw count: 2                           | 
 | Avg. weight: 0.57763569735             | 
 +----------------------------------------+ 
 | Abilities                              | 
 | Levitate 100.000%                      | 
 +----------------------------------------+ 
 | Items                                  | 
 | Soul Dew 100.000%                      | 
 +----------------------------------------+ 
 | Spreads                                | 
 | Timid:152/0/180/0/0/176 100.000%       | 
 +----------------------------------------+ 
 | Moves                                  | 
 | Calm Mind 100.000%                     | 
 | Psychic 100.000%                       | 
 | Refresh 100.000%                       | 
 | Dragon Pulse 100.000%                  | 
 +----------------------------------------+ 
 | Teammates                              | 
 | Kyogre +36.229%                        | 
 | Darkrai +31.531%                       | 
 | Giratina-Origin +24.882%               | 
 | Dialga +15.346%                        | 
 | Palkia +5.146%                         | 
 +----------------------------------------+ 
 | Checks and Counters                    | 
 +----------------------------------------+ 
 +----------------------------------------+ 
 | Feraligatr                             | 
 +----------------------------------------+ 
 | Raw count: 1                           | 
 | Avg. weight: 0.371877198461            | 
 +----------------------------------------+ 
 | Abilities                              | 
 | Torrent 100.000%                       | 
 +----------------------------------------+ 
 | Items                                  | 
 | Mystic Water 100.000%                  | 
 +----------------------------------------+ 
 | Spreads                                | 
 | Naughty:252/252/0/4/0/0 100.000%       | 
 +----------------------------------------+ 
 | Moves                                  | 
 | Surf 100.000%                          | 
 | Crunch 100.000%                        | 
 | Ice Punch 100.000%                     | 
 | Earthquake 100.000%                    | 
 +----------------------------------------+ 
 | Teammates                              | 
 | Rampardos +96.974%                     | 
 | Torterra +93.948%                      | 
 | Blissey +84.675%                       | 
 | Infernape +83.400%                     | 
 | Garchomp +64.460%                      | 
 +----------------------------------------+ 
 | Checks and Counters                    | 
 +----------------------------------------+ 
 +----------------------------------------+ 
 | Togekiss                               | 
 +----------------------------------------+ 
 | Raw count: 1                           | 
 | Avg. weight: 0.371877198461            | 
 +----------------------------------------+ 
 | Abilities                              | 
 | Hustle 100.000%                        | 
 +----------------------------------------+ 
 | Items                                  | 
 | Leftovers 100.000%                     | 
 +----------------------------------------+ 
 | Spreads                                | 
 | Hardy:0/136/116/136/0/120 100.000%     | 
 +----------------------------------------+ 
 | Moves                                  | 
 | Aura Sphere 100.000%                   | 
 | Fly 100.000%                           | 
 | Aerial Ace 100.000%                    | 
 | Shadow Ball 100.000%                   | 
 +----------------------------------------+ 
 | Teammates                              | 
 | Ambipom +96.974%                       | 
 | Sunflora +96.974%                      | 
 | Politoed +96.974%                      | 
 | Sudowoodo +96.974%                     | 
 | Typhlosion +96.974%                    | 
 +----------------------------------------+ 
 | Checks and Counters                    | 
 +----------------------------------------+ 
 +----------------------------------------+ 
 | Ambipom                                | 
 +----------------------------------------+ 
 | Raw count: 1                           | 
 | Avg. weight: 0.371877198461            | 
 +----------------------------------------+ 
 | Abilities                              | 
 | Technician 100.000%                    | 
 +----------------------------------------+ 
 | Items                                  | 
 | Leftovers 100.000%                     | 
 +----------------------------------------+ 
 | Spreads                                | 
 | Hardy:0/148/0/192/0/168 100.000%       | 
 +----------------------------------------+ 
 | Moves                                  | 
 | Brick Break 100.000%                   | 
 | Thunderbolt 100.000%                   | 
 | Aerial Ace 100.000%                    | 
 | Double Hit 100.000%                    | 
 +----------------------------------------+ 
 | Teammates                              | 
 | Sunflora +96.974%                      | 
 | Typhlosion +96.974%                    | 
 | Togekiss +96.974%                      | 
 | Sudowoodo +96.974%                     | 
 | Politoed +96.974%                      | 
 +----------------------------------------+ 
 | Checks and Counters                    | 
 +----------------------------------------+ 
 +----------------------------------------+ 
 | Pikachu                                | 
 +----------------------------------------+ 
 | Raw count: 2                           | 
 | Avg. weight: 0.371877198461            | 
 +----------------------------------------+ 
 | Abilities                              | 
 | Static 100.000%                        | 
 +----------------------------------------+ 
 | Items                                  | 
 | Leftovers 50.000%                      | 
 | Master Ball 50.000%                    | 
 +----------------------------------------+ 
 | Spreads                                | 
 | Impish:223/55/40/50/50/90 50.000%      | 
 | Hardy:84/84/84/84/84/84 50.000%        | 
 +----------------------------------------+ 
 | Moves                                  | 
 | Thunderbolt 100.000%                   | 
 | Agility 50.000%                        | 
 | Iron Tail 50.000%                      | 
 | Volt Tackle 50.000%                    | 
 | Thunder Shock 50.000%                  | 
 | Tail Whip 50.000%                      | 
 | Quick Attack 50.000%                   | 
 +----------------------------------------+ 
 | Teammates                              | 
 | Buizel +46.974%                        | 
 | Torterra +43.948%                      | 
 | Staraptor +41.863%                     | 
 | Infernape +33.400%                     | 
 | Gliscor +20.204%                       | 
 +----------------------------------------+ 
 | Checks and Counters                    | 
 +----------------------------------------+ 
 +----------------------------------------+ 
 | Mew                                    | 
 +----------------------------------------+ 
 | Raw count: 1                           | 
 | Avg. weight: 0.371877198461            | 
 +----------------------------------------+ 
 | Abilities                              | 
 | Synchronize 100.000%                   | 
 +----------------------------------------+ 
 | Items                                  | 
 | Nothing 100.000%                       | 
 +----------------------------------------+ 
 | Spreads                                | 
 | Hasty:0/4/0/252/0/252 100.000%         | 
 +----------------------------------------+ 
 | Moves                                  | 
 | Surf 100.000%                          | 
 | Fly 100.000%                           | 
 | Protect 100.000%                       | 
 | Metronome 100.000%                     | 
 +----------------------------------------+ 
 | Teammates                              | 
 | Lugia +91.863%                         | 
 | Mewtwo +79.648%                        | 
 | Rayquaza +67.753%                      | 
 +----------------------------------------+ 
 | Checks and Counters                    | 
 +----------------------------------------+ 
 +----------------------------------------+ 
 | Blastoise                              | 
 +----------------------------------------+ 
 | Raw count: 1                           | 
 | Avg. weight: 0.371877198461            | 
 +----------------------------------------+ 
 | Abilities                              | 
 | Torrent 100.000%                       | 
 +----------------------------------------+ 
 | Items                                  | 
 | Nothing 100.000%                       | 
 +----------------------------------------+ 
 | Spreads                                | 
 | Hardy:84/84/84/84/84/84 100.000%       | 
 +----------------------------------------+ 
 | Moves                                  | 
 | Hidden Power Water 100.000%            | 
 | Hydro Pump 100.000%                    | 
 | Water Spout 100.000%                   | 
 | Hydro Cannon 100.000%                  | 
 +----------------------------------------+ 
 | Teammates                              | 
 | Pidgeot +96.974%                       | 
 | Ampharos +96.974%                      | 
 | Blaziken +91.863%                      | 
 | Gallade +86.427%                       | 
 | Gliscor +70.204%                       | 
 +----------------------------------------+ 
 | Checks and Counters                    | 
 +----------------------------------------+ 
 +----------------------------------------+ 
 | Shaymin-Sky                            | 
 +----------------------------------------+ 
 | Raw count: 1                           | 
 | Avg. weight: 0.371877198461            | 
 +----------------------------------------+ 
 | Abilities                              | 
 | Serene Grace 100.000%                  | 
 +----------------------------------------+ 
 | Items                                  | 
 | Life Orb 100.000%                      | 
 +----------------------------------------+ 
 | Spreads                                | 
 | Hardy:0/0/0/252/0/252 100.000%         | 
 +----------------------------------------+ 
 | Moves                                  | 
 | Psychic 100.000%                       | 
 | Seed Flare 100.000%                    | 
 | Earth Power 100.000%                   | 
 | Air Slash 100.000%                     | 
 +----------------------------------------+ 
 | Teammates                              | 
 | Deoxys-Attack +88.653%                 | 
 | Darkrai +85.901%                       | 
 | Groudon +80.788%                       | 
 | Giratina-Origin +79.253%               | 
 | Dialga +69.716%                        | 
 +----------------------------------------+ 
 | Checks and Counters                    | 
 +----------------------------------------+ 
 +----------------------------------------+ 
 | Sudowoodo                              | 
 +----------------------------------------+ 
 | Raw count: 1                           | 
 | Avg. weight: 0.371877198461            | 
 +----------------------------------------+ 
 | Abilities                              | 
 | Sturdy 100.000%                        | 
 +----------------------------------------+ 
 | Items                                  | 
 | Big Root 100.000%                      | 
 +----------------------------------------+ 
 | Spreads                                | 
 | Hardy:0/172/100/0/0/236 100.000%       | 
 +----------------------------------------+ 
 | Moves                                  | 
 | Mimic 100.000%                         | 
 | Brick Break 100.000%                   | 
 | Earthquake 100.000%                    | 
 | Double-Edge 100.000%                   | 
 +----------------------------------------+ 
 | Teammates                              | 
 | Ambipom +96.974%                       | 
 | Sunflora +96.974%                      | 
 | Togekiss +96.974%                      | 
 | Politoed +96.974%                      | 
 | Typhlosion +96.974%                    | 
 +----------------------------------------+ 
 | Checks and Counters                    | 
 +----------------------------------------+ 
 +----------------------------------------+ 
 | Sunflora                               | 
 +----------------------------------------+ 
 | Raw count: 1                           | 
 | Avg. weight: 0.371877198461            | 
 +----------------------------------------+ 
 | Abilities                              | 
 | Chlorophyll 100.000%                   | 
 +----------------------------------------+ 
 | Items                                  | 
 | Leftovers 100.000%                     | 
 +----------------------------------------+ 
 | Spreads                                | 
 | Hardy:0/132/92/92/92/100 100.000%      | 
 +----------------------------------------+ 
 | Moves                                  | 
 | Hidden Power Water 100.000%            | 
 | Energy Ball 100.000%                   | 
 | Earth Power 100.000%                   | 
 | Sunny Day 100.000%                     | 
 +----------------------------------------+ 
 | Teammates                              | 
 | Ambipom +96.974%                       | 
 | Typhlosion +96.974%                    | 
 | Togekiss +96.974%                      | 
 | Sudowoodo +96.974%                     | 
 | Politoed +96.974%                      | 
 +----------------------------------------+ 
 | Checks and Counters                    | 
 +----------------------------------------+ 
 +----------------------------------------+ 
 | Pidgeot                                | 
 +----------------------------------------+ 
 | Raw count: 1                           | 
 | Avg. weight: 0.371877198461            | 
 +----------------------------------------+ 
 | Abilities                              | 
 | Keen Eye 100.000%                      | 
 +----------------------------------------+ 
 | Items                                  | 
 | Nothing 100.000%                       | 
 +----------------------------------------+ 
 | Spreads                                | 
 | Hardy:84/84/84/84/84/84 100.000%       | 
 +----------------------------------------+ 
 | Moves                                  | 
 | Fly 100.000%                           | 
 | Steel Wing 100.000%                    | 
 | Hidden Power Flying 100.000%           | 
 | Secret Power 100.000%                  | 
 +----------------------------------------+ 
 | Teammates                              | 
 | Ampharos +96.974%                      | 
 | Blastoise +96.974%                     | 
 | Blaziken +91.863%                      | 
 | Gallade +86.427%                       | 
 | Gliscor +70.204%                       | 
 +----------------------------------------+ 
 | Checks and Counters                    | 
 +----------------------------------------+ 
 +----------------------------------------+ 
 | Rampardos                              | 
 +----------------------------------------+ 
 | Raw count: 1                           | 
 | Avg. weight: 0.371877198461            | 
 +----------------------------------------+ 
 | Abilities                              | 
 | Mold Breaker 100.000%                  | 
 +----------------------------------------+ 
 | Items                                  | 
 | Choice Band 100.000%                   | 
 +----------------------------------------+ 
 | Spreads                                | 
 | Jolly:160/252/0/8/88/0 100.000%        | 
 +----------------------------------------+ 
 | Moves                                  | 
 | Headbutt 100.000%                      | 
 | Zen Headbutt 100.000%                  | 
 | Assurance 100.000%                     | 
 | Ice Beam 100.000%                      | 
 +----------------------------------------+ 
 | Teammates                              | 
 | Feraligatr +96.974%                    | 
 | Torterra +93.948%                      | 
 | Blissey +84.675%                       | 
 | Infernape +83.400%                     | 
 | Garchomp +64.460%                      | 
 +----------------------------------------+ 
 | Checks and Counters                    | 
 +----------------------------------------+ 
 +----------------------------------------+ 
 | Buizel                                 | 
 +----------------------------------------+ 
 | Raw count: 1                           | 
 | Avg. weight: 0.371877198461            | 
 +----------------------------------------+ 
 | Abilities                              | 
 | Swift Swim 100.000%                    | 
 +----------------------------------------+ 
 | Items                                  | 
 | Leftovers 100.000%                     | 
 +----------------------------------------+ 
 | Spreads                                | 
 | Relaxed:55/243/32/60/30/85 100.000%    | 
 +----------------------------------------+ 
 | Moves                                  | 
 | Water Gun 100.000%                     | 
 | Aqua Jet 100.000%                      | 
 | Ice Punch 100.000%                     | 
 | Sonic Boom 100.000%                    | 
 +----------------------------------------+ 
 | Teammates                              | 
 | Pikachu +96.974%                       | 
 | Torterra +93.948%                      | 
 | Staraptor +91.863%                     | 
 | Infernape +83.400%                     | 
 | Gliscor +70.204%                       | 
 +----------------------------------------+ 
 | Checks and Counters                    | 
 +----------------------------------------+ 
 +----------------------------------------+ 
 | Typhlosion                             | 
 +----------------------------------------+ 
 | Raw count: 1                           | 
 | Avg. weight: 0.371877198461            | 
 +----------------------------------------+ 
 | Abilities                              | 
 | Blaze 100.000%                         | 
 +----------------------------------------+ 
 | Items                                  | 
 | Life Orb 100.000%                      | 
 +----------------------------------------+ 
 | Spreads                                | 
 | Hardy:0/160/96/156/96/0 100.000%       | 
 +----------------------------------------+ 
 | Moves                                  | 
 | Blast Burn 100.000%                    | 
 | Focus Punch 100.000%                   | 
 | Earthquake 100.000%                    | 
 | Aerial Ace 100.000%                    | 
 +----------------------------------------+ 
 | Teammates                              | 
 | Ambipom +96.974%                       | 
 | Sunflora +96.974%                      | 
 | Togekiss +96.974%                      | 
 | Sudowoodo +96.974%                     | 
 | Politoed +96.974%                      | 
 +----------------------------------------+ 
 | Checks and Counters                    | 
 +----------------------------------------+ 
 +----------------------------------------+ 
 | Ampharos                               | 
 +----------------------------------------+ 
 | Raw count: 1                           | 
 | Avg. weight: 0.371877198461            | 
 +----------------------------------------+ 
 | Abilities                              | 
 | Static 100.000%                        | 
 +----------------------------------------+ 
 | Items                                  | 
 | Nothing 100.000%                       | 
 +----------------------------------------+ 
 | Spreads                                | 
 | Hardy:84/84/84/84/84/84 100.000%       | 
 +----------------------------------------+ 
 | Moves                                  | 
 | Hidden Power Electric 100.000%         | 
 | Focus Punch 100.000%                   | 
 | Thunderbolt 100.000%                   | 
 | Thunder 100.000%                       | 
 +----------------------------------------+ 
 | Teammates                              | 
 | Pidgeot +96.974%                       | 
 | Blastoise +96.974%                     | 
 | Blaziken +91.863%                      | 
 | Gallade +86.427%                       | 
 | Gliscor +70.204%                       | 
 +----------------------------------------+ 
 | Checks and Counters                    | 
 +----------------------------------------+ 
 +----------------------------------------+ 
 | Politoed                               | 
 +----------------------------------------+ 
 | Raw count: 1                           | 
 | Avg. weight: 0.371877198461            | 
 +----------------------------------------+ 
 | Abilities                              | 
 | Water Absorb 100.000%                  | 
 +----------------------------------------+ 
 | Items                                  | 
 | Mystic Water 100.000%                  | 
 +----------------------------------------+ 
 | Spreads                                | 
 | Hardy:0/204/92/120/0/92 100.000%       | 
 +----------------------------------------+ 
 | Moves                                  | 
 | Hydro Pump 100.000%                    | 
 | Double Slap 100.000%                   | 
 | Return 100.000%                        | 
 | Dynamic Punch 100.000%                 | 
 +----------------------------------------+ 
 | Teammates                              | 
 | Ambipom +96.974%                       | 
 | Sunflora +96.974%                      | 
 | Togekiss +96.974%                      | 
 | Sudowoodo +96.974%                     | 
 | Typhlosion +96.974%                    | 
 +----------------------------------------+ 
 | Checks and Counters                    | 
 +----------------------------------------+ 
