 weatherless...................61.76471%
 offense.......................35.29412%
 hyperoffense..................34.31373%
 sun...........................19.60784%
 balance.......................18.62745%
 sunoffense....................15.68627%
 rain..........................14.70588%
 semistall..................... 9.80392%
 rainoffense................... 9.80392%
 hail.......................... 2.94118%
 monotype...................... 2.94118%
 stall......................... 1.96078%
 monopoison.................... 0.98039%
 dragmag....................... 0.98039%
 sand.......................... 0.98039%
 monoground.................... 0.98039%
 monoice....................... 0.98039%
 monograss..................... 0.98039%

 Stalliness (mean: -0.374)
 -1.5|########
     |##############################
 -1.0|##########################
     |######
 -0.5|###############
     |#########
  0.0|#######################
     |######
 +0.5|########
     |###
 +1.0|#########
     |#########
 more negative = more offensive, more positive = more stall
 one # =  0.65%
