 weatherless...................83.33333%
 hyperoffense..................50.00000%
 offense.......................50.00000%
 hail..........................11.11111%
 hailoffense...................11.11111%
 choice........................ 5.55556%
 rainoffense................... 2.77778%
 sand.......................... 2.77778%
 rain.......................... 2.77778%

 Stalliness (mean: -1.075)
     |###########
     |###########
     |########
     |####
     |####
     |####
 -1.2|###########
     |###########
 -1.0|####
     |########
 -0.8|##############################
     |###########
 -0.6|###############
     |
 -0.4|
     |####
 -0.2|
     |
  0.0|
 more negative = more offensive, more positive = more stall
 one # =  0.74%
