 monopoison....................100.00000%
 monotype......................100.00000%
 weatherless...................99.37841%
 balance.......................55.53435%
 offense.......................33.50600%
 semistall..................... 7.51908%
 hyperoffense.................. 3.04798%
 sun........................... 0.47983%
 stall......................... 0.39258%
 rain.......................... 0.14177%
 sunoffense.................... 0.14177%
 choice........................ 0.12541%
 monoelectric.................. 0.07634%
 monofire...................... 0.02181%
 rainoffense................... 0.01091%
 monodark...................... 0.00545%
 monograss..................... 0.00545%
 monoghost..................... 0.00545%

 Stalliness (mean:  0.175)
     |
 -1.5|
     |##
 -1.0|####
     |#######
 -0.5|##########
     |#####################
  0.0|##############################
     |#############################
 +0.5|########################
     |###############
 +1.0|#########
     |#####
 +1.5|###
 more negative = more offensive, more positive = more stall
 one # =  0.62%
