 monopsychic...................100.00000%
 monotype......................100.00000%
 weatherless...................99.75925%
 offense.......................79.71585%
 trickroom.....................15.24449%
 balance.......................12.24353%
 hyperoffense.................. 7.82897%
 choice........................ 0.61055%
 semistall..................... 0.20838%
 hail.......................... 0.14414%
 voltturn...................... 0.10426%
 sun........................... 0.09661%
 monorock...................... 0.03338%
 monofairy..................... 0.02416%
 monobug....................... 0.01996%
 trickhail..................... 0.01697%
 stall......................... 0.00327%
 monoflying.................... 0.00000%

 Stalliness (mean: -0.451)
     |##
 -1.2|#####
     |#############
 -0.8|###################
     |##############################
 -0.4|############################
     |#########################
  0.0|############
     |########
 +0.4|#####
     |#
 +0.8|
     |
 more negative = more offensive, more positive = more stall
 one # =  0.67%
