 monotype......................100.00000%
 monoice.......................100.00000%
 hail..........................69.10897%
 offense.......................57.41369%
 hyperoffense..................34.88024%
 weatherless...................30.88569%
 hailoffense...................22.90727%
 balance....................... 7.62329%
 choice........................ 1.62879%
 voltturn...................... 0.25099%
 monowater..................... 0.08277%
 semistall..................... 0.07743%
 monobug....................... 0.02937%
 monoflying.................... 0.01869%
 trickroom..................... 0.01068%
 trickhail..................... 0.01068%
 multiweather.................. 0.00801%
 sun........................... 0.00801%
 rain.......................... 0.00534%
 monoground.................... 0.00534%
 stall......................... 0.00534%
 monodark...................... 0.00267%

 Stalliness (mean: -0.763)
 -2.0|##
     |######
 -1.5|#############
     |########################
 -1.0|##############################
     |##############################
 -0.5|############################
     |#####################
  0.0|###########
     |######
 +0.5|##
     |
 more negative = more offensive, more positive = more stall
 one # =  0.57%
