 monotype......................100.00000%
 monoflying....................100.00000%
 weatherless...................88.62203%
 offense.......................59.92211%
 hyperoffense..................22.05119%
 balance.......................17.32196%
 rain..........................10.68249%
 voltturn...................... 4.58086%
 choice........................ 1.29822%
 rainoffense................... 0.97366%
 tailwind...................... 0.70475%
 sun........................... 0.69547%
 semistall..................... 0.62129%
 sunoffense.................... 0.42656%
 monowater..................... 0.17619%
 monofire...................... 0.09273%
 monobug....................... 0.08346%
 stall......................... 0.08346%
 monofairy..................... 0.07418%
 monoice....................... 0.06491%
 mononormal.................... 0.04636%
 monosteel..................... 0.03709%
 monopsychic................... 0.00927%

 Stalliness (mean: -0.524)
     |####
 -1.5|#######
     |#################
 -1.0|#########################
     |##############################
 -0.5|###########################
     |############################
  0.0|########################
     |############
 +0.5|#######
     |##
 +1.0|#
     |
 more negative = more offensive, more positive = more stall
 one # =  0.54%
