 monodragon....................100.00000%
 monotype......................100.00000%
 weatherless...................99.94989%
 offense.......................56.49101%
 hyperoffense..................41.26180%
 choice........................ 7.23479%
 balance....................... 2.16543%
 voltturn...................... 0.93897%
 monowater..................... 0.26375%
 semistall..................... 0.07649%
 monoghost..................... 0.06330%
 rain.......................... 0.04748%
 tailwind...................... 0.03429%
 monograss..................... 0.03429%
 monoelectric.................. 0.01055%
 monofire...................... 0.00791%
 stall......................... 0.00528%
 monosteel..................... 0.00528%
 sun........................... 0.00264%
 monofighting.................. 0.00264%

 Stalliness (mean: -0.898)
 -2.0|#
     |#####
 -1.5|#############
     |########################
 -1.0|##############################
     |############################
 -0.5|########################
     |##########
  0.0|####
     |#
 +0.5|
     |
 more negative = more offensive, more positive = more stall
 one # =  0.71%
