 monotype......................100.00000%
 monobug.......................100.00000%
 weatherless...................99.88598%
 offense.......................61.93217%
 hyperoffense..................28.55270%
 balance....................... 9.40207%
 voltturn...................... 1.13483%
 choice........................ 0.28123%
 trickroom..................... 0.26106%
 hail.......................... 0.08395%
 semistall..................... 0.06304%
 monorock...................... 0.05692%
 stall......................... 0.05002%
 monowater..................... 0.03269%
 rain.......................... 0.02824%
 monoice....................... 0.02503%
 monoflying.................... 0.01470%
 monopsychic................... 0.01319%
 tailwind...................... 0.01229%
 monoghost..................... 0.00745%
 monosteel..................... 0.00393%
 monoelectric.................. 0.00368%
 monofire...................... 0.00312%
 sand.......................... 0.00184%

 Stalliness (mean: -0.687)
 -2.0|#
     |##
 -1.5|###########
     |##################
 -1.0|#########################
     |##############################
 -0.5|#########################
     |########################
  0.0|############
     |#####
 +0.5|##
     |#
 +1.0|
     |
 +1.5|
     |
 +2.0|
     |
 more negative = more offensive, more positive = more stall
 one # =  0.64%
