 monotype......................100.00000%
 monoground....................100.00000%
 sand..........................98.19965%
 balance.......................64.38791%
 offense.......................31.62427%
 semistall..................... 3.40140%
 choice........................ 2.88250%
 weatherless................... 1.80035%
 dragmag....................... 1.21417%
 hyperoffense.................. 0.46447%
 sandoffense................... 0.34825%
 stall......................... 0.12195%
 sandstall..................... 0.12195%
 trickroom..................... 0.00904%
 tricksand..................... 0.00331%
 multiweather.................. 0.00003%
 rain.......................... 0.00003%
 monorock...................... 0.00000%
 monowater..................... 0.00000%
 monosteel..................... 0.00000%
 monoghost..................... 0.00000%
 monoice....................... 0.00000%

 Stalliness (mean:  0.233)
     |
 -1.0|##
     |#######
 -0.5|###
     |####################
  0.0|############
     |########################
 +0.5|#####################
     |##############################
 +1.0|####
     |
 +1.5|#
     |
 +2.0|
 more negative = more offensive, more positive = more stall
 one # =  0.81%
