 weatherless...................92.85714%
 offense.......................47.95918%
 balance.......................25.51020%
 semistall.....................14.28571%
 hyperoffense.................. 9.18367%
 sun........................... 4.08163%
 stall......................... 3.06122%
 choice........................ 2.04082%
 sunoffense.................... 2.04082%
 rain.......................... 2.04082%
 dragmag....................... 1.02041%
 hailstall..................... 1.02041%
 hail.......................... 1.02041%
 rainoffense................... 1.02041%

 Stalliness (mean: -0.004)
 -1.5|########
     |###
 -1.0|#####
     |##############################
 -0.5|##############
     |#########
  0.0|##############################
     |############
 +0.5|######
     |#####
 +1.0|########
     |
 +1.5|###############
 more negative = more offensive, more positive = more stall
 one # =  0.68%
