 +----------------------------------------+ 
 | Typhlosion                             | 
 +----------------------------------------+ 
 | Raw count: 48                          | 
 | Avg. weight: 0.320519083029            | 
 | Viability Ceiling: 79                  | 
 +----------------------------------------+ 
 | Abilities                              | 
 | Blaze 100.000%                         | 
 +----------------------------------------+ 
 | Items                                  | 
 | Choice Specs 50.848%                   | 
 | Choice Scarf 49.152%                   | 
 | Other -0.000%                          | 
 +----------------------------------------+ 
 | Spreads                                | 
 | Timid:0/0/0/252/4/252 92.621%          | 
 | Modest:4/0/0/252/0/252  7.379%         | 
 | Other -0.000%                          | 
 +----------------------------------------+ 
 | Moves                                  | 
 | Eruption 100.000%                      | 
 | Focus Blast 100.000%                   | 
 | Hidden Power Grass 92.621%             | 
 | Fire Blast 50.848%                     | 
 | Flamethrower 49.152%                   | 
 | Other  7.379%                          | 
 +----------------------------------------+ 
 | Teammates                              | 
 | Uxie +24.676%                          | 
 | Donphan +15.513%                       | 
 | Sceptile +13.547%                      | 
 | Steelix +13.547%                       | 
 | Claydol +11.129%                       | 
 | Milotic +11.129%                       | 
 | Leafeon +11.129%                       | 
 | Ampharos +11.129%                      | 
 | Azumarill +7.440%                      | 
 | Hitmontop +1.966%                      | 
 +----------------------------------------+ 
 | Checks and Counters                    | 
 +----------------------------------------+ 
 +----------------------------------------+ 
 | Uxie                                   | 
 +----------------------------------------+ 
 | Raw count: 49                          | 
 | Avg. weight: 0.311462198734            | 
 | Viability Ceiling: 79                  | 
 +----------------------------------------+ 
 | Abilities                              | 
 | Levitate 100.000%                      | 
 +----------------------------------------+ 
 | Items                                  | 
 | Leftovers 94.366%                      | 
 | Choice Scarf  5.634%                   | 
 | Other  0.000%                          | 
 +----------------------------------------+ 
 | Spreads                                | 
 | Bold:252/0/252/0/4/0 60.590%           | 
 | Bold:252/0/252/4/0/0 33.776%           | 
 | Timid:252/0/0/32/0/224  5.634%         | 
 | Other  0.000%                          | 
 +----------------------------------------+ 
 | Moves                                  | 
 | Psychic 100.000%                       | 
 | U-turn 80.524%                         | 
 | Stealth Rock 80.524%                   | 
 | Yawn 41.114%                           | 
 | Thunder Wave 33.776%                   | 
 | Calm Mind 19.476%                      | 
 | Rest 19.476%                           | 
 | Shadow Ball 19.476%                    | 
 | Other  5.634%                          | 
 +----------------------------------------+ 
 | Teammates                              | 
 | Sceptile +3.813%                       | 
 | Steelix +3.813%                        | 
 | Claydol +3.132%                        | 
 | Milotic +3.132%                        | 
 | Leafeon +3.132%                        | 
 | Ampharos +3.132%                       | 
 | Typhlosion +1.532%                     | 
 +----------------------------------------+ 
 | Checks and Counters                    | 
 +----------------------------------------+ 
 +----------------------------------------+ 
 | Azumarill                              | 
 +----------------------------------------+ 
 | Raw count: 33                          | 
 | Avg. weight: 0.34771154688             | 
 | Viability Ceiling: 79                  | 
 +----------------------------------------+ 
 | Abilities                              | 
 | Huge Power 100.000%                    | 
 +----------------------------------------+ 
 | Items                                  | 
 | Leftovers 85.932%                      | 
 | Choice Band 14.068%                    | 
 | Other  0.000%                          | 
 +----------------------------------------+ 
 | Spreads                                | 
 | Adamant:252/252/0/0/0/4 85.932%        | 
 | Adamant:252/252/0/0/4/0 14.068%        | 
 | Other  0.000%                          | 
 +----------------------------------------+ 
 | Moves                                  | 
 | Aqua Jet 100.000%                      | 
 | Waterfall 85.932%                      | 
 | Substitute 85.932%                     | 
 | Focus Punch 85.932%                    | 
 | Return 14.068%                         | 
 | Ice Punch 14.068%                      | 
 | Other 14.068%                          | 
 +----------------------------------------+ 
 | Teammates                              | 
 | Sceptile +48.631%                      | 
 | Steelix +48.631%                       | 
 | Donphan +43.217%                       | 
 | Uxie +17.987%                          | 
 | Typhlosion +12.574%                    | 
 | Registeel +7.962%                      | 
 | Mismagius +2.548%                      | 
 | Venusaur +2.548%                       | 
 +----------------------------------------+ 
 | Checks and Counters                    | 
 +----------------------------------------+ 
 +----------------------------------------+ 
 | Donphan                                | 
 +----------------------------------------+ 
 | Raw count: 37                          | 
 | Avg. weight: 0.175876959687            | 
 | Viability Ceiling: 79                  | 
 +----------------------------------------+ 
 | Abilities                              | 
 | Sturdy 100.000%                        | 
 +----------------------------------------+ 
 | Items                                  | 
 | Leftovers 100.000%                     | 
 | Other  0.000%                          | 
 +----------------------------------------+ 
 | Spreads                                | 
 | Adamant:252/252/0/0/0/4 78.410%        | 
 | Impish:252/4/252/0/0/0 11.379%         | 
 | Adamant:252/148/108/0/0/0 10.211%      | 
 | Other  0.000%                          | 
 +----------------------------------------+ 
 | Moves                                  | 
 | Rapid Spin 100.000%                    | 
 | Earthquake 100.000%                    | 
 | Ice Shard 88.621%                      | 
 | Assurance 78.410%                      | 
 | Stealth Rock 21.590%                   | 
 | Other 11.379%                          | 
 +----------------------------------------+ 
 | Teammates                              | 
 | Sceptile +41.109%                      | 
 | Steelix +41.109%                       | 
 | Azumarill +35.002%                     | 
 | Typhlosion +16.431%                    | 
 | Uxie +10.465%                          | 
 | Hitmontop +5.966%                      | 
 +----------------------------------------+ 
 | Checks and Counters                    | 
 +----------------------------------------+ 
 +----------------------------------------+ 
 | Sceptile                               | 
 +----------------------------------------+ 
 | Raw count: 43                          | 
 | Avg. weight: 0.220167914728            | 
 | Viability Ceiling: 79                  | 
 +----------------------------------------+ 
 | Abilities                              | 
 | Overgrow 100.000%                      | 
 +----------------------------------------+ 
 | Items                                  | 
 | Life Orb 100.000%                      | 
 | Other  0.000%                          | 
 +----------------------------------------+ 
 | Spreads                                | 
 | Jolly:4/252/0/0/0/252 67.856%          | 
 | Hasty:0/252/0/4/0/252 32.144%          | 
 | Other  0.000%                          | 
 +----------------------------------------+ 
 | Moves                                  | 
 | Leaf Blade 100.000%                    | 
 | Rock Slide 100.000%                    | 
 | Earthquake 100.000%                    | 
 | Swords Dance 67.856%                   | 
 | Leaf Storm 32.144%                     | 
 | Other  0.000%                          | 
 +----------------------------------------+ 
 | Teammates                              | 
 | Steelix +30.555%                       | 
 | Donphan +25.142%                       | 
 | Azumarill +24.448%                     | 
 +----------------------------------------+ 
 | Checks and Counters                    | 
 +----------------------------------------+ 
 +----------------------------------------+ 
 | Steelix                                | 
 +----------------------------------------+ 
 | Raw count: 17                          | 
 | Avg. weight: 0.597588646149            | 
 | Viability Ceiling: 79                  | 
 +----------------------------------------+ 
 | Abilities                              | 
 | Sturdy 100.000%                        | 
 | Rock Head  0.000%                      | 
 +----------------------------------------+ 
 | Items                                  | 
 | Leftovers 100.000%                     | 
 | Other  0.000%                          | 
 +----------------------------------------+ 
 | Spreads                                | 
 | Sassy:252/4/0/0/252/0 100.000%         | 
 | Other  0.000%                          | 
 +----------------------------------------+ 
 | Moves                                  | 
 | Explosion 100.000%                     | 
 | Roar 100.000%                          | 
 | Gyro Ball 100.000%                     | 
 | Earthquake 100.000%                    | 
 | Other  0.000%                          | 
 +----------------------------------------+ 
 | Teammates                              | 
 | Sceptile +62.699%                      | 
 | Donphan +57.286%                       | 
 | Azumarill +56.592%                     | 
 | Uxie +32.055%                          | 
 | Typhlosion +26.642%                    | 
 +----------------------------------------+ 
 | Checks and Counters                    | 
 +----------------------------------------+ 
 +----------------------------------------+ 
 | Milotic                                | 
 +----------------------------------------+ 
 | Raw count: 42                          | 
 | Avg. weight: 0.178617666416            | 
 | Viability Ceiling: 76                  | 
 +----------------------------------------+ 
 | Abilities                              | 
 | Marvel Scale 100.000%                  | 
 +----------------------------------------+ 
 | Items                                  | 
 | Leftovers 100.000%                     | 
 | Other  0.000%                          | 
 +----------------------------------------+ 
 | Spreads                                | 
 | Calm:252/0/0/4/252/0 63.426%           | 
 | Bold:252/0/252/0/4/0 36.574%           | 
 | Other  0.000%                          | 
 +----------------------------------------+ 
 | Moves                                  | 
 | Surf 100.000%                          | 
 | Ice Beam 100.000%                      | 
 | Toxic 100.000%                         | 
 | Recover 100.000%                       | 
 | Other  0.000%                          | 
 +----------------------------------------+ 
 | Teammates                              | 
 | Claydol +32.783%                       | 
 | Leafeon +32.783%                       | 
 | Ampharos +32.783%                      | 
 +----------------------------------------+ 
 | Checks and Counters                    | 
 +----------------------------------------+ 
 +----------------------------------------+ 
 | Leafeon                                | 
 +----------------------------------------+ 
 | Raw count: 37                          | 
 | Avg. weight: 0.214806975692            | 
 | Viability Ceiling: 69                  | 
 +----------------------------------------+ 
 | Abilities                              | 
 | Leaf Guard 100.000%                    | 
 +----------------------------------------+ 
 | Items                                  | 
 | Life Orb 85.704%                       | 
 | Leftovers 14.296%                      | 
 | Other  0.000%                          | 
 +----------------------------------------+ 
 | Spreads                                | 
 | Jolly:0/252/0/0/4/252 85.704%          | 
 | Impish:252/0/252/0/4/0 14.296%         | 
 | Other  0.000%                          | 
 +----------------------------------------+ 
 | Moves                                  | 
 | Leaf Blade 100.000%                    | 
 | Swords Dance 85.704%                   | 
 | Substitute 85.704%                     | 
 | Synthesis 85.704%                      | 
 | Protect 14.296%                        | 
 | Roar 14.296%                           | 
 | Other 14.296%                          | 
 +----------------------------------------+ 
 | Teammates                              | 
 | Ampharos +55.060%                      | 
 | Claydol +55.060%                       | 
 | Milotic +55.060%                       | 
 | Uxie +17.759%                          | 
 | Typhlosion +12.346%                    | 
 +----------------------------------------+ 
 | Checks and Counters                    | 
 +----------------------------------------+ 
 +----------------------------------------+ 
 | Ampharos                               | 
 +----------------------------------------+ 
 | Raw count: 24                          | 
 | Avg. weight: 0.21039723216             | 
 | Viability Ceiling: 69                  | 
 +----------------------------------------+ 
 | Abilities                              | 
 | Static 100.000%                        | 
 +----------------------------------------+ 
 | Items                                  | 
 | Leftovers 100.000%                     | 
 | Other  0.000%                          | 
 +----------------------------------------+ 
 | Spreads                                | 
 | Modest:252/0/0/252/4/0 100.000%        | 
 | Other  0.000%                          | 
 +----------------------------------------+ 
 | Moves                                  | 
 | Thunderbolt 100.000%                   | 
 | Hidden Power Ice 100.000%              | 
 | Focus Blast 100.000%                   | 
 | Heal Bell 100.000%                     | 
 | Other  0.000%                          | 
 +----------------------------------------+ 
 | Teammates                              | 
 | Claydol +69.357%                       | 
 | Milotic +69.357%                       | 
 | Leafeon +69.357%                       | 
 | Uxie +32.055%                          | 
 | Typhlosion +26.642%                    | 
 +----------------------------------------+ 
 | Checks and Counters                    | 
 +----------------------------------------+ 
 +----------------------------------------+ 
 | Claydol                                | 
 +----------------------------------------+ 
 | Raw count: 36                          | 
 | Avg. weight: 0.18409757814             | 
 | Viability Ceiling: 69                  | 
 +----------------------------------------+ 
 | Abilities                              | 
 | Levitate 100.000%                      | 
 +----------------------------------------+ 
 | Items                                  | 
 | Leftovers 100.000%                     | 
 | Other  0.000%                          | 
 +----------------------------------------+ 
 | Spreads                                | 
 | Impish:251/5/252/0/0/0 100.000%        | 
 | Other  0.000%                          | 
 +----------------------------------------+ 
 | Moves                                  | 
 | Explosion 100.000%                     | 
 | Stealth Rock 100.000%                  | 
 | Rapid Spin 100.000%                    | 
 | Earthquake 100.000%                    | 
 | Other  0.000%                          | 
 +----------------------------------------+ 
 | Teammates                              | 
 | Ampharos +69.357%                      | 
 | Milotic +69.357%                       | 
 | Leafeon +69.357%                       | 
 | Uxie +32.055%                          | 
 | Typhlosion +26.642%                    | 
 +----------------------------------------+ 
 | Checks and Counters                    | 
 +----------------------------------------+ 
 +----------------------------------------+ 
 | Alakazam                               | 
 +----------------------------------------+ 
 | Raw count: 47                          | 
 | Avg. weight: 0.0477909805675           | 
 | Viability Ceiling: 64                  | 
 +----------------------------------------+ 
 | Abilities                              | 
 | Synchronize 61.842%                    | 
 | Inner Focus 38.158%                    | 
 +----------------------------------------+ 
 | Items                                  | 
 | Life Orb 61.842%                       | 
 | Focus Sash 38.158%                     | 
 | Other  0.000%                          | 
 +----------------------------------------+ 
 | Spreads                                | 
 | Timid:0/0/0/252/4/252 100.000%         | 
 | Other  0.000%                          | 
 +----------------------------------------+ 
 | Moves                                  | 
 | Psychic 100.000%                       | 
 | Shadow Ball 100.000%                   | 
 | Focus Blast 60.364%                    | 
 | Encore 60.364%                         | 
 | Energy Ball 39.636%                    | 
 | Signal Beam 39.636%                    | 
 | Other  0.000%                          | 
 +----------------------------------------+ 
 | Teammates                              | 
 | Blastoise +60.776%                     | 
 | Absol +30.966%                         | 
 | Rampardos +30.966%                     | 
 | Arcanine +30.966%                      | 
 | Scyther +30.966%                       | 
 | Swellow +29.810%                       | 
 | Miltank +29.810%                       | 
 | Drapion +29.810%                       | 
 | Dugtrio +23.704%                       | 
 +----------------------------------------+ 
 | Checks and Counters                    | 
 +----------------------------------------+ 
 +----------------------------------------+ 
 | Blastoise                              | 
 +----------------------------------------+ 
 | Raw count: 22                          | 
 | Avg. weight: 0.0743573077045           | 
 | Viability Ceiling: 64                  | 
 +----------------------------------------+ 
 | Abilities                              | 
 | Torrent 100.000%                       | 
 +----------------------------------------+ 
 | Items                                  | 
 | Leftovers 100.000%                     | 
 | Other  0.000%                          | 
 +----------------------------------------+ 
 | Spreads                                | 
 | Modest:248/0/0/252/8/0 50.950%         | 
 | Modest:252/0/0/252/4/0 49.050%         | 
 | Other  0.000%                          | 
 +----------------------------------------+ 
 | Moves                                  | 
 | Surf 100.000%                          | 
 | Rapid Spin 100.000%                    | 
 | Signal Beam 50.950%                    | 
 | Flash Cannon 50.950%                   | 
 | Ice Beam 49.050%                       | 
 | Haze 49.050%                           | 
 | Other  0.000%                          | 
 +----------------------------------------+ 
 | Teammates                              | 
 | Alakazam +82.982%                      | 
 | Absol +42.279%                         | 
 | Rampardos +42.279%                     | 
 | Scyther +42.279%                       | 
 | Arcanine +42.279%                      | 
 | Swellow +40.702%                       | 
 | Miltank +40.702%                       | 
 | Drapion +40.702%                       | 
 | Dugtrio +34.596%                       | 
 +----------------------------------------+ 
 | Checks and Counters                    | 
 +----------------------------------------+ 
 +----------------------------------------+ 
 | Ambipom                                | 
 +----------------------------------------+ 
 | Raw count: 28                          | 
 | Avg. weight: 0.103245422279            | 
 | Viability Ceiling: 60                  | 
 +----------------------------------------+ 
 | Abilities                              | 
 | Technician 100.000%                    | 
 +----------------------------------------+ 
 | Items                                  | 
 | Life Orb 76.609%                       | 
 | Focus Sash 23.391%                     | 
 | Other  0.000%                          | 
 +----------------------------------------+ 
 | Spreads                                | 
 | Jolly:4/252/0/0/0/252 40.611%          | 
 | Adamant:6/252/0/0/0/252 35.998%        | 
 | Jolly:0/252/0/0/4/252 23.391%          | 
 | Other  0.000%                          | 
 +----------------------------------------+ 
 | Moves                                  | 
 | Fake Out 100.000%                      | 
 | U-turn 76.609%                         | 
 | Double Hit 76.609%                     | 
 | Low Kick 40.611%                       | 
 | Agility 23.391%                        | 
 | Baton Pass 23.391%                     | 
 | Taunt 23.391%                          | 
 | Knock Off 20.308%                      | 
 | Other 15.690%                          | 
 +----------------------------------------+ 
 | Teammates                              | 
 | Mismagius +65.089%                     | 
 | Venusaur +65.089%                      | 
 | Registeel +34.504%                     | 
 | Hitmontop +30.585%                     | 
 | Dugtrio +26.157%                       | 
 | Gastrodon +19.874%                     | 
 | Blaziken +19.874%                      | 
 | Altaria +19.874%                       | 
 | Feraligatr +19.874%                    | 
 | Rhyperior +19.874%                     | 
 +----------------------------------------+ 
 | Checks and Counters                    | 
 +----------------------------------------+ 
 +----------------------------------------+ 
 | Dugtrio                                | 
 +----------------------------------------+ 
 | Raw count: 13                          | 
 | Avg. weight: 0.11578266341             | 
 | Viability Ceiling: 63                  | 
 +----------------------------------------+ 
 | Abilities                              | 
 | Arena Trap 100.000%                    | 
 +----------------------------------------+ 
 | Items                                  | 
 | Focus Sash 57.751%                     | 
 | Life Orb 42.249%                       | 
 | Other  0.000%                          | 
 +----------------------------------------+ 
 | Spreads                                | 
 | Jolly:0/252/0/0/4/252 100.000%         | 
 | Other  0.000%                          | 
 +----------------------------------------+ 
 | Moves                                  | 
 | Earthquake 100.000%                    | 
 | Sucker Punch 100.000%                  | 
 | Rock Slide 57.751%                     | 
 | Stealth Rock 57.751%                   | 
 | Aerial Ace 42.249%                     | 
 | Stone Edge 42.249%                     | 
 | Other  0.000%                          | 
 +----------------------------------------+ 
 | Teammates                              | 
 | Swellow +49.403%                       | 
 | Miltank +49.403%                       | 
 | Drapion +49.403%                       | 
 | Alakazam +40.733%                      | 
 | Blastoise +40.733%                     | 
 | Registeel +36.142%                     | 
 | Venusaur +30.729%                      | 
 | Mismagius +30.729%                     | 
 | Ambipom +27.212%                       | 
 +----------------------------------------+ 
 | Checks and Counters                    | 
 +----------------------------------------+ 
 +----------------------------------------+ 
 | Mismagius                              | 
 +----------------------------------------+ 
 | Raw count: 32                          | 
 | Avg. weight: 0.0655948233595           | 
 | Viability Ceiling: 60                  | 
 +----------------------------------------+ 
 | Abilities                              | 
 | Levitate 100.000%                      | 
 +----------------------------------------+ 
 | Items                                  | 
 | Life Orb 66.948%                       | 
 | Leftovers 33.052%                      | 
 | Other  0.000%                          | 
 +----------------------------------------+ 
 | Spreads                                | 
 | Timid:0/0/0/252/4/252 66.948%          | 
 | Timid:0/0/0/252/0/252 33.052%          | 
 | Other  0.000%                          | 
 +----------------------------------------+ 
 | Moves                                  | 
 | Shadow Ball 100.000%                   | 
 | Thunderbolt 66.948%                    | 
 | Energy Ball 37.287%                    | 
 | Psychic 37.287%                        | 
 | Hidden Power Fighting 33.052%          | 
 | Nasty Plot 33.052%                     | 
 | Substitute 33.052%                     | 
 | Taunt 29.661%                          | 
 | Will-O-Wisp 29.661%                    | 
 | Other  0.000%                          | 
 +----------------------------------------+ 
 | Teammates                              | 
 | Venusaur +58.819%                      | 
 | Ambipom +55.302%                       | 
 | Registeel +31.181%                     | 
 | Hitmontop +27.639%                     | 
 | Dugtrio +22.833%                       | 
 +----------------------------------------+ 
 | Checks and Counters                    | 
 +----------------------------------------+ 
 +----------------------------------------+ 
 | Venusaur                               | 
 +----------------------------------------+ 
 | Raw count: 26                          | 
 | Avg. weight: 0.0692083365724           | 
 | Viability Ceiling: 60                  | 
 +----------------------------------------+ 
 | Abilities                              | 
 | Overgrow 100.000%                      | 
 +----------------------------------------+ 
 | Items                                  | 
 | Black Sludge 53.011%                   | 
 | Salac Berry 46.989%                    | 
 | Other  0.000%                          | 
 +----------------------------------------+ 
 | Spreads                                | 
 | Calm:252/0/0/4/252/0 53.011%           | 
 | Timid:0/0/4/252/0/252 46.989%          | 
 | Other  0.000%                          | 
 +----------------------------------------+ 
 | Moves                                  | 
 | Sludge Bomb 53.011%                    | 
 | Leech Seed 53.011%                     | 
 | Leaf Storm 53.011%                     | 
 | Protect 53.011%                        | 
 | Growth 46.989%                         | 
 | Substitute 46.989%                     | 
 | Energy Ball 46.989%                    | 
 | Hidden Power Rock 46.989%              | 
 | Other  0.000%                          | 
 +----------------------------------------+ 
 | Teammates                              | 
 | Mismagius +88.480%                     | 
 | Ambipom +84.963%                       | 
 | Registeel +46.904%                     | 
 | Hitmontop +41.576%                     | 
 | Dugtrio +38.557%                       | 
 | Azumarill +9.603%                      | 
 | Donphan +4.275%                        | 
 +----------------------------------------+ 
 | Checks and Counters                    | 
 +----------------------------------------+ 
 +----------------------------------------+ 
 | Absol                                  | 
 +----------------------------------------+ 
 | Raw count: 34                          | 
 | Avg. weight: 0.0552010772944           | 
 | Viability Ceiling: 64                  | 
 +----------------------------------------+ 
 | Abilities                              | 
 | Super Luck 100.000%                    | 
 | Pressure  0.000%                       | 
 +----------------------------------------+ 
 | Items                                  | 
 | Scope Lens 62.912%                     | 
 | Lum Berry 37.088%                      | 
 | Other  0.000%                          | 
 +----------------------------------------+ 
 | Spreads                                | 
 | Jolly:0/252/0/0/4/252 62.912%          | 
 | Adamant:4/252/0/0/0/252 37.088%        | 
 | Other  0.000%                          | 
 +----------------------------------------+ 
 | Moves                                  | 
 | Swords Dance 100.000%                  | 
 | Psycho Cut 100.000%                    | 
 | Slash 62.912%                          | 
 | Night Slash 62.912%                    | 
 | Superpower 37.088%                     | 
 | Sucker Punch 37.088%                   | 
 | Other  0.000%                          | 
 +----------------------------------------+ 
 | Teammates                              | 
 | Rampardos +54.241%                     | 
 | Scyther +54.241%                       | 
 | Arcanine +54.241%                      | 
 | Alakazam +45.894%                      | 
 | Blastoise +45.894%                     | 
 +----------------------------------------+ 
 | Checks and Counters                    | 
 +----------------------------------------+ 
 +----------------------------------------+ 
 | Rampardos                              | 
 +----------------------------------------+ 
 | Raw count: 2                           | 
 | Avg. weight: 0.20836887356             | 
 | Viability Ceiling: 64                  | 
 +----------------------------------------+ 
 | Abilities                              | 
 | Mold Breaker 100.000%                  | 
 +----------------------------------------+ 
 | Items                                  | 
 | Choice Scarf 100.000%                  | 
 | Other  0.000%                          | 
 +----------------------------------------+ 
 | Spreads                                | 
 | Jolly:0/252/0/0/4/252 100.000%         | 
 | Other  0.000%                          | 
 +----------------------------------------+ 
 | Moves                                  | 
 | Avalanche 100.000%                     | 
 | Frustration 100.000%                   | 
 | Outrage 100.000%                       | 
 | Earthquake 100.000%                    | 
 | Other  0.000%                          | 
 +----------------------------------------+ 
 | Teammates                              | 
 | Scyther +91.329%                       | 
 | Arcanine +91.329%                      | 
 | Absol +91.329%                         | 
 | Alakazam +82.982%                      | 
 | Blastoise +82.982%                     | 
 +----------------------------------------+ 
 | Checks and Counters                    | 
 +----------------------------------------+ 
 +----------------------------------------+ 
 | Arcanine                               | 
 +----------------------------------------+ 
 | Raw count: 39                          | 
 | Avg. weight: 0.0320567497784           | 
 | Viability Ceiling: 64                  | 
 +----------------------------------------+ 
 | Abilities                              | 
 | Flash Fire 100.000%                    | 
 | Intimidate  0.000%                     | 
 +----------------------------------------+ 
 | Items                                  | 
 | Choice Band 100.000%                   | 
 | Other  0.000%                          | 
 +----------------------------------------+ 
 | Spreads                                | 
 | Adamant:248/252/0/0/8/0 100.000%       | 
 | Other  0.000%                          | 
 +----------------------------------------+ 
 | Moves                                  | 
 | Extreme Speed 100.000%                 | 
 | Crunch 100.000%                        | 
 | Flare Blitz 100.000%                   | 
 | Double-Edge 100.000%                   | 
 | Other  0.000%                          | 
 +----------------------------------------+ 
 | Teammates                              | 
 | Absol +91.329%                         | 
 | Rampardos +91.329%                     | 
 | Scyther +91.329%                       | 
 | Blastoise +82.982%                     | 
 | Alakazam +82.982%                      | 
 +----------------------------------------+ 
 | Checks and Counters                    | 
 +----------------------------------------+ 
 +----------------------------------------+ 
 | Scyther                                | 
 +----------------------------------------+ 
 | Raw count: 8                           | 
 | Avg. weight: 0.216736311618            | 
 | Viability Ceiling: 64                  | 
 +----------------------------------------+ 
 | Abilities                              | 
 | Technician 100.000%                    | 
 | Swarm  0.000%                          | 
 +----------------------------------------+ 
 | Items                                  | 
 | Focus Sash 64.093%                     | 
 | Choice Band 35.907%                    | 
 | Other  0.000%                          | 
 +----------------------------------------+ 
 | Spreads                                | 
 | Jolly:0/252/0/0/4/252 100.000%         | 
 | Other  0.000%                          | 
 +----------------------------------------+ 
 | Moves                                  | 
 | Aerial Ace 100.000%                    | 
 | Quick Attack 100.000%                  | 
 | Bug Bite 64.093%                       | 
 | Feint 64.093%                          | 
 | U-turn 35.907%                         | 
 | Pursuit 35.907%                        | 
 | Other  0.000%                          | 
 +----------------------------------------+ 
 | Teammates                              | 
 | Absol +55.422%                         | 
 | Rampardos +55.422%                     | 
 | Arcanine +55.422%                      | 
 | Alakazam +47.075%                      | 
 | Blastoise +47.075%                     | 
 +----------------------------------------+ 
 | Checks and Counters                    | 
 +----------------------------------------+ 
 +----------------------------------------+ 
 | Swellow                                | 
 +----------------------------------------+ 
 | Raw count: 25                          | 
 | Avg. weight: 0.0573132339471           | 
 | Viability Ceiling: 63                  | 
 +----------------------------------------+ 
 | Abilities                              | 
 | Guts 100.000%                          | 
 +----------------------------------------+ 
 | Items                                  | 
 | Toxic Orb 100.000%                     | 
 | Other  0.000%                          | 
 +----------------------------------------+ 
 | Spreads                                | 
 | Jolly:0/252/0/0/4/252 100.000%         | 
 | Other  0.000%                          | 
 +----------------------------------------+ 
 | Moves                                  | 
 | U-turn 100.000%                        | 
 | Protect 100.000%                       | 
 | Brave Bird 100.000%                    | 
 | Facade 100.000%                        | 
 | Other  0.000%                          | 
 +----------------------------------------+ 
 | Teammates                              | 
 | Miltank +91.653%                       | 
 | Drapion +91.653%                       | 
 | Dugtrio +85.546%                       | 
 | Alakazam +82.982%                      | 
 | Blastoise +82.982%                     | 
 +----------------------------------------+ 
 | Checks and Counters                    | 
 +----------------------------------------+ 
 +----------------------------------------+ 
 | Drapion                                | 
 +----------------------------------------+ 
 | Raw count: 24                          | 
 | Avg. weight: 0.164879207073            | 
 | Viability Ceiling: 76                  | 
 +----------------------------------------+ 
 | Abilities                              | 
 | Battle Armor 100.000%                  | 
 | Sniper  0.000%                         | 
 +----------------------------------------+ 
 | Items                                  | 
 | Black Sludge 84.267%                   | 
 | Leftovers 15.733%                      | 
 | Other  0.000%                          | 
 +----------------------------------------+ 
 | Spreads                                | 
 | Impish:252/4/252/0/0/0 57.230%         | 
 | Impish:252/0/252/0/0/4 27.036%         | 
 | Careful:252/4/0/0/252/0 15.733%        | 
 | Other  0.000%                          | 
 +----------------------------------------+ 
 | Moves                                  | 
 | Toxic Spikes 100.000%                  | 
 | Crunch 72.964%                         | 
 | Whirlwind 72.964%                      | 
 | Earthquake 57.230%                     | 
 | Taunt 42.770%                          | 
 | Knock Off 27.036%                      | 
 | Roar 27.036%                           | 
 | Other  0.000%                          | 
 +----------------------------------------+ 
 | Teammates                              | 
 | Swellow +18.689%                       | 
 | Miltank +18.689%                       | 
 | Dugtrio +12.582%                       | 
 | Alakazam +10.018%                      | 
 | Blastoise +10.018%                     | 
 +----------------------------------------+ 
 | Checks and Counters                    | 
 +----------------------------------------+ 
 +----------------------------------------+ 
 | Miltank                                | 
 +----------------------------------------+ 
 | Raw count: 13                          | 
 | Avg. weight: 0.080238527526            | 
 | Viability Ceiling: 63                  | 
 +----------------------------------------+ 
 | Abilities                              | 
 | Thick Fat 100.000%                     | 
 | Scrappy  0.000%                        | 
 +----------------------------------------+ 
 | Items                                  | 
 | Leftovers 100.000%                     | 
 | Other  0.000%                          | 
 +----------------------------------------+ 
 | Spreads                                | 
 | Adamant:252/252/0/0/4/0 100.000%       | 
 | Other  0.000%                          | 
 +----------------------------------------+ 
 | Moves                                  | 
 | Body Slam 100.000%                     | 
 | Milk Drink 100.000%                    | 
 | Heal Bell 100.000%                     | 
 | Earthquake 100.000%                    | 
 | Other  0.000%                          | 
 +----------------------------------------+ 
 | Teammates                              | 
 | Swellow +91.653%                       | 
 | Drapion +91.653%                       | 
 | Dugtrio +85.546%                       | 
 | Alakazam +82.982%                      | 
 | Blastoise +82.982%                     | 
 +----------------------------------------+ 
 | Checks and Counters                    | 
 +----------------------------------------+ 
 +----------------------------------------+ 
 | Registeel                              | 
 +----------------------------------------+ 
 | Raw count: 19                          | 
 | Avg. weight: 0.0587006685665           | 
 | Viability Ceiling: 60                  | 
 +----------------------------------------+ 
 | Abilities                              | 
 | Clear Body 100.000%                    | 
 +----------------------------------------+ 
 | Items                                  | 
 | Leftovers 100.000%                     | 
 | Other  0.000%                          | 
 +----------------------------------------+ 
 | Spreads                                | 
 | Impish:252/4/252/0/0/0 100.000%        | 
 | Other  0.000%                          | 
 +----------------------------------------+ 
 | Moves                                  | 
 | Explosion 100.000%                     | 
 | Stealth Rock 100.000%                  | 
 | Thunder Wave 100.000%                  | 
 | Seismic Toss 100.000%                  | 
 | Other  0.000%                          | 
 +----------------------------------------+ 
 | Teammates                              | 
 | Mismagius +88.480%                     | 
 | Venusaur +88.480%                      | 
 | Dugtrio +85.546%                       | 
 | Ambipom +84.963%                       | 
 | Azumarill +56.592%                     | 
 +----------------------------------------+ 
 | Checks and Counters                    | 
 +----------------------------------------+ 
 +----------------------------------------+ 
 | Hitmontop                              | 
 +----------------------------------------+ 
 | Raw count: 16                          | 
 | Avg. weight: 0.0433605582911           | 
 | Viability Ceiling: 56                  | 
 +----------------------------------------+ 
 | Abilities                              | 
 | Intimidate 100.000%                    | 
 | Technician  0.000%                     | 
 +----------------------------------------+ 
 | Items                                  | 
 | Life Orb 100.000%                      | 
 | Other  0.000%                          | 
 +----------------------------------------+ 
 | Spreads                                | 
 | Adamant:4/252/0/0/0/252 100.000%       | 
 | Other  0.000%                          | 
 +----------------------------------------+ 
 | Moves                                  | 
 | Bullet Punch 100.000%                  | 
 | Close Combat 100.000%                  | 
 | Mach Punch 100.000%                    | 
 | Fake Out 100.000%                      | 
 | Other  0.000%                          | 
 +----------------------------------------+ 
 | Teammates                              | 
 | Mismagius +88.480%                     | 
 | Venusaur +88.480%                      | 
 | Ambipom +84.963%                       | 
 | Donphan +57.286%                       | 
 | Typhlosion +26.642%                    | 
 +----------------------------------------+ 
 | Checks and Counters                    | 
 +----------------------------------------+ 
 +----------------------------------------+ 
 | Altaria                                | 
 +----------------------------------------+ 
 | Raw count: 16                          | 
 | Avg. weight: 0.033810252675            | 
 | Viability Ceiling: 57                  | 
 +----------------------------------------+ 
 | Abilities                              | 
 | Natural Cure 100.000%                  | 
 +----------------------------------------+ 
 | Items                                  | 
 | Life Orb 100.000%                      | 
 | Other  0.000%                          | 
 +----------------------------------------+ 
 | Spreads                                | 
 | Adamant:0/252/0/0/4/252 100.000%       | 
 | Other  0.000%                          | 
 +----------------------------------------+ 
 | Moves                                  | 
 | Dragon Dance 100.000%                  | 
 | Roost 100.000%                         | 
 | Outrage 100.000%                       | 
 | Earthquake 100.000%                    | 
 | Other  0.000%                          | 
 +----------------------------------------+ 
 | Teammates                              | 
 | Gastrodon +96.483%                     | 
 | Blaziken +96.483%                      | 
 | Feraligatr +96.483%                    | 
 | Rhyperior +96.483%                     | 
 | Ambipom +84.963%                       | 
 +----------------------------------------+ 
 | Checks and Counters                    | 
 +----------------------------------------+ 
 +----------------------------------------+ 
 | Rhyperior                              | 
 +----------------------------------------+ 
 | Raw count: 17                          | 
 | Avg. weight: 0.113144477963            | 
 | Viability Ceiling: 76                  | 
 +----------------------------------------+ 
 | Abilities                              | 
 | Solid Rock 100.000%                    | 
 | Lightning Rod  0.000%                  | 
 +----------------------------------------+ 
 | Items                                  | 
 | Leftovers 83.399%                      | 
 | Life Orb 16.601%                       | 
 | Other  0.000%                          | 
 +----------------------------------------+ 
 | Spreads                                | 
 | Impish:252/4/252/0/0/0 83.399%         | 
 | Jolly:0/252/4/0/0/252 16.601%          | 
 | Other  0.000%                          | 
 +----------------------------------------+ 
 | Moves                                  | 
 | Stone Edge 100.000%                    | 
 | Megahorn 100.000%                      | 
 | Earthquake 100.000%                    | 
 | Rest 83.399%                           | 
 | Other 16.601%                          | 
 +----------------------------------------+ 
 | Teammates                              | 
 | Gastrodon +13.084%                     | 
 | Blaziken +13.084%                      | 
 | Feraligatr +13.084%                    | 
 | Altaria +13.084%                       | 
 | Ambipom +1.564%                        | 
 +----------------------------------------+ 
 | Checks and Counters                    | 
 +----------------------------------------+ 
 +----------------------------------------+ 
 | Feraligatr                             | 
 +----------------------------------------+ 
 | Raw count: 11                          | 
 | Avg. weight: 0.033810252675            | 
 | Viability Ceiling: 55                  | 
 +----------------------------------------+ 
 | Abilities                              | 
 | Torrent 100.000%                       | 
 +----------------------------------------+ 
 | Items                                  | 
 | Life Orb 100.000%                      | 
 | Other  0.000%                          | 
 +----------------------------------------+ 
 | Spreads                                | 
 | Adamant:28/252/0/0/0/228 100.000%      | 
 | Other  0.000%                          | 
 +----------------------------------------+ 
 | Moves                                  | 
 | Dragon Dance 100.000%                  | 
 | Ice Punch 100.000%                     | 
 | Waterfall 100.000%                     | 
 | Earthquake 100.000%                    | 
 | Other  0.000%                          | 
 +----------------------------------------+ 
 | Teammates                              | 
 | Gastrodon +96.483%                     | 
 | Blaziken +96.483%                      | 
 | Altaria +96.483%                       | 
 | Rhyperior +96.483%                     | 
 | Ambipom +84.963%                       | 
 +----------------------------------------+ 
 | Checks and Counters                    | 
 +----------------------------------------+ 
 +----------------------------------------+ 
 | Blaziken                               | 
 +----------------------------------------+ 
 | Raw count: 34                          | 
 | Avg. weight: 0.0169051263375           | 
 | Viability Ceiling: 59                  | 
 +----------------------------------------+ 
 | Abilities                              | 
 | Blaze 100.000%                         | 
 +----------------------------------------+ 
 | Items                                  | 
 | Choice Band 100.000%                   | 
 | Other  0.000%                          | 
 +----------------------------------------+ 
 | Spreads                                | 
 | Adamant:0/252/0/0/4/252 100.000%       | 
 | Other  0.000%                          | 
 +----------------------------------------+ 
 | Moves                                  | 
 | Low Kick 100.000%                      | 
 | Flare Blitz 100.000%                   | 
 | Stone Edge 100.000%                    | 
 | Thunder Punch 100.000%                 | 
 | Other  0.000%                          | 
 +----------------------------------------+ 
 | Teammates                              | 
 | Gastrodon +96.483%                     | 
 | Altaria +96.483%                       | 
 | Feraligatr +96.483%                    | 
 | Rhyperior +96.483%                     | 
 | Ambipom +84.963%                       | 
 +----------------------------------------+ 
 | Checks and Counters                    | 
 +----------------------------------------+ 
 +----------------------------------------+ 
 | Gastrodon                              | 
 +----------------------------------------+ 
 | Raw count: 4                           | 
 | Avg. weight: 0.0422628158437           | 
 | Viability Ceiling: 58                  | 
 +----------------------------------------+ 
 | Abilities                              | 
 | Storm Drain 100.000%                   | 
 +----------------------------------------+ 
 | Items                                  | 
 | Leftovers 100.000%                     | 
 +----------------------------------------+ 
 | Spreads                                | 
 | Relaxed:252/4/252/0/0/0 100.000%       | 
 | Other  0.000%                          | 
 +----------------------------------------+ 
 | Moves                                  | 
 | Toxic 100.000%                         | 
 | Recover 100.000%                       | 
 | Earthquake 100.000%                    | 
 | Ice Beam 100.000%                      | 
 | Other  0.000%                          | 
 +----------------------------------------+ 
 | Teammates                              | 
 | Altaria +96.483%                       | 
 | Blaziken +96.483%                      | 
 | Feraligatr +96.483%                    | 
 | Rhyperior +96.483%                     | 
 | Ambipom +84.963%                       | 
 +----------------------------------------+ 
 | Checks and Counters                    | 
 +----------------------------------------+ 
