 +----------------------------------------+ 
 | Nidoqueen                              | 
 +----------------------------------------+ 
 | Raw count: 11                          | 
 | Avg. weight: 0.127200733974            | 
 | Viability Ceiling: 73                  | 
 +----------------------------------------+ 
 | Abilities                              | 
 | Poison Point 100.000%                  | 
 +----------------------------------------+ 
 | Items                                  | 
 | Black Sludge 100.000%                  | 
 | Other  0.000%                          | 
 +----------------------------------------+ 
 | Spreads                                | 
 | Bold:252/0/200/0/12/44 100.000%        | 
 | Other  0.000%                          | 
 +----------------------------------------+ 
 | Moves                                  | 
 | Earth Power 100.000%                   | 
 | Blizzard 100.000%                      | 
 | Roar 100.000%                          | 
 | Stealth Rock 100.000%                  | 
 | Other  0.000%                          | 
 +----------------------------------------+ 
 | Teammates                              | 
 | Clefable +1.349%                       | 
 | Cloyster +1.349%                       | 
 | Snover +1.349%                         | 
 | Mismagius +1.349%                      | 
 | Walrein +1.349%                        | 
 +----------------------------------------+ 
 | Checks and Counters                    | 
 +----------------------------------------+ 
 +----------------------------------------+ 
 | Cloyster                               | 
 +----------------------------------------+ 
 | Raw count: 20                          | 
 | Avg. weight: 0.0636003669868           | 
 | Viability Ceiling: 73                  | 
 +----------------------------------------+ 
 | Abilities                              | 
 | Shell Armor 100.000%                   | 
 | Skill Link  0.000%                     | 
 +----------------------------------------+ 
 | Items                                  | 
 | Leftovers 100.000%                     | 
 | Other  0.000%                          | 
 +----------------------------------------+ 
 | Spreads                                | 
 | Bold:252/0/252/0/4/0 100.000%          | 
 | Other  0.000%                          | 
 +----------------------------------------+ 
 | Moves                                  | 
 | Surf 100.000%                          | 
 | Toxic Spikes 100.000%                  | 
 | Spikes 100.000%                        | 
 | Rapid Spin 100.000%                    | 
 | Other  0.000%                          | 
 +----------------------------------------+ 
 | Teammates                              | 
 | Clefable +1.349%                       | 
 | Mismagius +1.349%                      | 
 | Snover +1.349%                         | 
 | Nidoqueen +1.349%                      | 
 | Walrein +1.349%                        | 
 +----------------------------------------+ 
 | Checks and Counters                    | 
 +----------------------------------------+ 
 +----------------------------------------+ 
 | Mismagius                              | 
 +----------------------------------------+ 
 | Raw count: 34                          | 
 | Avg. weight: 0.0424002446579           | 
 | Viability Ceiling: 73                  | 
 +----------------------------------------+ 
 | Abilities                              | 
 | Levitate 100.000%                      | 
 +----------------------------------------+ 
 | Items                                  | 
 | Leftovers 100.000%                     | 
 | Other  0.000%                          | 
 +----------------------------------------+ 
 | Spreads                                | 
 | Timid:252/0/100/0/0/156 100.000%       | 
 | Other  0.000%                          | 
 +----------------------------------------+ 
 | Moves                                  | 
 | Taunt 100.000%                         | 
 | Shadow Ball 100.000%                   | 
 | Will-O-Wisp 100.000%                   | 
 | Pain Split 100.000%                    | 
 | Other  0.000%                          | 
 +----------------------------------------+ 
 | Teammates                              | 
 | Cloyster +1.349%                       | 
 | Clefable +1.349%                       | 
 | Snover +1.349%                         | 
 | Nidoqueen +1.349%                      | 
 | Walrein +1.349%                        | 
 +----------------------------------------+ 
 | Checks and Counters                    | 
 +----------------------------------------+ 
 +----------------------------------------+ 
 | Walrein                                | 
 +----------------------------------------+ 
 | Raw count: 11                          | 
 | Avg. weight: 0.254401467947            | 
 | Viability Ceiling: 73                  | 
 +----------------------------------------+ 
 | Abilities                              | 
 | Ice Body 100.000%                      | 
 +----------------------------------------+ 
 | Items                                  | 
 | Leftovers 100.000%                     | 
 | Other  0.000%                          | 
 +----------------------------------------+ 
 | Spreads                                | 
 | Bold:220/0/252/0/36/0 100.000%         | 
 | Other  0.000%                          | 
 +----------------------------------------+ 
 | Moves                                  | 
 | Protect 100.000%                       | 
 | Blizzard 100.000%                      | 
 | Roar 100.000%                          | 
 | Substitute 100.000%                    | 
 | Other  0.000%                          | 
 +----------------------------------------+ 
 | Teammates                              | 
 | Snover +1.349%                         | 
 | Cloyster +1.349%                       | 
 | Clefable +1.349%                       | 
 | Mismagius +1.349%                      | 
 | Nidoqueen +1.349%                      | 
 +----------------------------------------+ 
 | Checks and Counters                    | 
 +----------------------------------------+ 
 +----------------------------------------+ 
 | Clefable                               | 
 +----------------------------------------+ 
 | Raw count: 18                          | 
 | Avg. weight: 0.127200733974            | 
 | Viability Ceiling: 73                  | 
 +----------------------------------------+ 
 | Abilities                              | 
 | Magic Guard 100.000%                   | 
 +----------------------------------------+ 
 | Items                                  | 
 | Leftovers 100.000%                     | 
 | Other  0.000%                          | 
 +----------------------------------------+ 
 | Spreads                                | 
 | Careful:252/0/44/0/212/0 100.000%      | 
 | Other  0.000%                          | 
 +----------------------------------------+ 
 | Moves                                  | 
 | Protect 100.000%                       | 
 | Encore 100.000%                        | 
 | Wish 100.000%                          | 
 | Seismic Toss 100.000%                  | 
 | Other  0.000%                          | 
 +----------------------------------------+ 
 | Teammates                              | 
 | Cloyster +1.349%                       | 
 | Mismagius +1.349%                      | 
 | Snover +1.349%                         | 
 | Nidoqueen +1.349%                      | 
 | Walrein +1.349%                        | 
 +----------------------------------------+ 
 | Checks and Counters                    | 
 +----------------------------------------+ 
 +----------------------------------------+ 
 | Snover                                 | 
 +----------------------------------------+ 
 | Raw count: 10                          | 
 | Avg. weight: 0.254401467947            | 
 | Viability Ceiling: 73                  | 
 +----------------------------------------+ 
 | Abilities                              | 
 | Snow Warning 100.000%                  | 
 +----------------------------------------+ 
 | Items                                  | 
 | Leftovers 100.000%                     | 
 +----------------------------------------+ 
 | Spreads                                | 
 | Sassy:252/0/0/4/252/0 100.000%         | 
 +----------------------------------------+ 
 | Moves                                  | 
 | Leech Seed 100.000%                    | 
 | Protect 100.000%                       | 
 | Ice Shard 100.000%                     | 
 | Grass Knot 100.000%                    | 
 +----------------------------------------+ 
 | Teammates                              | 
 | Clefable +1.349%                       | 
 | Cloyster +1.349%                       | 
 | Nidoqueen +1.349%                      | 
 | Mismagius +1.349%                      | 
 | Walrein +1.349%                        | 
 +----------------------------------------+ 
 | Checks and Counters                    | 
 +----------------------------------------+ 
 +----------------------------------------+ 
 | Uxie                                   | 
 +----------------------------------------+ 
 | Raw count: 12                          | 
 | Avg. weight: 0.0010449040293           | 
 | Viability Ceiling: 55                  | 
 +----------------------------------------+ 
 | Abilities                              | 
 | Levitate 100.000%                      | 
 +----------------------------------------+ 
 | Items                                  | 
 | Lum Berry 100.000%                     | 
 | Other  0.000%                          | 
 +----------------------------------------+ 
 | Spreads                                | 
 | Timid:32/0/0/252/0/224 100.000%        | 
 | Other  0.000%                          | 
 +----------------------------------------+ 
 | Moves                                  | 
 | U-turn 100.000%                        | 
 | Psychic 100.000%                       | 
 | Stealth Rock 100.000%                  | 
 | Energy Ball 100.000%                   | 
 | Other  0.000%                          | 
 +----------------------------------------+ 
 | Teammates                              | 
 | Sceptile +25.178%                      | 
 | Blaziken +25.178%                      | 
 | Lanturn +25.178%                       | 
 | Absol +25.178%                         | 
 | Donphan +25.178%                       | 
 +----------------------------------------+ 
 | Checks and Counters                    | 
 +----------------------------------------+ 
 +----------------------------------------+ 
 | Blaziken                               | 
 +----------------------------------------+ 
 | Raw count: 46                          | 
 | Avg. weight: 0.000384964642375         | 
 | Viability Ceiling: 59                  | 
 +----------------------------------------+ 
 | Abilities                              | 
 | Blaze 100.000%                         | 
 +----------------------------------------+ 
 | Items                                  | 
 | Life Orb 100.000%                      | 
 | Other  0.000%                          | 
 +----------------------------------------+ 
 | Spreads                                | 
 | Adamant:0/252/4/0/0/252 100.000%       | 
 | Other  0.000%                          | 
 +----------------------------------------+ 
 | Moves                                  | 
 | Superpower 100.000%                    | 
 | Swords Dance 100.000%                  | 
 | Flare Blitz 100.000%                   | 
 | Stone Edge 100.000%                    | 
 | Other  0.000%                          | 
 +----------------------------------------+ 
 | Teammates                              | 
 | Uxie +25.178%                          | 
 | Absol +25.178%                         | 
 | Sceptile +25.178%                      | 
 | Lanturn +25.178%                       | 
 | Donphan +25.178%                       | 
 +----------------------------------------+ 
 | Checks and Counters                    | 
 +----------------------------------------+ 
 +----------------------------------------+ 
 | Absol                                  | 
 +----------------------------------------+ 
 | Raw count: 55                          | 
 | Avg. weight: 0.000430254600302         | 
 | Viability Ceiling: 66                  | 
 +----------------------------------------+ 
 | Abilities                              | 
 | Super Luck 100.000%                    | 
 | Pressure  0.000%                       | 
 +----------------------------------------+ 
 | Items                                  | 
 | Scope Lens 100.000%                    | 
 | Other  0.000%                          | 
 +----------------------------------------+ 
 | Spreads                                | 
 | Jolly:0/252/4/0/0/252 100.000%         | 
 | Other  0.000%                          | 
 +----------------------------------------+ 
 | Moves                                  | 
 | Superpower 100.000%                    | 
 | Night Slash 100.000%                   | 
 | Psycho Cut 100.000%                    | 
 | Stone Edge 100.000%                    | 
 | Other  0.000%                          | 
 +----------------------------------------+ 
 | Teammates                              | 
 | Uxie +25.178%                          | 
 | Blaziken +25.178%                      | 
 | Sceptile +25.178%                      | 
 | Lanturn +25.178%                       | 
 | Donphan +25.178%                       | 
 +----------------------------------------+ 
 | Checks and Counters                    | 
 +----------------------------------------+ 
 +----------------------------------------+ 
 | Sceptile                               | 
 +----------------------------------------+ 
 | Raw count: 38                          | 
 | Avg. weight: 0.000406351566952         | 
 | Viability Ceiling: 59                  | 
 +----------------------------------------+ 
 | Abilities                              | 
 | Overgrow 100.000%                      | 
 +----------------------------------------+ 
 | Items                                  | 
 | Leftovers 100.000%                     | 
 | Other  0.000%                          | 
 +----------------------------------------+ 
 | Spreads                                | 
 | Jolly:4/252/0/0/0/252 100.000%         | 
 | Other  0.000%                          | 
 +----------------------------------------+ 
 | Moves                                  | 
 | Leaf Blade 100.000%                    | 
 | X-Scissor 100.000%                     | 
 | Swords Dance 100.000%                  | 
 | Earthquake 100.000%                    | 
 | Other  0.000%                          | 
 +----------------------------------------+ 
 | Teammates                              | 
 | Uxie +25.178%                          | 
 | Blaziken +25.178%                      | 
 | Absol +25.178%                         | 
 | Lanturn +25.178%                       | 
 | Donphan +25.178%                       | 
 +----------------------------------------+ 
 | Checks and Counters                    | 
 +----------------------------------------+ 
 +----------------------------------------+ 
 | Donphan                                | 
 +----------------------------------------+ 
 | Raw count: 17                          | 
 | Avg. weight: 0.000914291025642         | 
 | Viability Ceiling: 55                  | 
 +----------------------------------------+ 
 | Abilities                              | 
 | Sturdy 100.000%                        | 
 +----------------------------------------+ 
 | Items                                  | 
 | Leftovers 100.000%                     | 
 +----------------------------------------+ 
 | Spreads                                | 
 | Adamant:252/252/0/0/0/4 100.000%       | 
 | Other  0.000%                          | 
 +----------------------------------------+ 
 | Moves                                  | 
 | Ice Shard 100.000%                     | 
 | Earthquake 100.000%                    | 
 | Rapid Spin 100.000%                    | 
 | Stone Edge 100.000%                    | 
 | Other  0.000%                          | 
 +----------------------------------------+ 
 | Teammates                              | 
 | Uxie +25.178%                          | 
 | Blaziken +25.178%                      | 
 | Absol +25.178%                         | 
 | Sceptile +25.178%                      | 
 | Lanturn +25.178%                       | 
 +----------------------------------------+ 
 | Checks and Counters                    | 
 +----------------------------------------+ 
 +----------------------------------------+ 
 | Lanturn                                | 
 +----------------------------------------+ 
 | Raw count: 52                          | 
 | Avg. weight: 0.000609527350428         | 
 | Viability Ceiling: 59                  | 
 +----------------------------------------+ 
 | Abilities                              | 
 | Volt Absorb 100.000%                   | 
 +----------------------------------------+ 
 | Items                                  | 
 | Leftovers 100.000%                     | 
 | Other  0.000%                          | 
 +----------------------------------------+ 
 | Spreads                                | 
 | Calm:40/0/192/100/176/0 100.000%       | 
 | Other  0.000%                          | 
 +----------------------------------------+ 
 | Moves                                  | 
 | Surf 100.000%                          | 
 | Thunderbolt 100.000%                   | 
 | Heal Bell 100.000%                     | 
 | Ice Beam 100.000%                      | 
 | Other  0.000%                          | 
 +----------------------------------------+ 
 | Teammates                              | 
 | Uxie +25.178%                          | 
 | Blaziken +25.178%                      | 
 | Absol +25.178%                         | 
 | Sceptile +25.178%                      | 
 | Donphan +25.178%                       | 
 +----------------------------------------+ 
 | Checks and Counters                    | 
 +----------------------------------------+ 
 +----------------------------------------+ 
 | Hitmonlee                              | 
 +----------------------------------------+ 
 | Raw count: 20                          | 
 | Avg. weight: 0.000121819333783         | 
 | Viability Ceiling: 55                  | 
 +----------------------------------------+ 
 | Abilities                              | 
 | Limber 100.000%                        | 
 | Reckless  0.000%                       | 
 +----------------------------------------+ 
 | Items                                  | 
 | Black Belt 100.000%                    | 
 | Other  0.000%                          | 
 +----------------------------------------+ 
 | Spreads                                | 
 | Jolly:0/252/0/0/4/252 100.000%         | 
 | Other  0.000%                          | 
 +----------------------------------------+ 
 | Moves                                  | 
 | Close Combat 100.000%                  | 
 | Mach Punch 100.000%                    | 
 | Rapid Spin 100.000%                    | 
 | Stone Edge 100.000%                    | 
 | Other  0.000%                          | 
 +----------------------------------------+ 
 | Teammates                              | 
 | Scyther +99.386%                       | 
 | Hypno +99.386%                         | 
 | Arcanine +99.386%                      | 
 | Ninetales +99.386%                     | 
 | Poliwrath +99.386%                     | 
 | Poliwrath +99.386%                     | | 
 +----------------------------------------+ 
 | Checks and Counters                    | 
 +----------------------------------------+ 
 +----------------------------------------+ 
 | Poliwrath                              | 
 +----------------------------------------+ 
 | Raw count: 13                          | 
 | Avg. weight: 0.000197956417397         | 
 | Viability Ceiling: 55                  | 
 +----------------------------------------+ 
 | Abilities                              | 
 | Water Absorb 100.000%                  | 
 +----------------------------------------+ 
 | Items                                  | 
 | Shell Bell 100.000%                    | 
 | Other  0.000%                          | 
 +----------------------------------------+ 
 | Spreads                                | 
 | Impish:252/4/252/0/0/0 100.000%        | 
 | Other  0.000%                          | 
 +----------------------------------------+ 
 | Moves                                  | 
 | Brick Break 100.000%                   | 
 | Rest 100.000%                          | 
 | Sleep Talk 100.000%                    | 
 | Waterfall 100.000%                     | 
 | Other  0.000%                          | 
 +----------------------------------------+ 
 | Teammates                              | 
 | Scyther +99.386%                       | 
 | Hypno +99.386%                         | 
 | Arcanine +99.386%                      | 
 | Ninetales +99.386%                     | 
 | Hitmonlee +99.386%                     | 
 | Hitmonlee +99.386%                     | | 
 +----------------------------------------+ 
 | Checks and Counters                    | 
 +----------------------------------------+ 
 +----------------------------------------+ 
 | Arcanine                               | 
 +----------------------------------------+ 
 | Raw count: 55                          | 
 | Avg. weight: 7.91825669589e-05         | 
 | Viability Ceiling: 66                  | 
 +----------------------------------------+ 
 | Abilities                              | 
 | Intimidate 100.000%                    | 
 | Flash Fire  0.000%                     | 
 +----------------------------------------+ 
 | Items                                  | 
 | Life Orb 100.000%                      | 
 | Other  0.000%                          | 
 +----------------------------------------+ 
 | Spreads                                | 
 | Jolly:4/248/0/0/0/252 100.000%         | 
 | Other  0.000%                          | 
 +----------------------------------------+ 
 | Moves                                  | 
 | Morning Sun 100.000%                   | 
 | Extreme Speed 100.000%                 | 
 | Flare Blitz 100.000%                   | 
 | Thunder Fang 100.000%                  | 
 | Other  0.000%                          | 
 +----------------------------------------+ 
 | Teammates                              | 
 | Hitmonlee +99.386%                     | 
 | Poliwrath +99.386%                     | 
 | Hypno +99.386%                         | 
 | Ninetales +99.386%                     | 
 | Scyther +99.386%                       | 
 | Scyther +99.386%                       | | 
 +----------------------------------------+ 
 | Checks and Counters                    | 
 +----------------------------------------+ 
 +----------------------------------------+ 
 | Scyther                                | 
 +----------------------------------------+ 
 | Raw count: 42                          | 
 | Avg. weight: 7.54119685323e-05         | 
 | Viability Ceiling: 66                  | 
 +----------------------------------------+ 
 | Abilities                              | 
 | Technician 100.000%                    | 
 +----------------------------------------+ 
 | Items                                  | 
 | Salac Berry 100.000%                   | 
 | Other  0.000%                          | 
 +----------------------------------------+ 
 | Spreads                                | 
 | Jolly:0/252/0/0/4/252 100.000%         | 
 | Other  0.000%                          | 
 +----------------------------------------+ 
 | Moves                                  | 
 | Bug Bite 100.000%                      | 
 | Roost 100.000%                         | 
 | Aerial Ace 100.000%                    | 
 | Quick Attack 100.000%                  | 
 | Other  0.000%                          | 
 +----------------------------------------+ 
 | Teammates                              | 
 | Hitmonlee +99.386%                     | 
 | Poliwrath +99.386%                     | 
 | Hypno +99.386%                         | 
 | Ninetales +99.386%                     | 
 | Arcanine +99.386%                      | 
 | Arcanine +99.386%                      | | 
 +----------------------------------------+ 
 | Checks and Counters                    | 
 +----------------------------------------+ 
 +----------------------------------------+ 
 | Hypno                                  | 
 +----------------------------------------+ 
 | Raw count: 12                          | 
 | Avg. weight: 0.000226235905597         | 
 | Viability Ceiling: 55                  | 
 +----------------------------------------+ 
 | Abilities                              | 
 | Insomnia 100.000%                      | 
 +----------------------------------------+ 
 | Items                                  | 
 | Leftovers 100.000%                     | 
 | Other  0.000%                          | 
 +----------------------------------------+ 
 | Spreads                                | 
 | Calm:0/252/0/0/4/252 100.000%          | 
 | Other  0.000%                          | 
 +----------------------------------------+ 
 | Moves                                  | 
 | Toxic 100.000%                         | 
 | Wish 100.000%                          | 
 | Seismic Toss 100.000%                  | 
 | Protect 100.000%                       | 
 | Other  0.000%                          | 
 +----------------------------------------+ 
 | Teammates                              | 
 | Arcanine +99.386%                      | 
 | Hitmonlee +99.386%                     | 
 | Poliwrath +99.386%                     | 
 | Ninetales +99.386%                     | 
 | Scyther +99.386%                       | 
 +----------------------------------------+ 
 | Checks and Counters                    | 
 +----------------------------------------+ 
 +----------------------------------------+ 
 | Ninetales                              | 
 +----------------------------------------+ 
 | Raw count: 12                          | 
 | Avg. weight: 0.000226235905597         | 
 | Viability Ceiling: 55                  | 
 +----------------------------------------+ 
 | Abilities                              | 
 | Flash Fire 100.000%                    | 
 +----------------------------------------+ 
 | Items                                  | 
 | Wide Lens 100.000%                     | 
 +----------------------------------------+ 
 | Spreads                                | 
 | Timid:4/0/0/252/0/252 100.000%         | 
 +----------------------------------------+ 
 | Moves                                  | 
 | Nasty Plot 100.000%                    | 
 | Hypnosis 100.000%                      | 
 | Fire Blast 100.000%                    | 
 | Energy Ball 100.000%                   | 
 +----------------------------------------+ 
 | Teammates                              | 
 | Poliwrath +99.386%                     | 
 | Arcanine +99.386%                      | 
 | Hitmonlee +99.386%                     | 
 | Scyther +99.386%                       | 
 | Hypno +99.386%                         | 
 +----------------------------------------+ 
 | Checks and Counters                    | 
 +----------------------------------------+ 
