 +----------------------------------------+ 
 | Bronzor                                | 
 +----------------------------------------+ 
 | Raw count: 36                          | 
 | Avg. weight: 0.191071407215            | 
 | Viability Ceiling: 78                  | 
 +----------------------------------------+ 
 | Abilities                              | 
 | Levitate 100.000%                      | 
 +----------------------------------------+ 
 | Items                                  | 
 | Damp Rock 83.078%                      | 
 | Oran Berry 16.922%                     | 
 | Other  0.000%                          | 
 +----------------------------------------+ 
 | Spreads                                | 
 | Relaxed:220/8/148/4/68/12 83.078%      | 
 | Careful:60/4/228/4/148/12 13.031%      | 
 | Other  3.892%                          | 
 +----------------------------------------+ 
 | Moves                                  | 
 | Psychic 100.000%                       | 
 | Stealth Rock 100.000%                  | 
 | Earthquake 100.000%                    | 
 | Rain Dance 83.078%                     | 
 | Other 16.922%                          | 
 +----------------------------------------+ 
 | Teammates                              | 
 +----------------------------------------+ 
 | Checks and Counters                    | 
 +----------------------------------------+ 
 +----------------------------------------+ 
 | Swinub                                 | 
 +----------------------------------------+ 
 | Raw count: 3                           | 
 | Avg. weight: 0.165986306566            | 
 | Viability Ceiling: 72                  | 
 +----------------------------------------+ 
 | Abilities                              | 
 | Oblivious 100.000%                     | 
 +----------------------------------------+ 
 | Items                                  | 
 | Focus Sash 100.000%                    | 
 +----------------------------------------+ 
 | Spreads                                | 
 | Adamant:0/196/116/0/196/0 100.000%     | 
 +----------------------------------------+ 
 | Moves                                  | 
 | Protect 100.000%                       | 
 | Ice Shard 100.000%                     | 
 | Earthquake 100.000%                    | 
 | Superpower 100.000%                    | 
 +----------------------------------------+ 
 | Teammates                              | 
 | Goldeen +43.705%                       | 
 | Porygon +43.705%                       | 
 | Meowth +43.705%                        | 
 | Houndour +28.518%                      | 
 | Buneary +15.187%                       | 
 +----------------------------------------+ 
 | Checks and Counters                    | 
 +----------------------------------------+ 
 +----------------------------------------+ 
 | Goldeen                                | 
 +----------------------------------------+ 
 | Raw count: 6                           | 
 | Avg. weight: 0.161668968951            | 
 | Viability Ceiling: 72                  | 
 +----------------------------------------+ 
 | Abilities                              | 
 | Swift Swim 100.000%                    | 
 +----------------------------------------+ 
 | Items                                  | 
 | Oran Berry 100.000%                    | 
 +----------------------------------------+ 
 | Spreads                                | 
 | Adamant:0/220/0/0/36/252 100.000%      | 
 +----------------------------------------+ 
 | Moves                                  | 
 | Megahorn 100.000%                      | 
 | Rain Dance 100.000%                    | 
 | Waterfall 100.000%                     | 
 | Return 100.000%                        | 
 +----------------------------------------+ 
 | Teammates                              | 
 | Swinub +20.708%                        | 
 | Porygon +20.708%                       | 
 | Meowth +20.708%                        | 
 | Houndour +13.512%                      | 
 | Buneary +7.196%                        | 
 +----------------------------------------+ 
 | Checks and Counters                    | 
 +----------------------------------------+ 
 +----------------------------------------+ 
 | Porygon                                | 
 +----------------------------------------+ 
 | Raw count: 6                           | 
 | Avg. weight: 0.161668968951            | 
 | Viability Ceiling: 72                  | 
 +----------------------------------------+ 
 | Abilities                              | 
 | Trace 100.000%                         | 
 +----------------------------------------+ 
 | Items                                  | 
 | Leftovers 100.000%                     | 
 +----------------------------------------+ 
 | Spreads                                | 
 | Calm:236/0/196/0/76/0 100.000%         | 
 +----------------------------------------+ 
 | Moves                                  | 
 | Thunder Wave 100.000%                  | 
 | Recover 100.000%                       | 
 | Tri Attack 100.000%                    | 
 | Ice Beam 100.000%                      | 
 +----------------------------------------+ 
 | Teammates                              | 
 | Swinub +20.708%                        | 
 | Goldeen +20.708%                       | 
 | Meowth +20.708%                        | 
 | Houndour +13.512%                      | 
 | Buneary +7.196%                        | 
 +----------------------------------------+ 
 | Checks and Counters                    | 
 +----------------------------------------+ 
 +----------------------------------------+ 
 | Meowth                                 | 
 +----------------------------------------+ 
 | Raw count: 10                          | 
 | Avg. weight: 0.0808344844757           | 
 | Viability Ceiling: 72                  | 
 +----------------------------------------+ 
 | Abilities                              | 
 | Technician 100.000%                    | 
 | Pickup  0.000%                         | 
 +----------------------------------------+ 
 | Items                                  | 
 | Focus Sash 100.000%                    | 
 | Other  0.000%                          | 
 +----------------------------------------+ 
 | Spreads                                | 
 | Jolly:0/236/76/0/0/196 100.000%        | 
 | Other  0.000%                          | 
 +----------------------------------------+ 
 | Moves                                  | 
 | Return 100.000%                        | 
 | Taunt 100.000%                         | 
 | Bite 100.000%                          | 
 | Fake Out 100.000%                      | 
 | Other  0.000%                          | 
 +----------------------------------------+ 
 | Teammates                              | 
 | Swinub +20.708%                        | 
 | Goldeen +20.708%                       | 
 | Porygon +20.708%                       | 
 | Houndour +13.512%                      | 
 | Buneary +7.196%                        | 
 +----------------------------------------+ 
 | Checks and Counters                    | 
 +----------------------------------------+ 
 +----------------------------------------+ 
 | Kabuto                                 | 
 +----------------------------------------+ 
 | Raw count: 25                          | 
 | Avg. weight: 0.28861384259             | 
 | Viability Ceiling: 78                  | 
 +----------------------------------------+ 
 | Abilities                              | 
 | Swift Swim 100.000%                    | 
 +----------------------------------------+ 
 | Items                                  | 
 | Life Orb 100.000%                      | 
 +----------------------------------------+ 
 | Spreads                                | 
 | Naughty:0/196/0/156/0/156 100.000%     | 
 | Other  0.000%                          | 
 +----------------------------------------+ 
 | Moves                                  | 
 | Aqua Jet 100.000%                      | 
 | Waterfall 100.000%                     | 
 | Earth Power 100.000%                   | 
 | Rock Slide 100.000%                    | 
 +----------------------------------------+ 
 | Teammates                              | 
 +----------------------------------------+ 
 | Checks and Counters                    | 
 +----------------------------------------+ 
 +----------------------------------------+ 
 | Munchlax                               | 
 +----------------------------------------+ 
 | Raw count: 28                          | 
 | Avg. weight: 0.226768019178            | 
 | Viability Ceiling: 78                  | 
 +----------------------------------------+ 
 | Abilities                              | 
 | Thick Fat 100.000%                     | 
 +----------------------------------------+ 
 | Items                                  | 
 | Damp Rock 100.000%                     | 
 | Other  0.000%                          | 
 +----------------------------------------+ 
 | Spreads                                | 
 | Sassy:0/236/36/0/236/0 100.000%        | 
 | Other  0.000%                          | 
 +----------------------------------------+ 
 | Moves                                  | 
 | Return 100.000%                        | 
 | Rain Dance 100.000%                    | 
 | Earthquake 100.000%                    | 
 | Pursuit 100.000%                       | 
 | Other  0.000%                          | 
 +----------------------------------------+ 
 | Teammates                              | 
 +----------------------------------------+ 
 | Checks and Counters                    | 
 +----------------------------------------+ 
 +----------------------------------------+ 
 | Buizel                                 | 
 +----------------------------------------+ 
 | Raw count: 38                          | 
 | Avg. weight: 0.176375126027            | 
 | Viability Ceiling: 78                  | 
 +----------------------------------------+ 
 | Abilities                              | 
 | Swift Swim 100.000%                    | 
 +----------------------------------------+ 
 | Items                                  | 
 | Life Orb 100.000%                      | 
 | Other  0.000%                          | 
 +----------------------------------------+ 
 | Spreads                                | 
 | Jolly:0/236/0/0/36/236 100.000%        | 
 | Other  0.000%                          | 
 +----------------------------------------+ 
 | Moves                                  | 
 | Return 100.000%                        | 
 | Bulk Up 100.000%                       | 
 | Waterfall 100.000%                     | 
 | Aqua Jet 100.000%                      | 
 | Other  0.000%                          | 
 +----------------------------------------+ 
 | Teammates                              | 
 +----------------------------------------+ 
 | Checks and Counters                    | 
 +----------------------------------------+ 
 +----------------------------------------+ 
 | Chinchou                               | 
 +----------------------------------------+ 
 | Raw count: 28                          | 
 | Avg. weight: 0.226768019178            | 
 | Viability Ceiling: 78                  | 
 +----------------------------------------+ 
 | Abilities                              | 
 | Volt Absorb 100.000%                   | 
 +----------------------------------------+ 
 | Items                                  | 
 | Damp Rock 100.000%                     | 
 | Other  0.000%                          | 
 +----------------------------------------+ 
 | Spreads                                | 
 | Calm:76/52/0/80/72/220 100.000%        | 
 | Other  0.000%                          | 
 +----------------------------------------+ 
 | Moves                                  | 
 | Thunder 100.000%                       | 
 | Rain Dance 100.000%                    | 
 | Hidden Power Ground 100.000%           | 
 | Hydro Pump 100.000%                    | 
 | Other  0.000%                          | 
 +----------------------------------------+ 
 | Teammates                              | 
 +----------------------------------------+ 
 | Checks and Counters                    | 
 +----------------------------------------+ 
 +----------------------------------------+ 
 | Mantyke                                | 
 +----------------------------------------+ 
 | Raw count: 27                          | 
 | Avg. weight: 0.24421171296             | 
 | Viability Ceiling: 78                  | 
 +----------------------------------------+ 
 | Abilities                              | 
 | Swift Swim 100.000%                    | 
 | Water Absorb  0.000%                   | 
 +----------------------------------------+ 
 | Items                                  | 
 | Life Orb 100.000%                      | 
 +----------------------------------------+ 
 | Spreads                                | 
 | Modest:76/0/36/200/0/196 100.000%      | 
 | Other  0.000%                          | 
 +----------------------------------------+ 
 | Moves                                  | 
 | Hidden Power Electric 100.000%         | 
 | Hydro Pump 100.000%                    | 
 | Rain Dance 100.000%                    | 
 | Ice Beam 100.000%                      | 
 | Other  0.000%                          | 
 +----------------------------------------+ 
 | Teammates                              | 
 +----------------------------------------+ 
 | Checks and Counters                    | 
 +----------------------------------------+ 
 +----------------------------------------+ 
 | Houndour                               | 
 +----------------------------------------+ 
 | Raw count: 3                           | 
 | Avg. weight: 0.108306131524            | 
 | Viability Ceiling: 72                  | 
 +----------------------------------------+ 
 | Abilities                              | 
 | Flash Fire 100.000%                    | 
 +----------------------------------------+ 
 | Items                                  | 
 | Focus Sash 100.000%                    | 
 | Other  0.000%                          | 
 +----------------------------------------+ 
 | Spreads                                | 
 | Timid:0/0/0/252/0/252 100.000%         | 
 | Other  0.000%                          | 
 +----------------------------------------+ 
 | Moves                                  | 
 | Dark Pulse 100.000%                    | 
 | Nasty Plot 100.000%                    | 
 | Hidden Power Grass 100.000%            | 
 | Flamethrower 100.000%                  | 
 | Other  0.000%                          | 
 +----------------------------------------+ 
 | Teammates                              | 
 | Swinub +43.705%                        | 
 | Goldeen +43.705%                       | 
 | Porygon +43.705%                       | 
 | Meowth +43.705%                        | 
 +----------------------------------------+ 
 | Checks and Counters                    | 
 +----------------------------------------+ 
 +----------------------------------------+ 
 | Buneary                                | 
 +----------------------------------------+ 
 | Raw count: 8                           | 
 | Avg. weight: 0.173040525128            | 
 | Viability Ceiling: 71                  | 
 +----------------------------------------+ 
 | Abilities                              | 
 | Run Away 100.000%                      | 
 +----------------------------------------+ 
 | Items                                  | 
 | Focus Sash 100.000%                    | 
 | Other  0.000%                          | 
 +----------------------------------------+ 
 | Spreads                                | 
 | Jolly:0/228/4/0/0/236 100.000%         | 
 | Other  0.000%                          | 
 +----------------------------------------+ 
 | Moves                                  | 
 | Ice Punch 100.000%                     | 
 | Fake Out 100.000%                      | 
 | Endeavor 100.000%                      | 
 | Quick Attack 100.000%                  | 
 | Other  0.000%                          | 
 +----------------------------------------+ 
 | Teammates                              | 
 | Swinub +43.705%                        | 
 | Goldeen +43.705%                       | 
 | Porygon +43.705%                       | 
 | Meowth +43.705%                        | 
 +----------------------------------------+ 
 | Checks and Counters                    | 
 +----------------------------------------+ 
