 +----------------------------------------+ 
 | Croagunk                               | 
 +----------------------------------------+ 
 | Raw count: 48                          | 
 | Avg. weight: 0.0106823224363           | 
 | Viability Ceiling: 66                  | 
 +----------------------------------------+ 
 | Abilities                              | 
 | Dry Skin 100.000%                      | 
 | Anticipation  0.000%                   | 
 +----------------------------------------+ 
 | Items                                  | 
 | Life Orb 100.000%                      | 
 | Other  0.000%                          | 
 +----------------------------------------+ 
 | Spreads                                | 
 | Lonely:0/188/0/188/0/116 98.713%       | 
 | Other  1.287%                          | 
 +----------------------------------------+ 
 | Moves                                  | 
 | Dark Pulse 100.000%                    | 
 | Sucker Punch 100.000%                  | 
 | Fake Out 100.000%                      | 
 | Vacuum Wave 100.000%                   | 
 | Other  0.000%                          | 
 +----------------------------------------+ 
 | Teammates                              | 
 | Drifloon +20.725%                      | 
 | Chimchar +20.683%                      | 
 | Elekid +20.459%                        | 
 | Munchlax +20.459%                      | 
 | Clamperl +20.459%                      | 
 +----------------------------------------+ 
 | Checks and Counters                    | 
 +----------------------------------------+ 
 +----------------------------------------+ 
 | Drifloon                               | 
 +----------------------------------------+ 
 | Raw count: 40                          | 
 | Avg. weight: 0.0128187869236           | 
 | Viability Ceiling: 66                  | 
 +----------------------------------------+ 
 | Abilities                              | 
 | Unburden 100.000%                      | 
 +----------------------------------------+ 
 | Items                                  | 
 | Oran Berry 98.713%                     | 
 | Other  1.287%                          | 
 +----------------------------------------+ 
 | Spreads                                | 
 | Modest:116/0/8/200/8/120 98.713%       | 
 | Other  1.287%                          | 
 +----------------------------------------+ 
 | Moves                                  | 
 | Shadow Ball 98.713%                    | 
 | Hidden Power Fighting 98.713%          | 
 | Calm Mind 98.713%                      | 
 | Substitute 98.713%                     | 
 | Other  5.146%                          | 
 +----------------------------------------+ 
 | Teammates                              | 
 | Croagunk +20.725%                      | 
 | Chimchar +20.683%                      | 
 | Clamperl +20.459%                      | 
 | Elekid +20.459%                        | 
 | Munchlax +20.459%                      | 
 +----------------------------------------+ 
 | Checks and Counters                    | 
 +----------------------------------------+ 
 +----------------------------------------+ 
 | Chimchar                               | 
 +----------------------------------------+ 
 | Raw count: 31                          | 
 | Avg. weight: 0.0165080486403           | 
 | Viability Ceiling: 66                  | 
 +----------------------------------------+ 
 | Abilities                              | 
 | Blaze 100.000%                         | 
 +----------------------------------------+ 
 | Items                                  | 
 | Focus Sash 98.907%                     | 
 | Other  1.093%                          | 
 +----------------------------------------+ 
 | Spreads                                | 
 | Hasty:4/56/0/216/4/188 98.907%         | 
 | Other  1.093%                          | 
 +----------------------------------------+ 
 | Moves                                  | 
 | Overheat 98.907%                       | 
 | Stealth Rock 98.907%                   | 
 | Fake Out 98.907%                       | 
 | Hidden Power Grass 98.907%             | 
 | Other  4.373%                          | 
 +----------------------------------------+ 
 | Teammates                              | 
 | Croagunk +20.715%                      | 
 | Drifloon +20.715%                      | 
 | Clamperl +20.642%                      | 
 | Elekid +20.642%                        | 
 | Munchlax +20.642%                      | 
 +----------------------------------------+ 
 | Checks and Counters                    | 
 +----------------------------------------+ 
 +----------------------------------------+ 
 | Munchlax                               | 
 +----------------------------------------+ 
 | Raw count: 36                          | 
 | Avg. weight: 0.0140598486248           | 
 | Viability Ceiling: 68                  | 
 +----------------------------------------+ 
 | Abilities                              | 
 | Thick Fat 100.000%                     | 
 | Pickup  0.000%                         | 
 +----------------------------------------+ 
 | Items                                  | 
 | Oran Berry 100.000%                    | 
 | Other  0.000%                          | 
 +----------------------------------------+ 
 | Spreads                                | 
 | Sassy:76/0/196/0/236/0 100.000%        | 
 | Other  0.000%                          | 
 +----------------------------------------+ 
 | Moves                                  | 
 | Return 100.000%                        | 
 | Pursuit 100.000%                       | 
 | Recycle 100.000%                       | 
 | Fire Punch 100.000%                    | 
 | Other  0.000%                          | 
 +----------------------------------------+ 
 | Teammates                              | 
 | Clamperl +21.679%                      | 
 | Elekid +21.679%                        | 
 | Chimchar +20.881%                      | 
 | Drifloon +20.728%                      | 
 | Croagunk +20.728%                      | 
 +----------------------------------------+ 
 | Checks and Counters                    | 
 +----------------------------------------+ 
 +----------------------------------------+ 
 | Clamperl                               | 
 +----------------------------------------+ 
 | Raw count: 21                          | 
 | Avg. weight: 0.0241025976426           | 
 | Viability Ceiling: 66                  | 
 +----------------------------------------+ 
 | Abilities                              | 
 | Shell Armor 100.000%                   | 
 +----------------------------------------+ 
 | Items                                  | 
 | Deep Sea Scale 100.000%                | 
 | Other  0.000%                          | 
 +----------------------------------------+ 
 | Spreads                                | 
 | Bold:236/0/236/8/0/20 100.000%         | 
 | Other  0.000%                          | 
 +----------------------------------------+ 
 | Moves                                  | 
 | Surf 100.000%                          | 
 | Rest 100.000%                          | 
 | Hidden Power Electric 100.000%         | 
 | Sleep Talk 100.000%                    | 
 | Other  0.000%                          | 
 +----------------------------------------+ 
 | Teammates                              | 
 | Munchlax +21.679%                      | 
 | Elekid +21.679%                        | 
 | Chimchar +20.881%                      | 
 | Croagunk +20.728%                      | 
 | Drifloon +20.728%                      | 
 +----------------------------------------+ 
 | Checks and Counters                    | 
 +----------------------------------------+ 
 +----------------------------------------+ 
 | Elekid                                 | 
 +----------------------------------------+ 
 | Raw count: 30                          | 
 | Avg. weight: 0.0168718183498           | 
 | Viability Ceiling: 68                  | 
 +----------------------------------------+ 
 | Abilities                              | 
 | Static 100.000%                        | 
 +----------------------------------------+ 
 | Items                                  | 
 | Life Orb 100.000%                      | 
 | Other  0.000%                          | 
 +----------------------------------------+ 
 | Spreads                                | 
 | Hasty:0/96/0/160/0/240 100.000%        | 
 | Other  0.000%                          | 
 +----------------------------------------+ 
 | Moves                                  | 
 | Thunderbolt 100.000%                   | 
 | Ice Punch 100.000%                     | 
 | Cross Chop 100.000%                    | 
 | Hidden Power Grass 100.000%            | 
 | Other  0.000%                          | 
 +----------------------------------------+ 
 | Teammates                              | 
 | Clamperl +21.679%                      | 
 | Munchlax +21.679%                      | 
 | Chimchar +20.881%                      | 
 | Croagunk +20.728%                      | 
 | Drifloon +20.728%                      | 
 +----------------------------------------+ 
 | Checks and Counters                    | 
 +----------------------------------------+ 
 +----------------------------------------+ 
 | Omanyte                                | 
 +----------------------------------------+ 
 | Raw count: 7                           | 
 | Avg. weight: 0.0174833642489           | 
 | Viability Ceiling: 68                  | 
 +----------------------------------------+ 
 | Abilities                              | 
 | Swift Swim 100.000%                    | 
 +----------------------------------------+ 
 | Items                                  | 
 | Life Orb 100.000%                      | 
 +----------------------------------------+ 
 | Spreads                                | 
 | Modest:236/0/0/36/0/236 100.000%       | 
 | Other  0.000%                          | 
 +----------------------------------------+ 
 | Moves                                  | 
 | Stealth Rock 100.000%                  | 
 | Ice Beam 100.000%                      | 
 | Hydro Pump 100.000%                    | 
 | Ancient Power 100.000%                 | 
 | Other  0.000%                          | 
 +----------------------------------------+ 
 | Teammates                              | 
 | Chinchou +66.100%                      | 
 | Gligar +66.100%                        | 
 | Porygon +66.100%                       | 
 | Stunky +66.100%                        | 
 | Staryu +66.100%                        | 
 +----------------------------------------+ 
 | Checks and Counters                    | 
 +----------------------------------------+ 
 +----------------------------------------+ 
 | Gligar                                 | 
 +----------------------------------------+ 
 | Raw count: 19                          | 
 | Avg. weight: 0.0064412394601           | 
 | Viability Ceiling: 68                  | 
 +----------------------------------------+ 
 | Abilities                              | 
 | Sand Veil 100.000%                     | 
 | Hyper Cutter  0.000%                   | 
 +----------------------------------------+ 
 | Items                                  | 
 | Choice Scarf 100.000%                  | 
 | Other  0.000%                          | 
 +----------------------------------------+ 
 | Spreads                                | 
 | Adamant:0/236/0/0/0/236 100.000%       | 
 | Other  0.000%                          | 
 +----------------------------------------+ 
 | Moves                                  | 
 | U-turn 100.000%                        | 
 | Stone Edge 100.000%                    | 
 | Aqua Tail 100.000%                     | 
 | Earthquake 100.000%                    | 
 | Other  0.000%                          | 
 +----------------------------------------+ 
 | Teammates                              | 
 | Omanyte +66.100%                       | 
 | Chinchou +66.100%                      | 
 | Stunky +66.100%                        | 
 | Porygon +66.100%                       | 
 | Staryu +66.100%                        | 
 +----------------------------------------+ 
 | Checks and Counters                    | 
 +----------------------------------------+ 
 +----------------------------------------+ 
 | Porygon                                | 
 +----------------------------------------+ 
 | Raw count: 9                           | 
 | Avg. weight: 0.0135981721936           | 
 | Viability Ceiling: 68                  | 
 +----------------------------------------+ 
 | Abilities                              | 
 | Trace 100.000%                         | 
 | Download  0.000%                       | 
 +----------------------------------------+ 
 | Items                                  | 
 | Life Orb 100.000%                      | 
 | Other  0.000%                          | 
 +----------------------------------------+ 
 | Spreads                                | 
 | Timid:76/0/0/236/0/196 100.000%        | 
 | Other  0.000%                          | 
 +----------------------------------------+ 
 | Moves                                  | 
 | Agility 100.000%                       | 
 | Shadow Ball 100.000%                   | 
 | Tri Attack 100.000%                    | 
 | Ice Beam 100.000%                      | 
 | Other  0.000%                          | 
 +----------------------------------------+ 
 | Teammates                              | 
 | Omanyte +66.100%                       | 
 | Chinchou +66.100%                      | 
 | Gligar +66.100%                        | 
 | Stunky +66.100%                        | 
 | Staryu +66.100%                        | 
 +----------------------------------------+ 
 | Checks and Counters                    | 
 +----------------------------------------+ 
 +----------------------------------------+ 
 | Chinchou                               | 
 +----------------------------------------+ 
 | Raw count: 12                          | 
 | Avg. weight: 0.0101986291452           | 
 | Viability Ceiling: 68                  | 
 +----------------------------------------+ 
 | Abilities                              | 
 | Volt Absorb 100.000%                   | 
 +----------------------------------------+ 
 | Items                                  | 
 | Life Orb 100.000%                      | 
 | Other  0.000%                          | 
 +----------------------------------------+ 
 | Spreads                                | 
 | Modest:0/0/52/228/0/220 100.000%       | 
 | Other  0.000%                          | 
 +----------------------------------------+ 
 | Moves                                  | 
 | Agility 100.000%                       | 
 | Thunderbolt 100.000%                   | 
 | Ice Beam 100.000%                      | 
 | Hydro Pump 100.000%                    | 
 | Other  0.000%                          | 
 +----------------------------------------+ 
 | Teammates                              | 
 | Omanyte +66.100%                       | 
 | Gligar +66.100%                        | 
 | Porygon +66.100%                       | 
 | Stunky +66.100%                        | 
 | Staryu +66.100%                        | 
 +----------------------------------------+ 
 | Checks and Counters                    | 
 +----------------------------------------+ 
 +----------------------------------------+ 
 | Stunky                                 | 
 +----------------------------------------+ 
 | Raw count: 8                           | 
 | Avg. weight: 0.0152979437177           | 
 | Viability Ceiling: 68                  | 
 +----------------------------------------+ 
 | Abilities                              | 
 | Aftermath 100.000%                     | 
 +----------------------------------------+ 
 | Items                                  | 
 | Life Orb 100.000%                      | 
 +----------------------------------------+ 
 | Spreads                                | 
 | Jolly:12/252/0/0/0/244 100.000%        | 
 +----------------------------------------+ 
 | Moves                                  | 
 | Crunch 100.000%                        | 
 | Sucker Punch 100.000%                  | 
 | Hidden Power Ground 100.000%           | 
 | Explosion 100.000%                     | 
 +----------------------------------------+ 
 | Teammates                              | 
 | Omanyte +66.100%                       | 
 | Chinchou +66.100%                      | 
 | Gligar +66.100%                        | 
 | Porygon +66.100%                       | 
 | Staryu +66.100%                        | 
 +----------------------------------------+ 
 | Checks and Counters                    | 
 +----------------------------------------+ 
 +----------------------------------------+ 
 | Staryu                                 | 
 +----------------------------------------+ 
 | Raw count: 8                           | 
 | Avg. weight: 0.0152979437177           | 
 | Viability Ceiling: 68                  | 
 +----------------------------------------+ 
 | Abilities                              | 
 | Natural Cure 100.000%                  | 
 +----------------------------------------+ 
 | Items                                  | 
 | Life Orb 100.000%                      | 
 | Other  0.000%                          | 
 +----------------------------------------+ 
 | Spreads                                | 
 | Timid:0/0/0/240/0/240 100.000%         | 
 | Other  0.000%                          | 
 +----------------------------------------+ 
 | Moves                                  | 
 | Thunderbolt 100.000%                   | 
 | Ice Beam 100.000%                      | 
 | Hidden Power Fire 100.000%             | 
 | Hydro Pump 100.000%                    | 
 | Other  0.000%                          | 
 +----------------------------------------+ 
 | Teammates                              | 
 | Omanyte +66.100%                       | 
 | Chinchou +66.100%                      | 
 | Gligar +66.100%                        | 
 | Porygon +66.100%                       | 
 | Stunky +66.100%                        | 
 +----------------------------------------+ 
 | Checks and Counters                    | 
 +----------------------------------------+ 
 +----------------------------------------+ 
 | Aipom                                  | 
 +----------------------------------------+ 
 | Raw count: 30                          | 
 | Avg. weight: 0.00295193198026          | 
 | Viability Ceiling: 59                  | 
 +----------------------------------------+ 
 | Abilities                              | 
 | Run Away 92.551%                       | 
 | Pickup  7.449%                         | 
 +----------------------------------------+ 
 | Items                                  | 
 | Life Orb 100.000%                      | 
 | Other  0.000%                          | 
 +----------------------------------------+ 
 | Spreads                                | 
 | Jolly:76/196/0/0/0/236 92.551%         | 
 | Jolly:0/196/0/0/76/236  7.449%         | 
 | Other  0.000%                          | 
 +----------------------------------------+ 
 | Moves                                  | 
 | Brick Break 100.000%                   | 
 | Fake Out 100.000%                      | 
 | Return 92.551%                         | 
 | Shadow Claw 92.551%                    | 
 | Other 14.899%                          | 
 +----------------------------------------+ 
 | Teammates                              | 
 | Gible +69.086%                         | 
 | Krabby +69.086%                        | 
 | Mantyke +69.086%                       | 
 | Abra +69.086%                          | 
 | Beldum +69.086%                        | 
 | Voltorb +6.095%                        | 
 | Buizel +6.095%                         | 
 | Taillow +0.979%                        | 
 +----------------------------------------+ 
 | Checks and Counters                    | 
 +----------------------------------------+ 
 +----------------------------------------+ 
 | Abra                                   | 
 +----------------------------------------+ 
 | Raw count: 27                          | 
 | Avg. weight: 0.00303559381328          | 
 | Viability Ceiling: 59                  | 
 +----------------------------------------+ 
 | Abilities                              | 
 | Inner Focus 100.000%                   | 
 | Synchronize  0.000%                    | 
 +----------------------------------------+ 
 | Items                                  | 
 | Life Orb 100.000%                      | 
 | Other  0.000%                          | 
 +----------------------------------------+ 
 | Spreads                                | 
 | Timid:0/0/0/240/0/200 100.000%         | 
 | Other  0.000%                          | 
 +----------------------------------------+ 
 | Moves                                  | 
 | Psychic 100.000%                       | 
 | Signal Beam 100.000%                   | 
 | Encore 100.000%                        | 
 | Substitute 100.000%                    | 
 | Other  0.000%                          | 
 +----------------------------------------+ 
 | Teammates                              | 
 | Beldum +75.514%                        | 
 | Mantyke +75.514%                       | 
 | Gible +75.514%                         | 
 | Krabby +75.514%                        | 
 | Aipom +74.563%                         | 
 +----------------------------------------+ 
 | Checks and Counters                    | 
 +----------------------------------------+ 
 +----------------------------------------+ 
 | Beldum                                 | 
 +----------------------------------------+ 
 | Raw count: 14                          | 
 | Avg. weight: 0.00585435949704          | 
 | Viability Ceiling: 59                  | 
 +----------------------------------------+ 
 | Abilities                              | 
 | Clear Body 100.000%                    | 
 +----------------------------------------+ 
 | Items                                  | 
 | Oran Berry 100.000%                    | 
 +----------------------------------------+ 
 | Spreads                                | 
 | Adamant:0/236/196/0/0/38 100.000%      | 
 +----------------------------------------+ 
 | Moves                                  | 
 | Iron Head 100.000%                     | 
 | Iron Defense 100.000%                  | 
 | Zen Headbutt 100.000%                  | 
 | Headbutt 100.000%                      | 
 +----------------------------------------+ 
 | Teammates                              | 
 | Gible +75.514%                         | 
 | Krabby +75.514%                        | 
 | Mantyke +75.514%                       | 
 | Abra +75.514%                          | 
 | Aipom +74.563%                         | 
 +----------------------------------------+ 
 | Checks and Counters                    | 
 +----------------------------------------+ 
 +----------------------------------------+ 
 | Mantyke                                | 
 +----------------------------------------+ 
 | Raw count: 22                          | 
 | Avg. weight: 0.00372550149811          | 
 | Viability Ceiling: 59                  | 
 +----------------------------------------+ 
 | Abilities                              | 
 | Water Absorb 100.000%                  | 
 | Swift Swim  0.000%                     | 
 +----------------------------------------+ 
 | Items                                  | 
 | Life Orb 100.000%                      | 
 | Other  0.000%                          | 
 +----------------------------------------+ 
 | Spreads                                | 
 | Modest:76/0/36/200/0/196 100.000%      | 
 | Other  0.000%                          | 
 +----------------------------------------+ 
 | Moves                                  | 
 | Agility 100.000%                       | 
 | Hidden Power Electric 100.000%         | 
 | Ice Beam 100.000%                      | 
 | Hydro Pump 100.000%                    | 
 | Other  0.000%                          | 
 +----------------------------------------+ 
 | Teammates                              | 
 | Gible +75.514%                         | 
 | Krabby +75.514%                        | 
 | Abra +75.514%                          | 
 | Beldum +75.514%                        | 
 | Aipom +74.563%                         | 
 +----------------------------------------+ 
 | Checks and Counters                    | 
 +----------------------------------------+ 
 +----------------------------------------+ 
 | Gible                                  | 
 +----------------------------------------+ 
 | Raw count: 17                          | 
 | Avg. weight: 0.00482123723285          | 
 | Viability Ceiling: 59                  | 
 +----------------------------------------+ 
 | Abilities                              | 
 | Sand Veil 100.000%                     | 
 +----------------------------------------+ 
 | Items                                  | 
 | Choice Band 100.000%                   | 
 | Other  0.000%                          | 
 +----------------------------------------+ 
 | Spreads                                | 
 | Adamant:52/196/236/0/0/20 100.000%     | 
 | Other  0.000%                          | 
 +----------------------------------------+ 
 | Moves                                  | 
 | Stone Edge 100.000%                    | 
 | Outrage 100.000%                       | 
 | Fire Blast 100.000%                    | 
 | Earthquake 100.000%                    | 
 | Other  0.000%                          | 
 +----------------------------------------+ 
 | Teammates                              | 
 | Mantyke +75.514%                       | 
 | Krabby +75.514%                        | 
 | Abra +75.514%                          | 
 | Beldum +75.514%                        | 
 | Aipom +74.563%                         | 
 +----------------------------------------+ 
 | Checks and Counters                    | 
 +----------------------------------------+ 
 +----------------------------------------+ 
 | Krabby                                 | 
 +----------------------------------------+ 
 | Raw count: 14                          | 
 | Avg. weight: 0.00585435949704          | 
 | Viability Ceiling: 59                  | 
 +----------------------------------------+ 
 | Abilities                              | 
 | Shell Armor 100.000%                   | 
 +----------------------------------------+ 
 | Items                                  | 
 | Oran Berry 100.000%                    | 
 +----------------------------------------+ 
 | Spreads                                | 
 | Adamant:36/236/36/0/0/196 100.000%     | 
 +----------------------------------------+ 
 | Moves                                  | 
 | Swords Dance 100.000%                  | 
 | Agility 100.000%                       | 
 | Return 100.000%                        | 
 | Crabhammer 100.000%                    | 
 +----------------------------------------+ 
 | Teammates                              | 
 | Gible +75.514%                         | 
 | Mantyke +75.514%                       | 
 | Abra +75.514%                          | 
 | Beldum +75.514%                        | 
 | Aipom +74.563%                         | 
 +----------------------------------------+ 
 | Checks and Counters                    | 
 +----------------------------------------+ 
 +----------------------------------------+ 
 | Voltorb                                | 
 +----------------------------------------+ 
 | Raw count: 17                          | 
 | Avg. weight: 0.000388054497023         | 
 | Viability Ceiling: 56                  | 
 +----------------------------------------+ 
 | Abilities                              | 
 | Static 100.000%                        | 
 | Soundproof  0.000%                     | 
 +----------------------------------------+ 
 | Items                                  | 
 | Damp Rock 100.000%                     | 
 | Other  0.000%                          | 
 +----------------------------------------+ 
 | Spreads                                | 
 | Hasty:0/36/0/0/236/196 100.000%        | 
 | Other  0.000%                          | 
 +----------------------------------------+ 
 | Moves                                  | 
 | Explosion 100.000%                     | 
 | Thunder 100.000%                       | 
 | Rain Dance 100.000%                    | 
 | Taunt 100.000%                         | 
 | Other  0.000%                          | 
 +----------------------------------------+ 
 | Teammates                              | 
 | Buizel +93.638%                        | 
 | Aipom +82.860%                         | 
 | Croagunk +20.520%                      | 
 | Drifloon +20.520%                      | 
 | Taillow +15.036%                       | 
 | Chimchar +5.484%                       | 
 +----------------------------------------+ 
 | Checks and Counters                    | 
 +----------------------------------------+ 
 +----------------------------------------+ 
 | Buizel                                 | 
 +----------------------------------------+ 
 | Raw count: 18                          | 
 | Avg. weight: 0.000366495913855         | 
 | Viability Ceiling: 56                  | 
 +----------------------------------------+ 
 | Abilities                              | 
 | Swift Swim 100.000%                    | 
 +----------------------------------------+ 
 | Items                                  | 
 | Life Orb 100.000%                      | 
 | Other  0.000%                          | 
 +----------------------------------------+ 
 | Spreads                                | 
 | Adamant:0/236/0/0/36/236 100.000%      | 
 | Other  0.000%                          | 
 +----------------------------------------+ 
 | Moves                                  | 
 | Return 100.000%                        | 
 | Aqua Jet 100.000%                      | 
 | Bulk Up 100.000%                       | 
 | Waterfall 100.000%                     | 
 | Other  0.000%                          | 
 +----------------------------------------+ 
 | Teammates                              | 
 | Voltorb +93.638%                       | 
 | Aipom +82.860%                         | 
 | Croagunk +20.520%                      | 
 | Drifloon +20.520%                      | 
 | Taillow +15.036%                       | 
 | Chimchar +5.484%                       | 
 +----------------------------------------+ 
 | Checks and Counters                    | 
 +----------------------------------------+ 
 +----------------------------------------+ 
 | Taillow                                | 
 +----------------------------------------+ 
 | Raw count: 7                           | 
 | Avg. weight: 0.000143138442123         | 
 | Viability Ceiling: 55                  | 
 +----------------------------------------+ 
 | Abilities                              | 
 | Guts 100.000%                          | 
 +----------------------------------------+ 
 | Items                                  | 
 | Choice Specs 100.000%                  | 
 | Other  0.000%                          | 
 +----------------------------------------+ 
 | Spreads                                | 
 | Timid:36/0/0/196/36/236 100.000%       | 
 | Other  0.000%                          | 
 +----------------------------------------+ 
 | Moves                                  | 
 | Protect 100.000%                       | 
 | Heat Wave 100.000%                     | 
 | Hidden Power Electric 100.000%         | 
 | Air Slash 100.000%                     | 
 | Other  0.000%                          | 
 +----------------------------------------+ 
 | Teammates                              | 
 | Voltorb +99.049%                       | 
 | Buizel +99.049%                        | 
 | Aipom +88.271%                         | 
 | Croagunk +25.931%                      | 
 | Drifloon +25.931%                      | 
 +----------------------------------------+ 
 | Checks and Counters                    | 
 +----------------------------------------+ 
