 +----------------------------------------+ 
 | Gastly                                 | 
 +----------------------------------------+ 
 | Raw count: 18                          | 
 | Avg. weight: 1.0                       | 
 | Viability Ceiling: 73                  | 
 +----------------------------------------+ 
 | Abilities                              | 
 | Levitate 100.000%                      | 
 +----------------------------------------+ 
 | Items                                  | 
 | Oran Berry 61.111%                     | 
 | Choice Specs 22.222%                   | 
 | Choice Scarf 16.667%                   | 
 +----------------------------------------+ 
 | Spreads                                | 
 | Mild:36/76/0/196/0/196 61.111%         | 
 | Modest:36/76/36/116/76/116 22.222%     | 
 | Timid:36/0/36/200/0/200 16.667%        | 
 +----------------------------------------+ 
 | Moves                                  | 
 | Sludge Bomb 100.000%                   | 
 | Explosion 77.778%                      | 
 | Hypnosis 61.111%                       | 
 | Substitute 61.111%                     | 
 | Shadow Ball 38.889%                    | 
 | Sucker Punch 22.222%                   | 
 | Will-O-Wisp 22.222%                    | 
 | Other 16.667%                          | 
 +----------------------------------------+ 
 | Teammates                              | 
 +----------------------------------------+ 
 | Checks and Counters                    | 
 +----------------------------------------+ 
 +----------------------------------------+ 
 | Houndour                               | 
 +----------------------------------------+ 
 | Raw count: 14                          | 
 | Avg. weight: 1.0                       | 
 | Viability Ceiling: 73                  | 
 +----------------------------------------+ 
 | Abilities                              | 
 | Flash Fire 100.000%                    | 
 +----------------------------------------+ 
 | Items                                  | 
 | Focus Sash 78.571%                     | 
 | Life Orb 21.429%                       | 
 +----------------------------------------+ 
 | Spreads                                | 
 | Mild:0/196/0/196/36/76 78.571%         | 
 | Lonely:0/196/0/196/36/76 21.429%       | 
 +----------------------------------------+ 
 | Moves                                  | 
 | Sucker Punch 100.000%                  | 
 | Protect 78.571%                        | 
 | Overheat 78.571%                       | 
 | Pursuit 78.571%                        | 
 | Crunch 21.429%                         | 
 | Fire Blast 21.429%                     | 
 | Substitute 21.429%                     | 
 +----------------------------------------+ 
 | Teammates                              | 
 +----------------------------------------+ 
 | Checks and Counters                    | 
 +----------------------------------------+ 
 +----------------------------------------+ 
 | Munchlax                               | 
 +----------------------------------------+ 
 | Raw count: 29                          | 
 | Avg. weight: 1.0                       | 
 | Viability Ceiling: 74                  | 
 +----------------------------------------+ 
 | Abilities                              | 
 | Thick Fat 100.000%                     | 
 +----------------------------------------+ 
 | Items                                  | 
 | Oran Berry 93.103%                     | 
 | Leftovers  6.897%                      | 
 +----------------------------------------+ 
 | Spreads                                | 
 | Careful:236/0/36/0/236/0 75.862%       | 
 | Brave:0/236/36/0/236/0 17.241%         | 
 | Impish:252/4/196/0/0/0  6.897%         | 
 +----------------------------------------+ 
 | Moves                                  | 
 | Return 93.103%                         | 
 | Fire Punch 93.103%                     | 
 | Earthquake 93.103%                     | 
 | Pursuit 93.103%                        | 
 | Curse  6.897%                          | 
 | Rest  6.897%                           | 
 | Other 13.793%                          | 
 +----------------------------------------+ 
 | Teammates                              | 
 +----------------------------------------+ 
 | Checks and Counters                    | 
 +----------------------------------------+ 
 +----------------------------------------+ 
 | Elekid                                 | 
 +----------------------------------------+ 
 | Raw count: 34                          | 
 | Avg. weight: 1.0                       | 
 | Viability Ceiling: 73                  | 
 +----------------------------------------+ 
 | Abilities                              | 
 | Static 100.000%                        | 
 +----------------------------------------+ 
 | Items                                  | 
 | Life Orb 97.059%                       | 
 | Other  2.941%                          | 
 +----------------------------------------+ 
 | Spreads                                | 
 | Jolly:0/252/0/0/0/236 100.000%         | 
 +----------------------------------------+ 
 | Moves                                  | 
 | Ice Punch 100.000%                     | 
 | Thunder Punch 97.059%                  | 
 | Cross Chop 97.059%                     | 
 | Quick Attack 97.059%                   | 
 | Other  8.824%                          | 
 +----------------------------------------+ 
 | Teammates                              | 
 +----------------------------------------+ 
 | Checks and Counters                    | 
 +----------------------------------------+ 
 +----------------------------------------+ 
 | Cranidos                               | 
 +----------------------------------------+ 
 | Raw count: 5                           | 
 | Avg. weight: 1.0                       | 
 | Viability Ceiling: 50                  | 
 +----------------------------------------+ 
 | Abilities                              | 
 | Mold Breaker 100.000%                  | 
 +----------------------------------------+ 
 | Items                                  | 
 | Life Orb 80.000%                       | 
 | Focus Sash 20.000%                     | 
 +----------------------------------------+ 
 | Spreads                                | 
 | Adamant:60/156/36/36/36/184 80.000%    | 
 | Adamant:0/236/36/0/196/0 20.000%       | 
 +----------------------------------------+ 
 | Moves                                  | 
 | Earthquake 100.000%                    | 
 | Zen Headbutt 100.000%                  | 
 | Head Smash 100.000%                    | 
 | Crunch 80.000%                         | 
 | Swords Dance 20.000%                   | 
 +----------------------------------------+ 
 | Teammates                              | 
 | Aipom +35.000%                         | 
 | Mareep +35.000%                        | 
 | Carvanha +35.000%                      | 
 | Aron +35.000%                          | 
 | Chimchar +11.667%                      | 
 | Buizel +11.667%                        | 
 | Gible +11.667%                         | 
 | Riolu +3.333%                          | 
 +----------------------------------------+ 
 | Checks and Counters                    | 
 +----------------------------------------+ 
 +----------------------------------------+ 
 | Mareep                                 | 
 +----------------------------------------+ 
 | Raw count: 4                           | 
 | Avg. weight: 1.0                       | 
 | Viability Ceiling: 50                  | 
 +----------------------------------------+ 
 | Abilities                              | 
 | Static 100.000%                        | 
 +----------------------------------------+ 
 | Items                                  | 
 | Leftovers 100.000%                     | 
 +----------------------------------------+ 
 | Spreads                                | 
 | Relaxed:76/36/116/76/156/48 100.000%   | 
 +----------------------------------------+ 
 | Moves                                  | 
 | Thunder Wave 100.000%                  | 
 | Body Slam 100.000%                     | 
 | Thunderbolt 100.000%                   | 
 | Heal Bell 100.000%                     | 
 +----------------------------------------+ 
 | Teammates                              | 
 | Carvanha +50.000%                      | 
 | Aron +50.000%                          | 
 | Aipom +50.000%                         | 
 | Cranidos +41.667%                      | 
 | Gastly +8.333%                         | 
 +----------------------------------------+ 
 | Checks and Counters                    | 
 +----------------------------------------+ 
 +----------------------------------------+ 
 | Aron                                   | 
 +----------------------------------------+ 
 | Raw count: 4                           | 
 | Avg. weight: 1.0                       | 
 | Viability Ceiling: 50                  | 
 +----------------------------------------+ 
 | Abilities                              | 
 | Sturdy 100.000%                        | 
 +----------------------------------------+ 
 | Items                                  | 
 | Sitrus Berry 100.000%                  | 
 +----------------------------------------+ 
 | Spreads                                | 
 | Impish:36/116/116/36/36/36 100.000%    | 
 +----------------------------------------+ 
 | Moves                                  | 
 | Iron Head 100.000%                     | 
 | Toxic 100.000%                         | 
 | Earthquake 100.000%                    | 
 | Superpower 100.000%                    | 
 +----------------------------------------+ 
 | Teammates                              | 
 | Mareep +50.000%                        | 
 | Carvanha +50.000%                      | 
 | Aipom +50.000%                         | 
 | Cranidos +41.667%                      | 
 | Gastly +8.333%                         | 
 +----------------------------------------+ 
 | Checks and Counters                    | 
 +----------------------------------------+ 
 +----------------------------------------+ 
 | Aipom                                  | 
 +----------------------------------------+ 
 | Raw count: 4                           | 
 | Avg. weight: 1.0                       | 
 | Viability Ceiling: 50                  | 
 +----------------------------------------+ 
 | Abilities                              | 
 | Pickup 100.000%                        | 
 +----------------------------------------+ 
 | Items                                  | 
 | Leftovers 100.000%                     | 
 +----------------------------------------+ 
 | Spreads                                | 
 | Adamant:76/116/76/36/0/156 100.000%    | 
 +----------------------------------------+ 
 | Moves                                  | 
 | U-turn 100.000%                        | 
 | Knock Off 100.000%                     | 
 | Fire Punch 100.000%                    | 
 | Fake Out 100.000%                      | 
 +----------------------------------------+ 
 | Teammates                              | 
 | Mareep +50.000%                        | 
 | Carvanha +50.000%                      | 
 | Aron +50.000%                          | 
 | Cranidos +41.667%                      | 
 | Gastly +8.333%                         | 
 +----------------------------------------+ 
 | Checks and Counters                    | 
 +----------------------------------------+ 
 +----------------------------------------+ 
 | Carvanha                               | 
 +----------------------------------------+ 
 | Raw count: 26                          | 
 | Avg. weight: 1.0                       | 
 | Viability Ceiling: 73                  | 
 +----------------------------------------+ 
 | Abilities                              | 
 | Rough Skin 100.000%                    | 
 +----------------------------------------+ 
 | Items                                  | 
 | Life Orb 84.615%                       | 
 | Focus Sash 15.385%                     | 
 +----------------------------------------+ 
 | Spreads                                | 
 | Jolly:0/196/36/0/36/236 84.615%        | 
 | Rash:0/196/36/120/0/156 15.385%        | 
 +----------------------------------------+ 
 | Moves                                  | 
 | Crunch 100.000%                        | 
 | Aqua Jet 100.000%                      | 
 | Zen Headbutt 84.615%                   | 
 | Substitute 84.615%                     | 
 | Surf 15.385%                           | 
 | Other 15.385%                          | 
 +----------------------------------------+ 
 | Teammates                              | 
 +----------------------------------------+ 
 | Checks and Counters                    | 
 +----------------------------------------+ 
 +----------------------------------------+ 
 | Snover                                 | 
 +----------------------------------------+ 
 | Raw count: 11                          | 
 | Avg. weight: 1.0                       | 
 | Viability Ceiling: 73                  | 
 +----------------------------------------+ 
 | Abilities                              | 
 | Snow Warning 100.000%                  | 
 +----------------------------------------+ 
 | Items                                  | 
 | Oran Berry 100.000%                    | 
 +----------------------------------------+ 
 | Spreads                                | 
 | Adamant:196/184/36/24/0/40 100.000%    | 
 +----------------------------------------+ 
 | Moves                                  | 
 | Ice Shard 100.000%                     | 
 | Hidden Power Fire 100.000%             | 
 | Blizzard 100.000%                      | 
 | Wood Hammer 100.000%                   | 
 +----------------------------------------+ 
 | Teammates                              | 
 | Bronzor +2.273%                        | 
 | Mankey +2.273%                         | 
 +----------------------------------------+ 
 | Checks and Counters                    | 
 +----------------------------------------+ 
 +----------------------------------------+ 
 | Mankey                                 | 
 +----------------------------------------+ 
 | Raw count: 33                          | 
 | Avg. weight: 1.0                       | 
 | Viability Ceiling: 73                  | 
 +----------------------------------------+ 
 | Abilities                              | 
 | Vital Spirit 100.000%                  | 
 +----------------------------------------+ 
 | Items                                  | 
 | Choice Scarf 100.000%                  | 
 +----------------------------------------+ 
 | Spreads                                | 
 | Jolly:36/196/76/0/0/196 66.667%        | 
 | Adamant:116/196/0/0/0/196 33.333%      | 
 +----------------------------------------+ 
 | Moves                                  | 
 | Payback 100.000%                       | 
 | U-turn 100.000%                        | 
 | Ice Punch 100.000%                     | 
 | Close Combat 100.000%                  | 
 +----------------------------------------+ 
 | Teammates                              | 
 +----------------------------------------+ 
 | Checks and Counters                    | 
 +----------------------------------------+ 
 +----------------------------------------+ 
 | Bronzor                                | 
 +----------------------------------------+ 
 | Raw count: 13                          | 
 | Avg. weight: 1.0                       | 
 | Viability Ceiling: 74                  | 
 +----------------------------------------+ 
 | Abilities                              | 
 | Levitate 100.000%                      | 
 +----------------------------------------+ 
 | Items                                  | 
 | Oran Berry 100.000%                    | 
 +----------------------------------------+ 
 | Spreads                                | 
 | Relaxed:220/8/152/4/68/12 100.000%     | 
 +----------------------------------------+ 
 | Moves                                  | 
 | Stealth Rock 100.000%                  | 
 | Psychic 100.000%                       | 
 | Earthquake 100.000%                    | 
 | Hidden Power Ice 100.000%              | 
 +----------------------------------------+ 
 | Teammates                              | 
 +----------------------------------------+ 
 | Checks and Counters                    | 
 +----------------------------------------+ 
 +----------------------------------------+ 
 | Diglett                                | 
 +----------------------------------------+ 
 | Raw count: 3                           | 
 | Avg. weight: 1.0                       | 
 | Viability Ceiling: 71                  | 
 +----------------------------------------+ 
 | Abilities                              | 
 | Arena Trap 100.000%                    | 
 +----------------------------------------+ 
 | Items                                  | 
 | Focus Sash 100.000%                    | 
 +----------------------------------------+ 
 | Spreads                                | 
 | Jolly:36/236/0/0/0/236 100.000%        | 
 +----------------------------------------+ 
 | Moves                                  | 
 | Stealth Rock 100.000%                  | 
 | Sucker Punch 100.000%                  | 
 | Earthquake 100.000%                    | 
 | Protect 100.000%                       | 
 +----------------------------------------+ 
 | Teammates                              | 
 | Totodile +50.000%                      | 
 | Eevee +50.000%                         | 
 | Munchlax +33.333%                      | 
 | Houndour +25.000%                      | 
 +----------------------------------------+ 
 | Checks and Counters                    | 
 +----------------------------------------+ 
 +----------------------------------------+ 
 | Eevee                                  | 
 +----------------------------------------+ 
 | Raw count: 3                           | 
 | Avg. weight: 1.0                       | 
 | Viability Ceiling: 71                  | 
 +----------------------------------------+ 
 | Abilities                              | 
 | Adaptability 100.000%                  | 
 +----------------------------------------+ 
 | Items                                  | 
 | Choice Band 100.000%                   | 
 +----------------------------------------+ 
 | Spreads                                | 
 | Adamant:0/236/36/0/0/236 100.000%      | 
 +----------------------------------------+ 
 | Moves                                  | 
 | Baton Pass 100.000%                    | 
 | Bite 100.000%                          | 
 | Return 100.000%                        | 
 | Quick Attack 100.000%                  | 
 +----------------------------------------+ 
 | Teammates                              | 
 | Totodile +50.000%                      | 
 | Diglett +50.000%                       | 
 | Munchlax +33.333%                      | 
 | Houndour +25.000%                      | 
 +----------------------------------------+ 
 | Checks and Counters                    | 
 +----------------------------------------+ 
 +----------------------------------------+ 
 | Shroomish                              | 
 +----------------------------------------+ 
 | Raw count: 2                           | 
 | Avg. weight: 1.0                       | 
 | Viability Ceiling: 55                  | 
 +----------------------------------------+ 
 | Abilities                              | 
 | Poison Heal 100.000%                   | 
 +----------------------------------------+ 
 | Items                                  | 
 | Toxic Orb 100.000%                     | 
 +----------------------------------------+ 
 | Spreads                                | 
 | Impish:196/0/196/0/116/0 100.000%      | 
 +----------------------------------------+ 
 | Moves                                  | 
 | Leech Seed 100.000%                    | 
 | Protect 100.000%                       | 
 | Spore 100.000%                         | 
 | Substitute 100.000%                    | 
 +----------------------------------------+ 
 | Teammates                              | 
 | Staryu +83.333%                        | 
 | Dratini +83.333%                       | 
 | Magnemite +83.333%                     | 
 | Larvitar +83.333%                      | 
 | Munchlax +66.667%                      | 
 +----------------------------------------+ 
 | Checks and Counters                    | 
 +----------------------------------------+ 
 +----------------------------------------+ 
 | Magnemite                              | 
 +----------------------------------------+ 
 | Raw count: 2                           | 
 | Avg. weight: 1.0                       | 
 | Viability Ceiling: 55                  | 
 +----------------------------------------+ 
 | Abilities                              | 
 | Magnet Pull 100.000%                   | 
 +----------------------------------------+ 
 | Items                                  | 
 | Leftovers 100.000%                     | 
 +----------------------------------------+ 
 | Spreads                                | 
 | Modest:0/0/36/252/188/0 100.000%       | 
 +----------------------------------------+ 
 | Moves                                  | 
 | Hidden Power Fire 100.000%             | 
 | Thunder Wave 100.000%                  | 
 | Thunderbolt 100.000%                   | 
 | Flash Cannon 100.000%                  | 
 +----------------------------------------+ 
 | Teammates                              | 
 | Staryu +83.333%                        | 
 | Dratini +83.333%                       | 
 | Shroomish +83.333%                     | 
 | Larvitar +83.333%                      | 
 | Munchlax +66.667%                      | 
 +----------------------------------------+ 
 | Checks and Counters                    | 
 +----------------------------------------+ 
 +----------------------------------------+ 
 | Larvitar                               | 
 +----------------------------------------+ 
 | Raw count: 2                           | 
 | Avg. weight: 1.0                       | 
 | Viability Ceiling: 55                  | 
 +----------------------------------------+ 
 | Abilities                              | 
 | Guts 100.000%                          | 
 +----------------------------------------+ 
 | Items                                  | 
 | Flame Orb 100.000%                     | 
 +----------------------------------------+ 
 | Spreads                                | 
 | Adamant:4/252/0/0/0/252 100.000%       | 
 +----------------------------------------+ 
 | Moves                                  | 
 | Crunch 100.000%                        | 
 | Rock Polish 100.000%                   | 
 | Earthquake 100.000%                    | 
 | Rock Slide 100.000%                    | 
 +----------------------------------------+ 
 | Teammates                              | 
 | Staryu +83.333%                        | 
 | Dratini +83.333%                       | 
 | Magnemite +83.333%                     | 
 | Shroomish +83.333%                     | 
 | Munchlax +66.667%                      | 
 +----------------------------------------+ 
 | Checks and Counters                    | 
 +----------------------------------------+ 
 +----------------------------------------+ 
 | Dratini                                | 
 +----------------------------------------+ 
 | Raw count: 2                           | 
 | Avg. weight: 1.0                       | 
 | Viability Ceiling: 55                  | 
 +----------------------------------------+ 
 | Abilities                              | 
 | Shed Skin 100.000%                     | 
 +----------------------------------------+ 
 | Items                                  | 
 | Life Orb 100.000%                      | 
 +----------------------------------------+ 
 | Spreads                                | 
 | Adamant:0/252/0/0/0/216 100.000%       | 
 +----------------------------------------+ 
 | Moves                                  | 
 | Outrage 100.000%                       | 
 | Dragon Dance 100.000%                  | 
 | Waterfall 100.000%                     | 
 | Extreme Speed 100.000%                 | 
 +----------------------------------------+ 
 | Teammates                              | 
 | Staryu +83.333%                        | 
 | Magnemite +83.333%                     | 
 | Shroomish +83.333%                     | 
 | Larvitar +83.333%                      | 
 | Munchlax +66.667%                      | 
 +----------------------------------------+ 
 | Checks and Counters                    | 
 +----------------------------------------+ 
 +----------------------------------------+ 
 | Totodile                               | 
 +----------------------------------------+ 
 | Raw count: 3                           | 
 | Avg. weight: 1.0                       | 
 | Viability Ceiling: 71                  | 
 +----------------------------------------+ 
 | Abilities                              | 
 | Torrent 100.000%                       | 
 +----------------------------------------+ 
 | Items                                  | 
 | Life Orb 100.000%                      | 
 +----------------------------------------+ 
 | Spreads                                | 
 | Jolly:36/236/4/0/52/172 100.000%       | 
 +----------------------------------------+ 
 | Moves                                  | 
 | Swords Dance 100.000%                  | 
 | Crunch 100.000%                        | 
 | Aqua Jet 100.000%                      | 
 | Return 100.000%                        | 
 +----------------------------------------+ 
 | Teammates                              | 
 | Diglett +50.000%                       | 
 | Eevee +50.000%                         | 
 | Munchlax +33.333%                      | 
 | Houndour +25.000%                      | 
 +----------------------------------------+ 
 | Checks and Counters                    | 
 +----------------------------------------+ 
 +----------------------------------------+ 
 | Riolu                                  | 
 +----------------------------------------+ 
 | Raw count: 2                           | 
 | Avg. weight: 1.0                       | 
 | Viability Ceiling: 55                  | 
 +----------------------------------------+ 
 | Abilities                              | 
 | Steadfast 100.000%                     | 
 +----------------------------------------+ 
 | Items                                  | 
 | Focus Sash 100.000%                    | 
 +----------------------------------------+ 
 | Spreads                                | 
 | Adamant:36/196/36/0/196/36 50.000%     | 
 | Adamant:36/196/0/0/36/196 50.000%      | 
 +----------------------------------------+ 
 | Moves                                  | 
 | Agility 50.000%                        | 
 | Bullet Punch 50.000%                   | 
 | Bulk Up 50.000%                        | 
 | Swords Dance 50.000%                   | 
 | Blaze Kick 50.000%                     | 
 | Substitute 50.000%                     | 
 | High Jump Kick 50.000%                 | 
 | Cross Chop 50.000%                     | 
 +----------------------------------------+ 
 | Teammates                              | 
 | Bagon +41.667%                         | 
 | Mantyke +41.667%                       | 
 | Chimchar +41.667%                      | 
 | Chinchou +41.667%                      | 
 | Gible +41.667%                         | 
 | Azurill +41.667%                       | 
 | Beldum +41.667%                        | 
 | Buizel +41.667%                        | 
 | Elekid +16.667%                        | 
 | Cranidos +16.667%                      | 
 +----------------------------------------+ 
 | Checks and Counters                    | 
 +----------------------------------------+ 
 +----------------------------------------+ 
 | Staryu                                 | 
 +----------------------------------------+ 
 | Raw count: 2                           | 
 | Avg. weight: 1.0                       | 
 | Viability Ceiling: 55                  | 
 +----------------------------------------+ 
 | Abilities                              | 
 | Natural Cure 100.000%                  | 
 +----------------------------------------+ 
 | Items                                  | 
 | Leftovers 100.000%                     | 
 +----------------------------------------+ 
 | Spreads                                | 
 | Hardy:0/0/0/0/0/0 100.000%             | 
 +----------------------------------------+ 
 | Moves                                  | 
 | Surf 100.000%                          | 
 | Psychic 100.000%                       | 
 | Recover 100.000%                       | 
 | Rapid Spin 100.000%                    | 
 +----------------------------------------+ 
 | Teammates                              | 
 | Dratini +83.333%                       | 
 | Magnemite +83.333%                     | 
 | Shroomish +83.333%                     | 
 | Larvitar +83.333%                      | 
 | Munchlax +66.667%                      | 
 +----------------------------------------+ 
 | Checks and Counters                    | 
 +----------------------------------------+ 
 +----------------------------------------+ 
 | Azurill                                | 
 +----------------------------------------+ 
 | Raw count: 1                           | 
 | Avg. weight: 1.0                       | 
 | Viability Ceiling: 55                  | 
 +----------------------------------------+ 
 | Abilities                              | 
 | Huge Power 100.000%                    | 
 +----------------------------------------+ 
 | Items                                  | 
 | Choice Band 100.000%                   | 
 +----------------------------------------+ 
 | Spreads                                | 
 | Adamant:0/196/116/0/196/0 100.000%     | 
 +----------------------------------------+ 
 | Moves                                  | 
 | Iron Tail 100.000%                     | 
 | Rollout 100.000%                       | 
 | Body Slam 100.000%                     | 
 | Waterfall 100.000%                     | 
 +----------------------------------------+ 
 | Teammates                              | 
 | Bagon +91.667%                         | 
 | Chinchou +91.667%                      | 
 | Mantyke +91.667%                       | 
 | Beldum +91.667%                        | 
 | Riolu +83.333%                         | 
 +----------------------------------------+ 
 | Checks and Counters                    | 
 +----------------------------------------+ 
 +----------------------------------------+ 
 | Beldum                                 | 
 +----------------------------------------+ 
 | Raw count: 1                           | 
 | Avg. weight: 1.0                       | 
 | Viability Ceiling: 55                  | 
 +----------------------------------------+ 
 | Abilities                              | 
 | Clear Body 100.000%                    | 
 +----------------------------------------+ 
 | Items                                  | 
 | Choice Band 100.000%                   | 
 +----------------------------------------+ 
 | Spreads                                | 
 | Adamant:36/236/36/0/116/84 100.000%    | 
 +----------------------------------------+ 
 | Moves                                  | 
 | Iron Head 100.000%                     | 
 | Headbutt 100.000%                      | 
 | Zen Headbutt 100.000%                  | 
 | Take Down 100.000%                     | 
 +----------------------------------------+ 
 | Teammates                              | 
 | Bagon +91.667%                         | 
 | Chinchou +91.667%                      | 
 | Mantyke +91.667%                       | 
 | Azurill +91.667%                       | 
 | Riolu +83.333%                         | 
 +----------------------------------------+ 
 | Checks and Counters                    | 
 +----------------------------------------+ 
 +----------------------------------------+ 
 | Buizel                                 | 
 +----------------------------------------+ 
 | Raw count: 1                           | 
 | Avg. weight: 1.0                       | 
 | Viability Ceiling: 45                  | 
 +----------------------------------------+ 
 | Abilities                              | 
 | Swift Swim 100.000%                    | 
 +----------------------------------------+ 
 | Items                                  | 
 | Leftovers 100.000%                     | 
 +----------------------------------------+ 
 | Spreads                                | 
 | Timid:0/0/76/0/196/236 100.000%        | 
 +----------------------------------------+ 
 | Moves                                  | 
 | Agility 100.000%                       | 
 | Baton Pass 100.000%                    | 
 | Bulk Up 100.000%                       | 
 | Substitute 100.000%                    | 
 +----------------------------------------+ 
 | Teammates                              | 
 | Gible +91.667%                         | 
 | Chimchar +91.667%                      | 
 | Riolu +83.333%                         | 
 | Cranidos +66.667%                      | 
 | Elekid +66.667%                        | 
 +----------------------------------------+ 
 | Checks and Counters                    | 
 +----------------------------------------+ 
 +----------------------------------------+ 
 | Chinchou                               | 
 +----------------------------------------+ 
 | Raw count: 1                           | 
 | Avg. weight: 1.0                       | 
 | Viability Ceiling: 55                  | 
 +----------------------------------------+ 
 | Abilities                              | 
 | Volt Absorb 100.000%                   | 
 +----------------------------------------+ 
 | Items                                  | 
 | Choice Specs 100.000%                  | 
 +----------------------------------------+ 
 | Spreads                                | 
 | Mild:0/52/0/228/228/0 100.000%         | 
 +----------------------------------------+ 
 | Moves                                  | 
 | Discharge 100.000%                     | 
 | Sucker Punch 100.000%                  | 
 | Thunderbolt 100.000%                   | 
 | Hydro Pump 100.000%                    | 
 +----------------------------------------+ 
 | Teammates                              | 
 | Bagon +91.667%                         | 
 | Mantyke +91.667%                       | 
 | Azurill +91.667%                       | 
 | Beldum +91.667%                        | 
 | Riolu +83.333%                         | 
 +----------------------------------------+ 
 | Checks and Counters                    | 
 +----------------------------------------+ 
 +----------------------------------------+ 
 | Chimchar                               | 
 +----------------------------------------+ 
 | Raw count: 1                           | 
 | Avg. weight: 1.0                       | 
 | Viability Ceiling: 45                  | 
 +----------------------------------------+ 
 | Abilities                              | 
 | Blaze 100.000%                         | 
 +----------------------------------------+ 
 | Items                                  | 
 | Black Belt 100.000%                    | 
 +----------------------------------------+ 
 | Spreads                                | 
 | Adamant:4/212/4/0/244/28 100.000%      | 
 +----------------------------------------+ 
 | Moves                                  | 
 | Brick Break 100.000%                   | 
 | Flame Wheel 100.000%                   | 
 | Bulk Up 100.000%                       | 
 | Encore 100.000%                        | 
 +----------------------------------------+ 
 | Teammates                              | 
 | Gible +91.667%                         | 
 | Buizel +91.667%                        | 
 | Riolu +83.333%                         | 
 | Cranidos +66.667%                      | 
 | Elekid +66.667%                        | 
 +----------------------------------------+ 
 | Checks and Counters                    | 
 +----------------------------------------+ 
 +----------------------------------------+ 
 | Bagon                                  | 
 +----------------------------------------+ 
 | Raw count: 1                           | 
 | Avg. weight: 1.0                       | 
 | Viability Ceiling: 55                  | 
 +----------------------------------------+ 
 | Abilities                              | 
 | Rock Head 100.000%                     | 
 +----------------------------------------+ 
 | Items                                  | 
 | Focus Sash 100.000%                    | 
 +----------------------------------------+ 
 | Spreads                                | 
 | Naughty:0/236/0/36/0/196 100.000%      | 
 +----------------------------------------+ 
 | Moves                                  | 
 | Outrage 100.000%                       | 
 | Dragon Dance 100.000%                  | 
 | Fire Fang 100.000%                     | 
 | Rock Slide 100.000%                    | 
 +----------------------------------------+ 
 | Teammates                              | 
 | Chinchou +91.667%                      | 
 | Mantyke +91.667%                       | 
 | Azurill +91.667%                       | 
 | Beldum +91.667%                        | 
 | Riolu +83.333%                         | 
 +----------------------------------------+ 
 | Checks and Counters                    | 
 +----------------------------------------+ 
 +----------------------------------------+ 
 | Mantyke                                | 
 +----------------------------------------+ 
 | Raw count: 1                           | 
 | Avg. weight: 1.0                       | 
 | Viability Ceiling: 55                  | 
 +----------------------------------------+ 
 | Abilities                              | 
 | Water Absorb 100.000%                  | 
 +----------------------------------------+ 
 | Items                                  | 
 | Choice Specs 100.000%                  | 
 +----------------------------------------+ 
 | Spreads                                | 
 | Modest:0/0/40/200/200/36 100.000%      | 
 +----------------------------------------+ 
 | Moves                                  | 
 | Surf 100.000%                          | 
 | Hydro Pump 100.000%                    | 
 | Hidden Power Flying 100.000%           | 
 | Ice Beam 100.000%                      | 
 +----------------------------------------+ 
 | Teammates                              | 
 | Bagon +91.667%                         | 
 | Chinchou +91.667%                      | 
 | Azurill +91.667%                       | 
 | Beldum +91.667%                        | 
 | Riolu +83.333%                         | 
 +----------------------------------------+ 
 | Checks and Counters                    | 
 +----------------------------------------+ 
 +----------------------------------------+ 
 | Gible                                  | 
 +----------------------------------------+ 
 | Raw count: 1                           | 
 | Avg. weight: 1.0                       | 
 | Viability Ceiling: 45                  | 
 +----------------------------------------+ 
 | Abilities                              | 
 | Sand Veil 100.000%                     | 
 +----------------------------------------+ 
 | Items                                  | 
 | Dragon Fang 100.000%                   | 
 +----------------------------------------+ 
 | Spreads                                | 
 | Careful:0/36/0/0/236/0 100.000%        | 
 +----------------------------------------+ 
 | Moves                                  | 
 | Sandstorm 100.000%                     | 
 | Dragon Claw 100.000%                   | 
 | Earthquake 100.000%                    | 
 | Substitute 100.000%                    | 
 +----------------------------------------+ 
 | Teammates                              | 
 | Buizel +91.667%                        | 
 | Chimchar +91.667%                      | 
 | Riolu +83.333%                         | 
 | Cranidos +66.667%                      | 
 | Elekid +66.667%                        | 
 +----------------------------------------+ 
 | Checks and Counters                    | 
 +----------------------------------------+ 
