 +----------------------------------------+ 
 | Swellow                                | 
 +----------------------------------------+ 
 | Raw count: 13                          | 
 | Avg. weight: 1.0                       | 
 | Viability Ceiling: 72                  | 
 +----------------------------------------+ 
 | Abilities                              | 
 | Guts 100.000%                          | 
 +----------------------------------------+ 
 | Items                                  | 
 | Flame Orb 61.538%                      | 
 | Toxic Orb 30.769%                      | 
 | Leftovers  7.692%                      | 
 +----------------------------------------+ 
 | Spreads                                | 
 | Careful:0/252/152/0/60/44 61.538%      | 
 | Jolly:0/252/4/0/0/252 23.077%          | 
 | Hardy:160/196/152/0/0/0  7.692%        | 
 | Jolly:4/252/0/0/0/252  7.692%          | 
 +----------------------------------------+ 
 | Moves                                  | 
 | Brave Bird 100.000%                    | 
 | Facade 92.308%                         | 
 | Roost 61.538%                          | 
 | Pursuit 61.538%                        | 
 | U-turn 23.077%                         | 
 | Protect 23.077%                        | 
 | Quick Attack 23.077%                   | 
 | Other 15.385%                          | 
 +----------------------------------------+ 
 | Teammates                              | 
 | Rotom +4.274%                          | 
 | Dugtrio +4.274%                        | 
 | Omastar +4.274%                        | 
 | Lanturn +2.137%                        | 
 | Azumarill +2.137%                      | 
 | Mesprit +2.137%                        | 
 | Typhlosion +2.137%                     | 
 | Leafeon +2.137%                        | 
 | Aggron +2.137%                         | 
 | Houndoom +0.855%                       | 
 +----------------------------------------+ 
 | Checks and Counters                    | 
 +----------------------------------------+ 
 +----------------------------------------+ 
 | Steelix                                | 
 +----------------------------------------+ 
 | Raw count: 6                           | 
 | Avg. weight: 1.0                       | 
 | Viability Ceiling: 56                  | 
 +----------------------------------------+ 
 | Abilities                              | 
 | Sturdy 66.667%                         | 
 | Rock Head 33.333%                      | 
 +----------------------------------------+ 
 | Items                                  | 
 | Leftovers 50.000%                      | 
 | Sitrus Berry 16.667%                   | 
 | Lum Berry 16.667%                      | 
 | Macho Brace 16.667%                    | 
 +----------------------------------------+ 
 | Spreads                                | 
 | Relaxed:252/4/252/0/0/0 33.333%        | 
 | Adamant:252/252/0/0/4/0 16.667%        | 
 | Sassy:252/4/0/0/252/0 16.667%          | 
 | Lonely:0/0/0/0/0/0 16.667%             | 
 | Relaxed:252/4/0/0/252/0 16.667%        | 
 +----------------------------------------+ 
 | Moves                                  | 
 | Stealth Rock 83.333%                   | 
 | Earthquake 83.333%                     | 
 | Gyro Ball 66.667%                      | 
 | Taunt 33.333%                          | 
 | Crunch 16.667%                         | 
 | Curse 16.667%                          | 
 | Explosion 16.667%                      | 
 | Double-Edge 16.667%                    | 
 | Roar 16.667%                           | 
 | Rest 16.667%                           | 
 | Toxic 16.667%                          | 
 | Other 16.667%                          | 
 +----------------------------------------+ 
 | Teammates                              | 
 | Mismagius +33.333%                     | 
 | Ambipom +22.222%                       | 
 | Venusaur +22.222%                      | 
 | Blaziken +11.111%                      | 
 | Arbok +11.111%                         | 
 | Drifblim +11.111%                      | 
 | Clefable +11.111%                      | 
 | Ludicolo +11.111%                      | 
 | Primeape +11.111%                      | 
 | Sceptile +11.111%                      | 
 | Espeon +11.111%                        | 
 | Feraligatr +11.111%                    | 
 +----------------------------------------+ 
 | Checks and Counters                    | 
 +----------------------------------------+ 
 +----------------------------------------+ 
 | Toxicroak                              | 
 +----------------------------------------+ 
 | Raw count: 4                           | 
 | Avg. weight: 1.0                       | 
 | Viability Ceiling: 57                  | 
 +----------------------------------------+ 
 | Abilities                              | 
 | Dry Skin 75.000%                       | 
 | Anticipation 25.000%                   | 
 +----------------------------------------+ 
 | Items                                  | 
 | Life Orb 75.000%                       | 
 | Choice Scarf 25.000%                   | 
 +----------------------------------------+ 
 | Spreads                                | 
 | Timid:4/0/0/252/0/252 50.000%          | 
 | Jolly:0/252/0/0/4/252 25.000%          | 
 | Jolly:4/252/0/0/0/252 25.000%          | 
 +----------------------------------------+ 
 | Moves                                  | 
 | Sludge Bomb 50.000%                    | 
 | Dark Pulse 50.000%                     | 
 | Nasty Plot 50.000%                     | 
 | Vacuum Wave 50.000%                    | 
 | Gunk Shot 25.000%                      | 
 | Brick Break 25.000%                    | 
 | Ice Punch 25.000%                      | 
 | Poison Jab 25.000%                     | 
 | Sucker Punch 25.000%                   | 
 | Cross Chop 25.000%                     | 
 | X-Scissor 25.000%                      | 
 | Earthquake 25.000%                     | 
 +----------------------------------------+ 
 | Teammates                              | 
 | Omastar +38.889%                       | 
 | Rotom +38.889%                         | 
 | Exeggutor +33.333%                     | 
 | Houndoom +27.778%                      | 
 | Ludicolo +19.444%                      | 
 | Crawdaunt +19.444%                     | 
 | Magmortar +19.444%                     | 
 | Arbok +19.444%                         | 
 | Swellow +16.667%                       | 
 | Hariyama +13.889%                      | 
 | Charizard +13.889%                     | 
 | Absol +13.889%                         | 
 +----------------------------------------+ 
 | Checks and Counters                    | 
 +----------------------------------------+ 
 +----------------------------------------+ 
 | Blaziken                               | 
 +----------------------------------------+ 
 | Raw count: 4                           | 
 | Avg. weight: 1.0                       | 
 | Viability Ceiling: 55                  | 
 +----------------------------------------+ 
 | Abilities                              | 
 | Blaze 100.000%                         | 
 +----------------------------------------+ 
 | Items                                  | 
 | Leftovers 25.000%                      | 
 | Life Orb 25.000%                       | 
 | Choice Scarf 25.000%                   | 
 | Choice Band 25.000%                    | 
 +----------------------------------------+ 
 | Spreads                                | 
 | Adamant:252/0/4/0/0/252 25.000%        | 
 | Impish:0/0/0/0/0/0 25.000%             | 
 | Adamant:132/124/0/0/0/252 25.000%      | 
 | Hardy:100/252/100/56/0/0 25.000%       | 
 +----------------------------------------+ 
 | Moves                                  | 
 | Flare Blitz 50.000%                    | 
 | Fire Blast 50.000%                     | 
 | Flamethrower 50.000%                   | 
 | Heat Wave 25.000%                      | 
 | Brick Break 25.000%                    | 
 | Earthquake 25.000%                     | 
 | Swords Dance 25.000%                   | 
 | Low Kick 25.000%                       | 
 | Body Slam 25.000%                      | 
 | Fire Punch 25.000%                     | 
 | Double-Edge 25.000%                    | 
 | Facade 25.000%                         | 
 | Stone Edge 25.000%                     | 
 +----------------------------------------+ 
 | Teammates                              | 
 | Flareon +38.889%                       | 
 | Entei +38.889%                         | 
 | Moltres +33.333%                       | 
 | Kangaskhan +33.333%                    | 
 | Typhlosion +19.444%                    | 
 | Espeon +19.444%                        | 
 | Feraligatr +19.444%                    | 
 | Steelix +16.667%                       | 
 | Altaria +13.889%                       | 
 | Hariyama +13.889%                      | 
 | Absol +13.889%                         | 
 | Chansey +8.333%                        | 
 +----------------------------------------+ 
 | Checks and Counters                    | 
 +----------------------------------------+ 
 +----------------------------------------+ 
 | Houndoom                               | 
 +----------------------------------------+ 
 | Raw count: 11                          | 
 | Avg. weight: 1.0                       | 
 | Viability Ceiling: 72                  | 
 +----------------------------------------+ 
 | Abilities                              | 
 | Flash Fire 100.000%                    | 
 +----------------------------------------+ 
 | Items                                  | 
 | Life Orb 72.727%                       | 
 | Passho Berry 18.182%                   | 
 | Charcoal  9.091%                       | 
 +----------------------------------------+ 
 | Spreads                                | 
 | Bold:0/0/160/152/196/0 72.727%         | 
 | Timid:0/0/0/252/4/252 18.182%          | 
 | Hardy:0/252/252/0/0/4  9.091%          | 
 +----------------------------------------+ 
 | Moves                                  | 
 | Dark Pulse 100.000%                    | 
 | Fire Blast 100.000%                    | 
 | Nasty Plot 90.909%                     | 
 | Hidden Power Grass 90.909%             | 
 | Other 18.182%                          | 
 +----------------------------------------+ 
 | Teammates                              | 
 | Omastar +7.071%                        | 
 | Rotom +7.071%                          | 
 | Gardevoir +3.535%                      | 
 | Regigigas +3.535%                      | 
 | Lanturn +3.535%                        | 
 | Lapras +3.535%                         | 
 | Luxray +3.535%                         | 
 | Exeggutor +1.515%                      | 
 +----------------------------------------+ 
 | Checks and Counters                    | 
 +----------------------------------------+ 
 +----------------------------------------+ 
 | Moltres                                | 
 +----------------------------------------+ 
 | Raw count: 3                           | 
 | Avg. weight: 1.0                       | 
 | Viability Ceiling: 50                  | 
 +----------------------------------------+ 
 | Abilities                              | 
 | Pressure 100.000%                      | 
 +----------------------------------------+ 
 | Items                                  | 
 | Heat Rock 33.333%                      | 
 | Choice Scarf 33.333%                   | 
 | Choice Band 33.333%                    | 
 +----------------------------------------+ 
 | Spreads                                | 
 | Adamant:4/252/0/0/0/252 33.333%        | 
 | Modest:4/0/0/252/0/252 33.333%         | 
 | Modest:0/0/4/252/0/252 33.333%         | 
 +----------------------------------------+ 
 | Moves                                  | 
 | Flamethrower 66.667%                   | 
 | U-turn 33.333%                         | 
 | Overheat 33.333%                       | 
 | Sunny Day 33.333%                      | 
 | Sky Attack 33.333%                     | 
 | Solar Beam 33.333%                     | 
 | Double-Edge 33.333%                    | 
 | Air Slash 33.333%                      | 
 | Facade 33.333%                         | 
 | Fire Blast 33.333%                     | 
 | Extrasensory 33.333%                   | 
 +----------------------------------------+ 
 | Teammates                              | 
 | Kangaskhan +83.333%                    | 
 | Blaziken +44.444%                      | 
 | Delibird +27.778%                      | 
 | Miltank +27.778%                       | 
 | Altaria +22.222%                       | 
 | Hariyama +22.222%                      | 
 | Flareon +22.222%                       | 
 | Entei +22.222%                         | 
 | Shedinja +22.222%                      | 
 | Absol +22.222%                         | 
 | Blastoise +16.667%                     | 
 +----------------------------------------+ 
 | Checks and Counters                    | 
 +----------------------------------------+ 
 +----------------------------------------+ 
 | Kangaskhan                             | 
 +----------------------------------------+ 
 | Raw count: 3                           | 
 | Avg. weight: 1.0                       | 
 | Viability Ceiling: 50                  | 
 +----------------------------------------+ 
 | Abilities                              | 
 | Scrappy 100.000%                       | 
 +----------------------------------------+ 
 | Items                                  | 
 | Choice Band 100.000%                   | 
 +----------------------------------------+ 
 | Spreads                                | 
 | Adamant:4/252/0/0/0/252 66.667%        | 
 | Adamant:0/252/0/0/4/252 33.333%        | 
 +----------------------------------------+ 
 | Moves                                  | 
 | Double-Edge 100.000%                   | 
 | Sucker Punch 66.667%                   | 
 | Crunch 33.333%                         | 
 | Brick Break 33.333%                    | 
 | Drain Punch 33.333%                    | 
 | Low Kick 33.333%                       | 
 | Fake Out 33.333%                       | 
 | Endeavor 33.333%                       | 
 | Earthquake 33.333%                     | 
 +----------------------------------------+ 
 | Teammates                              | 
 | Moltres +83.333%                       | 
 | Blaziken +44.444%                      | 
 | Miltank +27.778%                       | 
 | Delibird +27.778%                      | 
 | Altaria +22.222%                       | 
 | Hariyama +22.222%                      | 
 | Flareon +22.222%                       | 
 | Entei +22.222%                         | 
 | Shedinja +22.222%                      | 
 | Absol +22.222%                         | 
 | Blastoise +16.667%                     | 
 +----------------------------------------+ 
 | Checks and Counters                    | 
 +----------------------------------------+ 
 +----------------------------------------+ 
 | Chansey                                | 
 +----------------------------------------+ 
 | Raw count: 3                           | 
 | Avg. weight: 1.0                       | 
 | Viability Ceiling: 46                  | 
 +----------------------------------------+ 
 | Abilities                              | 
 | Natural Cure 100.000%                  | 
 +----------------------------------------+ 
 | Items                                  | 
 | Leftovers 66.667%                      | 
 | Nothing 33.333%                        | 
 +----------------------------------------+ 
 | Spreads                                | 
 | Bold:252/0/252/0/0/4 33.333%           | 
 | Naughty:0/252/252/0/0/0 33.333%        | 
 | Hardy:0/0/0/0/0/0 33.333%              | 
 +----------------------------------------+ 
 | Moves                                  | 
 | Soft-Boiled 100.000%                   | 
 | Counter 33.333%                        | 
 | Thunderbolt 33.333%                    | 
 | Ice Punch 33.333%                      | 
 | Drain Punch 33.333%                    | 
 | Fire Punch 33.333%                     | 
 | Ice Beam 33.333%                       | 
 | Toxic 33.333%                          | 
 | Seismic Toss 33.333%                   | 
 | Heal Bell 33.333%                      | 
 +----------------------------------------+ 
 | Teammates                              | 
 | Alakazam +50.000%                      | 
 | Golem +27.778%                         | 
 | Slowbro +27.778%                       | 
 | Donphan +27.778%                       | 
 | Feraligatr +27.778%                    | 
 | Espeon +27.778%                        | 
 | Kabutops +22.222%                      | 
 | Charizard +22.222%                     | 
 | Cloyster +22.222%                      | 
 | Arcanine +22.222%                      | 
 | Exeggutor +16.667%                     | 
 | Mismagius +16.667%                     | 
 +----------------------------------------+ 
 | Checks and Counters                    | 
 +----------------------------------------+ 
 +----------------------------------------+ 
 | Exeggutor                              | 
 +----------------------------------------+ 
 | Raw count: 3                           | 
 | Avg. weight: 1.0                       | 
 | Viability Ceiling: 57                  | 
 +----------------------------------------+ 
 | Abilities                              | 
 | Chlorophyll 100.000%                   | 
 +----------------------------------------+ 
 | Items                                  | 
 | Life Orb 66.667%                       | 
 | Nothing 33.333%                        | 
 +----------------------------------------+ 
 | Spreads                                | 
 | Rash:0/4/0/252/0/252 66.667%           | 
 | Hardy:0/0/0/0/0/0 33.333%              | 
 +----------------------------------------+ 
 | Moves                                  | 
 | Psychic 100.000%                       | 
 | Explosion 66.667%                      | 
 | Sunny Day 66.667%                      | 
 | Solar Beam 66.667%                     | 
 | Leech Seed 33.333%                     | 
 | Sleep Powder 33.333%                   | 
 | Barrage 33.333%                        | 
 +----------------------------------------+ 
 | Teammates                              | 
 | Omastar +55.556%                       | 
 | Rotom +55.556%                         | 
 | Toxicroak +44.444%                     | 
 | Houndoom +44.444%                      | 
 | Swellow +33.333%                       | 
 | Golem +27.778%                         | 
 | Slowbro +27.778%                       | 
 | Charizard +22.222%                     | 
 | Chansey +16.667%                       | 
 | Alakazam +16.667%                      | 
 +----------------------------------------+ 
 | Checks and Counters                    | 
 +----------------------------------------+ 
 +----------------------------------------+ 
 | Mismagius                              | 
 +----------------------------------------+ 
 | Raw count: 3                           | 
 | Avg. weight: 1.0                       | 
 | Viability Ceiling: 55                  | 
 +----------------------------------------+ 
 | Abilities                              | 
 | Levitate 100.000%                      | 
 +----------------------------------------+ 
 | Items                                  | 
 | Focus Sash 33.333%                     | 
 | Leftovers 33.333%                      | 
 | Choice Scarf 33.333%                   | 
 +----------------------------------------+ 
 | Spreads                                | 
 | Timid:0/0/0/252/4/252 66.667%          | 
 | Hardy:0/0/0/0/0/0 33.333%              | 
 +----------------------------------------+ 
 | Moves                                  | 
 | Shadow Ball 100.000%                   | 
 | Thunderbolt 66.667%                    | 
 | Psychic 66.667%                        | 
 | Hidden Power Dragon 33.333%            | 
 | Calm Mind 33.333%                      | 
 | Destiny Bond 33.333%                   | 
 | Perish Song 33.333%                    | 
 | Substitute 33.333%                     | 
 +----------------------------------------+ 
 | Teammates                              | 
 | Steelix +66.667%                       | 
 | Venusaur +55.556%                      | 
 | Sceptile +27.778%                      | 
 | Aggron +27.778%                        | 
 | Espeon +27.778%                        | 
 | Feraligatr +27.778%                    | 
 | Azumarill +27.778%                     | 
 | Cloyster +22.222%                      | 
 | Chansey +16.667%                       | 
 | Blastoise +16.667%                     | 
 | Blaziken +11.111%                      | 
 +----------------------------------------+ 
 | Checks and Counters                    | 
 +----------------------------------------+ 
 +----------------------------------------+ 
 | Alakazam                               | 
 +----------------------------------------+ 
 | Raw count: 10                          | 
 | Avg. weight: 1.0                       | 
 | Viability Ceiling: 72                  | 
 +----------------------------------------+ 
 | Abilities                              | 
 | Synchronize 100.000%                   | 
 +----------------------------------------+ 
 | Items                                  | 
 | Life Orb 80.000%                       | 
 | Nothing 10.000%                        | 
 | Choice Specs 10.000%                   | 
 +----------------------------------------+ 
 | Spreads                                | 
 | Bold:0/0/164/216/128/0 80.000%         | 
 | Timid:0/0/0/252/4/252 10.000%          | 
 | Hardy:0/0/0/0/0/0 10.000%              | 
 +----------------------------------------+ 
 | Moves                                  | 
 | Psychic 100.000%                       | 
 | Calm Mind 80.000%                      | 
 | Shadow Ball 80.000%                    | 
 | Energy Ball 80.000%                    | 
 | Recover 20.000%                        | 
 | Seismic Toss 10.000%                   | 
 | Signal Beam 10.000%                    | 
 | Other 20.000%                          | 
 +----------------------------------------+ 
 | Teammates                              | 
 | Golem +4.444%                          | 
 | Slowbro +4.444%                        | 
 | Lanturn +4.444%                        | 
 | Donphan +4.444%                        | 
 | Chansey +3.333%                        | 
 +----------------------------------------+ 
 | Checks and Counters                    | 
 +----------------------------------------+ 
 +----------------------------------------+ 
 | Blastoise                              | 
 +----------------------------------------+ 
 | Raw count: 3                           | 
 | Avg. weight: 1.0                       | 
 | Viability Ceiling: 55                  | 
 +----------------------------------------+ 
 | Abilities                              | 
 | Torrent 100.000%                       | 
 +----------------------------------------+ 
 | Items                                  | 
 | Leftovers 66.667%                      | 
 | Sitrus Berry 33.333%                   | 
 +----------------------------------------+ 
 | Spreads                                | 
 | Sassy:252/4/0/0/252/0 33.333%          | 
 | Adamant:252/4/0/0/4/0 33.333%          | 
 | Hardy:104/252/92/60/0/0 33.333%        | 
 +----------------------------------------+ 
 | Moves                                  | 
 | Protect 66.667%                        | 
 | Aqua Tail 33.333%                      | 
 | Yawn 33.333%                           | 
 | Avalanche 33.333%                      | 
 | Waterfall 33.333%                      | 
 | Gyro Ball 33.333%                      | 
 | Ice Beam 33.333%                       | 
 | Hydro Pump 33.333%                     | 
 | Water Spout 33.333%                    | 
 | Earthquake 33.333%                     | 
 | Zen Headbutt 33.333%                   | 
 +----------------------------------------+ 
 | Teammates                              | 
 | Typhlosion +27.778%                    | 
 | Sceptile +27.778%                      | 
 | Miltank +27.778%                       | 
 | Delibird +27.778%                      | 
 | Flareon +22.222%                       | 
 | Cloyster +22.222%                      | 
 | Entei +22.222%                         | 
 | Shedinja +22.222%                      | 
 | Venusaur +22.222%                      | 
 | Moltres +16.667%                       | 
 | Kangaskhan +16.667%                    | 
 | Mismagius +16.667%                     | 
 +----------------------------------------+ 
 | Checks and Counters                    | 
 +----------------------------------------+ 
 +----------------------------------------+ 
 | Flareon                                | 
 +----------------------------------------+ 
 | Raw count: 2                           | 
 | Avg. weight: 1.0                       | 
 | Viability Ceiling: 55                  | 
 +----------------------------------------+ 
 | Abilities                              | 
 | Flash Fire 100.000%                    | 
 +----------------------------------------+ 
 | Items                                  | 
 | Leftovers 50.000%                      | 
 | Choice Scarf 50.000%                   | 
 +----------------------------------------+ 
 | Spreads                                | 
 | Hardy:252/136/120/0/0/0 50.000%        | 
 | Hasty:0/252/12/0/0/244 50.000%         | 
 +----------------------------------------+ 
 | Moves                                  | 
 | Fire Blast 100.000%                    | 
 | Fire Fang 50.000%                      | 
 | Return 50.000%                         | 
 | Flamethrower 50.000%                   | 
 | Hidden Power Grass 50.000%             | 
 | Overheat 50.000%                       | 
 | Superpower 50.000%                     | 
 +----------------------------------------+ 
 | Teammates                              | 
 | Blaziken +77.778%                      | 
 | Typhlosion +44.444%                    | 
 | Altaria +38.889%                       | 
 | Entei +38.889%                         | 
 | Moltres +33.333%                       | 
 | Kangaskhan +33.333%                    | 
 | Blastoise +33.333%                     | 
 | Steelix +16.667%                       | 
 | Swellow +16.667%                       | 
 +----------------------------------------+ 
 | Checks and Counters                    | 
 +----------------------------------------+ 
 +----------------------------------------+ 
 | Cloyster                               | 
 +----------------------------------------+ 
 | Raw count: 2                           | 
 | Avg. weight: 1.0                       | 
 | Viability Ceiling: 45                  | 
 +----------------------------------------+ 
 | Abilities                              | 
 | Skill Link 100.000%                    | 
 +----------------------------------------+ 
 | Items                                  | 
 | Nothing 50.000%                        | 
 | Choice Scarf 50.000%                   | 
 +----------------------------------------+ 
 | Spreads                                | 
 | Naive:0/252/0/4/0/252 50.000%          | 
 | Lax:252/4/0/0/4/0 50.000%              | 
 +----------------------------------------+ 
 | Moves                                  | 
 | Icicle Spear 100.000%                  | 
 | Surf 50.000%                           | 
 | Protect 50.000%                        | 
 | Spikes 50.000%                         | 
 | Toxic Spikes 50.000%                   | 
 | Rock Blast 50.000%                     | 
 | Rapid Spin 50.000%                     | 
 +----------------------------------------+ 
 | Teammates                              | 
 | Sceptile +44.444%                      | 
 | Donphan +44.444%                       | 
 | Kabutops +38.889%                      | 
 | Arcanine +38.889%                      | 
 | Venusaur +38.889%                      | 
 | Chansey +33.333%                       | 
 | Alakazam +33.333%                      | 
 | Mismagius +33.333%                     | 
 | Blastoise +33.333%                     | 
 | Steelix +16.667%                       | 
 +----------------------------------------+ 
 | Checks and Counters                    | 
 +----------------------------------------+ 
 +----------------------------------------+ 
 | Ambipom                                | 
 +----------------------------------------+ 
 | Raw count: 2                           | 
 | Avg. weight: 1.0                       | 
 | Viability Ceiling: 56                  | 
 +----------------------------------------+ 
 | Abilities                              | 
 | Technician 100.000%                    | 
 +----------------------------------------+ 
 | Items                                  | 
 | Choice Band 100.000%                   | 
 +----------------------------------------+ 
 | Spreads                                | 
 | Adamant:4/252/0/0/0/252 100.000%       | 
 +----------------------------------------+ 
 | Moves                                  | 
 | Double Slap 100.000%                   | 
 | Swift 100.000%                         | 
 | Aerial Ace 100.000%                    | 
 | Fake Out 100.000%                      | 
 +----------------------------------------+ 
 | Teammates                              | 
 | Steelix +66.667%                       | 
 | Primeape +44.444%                      | 
 | Ludicolo +44.444%                      | 
 | Drifblim +44.444%                      | 
 | Clefable +44.444%                      | 
 | Arbok +44.444%                         | 
 | Articuno +44.444%                      | 
 | Charizard +38.889%                     | 
 | Toxicroak +27.778%                     | 
 +----------------------------------------+ 
 | Checks and Counters                    | 
 +----------------------------------------+ 
 +----------------------------------------+ 
 | Rotom                                  | 
 +----------------------------------------+ 
 | Raw count: 3                           | 
 | Avg. weight: 1.0                       | 
 | Viability Ceiling: 57                  | 
 +----------------------------------------+ 
 | Abilities                              | 
 | Levitate 100.000%                      | 
 +----------------------------------------+ 
 | Items                                  | 
 | Choice Scarf 66.667%                   | 
 | Leftovers 33.333%                      | 
 +----------------------------------------+ 
 | Spreads                                | 
 | Timid:4/0/0/252/0/252 66.667%          | 
 | Timid:252/0/4/0/0/252 33.333%          | 
 +----------------------------------------+ 
 | Moves                                  | 
 | Thunderbolt 100.000%                   | 
 | Shadow Ball 100.000%                   | 
 | Hidden Power Ice 66.667%               | 
 | Trick 66.667%                          | 
 | Will-O-Wisp 33.333%                    | 
 | Substitute 33.333%                     | 
 +----------------------------------------+ 
 | Teammates                              | 
 | Omastar +55.556%                       | 
 | Exeggutor +50.000%                     | 
 | Toxicroak +44.444%                     | 
 | Houndoom +44.444%                      | 
 | Swellow +33.333%                       | 
 +----------------------------------------+ 
 | Checks and Counters                    | 
 +----------------------------------------+ 
 +----------------------------------------+ 
 | Hariyama                               | 
 +----------------------------------------+ 
 | Raw count: 2                           | 
 | Avg. weight: 1.0                       | 
 | Viability Ceiling: 55                  | 
 +----------------------------------------+ 
 | Abilities                              | 
 | Guts 50.000%                           | 
 | Thick Fat 50.000%                      | 
 +----------------------------------------+ 
 | Items                                  | 
 | Choice Scarf 50.000%                   | 
 | Toxic Orb 50.000%                      | 
 +----------------------------------------+ 
 | Spreads                                | 
 | Adamant:252/252/0/0/4/0 50.000%        | 
 | Adamant:0/252/4/0/0/252 50.000%        | 
 +----------------------------------------+ 
 | Moves                                  | 
 | Bullet Punch 50.000%                   | 
 | Fake Out 50.000%                       | 
 | Bulk Up 50.000%                        | 
 | Close Combat 50.000%                   | 
 | Frustration 50.000%                    | 
 | Fire Punch 50.000%                     | 
 | Double-Edge 50.000%                    | 
 | Facade 50.000%                         | 
 +----------------------------------------+ 
 | Teammates                              | 
 | Absol +88.889%                         | 
 | Crawdaunt +44.444%                     | 
 | Magmortar +44.444%                     | 
 | Entei +38.889%                         | 
 | Torterra +38.889%                      | 
 | Moltres +33.333%                       | 
 | Kangaskhan +33.333%                    | 
 | Toxicroak +27.778%                     | 
 | Blaziken +27.778%                      | 
 +----------------------------------------+ 
 | Checks and Counters                    | 
 +----------------------------------------+ 
 +----------------------------------------+ 
 | Charizard                              | 
 +----------------------------------------+ 
 | Raw count: 2                           | 
 | Avg. weight: 1.0                       | 
 | Viability Ceiling: 46                  | 
 +----------------------------------------+ 
 | Abilities                              | 
 | Blaze 100.000%                         | 
 +----------------------------------------+ 
 | Items                                  | 
 | Nothing 50.000%                        | 
 | Choice Specs 50.000%                   | 
 +----------------------------------------+ 
 | Spreads                                | 
 | Modest:4/0/0/252/0/252 50.000%         | 
 | Hardy:0/0/0/0/0/0 50.000%              | 
 +----------------------------------------+ 
 | Moves                                  | 
 | Fire Blast 100.000%                    | 
 | Dragon Pulse 50.000%                   | 
 | Hyper Beam 50.000%                     | 
 | Slash 50.000%                          | 
 | Air Slash 50.000%                      | 
 | Earthquake 50.000%                     | 
 | Flamethrower 50.000%                   | 
 +----------------------------------------+ 
 | Teammates                              | 
 | Golem +44.444%                         | 
 | Ludicolo +44.444%                      | 
 | Slowbro +44.444%                       | 
 | Arbok +44.444%                         | 
 | Ambipom +38.889%                       | 
 | Chansey +33.333%                       | 
 | Exeggutor +33.333%                     | 
 | Alakazam +33.333%                      | 
 | Toxicroak +27.778%                     | 
 | Steelix +16.667%                       | 
 +----------------------------------------+ 
 | Checks and Counters                    | 
 +----------------------------------------+ 
 +----------------------------------------+ 
 | Absol                                  | 
 +----------------------------------------+ 
 | Raw count: 3                           | 
 | Avg. weight: 1.0                       | 
 | Viability Ceiling: 55                  | 
 +----------------------------------------+ 
 | Abilities                              | 
 | Super Luck 100.000%                    | 
 +----------------------------------------+ 
 | Items                                  | 
 | Scope Lens 33.333%                     | 
 | Choice Scarf 33.333%                   | 
 | Sitrus Berry 33.333%                   | 
 +----------------------------------------+ 
 | Spreads                                | 
 | Jolly:0/252/0/0/4/252 66.667%          | 
 | Adamant:4/252/0/0/0/252 33.333%        | 
 +----------------------------------------+ 
 | Moves                                  | 
 | Night Slash 66.667%                    | 
 | Stone Edge 66.667%                     | 
 | Zen Headbutt 33.333%                   | 
 | Dark Pulse 33.333%                     | 
 | Psycho Cut 33.333%                     | 
 | Swords Dance 33.333%                   | 
 | Sucker Punch 33.333%                   | 
 | Knock Off 33.333%                      | 
 | Double-Edge 33.333%                    | 
 | Facade 33.333%                         | 
 +----------------------------------------+ 
 | Teammates                              | 
 | Hariyama +55.556%                      | 
 | Crawdaunt +27.778%                     | 
 | Magmortar +27.778%                     | 
 | Entei +22.222%                         | 
 | Torterra +22.222%                      | 
 | Moltres +16.667%                       | 
 | Kangaskhan +16.667%                    | 
 | Toxicroak +11.111%                     | 
 | Blaziken +11.111%                      | 
 +----------------------------------------+ 
 | Checks and Counters                    | 
 +----------------------------------------+ 
 +----------------------------------------+ 
 | Torterra                               | 
 +----------------------------------------+ 
 | Raw count: 3                           | 
 | Avg. weight: 1.0                       | 
 | Viability Ceiling: 55                  | 
 +----------------------------------------+ 
 | Abilities                              | 
 | Overgrow 100.000%                      | 
 +----------------------------------------+ 
 | Items                                  | 
 | Leftovers 33.333%                      | 
 | Yache Berry 33.333%                    | 
 | Meadow Plate 33.333%                   | 
 +----------------------------------------+ 
 | Spreads                                | 
 | Adamant:252/252/0/0/4/0 33.333%        | 
 | Careful:252/0/0/0/252/4 33.333%        | 
 | Hardy:0/124/132/0/0/252 33.333%        | 
 +----------------------------------------+ 
 | Moves                                  | 
 | Earthquake 100.000%                    | 
 | Wood Hammer 66.667%                    | 
 | Sunny Day 33.333%                      | 
 | Stealth Rock 33.333%                   | 
 | Solar Beam 33.333%                     | 
 | Iron Head 33.333%                      | 
 | Leaf Storm 33.333%                     | 
 | Stone Edge 33.333%                     | 
 | Synthesis 33.333%                      | 
 +----------------------------------------+ 
 | Teammates                              | 
 | Gardevoir +27.778%                     | 
 | Crawdaunt +27.778%                     | 
 | Regigigas +27.778%                     | 
 | Magmortar +27.778%                     | 
 | Lapras +27.778%                        | 
 | Luxray +27.778%                        | 
 | Hariyama +22.222%                      | 
 | Absol +22.222%                         | 
 | Toxicroak +11.111%                     | 
 | Houndoom +11.111%                      | 
 +----------------------------------------+ 
 | Checks and Counters                    | 
 +----------------------------------------+ 
 +----------------------------------------+ 
 | Kabutops                               | 
 +----------------------------------------+ 
 | Raw count: 3                           | 
 | Avg. weight: 1.0                       | 
 | Viability Ceiling: 56                  | 
 +----------------------------------------+ 
 | Abilities                              | 
 | Swift Swim 100.000%                    | 
 +----------------------------------------+ 
 | Items                                  | 
 | Leftovers 66.667%                      | 
 | Life Orb 33.333%                       | 
 +----------------------------------------+ 
 | Spreads                                | 
 | Adamant:0/252/0/0/4/252 33.333%        | 
 | Adamant:132/252/0/0/0/124 33.333%      | 
 | Adamant:120/252/0/0/0/136 33.333%      | 
 +----------------------------------------+ 
 | Moves                                  | 
 | Aqua Jet 100.000%                      | 
 | Swords Dance 100.000%                  | 
 | Rapid Spin 66.667%                     | 
 | Stone Edge 66.667%                     | 
 | Rock Slide 33.333%                     | 
 | X-Scissor 33.333%                      | 
 +----------------------------------------+ 
 | Teammates                              | 
 | Arcanine +55.556%                      | 
 | Mesprit +27.778%                       | 
 | Donphan +27.778%                       | 
 | Leafeon +27.778%                       | 
 | Dugtrio +22.222%                       | 
 | Cloyster +22.222%                      | 
 | Chansey +16.667%                       | 
 | Alakazam +16.667%                      | 
 +----------------------------------------+ 
 | Checks and Counters                    | 
 +----------------------------------------+ 
 +----------------------------------------+ 
 | Entei                                  | 
 +----------------------------------------+ 
 | Raw count: 2                           | 
 | Avg. weight: 1.0                       | 
 | Viability Ceiling: 55                  | 
 +----------------------------------------+ 
 | Abilities                              | 
 | Pressure 100.000%                      | 
 +----------------------------------------+ 
 | Items                                  | 
 | Choice Band 50.000%                    | 
 | Lum Berry 50.000%                      | 
 +----------------------------------------+ 
 | Spreads                                | 
 | Adamant:0/252/4/0/0/252 50.000%        | 
 | Hardy:12/252/100/0/144/0 50.000%       | 
 +----------------------------------------+ 
 | Moves                                  | 
 | Eruption 100.000%                      | 
 | Overheat 50.000%                       | 
 | Extrasensory 50.000%                   | 
 | Double-Edge 50.000%                    | 
 | Iron Head 50.000%                      | 
 | Fire Blast 50.000%                     | 
 | Flamethrower 50.000%                   | 
 +----------------------------------------+ 
 | Teammates                              | 
 | Blaziken +77.778%                      | 
 | Typhlosion +44.444%                    | 
 | Hariyama +38.889%                      | 
 | Flareon +38.889%                       | 
 | Absol +38.889%                         | 
 | Moltres +33.333%                       | 
 | Kangaskhan +33.333%                    | 
 | Blastoise +33.333%                     | 
 | Swellow +16.667%                       | 
 +----------------------------------------+ 
 | Checks and Counters                    | 
 +----------------------------------------+ 
 +----------------------------------------+ 
 | Altaria                                | 
 +----------------------------------------+ 
 | Raw count: 9                           | 
 | Avg. weight: 1.0                       | 
 | Viability Ceiling: 72                  | 
 +----------------------------------------+ 
 | Abilities                              | 
 | Natural Cure 100.000%                  | 
 +----------------------------------------+ 
 | Items                                  | 
 | Leftovers 100.000%                     | 
 +----------------------------------------+ 
 | Spreads                                | 
 | Adamant:0/248/92/0/120/48 88.889%      | 
 | Careful:252/16/0/0/176/64 11.111%      | 
 +----------------------------------------+ 
 | Moves                                  | 
 | Dragon Dance 100.000%                  | 
 | Dragon Claw 100.000%                   | 
 | Body Slam 88.889%                      | 
 | Earthquake 88.889%                     | 
 | Roost 11.111%                          | 
 | Other 11.111%                          | 
 +----------------------------------------+ 
 | Teammates                              | 
 | Lanturn +5.556%                        | 
 +----------------------------------------+ 
 | Checks and Counters                    | 
 +----------------------------------------+ 
 +----------------------------------------+ 
 | Dugtrio                                | 
 +----------------------------------------+ 
 | Raw count: 9                           | 
 | Avg. weight: 1.0                       | 
 | Viability Ceiling: 72                  | 
 +----------------------------------------+ 
 | Abilities                              | 
 | Arena Trap 100.000%                    | 
 +----------------------------------------+ 
 | Items                                  | 
 | Choice Band 100.000%                   | 
 +----------------------------------------+ 
 | Spreads                                | 
 | Adamant:0/252/80/0/100/76 88.889%      | 
 | Jolly:12/244/0/0/0/252 11.111%         | 
 +----------------------------------------+ 
 | Moves                                  | 
 | Earthquake 100.000%                    | 
 | Night Slash 88.889%                    | 
 | Rock Slide 88.889%                     | 
 | Double-Edge 88.889%                    | 
 | Beat Up 11.111%                        | 
 | Stone Edge 11.111%                     | 
 | Other 11.111%                          | 
 +----------------------------------------+ 
 | Teammates                              | 
 | Leafeon +5.556%                        | 
 | Mesprit +5.556%                        | 
 | Lanturn +5.556%                        | 
 +----------------------------------------+ 
 | Checks and Counters                    | 
 +----------------------------------------+ 
 +----------------------------------------+ 
 | Shedinja                               | 
 +----------------------------------------+ 
 | Raw count: 2                           | 
 | Avg. weight: 1.0                       | 
 | Viability Ceiling: 55                  | 
 +----------------------------------------+ 
 | Abilities                              | 
 | Wonder Guard 100.000%                  | 
 +----------------------------------------+ 
 | Items                                  | 
 | Focus Sash 100.000%                    | 
 +----------------------------------------+ 
 | Spreads                                | 
 | Adamant:0/252/4/0/0/252 50.000%        | 
 | Jolly:4/252/0/0/0/252 50.000%          | 
 +----------------------------------------+ 
 | Moves                                  | 
 | Swords Dance 100.000%                  | 
 | Grudge 50.000%                         | 
 | Fury Cutter 50.000%                    | 
 | Shadow Claw 50.000%                    | 
 | X-Scissor 50.000%                      | 
 | Shadow Sneak 50.000%                   | 
 | Metal Claw 50.000%                     | 
 +----------------------------------------+ 
 | Teammates                              | 
 | Exploud +44.444%                       | 
 | Delibird +44.444%                      | 
 | Sudowoodo +44.444%                     | 
 | Miltank +44.444%                       | 
 | Shuckle +44.444%                       | 
 | Shelgon +44.444%                       | 
 | Probopass +44.444%                     | 
 | Moltres +33.333%                       | 
 | Kangaskhan +33.333%                    | 
 | Blastoise +33.333%                     | 
 +----------------------------------------+ 
 | Checks and Counters                    | 
 +----------------------------------------+ 
 +----------------------------------------+ 
 | Arcanine                               | 
 +----------------------------------------+ 
 | Raw count: 4                           | 
 | Avg. weight: 1.0                       | 
 | Viability Ceiling: 56                  | 
 +----------------------------------------+ 
 | Abilities                              | 
 | Intimidate 100.000%                    | 
 +----------------------------------------+ 
 | Items                                  | 
 | Leftovers 50.000%                      | 
 | Choice Scarf 25.000%                   | 
 | Choice Band 25.000%                    | 
 +----------------------------------------+ 
 | Spreads                                | 
 | Jolly:4/252/0/0/0/252 25.000%          | 
 | Jolly:0/252/0/0/4/252 25.000%          | 
 | Adamant:252/172/0/0/0/84 25.000%       | 
 | Careful:252/0/4/0/252/0 25.000%        | 
 +----------------------------------------+ 
 | Moves                                  | 
 | Flare Blitz 100.000%                   | 
 | Extreme Speed 100.000%                 | 
 | Morning Sun 75.000%                    | 
 | Will-O-Wisp 50.000%                    | 
 | Crunch 25.000%                         | 
 | Thunder Fang 25.000%                   | 
 | Hidden Power Electric 25.000%          | 
 +----------------------------------------+ 
 | Teammates                              | 
 | Kabutops +38.889%                      | 
 | Mesprit +19.444%                       | 
 | Donphan +19.444%                       | 
 | Leafeon +19.444%                       | 
 | Dugtrio +13.889%                       | 
 | Cloyster +13.889%                      | 
 | Chansey +8.333%                        | 
 | Alakazam +8.333%                       | 
 +----------------------------------------+ 
 | Checks and Counters                    | 
 +----------------------------------------+ 
 +----------------------------------------+ 
 | Omastar                                | 
 +----------------------------------------+ 
 | Raw count: 2                           | 
 | Avg. weight: 1.0                       | 
 | Viability Ceiling: 57                  | 
 +----------------------------------------+ 
 | Abilities                              | 
 | Swift Swim 100.000%                    | 
 +----------------------------------------+ 
 | Items                                  | 
 | Focus Sash 100.000%                    | 
 +----------------------------------------+ 
 | Spreads                                | 
 | Timid:4/0/0/252/0/252 100.000%         | 
 +----------------------------------------+ 
 | Moves                                  | 
 | Surf 100.000%                          | 
 | Stealth Rock 100.000%                  | 
 | Spikes 100.000%                        | 
 | Ice Beam 100.000%                      | 
 +----------------------------------------+ 
 | Teammates                              | 
 | Rotom +88.889%                         | 
 | Exeggutor +83.333%                     | 
 | Toxicroak +77.778%                     | 
 | Houndoom +77.778%                      | 
 | Swellow +66.667%                       | 
 +----------------------------------------+ 
 | Checks and Counters                    | 
 +----------------------------------------+ 
 +----------------------------------------+ 
 | Venusaur                               | 
 +----------------------------------------+ 
 | Raw count: 2                           | 
 | Avg. weight: 1.0                       | 
 | Viability Ceiling: 55                  | 
 +----------------------------------------+ 
 | Abilities                              | 
 | Overgrow 100.000%                      | 
 +----------------------------------------+ 
 | Items                                  | 
 | Leftovers 50.000%                      | 
 | Life Orb 50.000%                       | 
 +----------------------------------------+ 
 | Spreads                                | 
 | Sassy:252/0/0/0/240/16 50.000%         | 
 | Timid:4/0/0/240/0/252 50.000%          | 
 +----------------------------------------+ 
 | Moves                                  | 
 | Sludge Bomb 100.000%                   | 
 | Sleep Powder 100.000%                  | 
 | Power Whip 50.000%                     | 
 | Leech Seed 50.000%                     | 
 | Leaf Storm 50.000%                     | 
 | Synthesis 50.000%                      | 
 +----------------------------------------+ 
 | Teammates                              | 
 | Mismagius +83.333%                     | 
 | Steelix +66.667%                       | 
 | Sceptile +44.444%                      | 
 | Aggron +44.444%                        | 
 | Azumarill +44.444%                     | 
 | Cloyster +38.889%                      | 
 | Blastoise +33.333%                     | 
 | Swellow +16.667%                       | 
 +----------------------------------------+ 
 | Checks and Counters                    | 
 +----------------------------------------+ 
 +----------------------------------------+ 
 | Golem                                  | 
 +----------------------------------------+ 
 | Raw count: 1                           | 
 | Avg. weight: 1.0                       | 
 | Viability Ceiling: 46                  | 
 +----------------------------------------+ 
 | Abilities                              | 
 | Rock Head 100.000%                     | 
 +----------------------------------------+ 
 | Items                                  | 
 | Nothing 100.000%                       | 
 +----------------------------------------+ 
 | Spreads                                | 
 | Hardy:0/0/0/0/0/0 100.000%             | 
 +----------------------------------------+ 
 | Moves                                  | 
 | Body Slam 100.000%                     | 
 | Explosion 100.000%                     | 
 | Earthquake 100.000%                    | 
 | Rock Slide 100.000%                    | 
 +----------------------------------------+ 
 | Teammates                              | 
 | Slowbro +94.444%                       | 
 | Charizard +88.889%                     | 
 | Chansey +83.333%                       | 
 | Exeggutor +83.333%                     | 
 | Alakazam +83.333%                      | 
 +----------------------------------------+ 
 | Checks and Counters                    | 
 +----------------------------------------+ 
 +----------------------------------------+ 
 | Shelgon                                | 
 +----------------------------------------+ 
 | Raw count: 1                           | 
 | Avg. weight: 1.0                       | 
 | Viability Ceiling: 55                  | 
 +----------------------------------------+ 
 | Abilities                              | 
 | Rock Head 100.000%                     | 
 +----------------------------------------+ 
 | Items                                  | 
 | Choice Band 100.000%                   | 
 +----------------------------------------+ 
 | Spreads                                | 
 | Adamant:252/252/0/0/4/0 100.000%       | 
 +----------------------------------------+ 
 | Moves                                  | 
 | Rollout 100.000%                       | 
 | Thrash 100.000%                        | 
 | Crunch 100.000%                        | 
 | Fury Cutter 100.000%                   | 
 +----------------------------------------+ 
 | Teammates                              | 
 | Exploud +94.444%                       | 
 | Probopass +94.444%                     | 
 | Sudowoodo +94.444%                     | 
 | Shuckle +94.444%                       | 
 | Shedinja +88.889%                      | 
 +----------------------------------------+ 
 | Checks and Counters                    | 
 +----------------------------------------+ 
 +----------------------------------------+ 
 | Primeape                               | 
 +----------------------------------------+ 
 | Raw count: 1                           | 
 | Avg. weight: 1.0                       | 
 | Viability Ceiling: 56                  | 
 +----------------------------------------+ 
 | Abilities                              | 
 | Vital Spirit 100.000%                  | 
 +----------------------------------------+ 
 | Items                                  | 
 | Leftovers 100.000%                     | 
 +----------------------------------------+ 
 | Spreads                                | 
 | Jolly:8/248/0/0/0/252 100.000%         | 
 +----------------------------------------+ 
 | Moves                                  | 
 | Substitute 100.000%                    | 
 | Stone Edge 100.000%                    | 
 | Encore 100.000%                        | 
 | Close Combat 100.000%                  | 
 +----------------------------------------+ 
 | Teammates                              | 
 | Clefable +94.444%                      | 
 | Drifblim +94.444%                      | 
 | Articuno +94.444%                      | 
 | Ambipom +88.889%                       | 
 | Steelix +66.667%                       | 
 +----------------------------------------+ 
 | Checks and Counters                    | 
 +----------------------------------------+ 
 +----------------------------------------+ 
 | Shuckle                                | 
 +----------------------------------------+ 
 | Raw count: 1                           | 
 | Avg. weight: 1.0                       | 
 | Viability Ceiling: 55                  | 
 +----------------------------------------+ 
 | Abilities                              | 
 | Sturdy 100.000%                        | 
 +----------------------------------------+ 
 | Items                                  | 
 | Leftovers 100.000%                     | 
 +----------------------------------------+ 
 | Spreads                                | 
 | Adamant:252/252/4/0/0/0 100.000%       | 
 +----------------------------------------+ 
 | Moves                                  | 
 | Rollout 100.000%                       | 
 | Power Trick 100.000%                   | 
 | Rest 100.000%                          | 
 | Acupressure 100.000%                   | 
 +----------------------------------------+ 
 | Teammates                              | 
 | Exploud +94.444%                       | 
 | Shelgon +94.444%                       | 
 | Sudowoodo +94.444%                     | 
 | Probopass +94.444%                     | 
 | Shedinja +88.889%                      | 
 +----------------------------------------+ 
 | Checks and Counters                    | 
 +----------------------------------------+ 
 +----------------------------------------+ 
 | Gardevoir                              | 
 +----------------------------------------+ 
 | Raw count: 1                           | 
 | Avg. weight: 1.0                       | 
 | Viability Ceiling: 45                  | 
 +----------------------------------------+ 
 | Abilities                              | 
 | Synchronize 100.000%                   | 
 +----------------------------------------+ 
 | Items                                  | 
 | Mind Plate 100.000%                    | 
 +----------------------------------------+ 
 | Spreads                                | 
 | Hardy:0/252/252/0/0/4 100.000%         | 
 +----------------------------------------+ 
 | Moves                                  | 
 | Shadow Ball 100.000%                   | 
 | Psychic 100.000%                       | 
 | Dream Eater 100.000%                   | 
 | Hypnosis 100.000%                      | 
 +----------------------------------------+ 
 | Teammates                              | 
 | Lapras +94.444%                        | 
 | Regigigas +94.444%                     | 
 | Luxray +94.444%                        | 
 | Torterra +88.889%                      | 
 | Houndoom +77.778%                      | 
 +----------------------------------------+ 
 | Checks and Counters                    | 
 +----------------------------------------+ 
 +----------------------------------------+ 
 | Arbok                                  | 
 +----------------------------------------+ 
 | Raw count: 1                           | 
 | Avg. weight: ---                       | 
 | Viability Ceiling: 0                   | 
 +----------------------------------------+ 
 | Abilities                              | 
 | Intimidate 100.000%                    | 
 +----------------------------------------+ 
 | Items                                  | 
 | Choice Scarf 100.000%                  | 
 +----------------------------------------+ 
 | Spreads                                | 
 | Jolly:4/252/0/0/0/252 100.000%         | 
 +----------------------------------------+ 
 | Moves                                  | 
 | Gunk Shot 100.000%                     | 
 | Earthquake 100.000%                    | 
 | Aqua Tail 100.000%                     | 
 | Poison Jab 100.000%                    | 
 +----------------------------------------+ 
 | Teammates                              | 
 | Ludicolo +94.444%                      | 
 | Ambipom +88.889%                       | 
 | Charizard +88.889%                     | 
 | Toxicroak +77.778%                     | 
 | Steelix +66.667%                       | 
 +----------------------------------------+ 
 | Checks and Counters                    | 
 +----------------------------------------+ 
 +----------------------------------------+ 
 | Delibird                               | 
 +----------------------------------------+ 
 | Raw count: 1                           | 
 | Avg. weight: 1.0                       | 
 | Viability Ceiling: 45                  | 
 +----------------------------------------+ 
 | Abilities                              | 
 | Hustle 100.000%                        | 
 +----------------------------------------+ 
 | Items                                  | 
 | Choice Band 100.000%                   | 
 +----------------------------------------+ 
 | Spreads                                | 
 | Lonely:0/252/0/0/0/252 100.000%        | 
 +----------------------------------------+ 
 | Moves                                  | 
 | Fly 100.000%                           | 
 | Brick Break 100.000%                   | 
 | Double-Edge 100.000%                   | 
 | Aerial Ace 100.000%                    | 
 +----------------------------------------+ 
 | Teammates                              | 
 | Miltank +94.444%                       | 
 | Shedinja +88.889%                      | 
 | Blastoise +83.333%                     | 
 | Moltres +83.333%                       | 
 | Kangaskhan +83.333%                    | 
 +----------------------------------------+ 
 | Checks and Counters                    | 
 +----------------------------------------+ 
 +----------------------------------------+ 
 | Crawdaunt                              | 
 +----------------------------------------+ 
 | Raw count: 1                           | 
 | Avg. weight: 1.0                       | 
 | Viability Ceiling: 55                  | 
 +----------------------------------------+ 
 | Abilities                              | 
 | Hyper Cutter 100.000%                  | 
 +----------------------------------------+ 
 | Items                                  | 
 | Lum Berry 100.000%                     | 
 +----------------------------------------+ 
 | Spreads                                | 
 | Adamant:252/252/0/0/4/0 100.000%       | 
 +----------------------------------------+ 
 | Moves                                  | 
 | Night Slash 100.000%                   | 
 | Waterfall 100.000%                     | 
 | X-Scissor 100.000%                     | 
 | Rock Slide 100.000%                    | 
 +----------------------------------------+ 
 | Teammates                              | 
 | Magmortar +94.444%                     | 
 | Hariyama +88.889%                      | 
 | Torterra +88.889%                      | 
 | Absol +88.889%                         | 
 | Toxicroak +77.778%                     | 
 +----------------------------------------+ 
 | Checks and Counters                    | 
 +----------------------------------------+ 
 +----------------------------------------+ 
 | Miltank                                | 
 +----------------------------------------+ 
 | Raw count: 1                           | 
 | Avg. weight: 1.0                       | 
 | Viability Ceiling: 45                  | 
 +----------------------------------------+ 
 | Abilities                              | 
 | Thick Fat 100.000%                     | 
 +----------------------------------------+ 
 | Items                                  | 
 | Leftovers 100.000%                     | 
 +----------------------------------------+ 
 | Spreads                                | 
 | Impish:252/4/252/0/0/0 100.000%        | 
 +----------------------------------------+ 
 | Moves                                  | 
 | Toxic 100.000%                         | 
 | Body Slam 100.000%                     | 
 | Milk Drink 100.000%                    | 
 | Heal Bell 100.000%                     | 
 +----------------------------------------+ 
 | Teammates                              | 
 | Delibird +94.444%                      | 
 | Shedinja +88.889%                      | 
 | Blastoise +83.333%                     | 
 | Moltres +83.333%                       | 
 | Kangaskhan +83.333%                    | 
 +----------------------------------------+ 
 | Checks and Counters                    | 
 +----------------------------------------+ 
 +----------------------------------------+ 
 | Drifblim                               | 
 +----------------------------------------+ 
 | Raw count: 1                           | 
 | Avg. weight: 1.0                       | 
 | Viability Ceiling: 56                  | 
 +----------------------------------------+ 
 | Abilities                              | 
 | Unburden 100.000%                      | 
 +----------------------------------------+ 
 | Items                                  | 
 | Focus Sash 100.000%                    | 
 +----------------------------------------+ 
 | Spreads                                | 
 | Mild:0/108/0/252/0/148 100.000%        | 
 +----------------------------------------+ 
 | Moves                                  | 
 | Shadow Ball 100.000%                   | 
 | Explosion 100.000%                     | 
 | Hidden Power Fighting 100.000%         | 
 | Hypnosis 100.000%                      | 
 +----------------------------------------+ 
 | Teammates                              | 
 | Clefable +94.444%                      | 
 | Primeape +94.444%                      | 
 | Articuno +94.444%                      | 
 | Ambipom +88.889%                       | 
 | Steelix +66.667%                       | 
 +----------------------------------------+ 
 | Checks and Counters                    | 
 +----------------------------------------+ 
 +----------------------------------------+ 
 | Magmortar                              | 
 +----------------------------------------+ 
 | Raw count: 1                           | 
 | Avg. weight: 1.0                       | 
 | Viability Ceiling: 55                  | 
 +----------------------------------------+ 
 | Abilities                              | 
 | Flame Body 100.000%                    | 
 +----------------------------------------+ 
 | Items                                  | 
 | Leftovers 100.000%                     | 
 +----------------------------------------+ 
 | Spreads                                | 
 | Lonely:252/252/0/4/0/0 100.000%        | 
 +----------------------------------------+ 
 | Moves                                  | 
 | Overheat 100.000%                      | 
 | Earthquake 100.000%                    | 
 | Thunder Punch 100.000%                 | 
 | Flare Blitz 100.000%                   | 
 +----------------------------------------+ 
 | Teammates                              | 
 | Crawdaunt +94.444%                     | 
 | Hariyama +88.889%                      | 
 | Torterra +88.889%                      | 
 | Absol +88.889%                         | 
 | Toxicroak +77.778%                     | 
 +----------------------------------------+ 
 | Checks and Counters                    | 
 +----------------------------------------+ 
 +----------------------------------------+ 
 | Luxray                                 | 
 +----------------------------------------+ 
 | Raw count: 1                           | 
 | Avg. weight: 1.0                       | 
 | Viability Ceiling: 45                  | 
 +----------------------------------------+ 
 | Abilities                              | 
 | Rivalry 100.000%                       | 
 +----------------------------------------+ 
 | Items                                  | 
 | Magnet 100.000%                        | 
 +----------------------------------------+ 
 | Spreads                                | 
 | Hardy:0/0/252/0/4/252 100.000%         | 
 +----------------------------------------+ 
 | Moves                                  | 
 | Crunch 100.000%                        | 
 | Protect 100.000%                       | 
 | Thunderbolt 100.000%                   | 
 | Discharge 100.000%                     | 
 +----------------------------------------+ 
 | Teammates                              | 
 | Lapras +94.444%                        | 
 | Gardevoir +94.444%                     | 
 | Regigigas +94.444%                     | 
 | Torterra +88.889%                      | 
 | Houndoom +77.778%                      | 
 +----------------------------------------+ 
 | Checks and Counters                    | 
 +----------------------------------------+ 
 +----------------------------------------+ 
 | Clefable                               | 
 +----------------------------------------+ 
 | Raw count: 1                           | 
 | Avg. weight: 1.0                       | 
 | Viability Ceiling: 56                  | 
 +----------------------------------------+ 
 | Abilities                              | 
 | Magic Guard 100.000%                   | 
 +----------------------------------------+ 
 | Items                                  | 
 | Focus Sash 100.000%                    | 
 +----------------------------------------+ 
 | Spreads                                | 
 | Naive:0/0/0/0/0/252 100.000%           | 
 +----------------------------------------+ 
 | Moves                                  | 
 | Endeavor 100.000%                      | 
 | Protect 100.000%                       | 
 | Encore 100.000%                        | 
 | Thunder Wave 100.000%                  | 
 +----------------------------------------+ 
 | Teammates                              | 
 | Drifblim +94.444%                      | 
 | Primeape +94.444%                      | 
 | Articuno +94.444%                      | 
 | Ambipom +88.889%                       | 
 | Steelix +66.667%                       | 
 +----------------------------------------+ 
 | Checks and Counters                    | 
 +----------------------------------------+ 
 +----------------------------------------+ 
 | Donphan                                | 
 +----------------------------------------+ 
 | Raw count: 2                           | 
 | Avg. weight: 1.0                       | 
 | Viability Ceiling: 45                  | 
 +----------------------------------------+ 
 | Abilities                              | 
 | Sturdy 100.000%                        | 
 +----------------------------------------+ 
 | Items                                  | 
 | Leftovers 50.000%                      | 
 | Sitrus Berry 50.000%                   | 
 +----------------------------------------+ 
 | Spreads                                | 
 | Adamant:252/252/0/0/0/4 50.000%        | 
 | Impish:240/108/160/0/0/0 50.000%       | 
 +----------------------------------------+ 
 | Moves                                  | 
 | Stealth Rock 100.000%                  | 
 | Earthquake 100.000%                    | 
 | Rapid Spin 100.000%                    | 
 | Gunk Shot 50.000%                      | 
 | Ice Shard 50.000%                      | 
 +----------------------------------------+ 
 | Teammates                              | 
 | Arcanine +38.889%                      | 
 | Kabutops +38.889%                      | 
 | Cloyster +38.889%                      | 
 | Chansey +33.333%                       | 
 | Alakazam +33.333%                      | 
 +----------------------------------------+ 
 | Checks and Counters                    | 
 +----------------------------------------+ 
 +----------------------------------------+ 
 | Ludicolo                               | 
 +----------------------------------------+ 
 | Raw count: 1                           | 
 | Avg. weight: ---                       | 
 | Viability Ceiling: 0                   | 
 +----------------------------------------+ 
 | Abilities                              | 
 | Swift Swim 100.000%                    | 
 +----------------------------------------+ 
 | Items                                  | 
 | Life Orb 100.000%                      | 
 +----------------------------------------+ 
 | Spreads                                | 
 | Modest:4/0/0/252/0/252 100.000%        | 
 +----------------------------------------+ 
 | Moves                                  | 
 | Surf 100.000%                          | 
 | Energy Ball 100.000%                   | 
 | Rain Dance 100.000%                    | 
 | Hidden Power Ground 100.000%           | 
 +----------------------------------------+ 
 | Teammates                              | 
 | Arbok +94.444%                         | 
 | Ambipom +88.889%                       | 
 | Charizard +88.889%                     | 
 | Toxicroak +77.778%                     | 
 | Steelix +66.667%                       | 
 +----------------------------------------+ 
 | Checks and Counters                    | 
 +----------------------------------------+ 
 +----------------------------------------+ 
 | Sceptile                               | 
 +----------------------------------------+ 
 | Raw count: 2                           | 
 | Avg. weight: 1.0                       | 
 | Viability Ceiling: 45                  | 
 +----------------------------------------+ 
 | Abilities                              | 
 | Overgrow 100.000%                      | 
 +----------------------------------------+ 
 | Items                                  | 
 | Focus Sash 50.000%                     | 
 | Life Orb 50.000%                       | 
 +----------------------------------------+ 
 | Spreads                                | 
 | Jolly:0/0/0/252/4/252 50.000%          | 
 | Timid:0/0/0/252/4/252 50.000%          | 
 +----------------------------------------+ 
 | Moves                                  | 
 | Night Slash 50.000%                    | 
 | Dragon Pulse 50.000%                   | 
 | Leaf Blade 50.000%                     | 
 | Focus Blast 50.000%                    | 
 | Swords Dance 50.000%                   | 
 | Pursuit 50.000%                        | 
 | Energy Ball 50.000%                    | 
 | Leaf Storm 50.000%                     | 
 +----------------------------------------+ 
 | Teammates                              | 
 | Cloyster +38.889%                      | 
 | Venusaur +38.889%                      | 
 | Mismagius +33.333%                     | 
 | Blastoise +33.333%                     | 
 | Steelix +16.667%                       | 
 +----------------------------------------+ 
 | Checks and Counters                    | 
 +----------------------------------------+ 
 +----------------------------------------+ 
 | Exploud                                | 
 +----------------------------------------+ 
 | Raw count: 1                           | 
 | Avg. weight: 1.0                       | 
 | Viability Ceiling: 55                  | 
 +----------------------------------------+ 
 | Abilities                              | 
 | Soundproof 100.000%                    | 
 +----------------------------------------+ 
 | Items                                  | 
 | Choice Scarf 100.000%                  | 
 +----------------------------------------+ 
 | Spreads                                | 
 | Naive:0/128/0/128/0/252 100.000%       | 
 +----------------------------------------+ 
 | Moves                                  | 
 | Dynamic Punch 100.000%                 | 
 | Giga Impact 100.000%                   | 
 | Overheat 100.000%                      | 
 | Hyper Beam 100.000%                    | 
 +----------------------------------------+ 
 | Teammates                              | 
 | Shelgon +94.444%                       | 
 | Sudowoodo +94.444%                     | 
 | Probopass +94.444%                     | 
 | Shuckle +94.444%                       | 
 | Shedinja +88.889%                      | 
 +----------------------------------------+ 
 | Checks and Counters                    | 
 +----------------------------------------+ 
 +----------------------------------------+ 
 | Regigigas                              | 
 +----------------------------------------+ 
 | Raw count: 1                           | 
 | Avg. weight: 1.0                       | 
 | Viability Ceiling: 45                  | 
 +----------------------------------------+ 
 | Abilities                              | 
 | Slow Start 100.000%                    | 
 +----------------------------------------+ 
 | Items                                  | 
 | Leftovers 100.000%                     | 
 +----------------------------------------+ 
 | Spreads                                | 
 | Hardy:0/0/0/0/0/0 100.000%             | 
 +----------------------------------------+ 
 | Moves                                  | 
 | Drain Punch 100.000%                   | 
 | Earth Power 100.000%                   | 
 | Hyper Beam 100.000%                    | 
 | Earthquake 100.000%                    | 
 +----------------------------------------+ 
 | Teammates                              | 
 | Lapras +94.444%                        | 
 | Gardevoir +94.444%                     | 
 | Luxray +94.444%                        | 
 | Torterra +88.889%                      | 
 | Houndoom +77.778%                      | 
 +----------------------------------------+ 
 | Checks and Counters                    | 
 +----------------------------------------+ 
 +----------------------------------------+ 
 | Mesprit                                | 
 +----------------------------------------+ 
 | Raw count: 2                           | 
 | Avg. weight: 1.0                       | 
 | Viability Ceiling: 56                  | 
 +----------------------------------------+ 
 | Abilities                              | 
 | Levitate 100.000%                      | 
 +----------------------------------------+ 
 | Items                                  | 
 | Leftovers 50.000%                      | 
 | Choice Specs 50.000%                   | 
 +----------------------------------------+ 
 | Spreads                                | 
 | Modest:252/0/0/252/4/0 50.000%         | 
 | Modest:120/0/0/252/0/136 50.000%       | 
 +----------------------------------------+ 
 | Moves                                  | 
 | Psychic 100.000%                       | 
 | U-turn 50.000%                         | 
 | Shadow Ball 50.000%                    | 
 | Stealth Rock 50.000%                   | 
 | Grass Knot 50.000%                     | 
 | Ice Beam 50.000%                       | 
 | Energy Ball 50.000%                    | 
 +----------------------------------------+ 
 | Teammates                              | 
 | Leafeon +44.444%                       | 
 | Kabutops +38.889%                      | 
 | Dugtrio +38.889%                       | 
 | Arcanine +38.889%                      | 
 | Swellow +16.667%                       | 
 +----------------------------------------+ 
 | Checks and Counters                    | 
 +----------------------------------------+ 
 +----------------------------------------+ 
 | Lapras                                 | 
 +----------------------------------------+ 
 | Raw count: 1                           | 
 | Avg. weight: 1.0                       | 
 | Viability Ceiling: 45                  | 
 +----------------------------------------+ 
 | Abilities                              | 
 | Water Absorb 100.000%                  | 
 +----------------------------------------+ 
 | Items                                  | 
 | Splash Plate 100.000%                  | 
 +----------------------------------------+ 
 | Spreads                                | 
 | Hardy:0/252/4/0/0/252 100.000%         | 
 +----------------------------------------+ 
 | Moves                                  | 
 | Dragon Dance 100.000%                  | 
 | Hydro Pump 100.000%                    | 
 | Ice Beam 100.000%                      | 
 | Dragon Pulse 100.000%                  | 
 +----------------------------------------+ 
 | Teammates                              | 
 | Gardevoir +94.444%                     | 
 | Regigigas +94.444%                     | 
 | Luxray +94.444%                        | 
 | Torterra +88.889%                      | 
 | Houndoom +77.778%                      | 
 +----------------------------------------+ 
 | Checks and Counters                    | 
 +----------------------------------------+ 
 +----------------------------------------+ 
 | Espeon                                 | 
 +----------------------------------------+ 
 | Raw count: 1                           | 
 | Avg. weight: 1.0                       | 
 | Viability Ceiling: 45                  | 
 +----------------------------------------+ 
 | Abilities                              | 
 | Synchronize 100.000%                   | 
 +----------------------------------------+ 
 | Items                                  | 
 | Leftovers 100.000%                     | 
 +----------------------------------------+ 
 | Spreads                                | 
 | Impish:140/236/0/0/0/0 100.000%        | 
 +----------------------------------------+ 
 | Moves                                  | 
 | Shadow Ball 100.000%                   | 
 | Protect 100.000%                       | 
 | Heal Bell 100.000%                     | 
 | Psychic 100.000%                       | 
 +----------------------------------------+ 
 | Teammates                              | 
 | Feraligatr +94.444%                    | 
 | Chansey +83.333%                       | 
 | Mismagius +83.333%                     | 
 | Blaziken +77.778%                      | 
 | Steelix +66.667%                       | 
 +----------------------------------------+ 
 | Checks and Counters                    | 
 +----------------------------------------+ 
 +----------------------------------------+ 
 | Feraligatr                             | 
 +----------------------------------------+ 
 | Raw count: 1                           | 
 | Avg. weight: 1.0                       | 
 | Viability Ceiling: 45                  | 
 +----------------------------------------+ 
 | Abilities                              | 
 | Torrent 100.000%                       | 
 +----------------------------------------+ 
 | Items                                  | 
 | Power Herb 100.000%                    | 
 +----------------------------------------+ 
 | Spreads                                | 
 | Hardy:0/0/0/0/0/0 100.000%             | 
 +----------------------------------------+ 
 | Moves                                  | 
 | Surf 100.000%                          | 
 | Crunch 100.000%                        | 
 | Dragon Claw 100.000%                   | 
 | Blizzard 100.000%                      | 
 +----------------------------------------+ 
 | Teammates                              | 
 | Espeon +94.444%                        | 
 | Chansey +83.333%                       | 
 | Mismagius +83.333%                     | 
 | Blaziken +77.778%                      | 
 | Steelix +66.667%                       | 
 +----------------------------------------+ 
 | Checks and Counters                    | 
 +----------------------------------------+ 
 +----------------------------------------+ 
 | Azumarill                              | 
 +----------------------------------------+ 
 | Raw count: 1                           | 
 | Avg. weight: 1.0                       | 
 | Viability Ceiling: 55                  | 
 +----------------------------------------+ 
 | Abilities                              | 
 | Huge Power 100.000%                    | 
 +----------------------------------------+ 
 | Items                                  | 
 | Choice Band 100.000%                   | 
 +----------------------------------------+ 
 | Spreads                                | 
 | Adamant:240/252/0/0/0/16 100.000%      | 
 +----------------------------------------+ 
 | Moves                                  | 
 | Ice Punch 100.000%                     | 
 | Waterfall 100.000%                     | 
 | Return 100.000%                        | 
 | Aqua Jet 100.000%                      | 
 +----------------------------------------+ 
 | Teammates                              | 
 | Aggron +94.444%                        | 
 | Venusaur +88.889%                      | 
 | Mismagius +83.333%                     | 
 | Steelix +66.667%                       | 
 | Swellow +66.667%                       | 
 +----------------------------------------+ 
 | Checks and Counters                    | 
 +----------------------------------------+ 
 +----------------------------------------+ 
 | Lanturn                                | 
 +----------------------------------------+ 
 | Raw count: 8                           | 
 | Avg. weight: 1.0                       | 
 | Viability Ceiling: 72                  | 
 +----------------------------------------+ 
 | Abilities                              | 
 | Volt Absorb 100.000%                   | 
 +----------------------------------------+ 
 | Items                                  | 
 | Leftovers 87.500%                      | 
 | Focus Sash 12.500%                     | 
 +----------------------------------------+ 
 | Spreads                                | 
 | Modest:0/0/4/252/0/252 100.000%        | 
 +----------------------------------------+ 
 | Moves                                  | 
 | Toxic 100.000%                         | 
 | Confuse Ray 100.000%                   | 
 | Thunderbolt 100.000%                   | 
 | Substitute 100.000%                    | 
 +----------------------------------------+ 
 | Teammates                              | 
 | Altaria +1.389%                        | 
 | Dugtrio +1.389%                        | 
 +----------------------------------------+ 
 | Checks and Counters                    | 
 +----------------------------------------+ 
 +----------------------------------------+ 
 | Typhlosion                             | 
 +----------------------------------------+ 
 | Raw count: 1                           | 
 | Avg. weight: 1.0                       | 
 | Viability Ceiling: 55                  | 
 +----------------------------------------+ 
 | Abilities                              | 
 | Blaze 100.000%                         | 
 +----------------------------------------+ 
 | Items                                  | 
 | Flame Plate 100.000%                   | 
 +----------------------------------------+ 
 | Spreads                                | 
 | Hardy:80/252/148/28/0/0 100.000%       | 
 +----------------------------------------+ 
 | Moves                                  | 
 | Fire Blast 100.000%                    | 
 | Eruption 100.000%                      | 
 | Flamethrower 100.000%                  | 
 | Flare Blitz 100.000%                   | 
 +----------------------------------------+ 
 | Teammates                              | 
 | Flareon +88.889%                       | 
 | Entei +88.889%                         | 
 | Blastoise +83.333%                     | 
 | Blaziken +77.778%                      | 
 | Swellow +66.667%                       | 
 +----------------------------------------+ 
 | Checks and Counters                    | 
 +----------------------------------------+ 
 +----------------------------------------+ 
 | Leafeon                                | 
 +----------------------------------------+ 
 | Raw count: 1                           | 
 | Avg. weight: 1.0                       | 
 | Viability Ceiling: 56                  | 
 +----------------------------------------+ 
 | Abilities                              | 
 | Leaf Guard 100.000%                    | 
 +----------------------------------------+ 
 | Items                                  | 
 | Leftovers 100.000%                     | 
 +----------------------------------------+ 
 | Spreads                                | 
 | Jolly:4/252/0/0/0/252 100.000%         | 
 +----------------------------------------+ 
 | Moves                                  | 
 | Swords Dance 100.000%                  | 
 | Synthesis 100.000%                     | 
 | Double-Edge 100.000%                   | 
 | Leaf Blade 100.000%                    | 
 +----------------------------------------+ 
 | Teammates                              | 
 | Mesprit +94.444%                       | 
 | Arcanine +88.889%                      | 
 | Kabutops +88.889%                      | 
 | Dugtrio +88.889%                       | 
 | Swellow +66.667%                       | 
 +----------------------------------------+ 
 | Checks and Counters                    | 
 +----------------------------------------+ 
 +----------------------------------------+ 
 | Aggron                                 | 
 +----------------------------------------+ 
 | Raw count: 1                           | 
 | Avg. weight: 1.0                       | 
 | Viability Ceiling: 55                  | 
 +----------------------------------------+ 
 | Abilities                              | 
 | Rock Head 100.000%                     | 
 +----------------------------------------+ 
 | Items                                  | 
 | Life Orb 100.000%                      | 
 +----------------------------------------+ 
 | Spreads                                | 
 | Adamant:0/252/4/0/0/252 100.000%       | 
 +----------------------------------------+ 
 | Moves                                  | 
 | Rock Polish 100.000%                   | 
 | Low Kick 100.000%                      | 
 | Aqua Tail 100.000%                     | 
 | Head Smash 100.000%                    | 
 +----------------------------------------+ 
 | Teammates                              | 
 | Azumarill +94.444%                     | 
 | Venusaur +88.889%                      | 
 | Mismagius +83.333%                     | 
 | Steelix +66.667%                       | 
 | Swellow +66.667%                       | 
 +----------------------------------------+ 
 | Checks and Counters                    | 
 +----------------------------------------+ 
 +----------------------------------------+ 
 | Sudowoodo                              | 
 +----------------------------------------+ 
 | Raw count: 1                           | 
 | Avg. weight: 1.0                       | 
 | Viability Ceiling: 55                  | 
 +----------------------------------------+ 
 | Abilities                              | 
 | Sturdy 100.000%                        | 
 +----------------------------------------+ 
 | Items                                  | 
 | Enigma Berry 100.000%                  | 
 +----------------------------------------+ 
 | Spreads                                | 
 | Modest:248/0/0/252/8/0 100.000%        | 
 +----------------------------------------+ 
 | Moves                                  | 
 | Hidden Power Ghost 100.000%            | 
 | Uproar 100.000%                        | 
 | Earth Power 100.000%                   | 
 | Calm Mind 100.000%                     | 
 +----------------------------------------+ 
 | Teammates                              | 
 | Exploud +94.444%                       | 
 | Shelgon +94.444%                       | 
 | Shuckle +94.444%                       | 
 | Probopass +94.444%                     | 
 | Shedinja +88.889%                      | 
 +----------------------------------------+ 
 | Checks and Counters                    | 
 +----------------------------------------+ 
 +----------------------------------------+ 
 | Slowbro                                | 
 +----------------------------------------+ 
 | Raw count: 1                           | 
 | Avg. weight: 1.0                       | 
 | Viability Ceiling: 46                  | 
 +----------------------------------------+ 
 | Abilities                              | 
 | Oblivious 100.000%                     | 
 +----------------------------------------+ 
 | Items                                  | 
 | Nothing 100.000%                       | 
 +----------------------------------------+ 
 | Spreads                                | 
 | Hardy:0/0/0/0/0/0 100.000%             | 
 +----------------------------------------+ 
 | Moves                                  | 
 | Surf 100.000%                          | 
 | Thunder Wave 100.000%                  | 
 | Amnesia 100.000%                       | 
 | Rest 100.000%                          | 
 +----------------------------------------+ 
 | Teammates                              | 
 | Golem +94.444%                         | 
 | Charizard +88.889%                     | 
 | Chansey +83.333%                       | 
 | Exeggutor +83.333%                     | 
 | Alakazam +83.333%                      | 
 +----------------------------------------+ 
 | Checks and Counters                    | 
 +----------------------------------------+ 
 +----------------------------------------+ 
 | Probopass                              | 
 +----------------------------------------+ 
 | Raw count: 1                           | 
 | Avg. weight: 1.0                       | 
 | Viability Ceiling: 55                  | 
 +----------------------------------------+ 
 | Abilities                              | 
 | Magnet Pull 100.000%                   | 
 +----------------------------------------+ 
 | Items                                  | 
 | Chople Berry 100.000%                  | 
 +----------------------------------------+ 
 | Spreads                                | 
 | Brave:108/200/0/200/0/0 100.000%       | 
 +----------------------------------------+ 
 | Moves                                  | 
 | Dynamic Punch 100.000%                 | 
 | Magnitude 100.000%                     | 
 | Hyper Beam 100.000%                    | 
 | Zap Cannon 100.000%                    | 
 +----------------------------------------+ 
 | Teammates                              | 
 | Exploud +94.444%                       | 
 | Shelgon +94.444%                       | 
 | Shuckle +94.444%                       | 
 | Sudowoodo +94.444%                     | 
 | Shedinja +88.889%                      | 
 +----------------------------------------+ 
 | Checks and Counters                    | 
 +----------------------------------------+ 
 +----------------------------------------+ 
 | Articuno                               | 
 +----------------------------------------+ 
 | Raw count: 1                           | 
 | Avg. weight: 1.0                       | 
 | Viability Ceiling: 56                  | 
 +----------------------------------------+ 
 | Abilities                              | 
 | Pressure 100.000%                      | 
 +----------------------------------------+ 
 | Items                                  | 
 | Leftovers 100.000%                     | 
 +----------------------------------------+ 
 | Spreads                                | 
 | Calm:252/0/0/0/252/4 100.000%          | 
 +----------------------------------------+ 
 | Moves                                  | 
 | Roost 100.000%                         | 
 | Heal Bell 100.000%                     | 
 | Hail 100.000%                          | 
 | Ice Beam 100.000%                      | 
 +----------------------------------------+ 
 | Teammates                              | 
 | Clefable +94.444%                      | 
 | Drifblim +94.444%                      | 
 | Primeape +94.444%                      | 
 | Ambipom +88.889%                       | 
 | Steelix +66.667%                       | 
 +----------------------------------------+ 
 | Checks and Counters                    | 
 +----------------------------------------+ 
