 +----------------------------------------+ 
 | Kyogre                                 | 
 +----------------------------------------+ 
 | Raw count: 5                           | 
 | Avg. weight: 0.730643990411            | 
 | Viability Ceiling: 76                  | 
 +----------------------------------------+ 
 | Abilities                              | 
 | Drizzle 100.000%                       | 
 +----------------------------------------+ 
 | Items                                  | 
 | Leftovers 40.189%                      | 
 | Choice Scarf 27.302%                   | 
 | Choice Specs 17.194%                   | 
 | Nothing 15.315%                        | 
 +----------------------------------------+ 
 | Spreads                                | 
 | Timid:0/0/0/252/4/252 27.302%          | 
 | Modest:0/0/252/112/144/0 26.642%       | 
 | Timid:4/0/0/252/0/252 17.194%          | 
 | Hardy:0/0/0/0/0/0 15.315%              | 
 | Modest:240/0/228/0/0/40 13.546%        | 
 +----------------------------------------+ 
 | Moves                                  | 
 | Thunder 86.454%                        | 
 | Surf 84.685%                           | 
 | Ice Beam 71.138%                       | 
 | Water Spout 44.496%                    | 
 | Calm Mind 26.642%                      | 
 | Dive 15.315%                           | 
 | Rain Dance 15.315%                     | 
 | Whirlpool 15.315%                      | 
 | Thunder Wave 13.546%                   | 
 | Rest 13.546%                           | 
 | Other 13.546%                          | 
 +----------------------------------------+ 
 | Teammates                              | 
 +----------------------------------------+ 
 | Checks and Counters                    | 
 +----------------------------------------+ 
 +----------------------------------------+ 
 | Wobbuffet                              | 
 +----------------------------------------+ 
 | Raw count: 1                           | 
 | Avg. weight: 0.628122801539            | 
 | Viability Ceiling: 55                  | 
 +----------------------------------------+ 
 | Abilities                              | 
 | Shadow Tag 100.000%                    | 
 +----------------------------------------+ 
 | Items                                  | 
 | Leftovers 100.000%                     | 
 +----------------------------------------+ 
 | Spreads                                | 
 | Hardy:0/0/0/0/0/0 100.000%             | 
 +----------------------------------------+ 
 | Moves                                  | 
 | Mirror Coat 100.000%                   | 
 | Counter 100.000%                       | 
 | Safeguard 100.000%                     | 
 | Encore 100.000%                        | 
 +----------------------------------------+ 
 | Teammates                              | 
 | Forretress +44.068%                    | 
 | Rayquaza +44.068%                      | 
 | Salamence +44.068%                     | 
 | Palkia +44.068%                        | 
 +----------------------------------------+ 
 | Checks and Counters                    | 
 +----------------------------------------+ 
 +----------------------------------------+ 
 | Palkia                                 | 
 +----------------------------------------+ 
 | Raw count: 1                           | 
 | Avg. weight: 0.628122801539            | 
 | Viability Ceiling: 55                  | 
 +----------------------------------------+ 
 | Abilities                              | 
 | Pressure 100.000%                      | 
 +----------------------------------------+ 
 | Items                                  | 
 | Lustrous Orb 100.000%                  | 
 +----------------------------------------+ 
 | Spreads                                | 
 | Jolly:4/252/0/0/0/252 100.000%         | 
 +----------------------------------------+ 
 | Moves                                  | 
 | Outrage 100.000%                       | 
 | Bulk Up 100.000%                       | 
 | Aqua Tail 100.000%                     | 
 | Earthquake 100.000%                    | 
 +----------------------------------------+ 
 | Teammates                              | 
 | Forretress +44.068%                    | 
 | Rayquaza +44.068%                      | 
 | Wobbuffet +44.068%                     | 
 | Salamence +44.068%                     | 
 +----------------------------------------+ 
 | Checks and Counters                    | 
 +----------------------------------------+ 
 +----------------------------------------+ 
 | Rayquaza                               | 
 +----------------------------------------+ 
 | Raw count: 3                           | 
 | Avg. weight: 0.866276439131            | 
 | Viability Ceiling: 76                  | 
 +----------------------------------------+ 
 | Abilities                              | 
 | Air Lock 100.000%                      | 
 +----------------------------------------+ 
 | Items                                  | 
 | Life Orb 62.548%                       | 
 | Leftovers 37.452%                      | 
 +----------------------------------------+ 
 | Spreads                                | 
 | Adamant:0/252/0/0/4/252 38.379%        | 
 | Adamant:0/252/128/0/128/0 37.452%      | 
 | Jolly:32/252/0/0/8/0 24.169%           | 
 +----------------------------------------+ 
 | Moves                                  | 
 | Earthquake 100.000%                    | 
 | Dragon Dance 61.621%                   | 
 | Outrage 61.621%                        | 
 | Extreme Speed 38.379%                  | 
 | Swords Dance 38.379%                   | 
 | Dragon Claw 38.379%                    | 
 | Fly 37.452%                            | 
 | Overheat 24.169%                       | 
 +----------------------------------------+ 
 | Teammates                              | 
 +----------------------------------------+ 
 | Checks and Counters                    | 
 +----------------------------------------+ 
 +----------------------------------------+ 
 | Forretress                             | 
 +----------------------------------------+ 
 | Raw count: 1                           | 
 | Avg. weight: 0.628122801539            | 
 | Viability Ceiling: 55                  | 
 +----------------------------------------+ 
 | Abilities                              | 
 | Sturdy 100.000%                        | 
 +----------------------------------------+ 
 | Items                                  | 
 | Leftovers 100.000%                     | 
 +----------------------------------------+ 
 | Spreads                                | 
 | Hardy:0/0/0/0/0/0 100.000%             | 
 +----------------------------------------+ 
 | Moves                                  | 
 | Payback 100.000%                       | 
 | Stealth Rock 100.000%                  | 
 | Toxic Spikes 100.000%                  | 
 | Rapid Spin 100.000%                    | 
 +----------------------------------------+ 
 | Teammates                              | 
 | Rayquaza +44.068%                      | 
 | Wobbuffet +44.068%                     | 
 | Palkia +44.068%                        | 
 | Salamence +44.068%                     | 
 +----------------------------------------+ 
 | Checks and Counters                    | 
 +----------------------------------------+ 
 +----------------------------------------+ 
 | Salamence                              | 
 +----------------------------------------+ 
 | Raw count: 1                           | 
 | Avg. weight: 0.628122801539            | 
 | Viability Ceiling: 55                  | 
 +----------------------------------------+ 
 | Abilities                              | 
 | Intimidate 100.000%                    | 
 +----------------------------------------+ 
 | Items                                  | 
 | Life Orb 100.000%                      | 
 +----------------------------------------+ 
 | Spreads                                | 
 | Jolly:0/252/4/0/0/252 100.000%         | 
 +----------------------------------------+ 
 | Moves                                  | 
 | Outrage 100.000%                       | 
 | Dragon Dance 100.000%                  | 
 | Fire Blast 100.000%                    | 
 | Earthquake 100.000%                    | 
 +----------------------------------------+ 
 | Teammates                              | 
 | Forretress +44.068%                    | 
 | Rayquaza +44.068%                      | 
 | Wobbuffet +44.068%                     | 
 | Palkia +44.068%                        | 
 +----------------------------------------+ 
 | Checks and Counters                    | 
 +----------------------------------------+ 
 +----------------------------------------+ 
 | Latios                                 | 
 +----------------------------------------+ 
 | Raw count: 1                           | 
 | Avg. weight: 0.494881968955            | 
 | Viability Ceiling: 50                  | 
 +----------------------------------------+ 
 | Abilities                              | 
 | Levitate 100.000%                      | 
 +----------------------------------------+ 
 | Items                                  | 
 | Soul Dew 100.000%                      | 
 +----------------------------------------+ 
 | Spreads                                | 
 | Timid:56/0/0/252/0/200 100.000%        | 
 +----------------------------------------+ 
 | Moves                                  | 
 | Thunder 100.000%                       | 
 | Hidden Power Fire 100.000%             | 
 | Grass Knot 100.000%                    | 
 | Draco Meteor 100.000%                  | 
 +----------------------------------------+ 
 | Teammates                              | 
 | Scizor +55.932%                        | 
 | Giratina-Origin +55.932%               | 
 | Garchomp +55.932%                      | 
 | Deoxys-Speed +55.932%                  | 
 +----------------------------------------+ 
 | Checks and Counters                    | 
 +----------------------------------------+ 
 +----------------------------------------+ 
 | Giratina-Origin                        | 
 +----------------------------------------+ 
 | Raw count: 3                           | 
 | Avg. weight: 0.485338213156            | 
 | Viability Ceiling: 52                  | 
 +----------------------------------------+ 
 | Abilities                              | 
 | Levitate 100.000%                      | 
 +----------------------------------------+ 
 | Items                                  | 
 | Griseous Orb 100.000%                  | 
 +----------------------------------------+ 
 | Spreads                                | 
 | Quiet:248/8/0/252/0/0 38.427%          | 
 | Adamant:144/252/0/0/0/112 33.989%      | 
 | Naive:0/248/0/64/0/196 27.584%         | 
 +----------------------------------------+ 
 | Moves                                  | 
 | Draco Meteor 66.011%                   | 
 | Shadow Sneak 61.573%                   | 
 | Shadow Ball 38.427%                    | 
 | Shadow Force 38.427%                   | 
 | Twister 38.427%                        | 
 | Will-O-Wisp 33.989%                    | 
 | Dragon Claw 33.989%                    | 
 | Substitute 33.989%                     | 
 | Hidden Power Fire 27.584%              | 
 | Outrage 27.584%                        | 
 +----------------------------------------+ 
 | Teammates                              | 
 +----------------------------------------+ 
 | Checks and Counters                    | 
 +----------------------------------------+ 
 +----------------------------------------+ 
 | Scizor                                 | 
 +----------------------------------------+ 
 | Raw count: 1                           | 
 | Avg. weight: 0.494881968955            | 
 | Viability Ceiling: 50                  | 
 +----------------------------------------+ 
 | Abilities                              | 
 | Technician 100.000%                    | 
 +----------------------------------------+ 
 | Items                                  | 
 | Leftovers 100.000%                     | 
 +----------------------------------------+ 
 | Spreads                                | 
 | Careful:244/20/76/0/168/0 100.000%     | 
 +----------------------------------------+ 
 | Moves                                  | 
 | Toxic 100.000%                         | 
 | U-turn 100.000%                        | 
 | Bullet Punch 100.000%                  | 
 | Roost 100.000%                         | 
 +----------------------------------------+ 
 | Teammates                              | 
 | Latios +55.932%                        | 
 | Giratina-Origin +55.932%               | 
 | Garchomp +55.932%                      | 
 | Deoxys-Speed +55.932%                  | 
 +----------------------------------------+ 
 | Checks and Counters                    | 
 +----------------------------------------+ 
 +----------------------------------------+ 
 | Garchomp                               | 
 +----------------------------------------+ 
 | Raw count: 2                           | 
 | Avg. weight: 0.734095492399            | 
 | Viability Ceiling: 64                  | 
 +----------------------------------------+ 
 | Abilities                              | 
 | Sand Veil 100.000%                     | 
 +----------------------------------------+ 
 | Items                                  | 
 | BrightPowder 66.293%                   | 
 | Choice Scarf 33.707%                   | 
 +----------------------------------------+ 
 | Spreads                                | 
 | Adamant:0/252/0/0/4/252 66.293%        | 
 | Jolly:4/252/0/0/0/252 33.707%          | 
 +----------------------------------------+ 
 | Moves                                  | 
 | Earthquake 100.000%                    | 
 | Dragon Rush 66.293%                    | 
 | Sand Attack 66.293%                    | 
 | Substitute 66.293%                     | 
 | Stone Edge 33.707%                     | 
 | Outrage 33.707%                        | 
 | Dragon Claw 33.707%                    | 
 +----------------------------------------+ 
 | Teammates                              | 
 +----------------------------------------+ 
 | Checks and Counters                    | 
 +----------------------------------------+ 
 +----------------------------------------+ 
 | Deoxys-Speed                           | 
 +----------------------------------------+ 
 | Raw count: 2                           | 
 | Avg. weight: 0.746139734483            | 
 | Viability Ceiling: 76                  | 
 +----------------------------------------+ 
 | Abilities                              | 
 | Pressure 100.000%                      | 
 +----------------------------------------+ 
 | Items                                  | 
 | Focus Sash 100.000%                    | 
 +----------------------------------------+ 
 | Spreads                                | 
 | Jolly:0/252/4/0/0/252 66.837%          | 
 | Jolly:4/252/0/0/0/252 33.163%          | 
 +----------------------------------------+ 
 | Moves                                  | 
 | Stealth Rock 100.000%                  | 
 | Spikes 100.000%                        | 
 | Superpower 100.000%                    | 
 | Taunt 100.000%                         | 
 +----------------------------------------+ 
 | Teammates                              | 
 +----------------------------------------+ 
 | Checks and Counters                    | 
 +----------------------------------------+ 
