 Total leads: 44060
 + ---- + ------------------ + --------- + ------ + ------- + 
 | Rank | Pokemon            | Usage %   | Raw    | %       | 
 + ---- + ------------------ + --------- + ------ + ------- + 
 | 1    | Jirachi            | 10.25639% | 2422   |  5.497% | 
 | 2    | Metagross          |  8.20371% | 2677   |  6.076% | 
 | 3    | Azelf              |  7.42893% | 3239   |  7.351% | 
 | 4    | Machamp            |  7.21953% | 2864   |  6.500% | 
 | 5    | Infernape          |  4.79766% | 1877   |  4.260% | 
 | 6    | Aerodactyl         |  4.79276% | 2197   |  4.986% | 
 | 7    | Swampert           |  3.89311% | 1639   |  3.720% | 
 | 8    | Empoleon           |  3.57832% | 1144   |  2.596% | 
 | 9    | Zapdos             |  3.50891% | 1310   |  2.973% | 
 | 10   | Heatran            |  3.43853% | 1456   |  3.305% | 
 | 11   | Dragonite          |  3.29064% | 1037   |  2.354% | 
 | 12   | Flygon             |  3.10069% | 1081   |  2.453% | 
 | 13   | Roserade           |  2.87834% | 1499   |  3.402% | 
 | 14   | Tyranitar          |  2.76220% | 953    |  2.163% | 
 | 15   | Hippowdon          |  2.65663% | 1378   |  3.128% | 
 | 16   | Starmie            |  2.58820% | 756    |  1.716% | 
 | 17   | Nidoqueen          |  2.16791% | 654    |  1.484% | 
 | 18   | Bronzong           |  2.12844% | 1759   |  3.992% | 
 | 19   | Skarmory           |  1.89228% | 923    |  2.095% | 
 | 20   | Gliscor            |  1.69719% | 1213   |  2.753% | 
 | 21   | Abomasnow          |  1.60039% | 411    |  0.933% | 
 | 22   | Smeargle           |  1.57160% | 465    |  1.055% | 
 | 23   | Uxie               |  1.48362% | 462    |  1.049% | 
 | 24   | Gyarados           |  1.25857% | 525    |  1.192% | 
 | 25   | Celebi             |  1.14855% | 235    |  0.533% | 
 | 26   | Latias             |  0.68515% | 141    |  0.320% | 
 | 27   | Crobat             |  0.65213% | 469    |  1.064% | 
 | 28   | Gengar             |  0.58790% | 394    |  0.894% | 
 | 29   | Rotom-Heat         |  0.55553% | 100    |  0.227% | 
 | 30   | Gallade            |  0.54482% | 285    |  0.647% | 
 | 31   | Tentacruel         |  0.53237% | 180    |  0.409% | 
 | 32   | Rotom-Mow          |  0.50443% | 65     |  0.148% | 
 | 33   | Breloom            |  0.44445% | 331    |  0.751% | 
 | 34   | Forretress         |  0.44351% | 613    |  1.391% | 
 | 35   | Mamoswine          |  0.43337% | 465    |  1.055% | 
 | 36   | Kingdra            |  0.39531% | 164    |  0.372% | 
 | 37   | Togekiss           |  0.33337% | 149    |  0.338% | 
 | 38   | Rotom-Wash         |  0.31759% | 152    |  0.345% | 
 | 39   | Staraptor          |  0.31229% | 152    |  0.345% | 
 | 40   | Vaporeon           |  0.29141% | 146    |  0.331% | 
 | 41   | Raikou             |  0.29079% | 92     |  0.209% | 
 | 42   | Mesprit            |  0.28783% | 66     |  0.150% | 
 | 43   | Yanmega            |  0.28666% | 138    |  0.313% | 
 | 44   | Scizor             |  0.26446% | 291    |  0.660% | 
 | 45   | Hariyama           |  0.25799% | 143    |  0.325% | 
 | 46   | Froslass           |  0.25064% | 300    |  0.681% | 
 | 47   | Heracross          |  0.22540% | 56     |  0.127% | 
 | 48   | Ambipom            |  0.21412% | 244    |  0.554% | 
 | 49   | Donphan            |  0.20642% | 155    |  0.352% | 
 | 50   | Lucario            |  0.19372% | 424    |  0.962% | 
 | 51   | Moltres            |  0.17953% | 63     |  0.143% | 
 | 52   | Ninjask            |  0.16681% | 169    |  0.384% | 
 | 53   | Suicune            |  0.10893% | 83     |  0.188% | 
 | 54   | Claydol            |  0.08669% | 60     |  0.136% | 
 | 55   | Charizard          |  0.08216% | 117    |  0.266% | 
 | 56   | Alakazam           |  0.04665% | 97     |  0.220% | 
 | 57   | Jumpluff           |  0.03582% | 23     |  0.052% | 
 | 58   | Venomoth           |  0.02995% | 3      |  0.007% | 
 | 59   | Snorlax            |  0.02897% | 140    |  0.318% | 
 | 60   | Weavile            |  0.02626% | 225    |  0.511% | 
 | 61   | Jolteon            |  0.02479% | 124    |  0.281% | 
 | 62   | Porygon2           |  0.02449% | 8      |  0.018% | 
 | 63   | Blissey            |  0.02228% | 200    |  0.454% | 
 | 64   | Butterfree         |  0.02072% | 20     |  0.045% | 
 | 65   | Sceptile           |  0.02062% | 19     |  0.043% | 
 | 66   | Slowbro            |  0.01881% | 25     |  0.057% | 
 | 67   | Floatzel           |  0.01353% | 27     |  0.061% | 
 | 68   | Blaziken           |  0.01150% | 29     |  0.066% | 
 | 69   | Rhyperior          |  0.01102% | 46     |  0.104% | 
 | 70   | Magmortar          |  0.01090% | 54     |  0.123% | 
 | 71   | Slaking            |  0.01054% | 4      |  0.009% | 
 | 72   | Pinsir             |  0.01038% | 1      |  0.002% | 
 | 73   | Regigigas          |  0.01025% | 11     |  0.025% | 
 | 74   | Honchkrow          |  0.01009% | 72     |  0.163% | 
 | 75   | Umbreon            |  0.00840% | 49     |  0.111% | 
 | 76   | Torterra           |  0.00831% | 80     |  0.182% | 
 | 77   | Espeon             |  0.00672% | 30     |  0.068% | 
 | 78   | Steelix            |  0.00596% | 116    |  0.263% | 
 | 79   | Masquerain         |  0.00584% | 5      |  0.011% | 
 | 80   | Typhlosion         |  0.00583% | 109    |  0.247% | 
 | 81   | Swellow            |  0.00581% | 21     |  0.048% | 
 | 82   | Politoed           |  0.00556% | 2      |  0.005% | 
 | 83   | Qwilfish           |  0.00456% | 13     |  0.030% | 
 | 84   | Ursaring           |  0.00418% | 12     |  0.027% | 
 | 85   | Primeape           |  0.00417% | 28     |  0.064% | 
 | 86   | Linoone            |  0.00409% | 24     |  0.054% | 
 | 87   | Magnezone          |  0.00401% | 56     |  0.127% | 
 | 88   | Porygon-Z          |  0.00381% | 47     |  0.107% | 
 | 89   | Scyther            |  0.00361% | 16     |  0.036% | 
 | 90   | Milotic            |  0.00358% | 18     |  0.041% | 
 | 91   | Shuckle            |  0.00325% | 8      |  0.018% | 
 | 92   | Dugtrio            |  0.00308% | 35     |  0.079% | 
 | 93   | Blastoise          |  0.00284% | 23     |  0.052% | 
 | 94   | Cresselia          |  0.00271% | 120    |  0.272% | 
 | 95   | Shaymin            |  0.00271% | 20     |  0.045% | 
 | 96   | Gardevoir          |  0.00252% | 17     |  0.039% | 
 | 97   | Dusknoir           |  0.00241% | 118    |  0.268% | 
 | 98   | Drapion            |  0.00240% | 41     |  0.093% | 
 | 99   | Azumarill          |  0.00211% | 12     |  0.027% | 
 | 100  | Golem              |  0.00167% | 35     |  0.079% | 
 | 101  | Spiritomb          |  0.00150% | 64     |  0.145% | 
 | 102  | Lumineon           |  0.00150% | 2      |  0.005% | 
 | 103  | Feraligatr         |  0.00149% | 37     |  0.084% | 
 | 104  | Kabutops           |  0.00148% | 2      |  0.005% | 
 | 105  | Wailord            |  0.00135% | 10     |  0.023% | 
 | 106  | Probopass          |  0.00127% | 15     |  0.034% | 
 | 107  | Lanturn            |  0.00123% | 10     |  0.023% | 
 | 108  | Arcanine           |  0.00118% | 41     |  0.093% | 
 | 109  | Rotom-Frost        |  0.00113% | 8      |  0.018% | 
 | 110  | Hitmonlee          |  0.00110% | 2      |  0.005% | 
 | 111  | Clefable           |  0.00110% | 52     |  0.118% | 
 | 112  | Electivire         |  0.00100% | 143    |  0.325% | 
 | 113  | Pikachu            |  0.00095% | 140    |  0.318% | 
 | 114  | Hitmontop          |  0.00075% | 38     |  0.086% | 
 | 115  | Aggron             |  0.00064% | 32     |  0.073% | 
 | 116  | Cradily            |  0.00060% | 2      |  0.005% | 
 | 117  | Registeel          |  0.00051% | 14     |  0.032% | 
 | 118  | Regirock           |  0.00050% | 10     |  0.023% | 
 | 119  | Pidgeot            |  0.00043% | 18     |  0.041% | 
 | 120  | Walrein            |  0.00042% | 5      |  0.011% | 
 | 121  | Persian            |  0.00039% | 20     |  0.045% | 
 | 122  | Toxicroak          |  0.00026% | 4      |  0.009% | 
 | 123  | Rapidash           |  0.00025% | 9      |  0.020% | 
 | 124  | Chatot             |  0.00020% | 1      |  0.002% | 
 | 125  | Mismagius          |  0.00018% | 19     |  0.043% | 
 | 126  | Cloyster           |  0.00016% | 49     |  0.111% | 
 | 127  | Hippopotas         |  0.00015% | 7      |  0.016% | 
 | 128  | Venusaur           |  0.00015% | 34     |  0.077% | 
 | 129  | Muk                |  0.00015% | 4      |  0.009% | 
 | 130  | Electrode          |  0.00013% | 14     |  0.032% | 
 | 131  | Hypno              |  0.00013% | 4      |  0.009% | 
 | 132  | Nidoking           |  0.00011% | 22     |  0.050% | 
 | 133  | Absol              |  0.00010% | 15     |  0.034% | 
 | 134  | Eevee              |  0.00010% | 8      |  0.018% | 
 | 135  | Mr. Mime           |  0.00010% | 3      |  0.007% | 
 | 136  | Shedinja           |  0.00009% | 14     |  0.032% | 
 | 137  | Altaria            |  0.00009% | 8      |  0.018% | 
 | 138  | Nosepass           |  0.00009% | 5      |  0.011% | 
 | 139  | Flareon            |  0.00007% | 3      |  0.007% | 
 | 140  | Ampharos           |  0.00006% | 4      |  0.009% | 
 | 141  | Houndoom           |  0.00006% | 5      |  0.011% | 
 | 142  | Golbat             |  0.00005% | 1      |  0.002% | 
 | 143  | Articuno           |  0.00004% | 14     |  0.032% | 
 | 144  | Gastrodon          |  0.00003% | 10     |  0.023% | 
 | 145  | Sableye            |  0.00003% | 7      |  0.016% | 
 | 146  | Skuntank           |  0.00002% | 2      |  0.005% | 
 | 147  | Golduck            |  0.00002% | 1      |  0.002% | 
 | 148  | Aron               |  0.00002% | 3      |  0.007% | 
 | 149  | Porygon            |  0.00002% | 9      |  0.020% | 
 | 150  | Crawdaunt          |  0.00002% | 7      |  0.016% | 
 | 151  | Buizel             |  0.00001% | 1      |  0.002% | 
 | 152  | Exeggutor          |  0.00001% | 2      |  0.005% | 
 | 153  | Omastar            |  0.00001% | 5      |  0.011% | 
 | 154  | Phione             |  0.00001% | 11     |  0.025% | 
 | 155  | Ninetales          |  0.00001% | 9      |  0.020% | 
 | 156  | Ludicolo           |  0.00000% | 11     |  0.025% | 
 | 157  | Kingler            |  0.00000% | 16     |  0.036% | 
 | 158  | Staravia           |  0.00000% | 1      |  0.002% | 
 | 159  | Magikarp           |  0.00000% | 8      |  0.018% | 
 | 160  | Sharpedo           |  0.00000% | 125    |  0.284% | 
 | 161  | Rotom-Fan          |  0.00000% | 3      |  0.007% | 
 | 162  | Hitmonchan         |  0.00000% | 10     |  0.023% | 
 | 163  | Gligar             |  0.00000% | 2      |  0.005% | 
 | 164  | Raichu             |  0.00000% | 10     |  0.023% | 
 | 165  | Lopunny            |  0.00000% | 4      |  0.009% | 
 | 166  | Raticate           |  0.00000% | 5      |  0.011% | 
 | 167  | Graveler           |  0.00000% | 1      |  0.002% | 
 | 168  | Jynx               |  0.00000% | 45     |  0.102% | 
 | 169  | Medicham           |  0.00000% | 3      |  0.007% | 
 | 170  | Xatu               |  0.00000% | 2      |  0.005% | 
 | 171  | Plusle             |  0.00000% | 12     |  0.027% | 
 | 172  | Quagsire           |  0.00000% | 5      |  0.011% | 
 | 173  | Elekid             |  0.00000% | 1      |  0.002% | 
 | 174  | Entei              |  0.00000% | 15     |  0.034% | 
 | 175  | Glaceon            |  0.00000% | 13     |  0.030% | 
 | 176  | Magneton           |  0.00000% | 3      |  0.007% | 
 | 177  | Vileplume          |  0.00000% | 4      |  0.009% | 
 | 178  | Poliwrath          |  0.00000% | 3      |  0.007% | 
 | 179  | Arbok              |  0.00000% | 4      |  0.009% | 
 | 180  | Mightyena          |  0.00000% | 73     |  0.166% | 
 | 181  | Miltank            |  0.00000% | 42     |  0.095% | 
 | 182  | Slowking           |  0.00000% | 1      |  0.002% | 
 | 183  | Tangrowth          |  0.00000% | 4      |  0.009% | 
 | 184  | Caterpie           |  0.00000% | 1      |  0.002% | 
 | 185  | Purugly            |  0.00000% | 1      |  0.002% | 
 | 186  | Cacturne           |  0.00000% | 1      |  0.002% | 
 | 187  | Kricketot          |  0.00000% | 1      |  0.002% | 
 | 188  | Lapras             |  0.00000% | 4      |  0.009% | 
 | 189  | Starly             |  0.00000% | 1      |  0.002% | 
 | 190  | Rampardos          |  0.00000% | 6      |  0.014% | 
 | 191  | Marshtomp          |  0.00000% | 1      |  0.002% | 
 | 192  | Banette            |  0.00000% | 1      |  0.002% | 
 | 193  | Pachirisu          |  0.00000% | 1      |  0.002% | 
 | 194  | Piplup             |  0.00000% | 2      |  0.005% | 
 | 195  | Bulbasaur          |  0.00000% | 1      |  0.002% | 
 | 196  | Kecleon            |  0.00000% | 1      |  0.002% | 
 | 197  | Marowak            |  0.00000% | 1      |  0.002% | 
 | 198  | Wigglytuff         |  0.00000% | 1      |  0.002% | 
 | 199  | Pidgeotto          |  0.00000% | 1      |  0.002% | 
 | 200  | Rattata            |  0.00000% | 3      |  0.007% | 
 | 201  | Gabite             |  0.00000% | 6      |  0.014% | 
 | 202  | Relicanth          |  0.00000% | 1      |  0.002% | 
 | 203  | Grotle             |  0.00000% | 1      |  0.002% | 
 | 204  | Togetic            |  0.00000% | 2      |  0.005% | 
 | 205  | Cherrim            |  0.00000% | 2      |  0.005% | 
 | 206  | Monferno           |  0.00000% | 1      |  0.002% | 
 | 207  | Vigoroth           |  0.00000% | 2      |  0.005% | 
 | 208  | Kangaskhan         |  0.00000% | 1      |  0.002% | 
 | 209  | Drifblim           |  0.00000% | 3      |  0.007% | 
 | 210  | Voltorb            |  0.00000% | 1      |  0.002% | 
 | 211  | Bastiodon          |  0.00000% | 4      |  0.009% | 
 | 212  | Regice             |  0.00000% | 1      |  0.002% | 
 | 213  | Bibarel            |  0.00000% | 1      |  0.002% | 
 | 214  | Chimchar           |  0.00000% | 4      |  0.009% | 
 | 215  | Swinub             |  0.00000% | 5      |  0.011% | 
 | 216  | Dodrio             |  0.00000% | 1      |  0.002% | 
 | 217  | Pichu              |  0.00000% | 1      |  0.002% | 
 | 218  | Grumpig            |  0.00000% | 1      |  0.002% | 
 | 219  | Turtwig            |  0.00000% | 1      |  0.002% | 
 | 220  | Munchlax           |  0.00000% | 3      |  0.007% | 
 | 221  | Noctowl            |  0.00000% | 3      |  0.007% | 
 | 222  | Luxray             |  0.00000% | 4      |  0.009% | 
 | 223  | Dunsparce          |  0.00000% | 1      |  0.002% | 
 | 224  | Grimer             |  0.00000% | 1      |  0.002% | 
 | 225  | Meganium           |  0.00000% | 6      |  0.014% | 
 | 226  | Onix               |  0.00000% | 4      |  0.009% | 
 + ---- + ------------------ + --------- + ------ + ------- + 
