 monofighting..................100.00000%
 monotype......................100.00000%
 weatherless...................99.99997%
 hyperoffense..................81.25733%
 offense.......................17.32244%
 balance....................... 1.31139%
 choice........................ 0.18063%
 stall......................... 0.10883%
 voltturn...................... 0.01025%
 rain.......................... 0.00003%
 monopsychic................... 0.00001%
 semistall..................... 0.00000%
 monoflying.................... 0.00000%
 monobug....................... 0.00000%
 sun........................... 0.00000%
 monowater..................... 0.00000%
 monodark...................... 0.00000%
 monograss..................... 0.00000%
 monorock...................... 0.00000%

 Stalliness (mean: -1.342)
 -2.0|########
     |#########
 -1.6|######################
     |##############################
 -1.2|##########
     |###########
 -0.8|######
     |###
 -0.4|###
     |#
  0.0|#
     |#
 +0.4|
 more negative = more offensive, more positive = more stall
 one # =  0.95%
