 monotype......................100.00000%
 monosteel.....................100.00000%
 weatherless...................99.96947%
 offense.......................41.35330%
 balance.......................33.54628%
 hyperoffense..................20.62635%
 choice........................18.95912%
 stall......................... 2.64194%
 semistall..................... 1.83214%
 trickroom..................... 1.26342%
 voltturn...................... 0.42470%
 sun........................... 0.01959%
 sand.......................... 0.01054%
 rain.......................... 0.00039%
 monobug....................... 0.00000%
 tailwind...................... 0.00000%
 gravity....................... 0.00000%
 monorock...................... 0.00000%
 monoground.................... 0.00000%
 monodark...................... 0.00000%
 monoflying.................... 0.00000%
 monoelectric.................. 0.00000%

 Stalliness (mean: -0.191)
 -1.5|
     |#############################
 -1.0|##############
     |#######
 -0.5|##############################
     |###################
  0.0|###########
     |#######
 +0.5|###############
     |#######################
 +1.0|####
     |###
 +1.5|###
     |
 more negative = more offensive, more positive = more stall
 one # =  0.61%
