 monotype......................100.00000%
 monoground....................100.00000%
 sand..........................69.45905%
 balance.......................51.27936%
 offense.......................42.24014%
 weatherless...................30.47474%
 semistall..................... 4.68902%
 choice........................ 1.68244%
 hyperoffense.................. 1.57339%
 sandoffense................... 0.21809%
 stall......................... 0.21809%
 dragmag....................... 0.21420%
 sandstall..................... 0.17525%
 gravity....................... 0.07400%
 monorock...................... 0.05063%
 rain.......................... 0.04673%
 monowater..................... 0.03505%
 voltturn...................... 0.02726%
 hail.......................... 0.01558%
 sun........................... 0.01558%
 multiweather.................. 0.01168%
 monoflying.................... 0.01168%
 monopsychic................... 0.00779%
 monosteel..................... 0.00389%
 monoice....................... 0.00389%
 mononormal.................... 0.00389%
 monofire...................... 0.00389%
 monodragon.................... 0.00389%

 Stalliness (mean:  0.092)
     |#
 -1.0|###
     |#########
 -0.5|################
     |########################
  0.0|##############################
     |############################
 +0.5|######################
     |############
 +1.0|#######
     |####
 +1.5|#
 more negative = more offensive, more positive = more stall
 one # =  0.64%
