 monotype......................100.00000%
 monoice.......................100.00000%
 hail..........................70.69262%
 offense.......................64.95808%
 weatherless...................29.27530%
 balance.......................26.71261%
 hyperoffense.................. 5.85734%
 hailoffense................... 3.52511%
 semistall..................... 2.33335%
 choice........................ 0.88793%
 stall......................... 0.13862%
 hailstall..................... 0.13862%
 sun........................... 0.02804%
 monoghost..................... 0.00496%
 rain.......................... 0.00406%
 monodragon.................... 0.00262%
 multiweather.................. 0.00001%
 monowater..................... 0.00000%
 monoground.................... 0.00000%
 voltturn...................... 0.00000%
 monopsychic................... 0.00000%
 monorock...................... 0.00000%
 monoflying.................... 0.00000%

 Stalliness (mean: -0.201)
 -1.5|
     |#####
 -1.0|###
     |########
 -0.5|###############
     |##############################
  0.0|#################
     |##########
 +0.5|####
     |###
 +1.0|##
     |#
 +1.5|
 more negative = more offensive, more positive = more stall
 one # =  1.02%
