 monotype......................100.00000%
 monoground....................100.00000%
 sand..........................83.03694%
 balance.......................51.35381%
 offense.......................46.57741%
 weatherless...................16.96237%
 semistall..................... 1.65738%
 choice........................ 0.76555%
 hyperoffense.................. 0.38196%
 sandoffense................... 0.12793%
 gravity....................... 0.03370%
 stall......................... 0.02943%
 sandstall..................... 0.02937%
 monorock...................... 0.00936%
 dragmag....................... 0.00774%
 voltturn...................... 0.00661%
 rain.......................... 0.00069%
 monowater..................... 0.00000%
 monoice....................... 0.00000%
 mononormal.................... 0.00000%
 monopsychic................... 0.00000%
 hail.......................... 0.00000%
 multiweather.................. 0.00000%
 sun........................... 0.00000%
 monosteel..................... 0.00000%
 monoflying.................... 0.00000%
 monofire...................... 0.00000%
 monodragon.................... 0.00000%

 Stalliness (mean:  0.046)
     |
 -1.0|#
     |#########
 -0.5|################
     |#####################
  0.0|##############################
     |############################
 +0.5|################
     |##########
 +1.0|###
     |#
 +1.5|
 more negative = more offensive, more positive = more stall
 one # =  0.73%
