 monotype......................100.00000%
 monopsychic...................100.00000%
 weatherless...................99.90921%
 offense.......................51.70083%
 balance.......................43.37641%
 trickroom..................... 4.41596%
 hyperoffense.................. 3.80707%
 voltturn...................... 1.51959%
 trapper....................... 1.10620%
 choice........................ 0.92921%
 semistall..................... 0.91129%
 dragmag....................... 0.35360%
 stall......................... 0.20440%
 sun........................... 0.08182%
 gravity....................... 0.01173%
 monodark...................... 0.01126%
 monograss..................... 0.01039%
 hail.......................... 0.00897%
 monoice....................... 0.00832%
 monofairy..................... 0.00473%
 monoflying.................... 0.00469%
 tailwind...................... 0.00158%
 monofire...................... 0.00158%
 mononormal.................... 0.00158%
 monoground.................... 0.00040%
 monofighting.................. 0.00018%

 Stalliness (mean: -0.082)
     |###
 -1.0|########
     |###########
 -0.5|##############
     |############################
  0.0|##############################
     |########################
 +0.5|################
     |######
 +1.0|##
     |#
 +1.5|
     |
 more negative = more offensive, more positive = more stall
 one # =  0.69%
