 monotype......................100.00000%
 monorock......................100.00000%
 sand..........................74.44910%
 offense.......................47.39092%
 balance.......................40.78867%
 weatherless...................23.70293%
 hyperoffense.................. 8.86779%
 sandoffense................... 5.63152%
 semistall..................... 2.58508%
 hail.......................... 2.39713%
 multiweather.................. 0.83756%
 trickroom..................... 0.69643%
 tricksand..................... 0.49575%
 stall......................... 0.36754%
 sandstall..................... 0.35603%
 rain.......................... 0.28056%
 gravity....................... 0.23287%
 monowater..................... 0.19283%
 choice........................ 0.10045%
 monoground.................... 0.05433%
 tailwind...................... 0.02327%
 hailoffense................... 0.02248%
 monosteel..................... 0.01681%
 monodark...................... 0.01000%
 monoice....................... 0.00837%
 sun........................... 0.00784%
 monobug....................... 0.00747%
 monodragon.................... 0.00420%
 monofighting.................. 0.00420%
 hailstall..................... 0.00404%

 Stalliness (mean: -0.121)
     |#
 -1.5|#####
     |#####
 -1.0|############
     |######################
 -0.5|#######################
     |############################
  0.0|############################
     |##############################
 +0.5|###################
     |############
 +1.0|########
     |##
 +1.5|#
     |
 +2.0|
     |
 +2.5|
     |
 more negative = more offensive, more positive = more stall
 one # =  0.50%
