 +----------------------------------------+ 
 | Sceptile                               | 
 +----------------------------------------+ 
 | Raw count: 5                           | 
 | Avg. weight: 0.00158834551338          | 
 | Viability Ceiling: 50                  | 
 +----------------------------------------+ 
 | Abilities                              | 
 | Overgrow 100.000%                      | 
 +----------------------------------------+ 
 | Items                                  | 
 | Leftovers 100.000%                     | 
 | Other  0.000%                          | 
 +----------------------------------------+ 
 | Spreads                                | 
 | Timid:0/0/4/252/0/252 100.000%         | 
 | Other  0.000%                          | 
 +----------------------------------------+ 
 | Moves                                  | 
 | Hidden Power Ice 100.000%              | 
 | Leech Seed 100.000%                    | 
 | Energy Ball 100.000%                   | 
 | Substitute 100.000%                    | 
 | Other  0.000%                          | 
 +----------------------------------------+ 
 | Teammates                              | 
 | Linoone +79.848%                       | 
 | Spiritomb +79.848%                     | 
 | Uxie +79.848%                          | 
 | Feraligatr +79.848%                    | 
 | Rhyperior +79.848%                     | 
 +----------------------------------------+ 
 | Checks and Counters                    | 
 +----------------------------------------+ 
 +----------------------------------------+ 
 | Linoone                                | 
 +----------------------------------------+ 
 | Raw count: 3                           | 
 | Avg. weight: 0.0026472425223           | 
 | Viability Ceiling: 46                  | 
 +----------------------------------------+ 
 | Abilities                              | 
 | Gluttony 100.000%                      | 
 +----------------------------------------+ 
 | Items                                  | 
 | Salac Berry 100.000%                   | 
 +----------------------------------------+ 
 | Spreads                                | 
 | Adamant:132/252/4/0/0/120 100.000%     | 
 +----------------------------------------+ 
 | Moves                                  | 
 | Belly Drum 100.000%                    | 
 | Seed Bomb 100.000%                     | 
 | Shadow Claw 100.000%                   | 
 | Extreme Speed 100.000%                 | 
 +----------------------------------------+ 
 | Teammates                              | 
 | Sceptile +79.848%                      | 
 | Feraligatr +79.848%                    | 
 | Uxie +79.848%                          | 
 | Spiritomb +79.848%                     | 
 | Rhyperior +79.848%                     | 
 +----------------------------------------+ 
 | Checks and Counters                    | 
 +----------------------------------------+ 
 +----------------------------------------+ 
 | Spiritomb                              | 
 +----------------------------------------+ 
 | Raw count: 7                           | 
 | Avg. weight: 0.00113453250956          | 
 | Viability Ceiling: 57                  | 
 +----------------------------------------+ 
 | Abilities                              | 
 | Pressure 100.000%                      | 
 +----------------------------------------+ 
 | Items                                  | 
 | Expert Belt 100.000%                   | 
 | Other  0.000%                          | 
 +----------------------------------------+ 
 | Spreads                                | 
 | Sassy:252/0/4/0/252/0 100.000%         | 
 | Other  0.000%                          | 
 +----------------------------------------+ 
 | Moves                                  | 
 | Dark Pulse 100.000%                    | 
 | Psychic 100.000%                       | 
 | Pursuit 100.000%                       | 
 | Shadow Sneak 100.000%                  | 
 | Other  0.000%                          | 
 +----------------------------------------+ 
 | Teammates                              | 
 | Sceptile +79.848%                      | 
 | Linoone +79.848%                       | 
 | Feraligatr +79.848%                    | 
 | Rhyperior +79.848%                     | 
 | Uxie +79.848%                          | 
 +----------------------------------------+ 
 | Checks and Counters                    | 
 +----------------------------------------+ 
 +----------------------------------------+ 
 | Uxie                                   | 
 +----------------------------------------+ 
 | Raw count: 4                           | 
 | Avg. weight: 0.00834293082519          | 
 | Viability Ceiling: 46                  | 
 +----------------------------------------+ 
 | Abilities                              | 
 | Levitate 100.000%                      | 
 +----------------------------------------+ 
 | Items                                  | 
 | Leftovers 76.202%                      | 
 | Life Orb 23.798%                       | 
 +----------------------------------------+ 
 | Spreads                                | 
 | Bold:252/0/128/0/128/0 76.202%         | 
 | Timid:32/0/0/252/0/224 23.798%         | 
 +----------------------------------------+ 
 | Moves                                  | 
 | Psychic 100.000%                       | 
 | Stealth Rock 100.000%                  | 
 | Knock Off 76.202%                      | 
 | Toxic 76.202%                          | 
 | U-turn 23.798%                         | 
 | Energy Ball 23.798%                    | 
 +----------------------------------------+ 
 | Teammates                              | 
 | Feraligatr +15.958%                    | 
 | Rhyperior +15.958%                     | 
 | Sceptile +15.958%                      | 
 | Spiritomb +15.958%                     | 
 | Linoone +15.958%                       | 
 +----------------------------------------+ 
 | Checks and Counters                    | 
 +----------------------------------------+ 
 +----------------------------------------+ 
 | Feraligatr                             | 
 +----------------------------------------+ 
 | Raw count: 4                           | 
 | Avg. weight: 0.00834293082519          | 
 | Viability Ceiling: 46                  | 
 +----------------------------------------+ 
 | Abilities                              | 
 | Torrent 100.000%                       | 
 +----------------------------------------+ 
 | Items                                  | 
 | Leftovers 76.202%                      | 
 | Life Orb 23.798%                       | 
 +----------------------------------------+ 
 | Spreads                                | 
 | Adamant:4/252/0/0/0/252 76.202%        | 
 | Adamant:28/252/0/0/0/228 23.798%       | 
 +----------------------------------------+ 
 | Moves                                  | 
 | Dragon Dance 100.000%                  | 
 | Waterfall 100.000%                     | 
 | Earthquake 100.000%                    | 
 | Substitute 76.202%                     | 
 | Ice Punch 23.798%                      | 
 +----------------------------------------+ 
 | Teammates                              | 
 | Sceptile +15.958%                      | 
 | Rhyperior +15.958%                     | 
 | Uxie +15.958%                          | 
 | Spiritomb +15.958%                     | 
 | Linoone +15.958%                       | 
 +----------------------------------------+ 
 | Checks and Counters                    | 
 +----------------------------------------+ 
 +----------------------------------------+ 
 | Rhyperior                              | 
 +----------------------------------------+ 
 | Raw count: 4                           | 
 | Avg. weight: 0.00198543189173          | 
 | Viability Ceiling: 46                  | 
 +----------------------------------------+ 
 | Abilities                              | 
 | Solid Rock 100.000%                    | 
 +----------------------------------------+ 
 | Items                                  | 
 | Life Orb 100.000%                      | 
 | Other  0.000%                          | 
 +----------------------------------------+ 
 | Spreads                                | 
 | Jolly:0/252/4/0/0/252 100.000%         | 
 | Other  0.000%                          | 
 +----------------------------------------+ 
 | Moves                                  | 
 | Megahorn 100.000%                      | 
 | Rock Polish 100.000%                   | 
 | Stone Edge 100.000%                    | 
 | Earthquake 100.000%                    | 
 | Other  0.000%                          | 
 +----------------------------------------+ 
 | Teammates                              | 
 | Sceptile +79.848%                      | 
 | Linoone +79.848%                       | 
 | Spiritomb +79.848%                     | 
 | Feraligatr +79.848%                    | 
 | Uxie +79.848%                          | 
 +----------------------------------------+ 
 | Checks and Counters                    | 
 +----------------------------------------+ 
