 +----------------------------------------+ 
 | Mantyke                                | 
 +----------------------------------------+ 
 | Raw count: 45                          | 
 | Avg. weight: 0.27107538961             | 
 | Viability Ceiling: 80                  | 
 +----------------------------------------+ 
 | Abilities                              | 
 | Swift Swim 93.175%                     | 
 | Water Absorb  6.825%                   | 
 +----------------------------------------+ 
 | Items                                  | 
 | Life Orb 100.000%                      | 
 +----------------------------------------+ 
 | Spreads                                | 
 | Modest:76/0/0/200/0/196 93.175%        | 
 | Modest:76/0/36/200/0/196  6.825%       | 
 +----------------------------------------+ 
 | Moves                                  | 
 | Ice Beam 100.000%                      | 
 | Hydro Pump 100.000%                    | 
 | Rain Dance 93.175%                     | 
 | Hidden Power Flying 93.175%            | 
 | Other 13.651%                          | 
 +----------------------------------------+ 
 | Teammates                              | 
 +----------------------------------------+ 
 | Checks and Counters                    | 
 +----------------------------------------+ 
 +----------------------------------------+ 
 | Bronzor                                | 
 +----------------------------------------+ 
 | Raw count: 60                          | 
 | Avg. weight: 0.191157465966            | 
 | Viability Ceiling: 80                  | 
 +----------------------------------------+ 
 | Abilities                              | 
 | Levitate 100.000%                      | 
 +----------------------------------------+ 
 | Items                                  | 
 | Damp Rock 97.957%                      | 
 | Other  2.043%                          | 
 +----------------------------------------+ 
 | Spreads                                | 
 | Bold:220/0/152/4/68/16 97.957%         | 
 | Other  2.043%                          | 
 +----------------------------------------+ 
 | Moves                                  | 
 | Stealth Rock 100.000%                  | 
 | Psychic 97.957%                        | 
 | Rain Dance 97.957%                     | 
 | Hidden Power Fighting 97.957%          | 
 | Other  6.128%                          | 
 +----------------------------------------+ 
 | Teammates                              | 
 +----------------------------------------+ 
 | Checks and Counters                    | 
 +----------------------------------------+ 
 +----------------------------------------+ 
 | Croagunk                               | 
 +----------------------------------------+ 
 | Raw count: 53                          | 
 | Avg. weight: 0.214140316881            | 
 | Viability Ceiling: 80                  | 
 +----------------------------------------+ 
 | Abilities                              | 
 | Dry Skin 100.000%                      | 
 +----------------------------------------+ 
 | Items                                  | 
 | Life Orb 100.000%                      | 
 | Other  0.000%                          | 
 +----------------------------------------+ 
 | Spreads                                | 
 | Lonely:0/188/0/188/0/116 99.678%       | 
 | Other  0.322%                          | 
 +----------------------------------------+ 
 | Moves                                  | 
 | Dark Pulse 100.000%                    | 
 | Sucker Punch 100.000%                  | 
 | Fake Out 100.000%                      | 
 | Vacuum Wave 100.000%                   | 
 | Other  0.000%                          | 
 +----------------------------------------+ 
 | Teammates                              | 
 +----------------------------------------+ 
 | Checks and Counters                    | 
 +----------------------------------------+ 
 +----------------------------------------+ 
 | Drifloon                               | 
 +----------------------------------------+ 
 | Raw count: 51                          | 
 | Avg. weight: 0.222880737978            | 
 | Viability Ceiling: 80                  | 
 +----------------------------------------+ 
 | Abilities                              | 
 | Unburden 100.000%                      | 
 | Aftermath  0.000%                      | 
 +----------------------------------------+ 
 | Items                                  | 
 | Focus Sash 99.768%                     | 
 | Other  0.232%                          | 
 +----------------------------------------+ 
 | Spreads                                | 
 | Naive:0/196/0/116/0/196 99.446%        | 
 | Other  0.554%                          | 
 +----------------------------------------+ 
 | Moves                                  | 
 | Explosion 99.768%                      | 
 | Thunder 99.768%                        | 
 | Sucker Punch 99.768%                   | 
 | Rain Dance 99.768%                     | 
 | Other  0.926%                          | 
 +----------------------------------------+ 
 | Teammates                              | 
 +----------------------------------------+ 
 | Checks and Counters                    | 
 +----------------------------------------+ 
 +----------------------------------------+ 
 | Voltorb                                | 
 +----------------------------------------+ 
 | Raw count: 49                          | 
 | Avg. weight: 0.231826897095            | 
 | Viability Ceiling: 80                  | 
 +----------------------------------------+ 
 | Abilities                              | 
 | Static 100.000%                        | 
 | Soundproof  0.000%                     | 
 +----------------------------------------+ 
 | Items                                  | 
 | Damp Rock 100.000%                     | 
 | Other  0.000%                          | 
 +----------------------------------------+ 
 | Spreads                                | 
 | Hasty:36/40/0/236/0/196 99.677%        | 
 | Other  0.323%                          | 
 +----------------------------------------+ 
 | Moves                                  | 
 | Explosion 100.000%                     | 
 | Thunder 100.000%                       | 
 | Rain Dance 100.000%                    | 
 | Taunt 99.677%                          | 
 | Other  0.323%                          | 
 +----------------------------------------+ 
 | Teammates                              | 
 +----------------------------------------+ 
 | Checks and Counters                    | 
 +----------------------------------------+ 
 +----------------------------------------+ 
 | Buizel                                 | 
 +----------------------------------------+ 
 | Raw count: 48                          | 
 | Avg. weight: 0.236866612249            | 
 | Viability Ceiling: 80                  | 
 +----------------------------------------+ 
 | Abilities                              | 
 | Swift Swim 100.000%                    | 
 +----------------------------------------+ 
 | Items                                  | 
 | Life Orb 100.000%                      | 
 +----------------------------------------+ 
 | Spreads                                | 
 | Jolly:0/236/0/0/36/236 99.677%         | 
 | Other  0.323%                          | 
 +----------------------------------------+ 
 | Moves                                  | 
 | Return 100.000%                        | 
 | Aqua Jet 100.000%                      | 
 | Bulk Up 100.000%                       | 
 | Waterfall 100.000%                     | 
 | Other  0.000%                          | 
 +----------------------------------------+ 
 | Teammates                              | 
 +----------------------------------------+ 
 | Checks and Counters                    | 
 +----------------------------------------+ 
 +----------------------------------------+ 
 | Aipom                                  | 
 +----------------------------------------+ 
 | Raw count: 8                           | 
 | Avg. weight: 0.103846196305            | 
 | Viability Ceiling: 72                  | 
 +----------------------------------------+ 
 | Abilities                              | 
 | Run Away 95.763%                       | 
 | Pickup  4.237%                         | 
 +----------------------------------------+ 
 | Items                                  | 
 | Life Orb 100.000%                      | 
 | Other  0.000%                          | 
 +----------------------------------------+ 
 | Spreads                                | 
 | Jolly:76/196/0/0/0/236 95.763%         | 
 | Other  4.237%                          | 
 +----------------------------------------+ 
 | Moves                                  | 
 | Brick Break 100.000%                   | 
 | Fake Out 100.000%                      | 
 | Return 95.763%                         | 
 | Shadow Claw 95.763%                    | 
 | Other  8.473%                          | 
 +----------------------------------------+ 
 | Teammates                              | 
 | Gible +83.221%                         | 
 | Krabby +83.221%                        | 
 | Beldum +83.221%                        | 
 | Abra +83.221%                          | 
 | Chimchar +1.165%                       | 
 +----------------------------------------+ 
 | Checks and Counters                    | 
 +----------------------------------------+ 
 +----------------------------------------+ 
 | Abra                                   | 
 +----------------------------------------+ 
 | Raw count: 7                           | 
 | Avg. weight: 0.223428366474            | 
 | Viability Ceiling: 72                  | 
 +----------------------------------------+ 
 | Abilities                              | 
 | Inner Focus 50.868%                    | 
 | Synchronize 49.132%                    | 
 +----------------------------------------+ 
 | Items                                  | 
 | Choice Scarf 50.868%                   | 
 | Nothing 49.132%                        | 
 | Other  0.000%                          | 
 +----------------------------------------+ 
 | Spreads                                | 
 | Timid:0/0/0/240/68/200 50.868%         | 
 | Hardy:0/0/0/0/0/0 49.132%              | 
 | Other  0.000%                          | 
 +----------------------------------------+ 
 | Moves                                  | 
 | Nothing 147.396%                       | 
 | Psychic 100.000%                       | 
 | Signal Beam 50.868%                    | 
 | Hidden Power Fighting 50.868%          | 
 | Energy Ball 50.868%                    | 
 | Other  0.000%                          | 
 +----------------------------------------+ 
 | Teammates                              | 
 | Gible +38.325%                         | 
 | Krabby +38.325%                        | 
 | Beldum +38.325%                        | 
 | Aipom +38.116%                         | 
 +----------------------------------------+ 
 | Checks and Counters                    | 
 +----------------------------------------+ 
 +----------------------------------------+ 
 | Beldum                                 | 
 +----------------------------------------+ 
 | Raw count: 4                           | 
 | Avg. weight: 0.198893395026            | 
 | Viability Ceiling: 72                  | 
 +----------------------------------------+ 
 | Abilities                              | 
 | Clear Body 100.000%                    | 
 +----------------------------------------+ 
 | Items                                  | 
 | Oran Berry 100.000%                    | 
 | Other  0.000%                          | 
 +----------------------------------------+ 
 | Spreads                                | 
 | Adamant:0/236/196/0/0/38 100.000%      | 
 | Other  0.000%                          | 
 +----------------------------------------+ 
 | Moves                                  | 
 | Iron Head 100.000%                     | 
 | Iron Defense 100.000%                  | 
 | Zen Headbutt 100.000%                  | 
 | Headbutt 100.000%                      | 
 | Other  0.000%                          | 
 +----------------------------------------+ 
 | Teammates                              | 
 | Gible +87.458%                         | 
 | Krabby +87.458%                        | 
 | Abra +87.458%                          | 
 | Aipom +87.248%                         | 
 | Mantyke +2.479%                        | 
 +----------------------------------------+ 
 | Checks and Counters                    | 
 +----------------------------------------+ 
 +----------------------------------------+ 
 | Gible                                  | 
 +----------------------------------------+ 
 | Raw count: 4                           | 
 | Avg. weight: 0.198893395026            | 
 | Viability Ceiling: 72                  | 
 +----------------------------------------+ 
 | Abilities                              | 
 | Sand Veil 100.000%                     | 
 +----------------------------------------+ 
 | Items                                  | 
 | Choice Band 100.000%                   | 
 | Other  0.000%                          | 
 +----------------------------------------+ 
 | Spreads                                | 
 | Adamant:52/196/236/0/0/20 100.000%     | 
 | Other  0.000%                          | 
 +----------------------------------------+ 
 | Moves                                  | 
 | Outrage 100.000%                       | 
 | Fire Blast 100.000%                    | 
 | Earthquake 100.000%                    | 
 | Stone Edge 100.000%                    | 
 | Other  0.000%                          | 
 +----------------------------------------+ 
 | Teammates                              | 
 | Krabby +87.458%                        | 
 | Abra +87.458%                          | 
 | Beldum +87.458%                        | 
 | Aipom +87.248%                         | 
 | Mantyke +2.479%                        | 
 +----------------------------------------+ 
 | Checks and Counters                    | 
 +----------------------------------------+ 
 +----------------------------------------+ 
 | Krabby                                 | 
 +----------------------------------------+ 
 | Raw count: 2                           | 
 | Avg. weight: 0.397786790053            | 
 | Viability Ceiling: 72                  | 
 +----------------------------------------+ 
 | Abilities                              | 
 | Shell Armor 100.000%                   | 
 +----------------------------------------+ 
 | Items                                  | 
 | Oran Berry 100.000%                    | 
 +----------------------------------------+ 
 | Spreads                                | 
 | Adamant:36/236/36/0/0/196 100.000%     | 
 +----------------------------------------+ 
 | Moves                                  | 
 | Swords Dance 100.000%                  | 
 | Agility 100.000%                       | 
 | Return 100.000%                        | 
 | Crabhammer 100.000%                    | 
 +----------------------------------------+ 
 | Teammates                              | 
 | Gible +87.458%                         | 
 | Abra +87.458%                          | 
 | Beldum +87.458%                        | 
 | Aipom +87.248%                         | 
 | Mantyke +2.479%                        | 
 +----------------------------------------+ 
 | Checks and Counters                    | 
 +----------------------------------------+ 
 +----------------------------------------+ 
 | Munchlax                               | 
 +----------------------------------------+ 
 | Raw count: 18                          | 
 | Avg. weight: 0.0139864916879           | 
 | Viability Ceiling: 74                  | 
 +----------------------------------------+ 
 | Abilities                              | 
 | Thick Fat 100.000%                     | 
 +----------------------------------------+ 
 | Items                                  | 
 | Oran Berry 100.000%                    | 
 | Other  0.000%                          | 
 +----------------------------------------+ 
 | Spreads                                | 
 | Sassy:76/0/196/0/236/0 100.000%        | 
 | Other  0.000%                          | 
 +----------------------------------------+ 
 | Moves                                  | 
 | Return 100.000%                        | 
 | Pursuit 100.000%                       | 
 | Recycle 100.000%                       | 
 | Fire Punch 100.000%                    | 
 | Other  0.000%                          | 
 +----------------------------------------+ 
 | Teammates                              | 
 | Magby +49.516%                         | 
 | Gligar +49.516%                        | 
 | Dratini +49.516%                       | 
 | Meowth +49.516%                        | 
 | Clamperl +5.393%                       | 
 | Elekid +5.393%                         | 
 | Chimchar +5.184%                       | 
 +----------------------------------------+ 
 | Checks and Counters                    | 
 +----------------------------------------+ 
 +----------------------------------------+ 
 | Magby                                  | 
 +----------------------------------------+ 
 | Raw count: 15                          | 
 | Avg. weight: 0.0150976568616           | 
 | Viability Ceiling: 74                  | 
 +----------------------------------------+ 
 | Abilities                              | 
 | Flame Body 100.000%                    | 
 +----------------------------------------+ 
 | Items                                  | 
 | Life Orb 100.000%                      | 
 | Other  0.000%                          | 
 +----------------------------------------+ 
 | Spreads                                | 
 | Hasty:0/240/0/0/0/252 100.000%         | 
 | Other  0.000%                          | 
 +----------------------------------------+ 
 | Moves                                  | 
 | Overheat 100.000%                      | 
 | Flare Blitz 100.000%                   | 
 | Mach Punch 100.000%                    | 
 | Thunder Punch 100.000%                 | 
 | Other  0.000%                          | 
 +----------------------------------------+ 
 | Teammates                              | 
 | Gligar +55.275%                        | 
 | Dratini +55.275%                       | 
 | Meowth +55.275%                        | 
 | Munchlax +55.052%                      | 
 +----------------------------------------+ 
 | Checks and Counters                    | 
 +----------------------------------------+ 
 +----------------------------------------+ 
 | Gligar                                 | 
 +----------------------------------------+ 
 | Raw count: 21                          | 
 | Avg. weight: 0.0107840406154           | 
 | Viability Ceiling: 74                  | 
 +----------------------------------------+ 
 | Abilities                              | 
 | Hyper Cutter 100.000%                  | 
 | Sand Veil  0.000%                      | 
 +----------------------------------------+ 
 | Items                                  | 
 | Choice Scarf 100.000%                  | 
 | Other  0.000%                          | 
 +----------------------------------------+ 
 | Spreads                                | 
 | Jolly:0/236/0/0/0/236 100.000%         | 
 | Other  0.000%                          | 
 +----------------------------------------+ 
 | Moves                                  | 
 | U-turn 100.000%                        | 
 | Aerial Ace 100.000%                    | 
 | Aqua Tail 100.000%                     | 
 | Earthquake 100.000%                    | 
 | Other  0.000%                          | 
 +----------------------------------------+ 
 | Teammates                              | 
 | Magby +55.275%                         | 
 | Meowth +55.275%                        | 
 | Dratini +55.275%                       | 
 | Munchlax +55.052%                      | 
 +----------------------------------------+ 
 | Checks and Counters                    | 
 +----------------------------------------+ 
 +----------------------------------------+ 
 | Dratini                                | 
 +----------------------------------------+ 
 | Raw count: 16                          | 
 | Avg. weight: 0.0141540533078           | 
 | Viability Ceiling: 74                  | 
 +----------------------------------------+ 
 | Abilities                              | 
 | Shed Skin 100.000%                     | 
 +----------------------------------------+ 
 | Items                                  | 
 | Life Orb 100.000%                      | 
 | Other  0.000%                          | 
 +----------------------------------------+ 
 | Spreads                                | 
 | Adamant:28/244/0/0/36/196 100.000%     | 
 | Other  0.000%                          | 
 +----------------------------------------+ 
 | Moves                                  | 
 | Dragon Dance 100.000%                  | 
 | Extreme Speed 100.000%                 | 
 | Waterfall 100.000%                     | 
 | Outrage 100.000%                       | 
 | Other  0.000%                          | 
 +----------------------------------------+ 
 | Teammates                              | 
 | Magby +55.275%                         | 
 | Gligar +55.275%                        | 
 | Meowth +55.275%                        | 
 | Munchlax +55.052%                      | 
 +----------------------------------------+ 
 | Checks and Counters                    | 
 +----------------------------------------+ 
 +----------------------------------------+ 
 | Meowth                                 | 
 +----------------------------------------+ 
 | Raw count: 16                          | 
 | Avg. weight: 0.0746575209203           | 
 | Viability Ceiling: 80                  | 
 +----------------------------------------+ 
 | Abilities                              | 
 | Pickup 81.041%                         | 
 | Technician 18.959%                     | 
 +----------------------------------------+ 
 | Items                                  | 
 | Nothing 81.041%                        | 
 | Focus Sash 18.959%                     | 
 +----------------------------------------+ 
 | Spreads                                | 
 | Hardy:0/0/0/0/0/0 81.041%              | 
 | Jolly:0/236/76/0/0/196 18.959%         | 
 | Other -0.000%                          | 
 +----------------------------------------+ 
 | Moves                                  | 
 | Nothing 243.124%                       | 
 | Hypnosis 100.000%                      | 
 | Bite 18.959%                           | 
 | Seed Bomb 18.959%                      | 
 | Other 18.959%                          | 
 +----------------------------------------+ 
 | Teammates                              | 
 | Magby +8.821%                          | 
 | Gligar +8.821%                         | 
 | Dratini +8.821%                        | 
 | Munchlax +8.598%                       | 
 +----------------------------------------+ 
 | Checks and Counters                    | 
 +----------------------------------------+ 
 +----------------------------------------+ 
 | Chimchar                               | 
 +----------------------------------------+ 
 | Raw count: 8                           | 
 | Avg. weight: 0.00756099847426          | 
 | Viability Ceiling: 55                  | 
 +----------------------------------------+ 
 | Abilities                              | 
 | Blaze 100.000%                         | 
 +----------------------------------------+ 
 | Items                                  | 
 | Choice Specs 58.187%                   | 
 | Focus Sash 41.813%                     | 
 | Other  0.000%                          | 
 +----------------------------------------+ 
 | Spreads                                | 
 | Modest:4/0/4/216/244/28 58.187%        | 
 | Hasty:4/56/0/216/4/188 41.813%         | 
 | Other  0.000%                          | 
 +----------------------------------------+ 
 | Moves                                  | 
 | Hidden Power Electric 58.187%          | 
 | Grass Knot 58.187%                     | 
 | Toxic 58.187%                          | 
 | Flamethrower 58.187%                   | 
 | Overheat 41.813%                       | 
 | Stealth Rock 41.813%                   | 
 | Fake Out 41.813%                       | 
 | Hidden Power Grass 41.813%             | 
 | Other  0.000%                          | 
 +----------------------------------------+ 
 | Teammates                              | 
 | Clamperl +23.153%                      | 
 | Elekid +23.153%                        | 
 | Munchlax +21.106%                      | 
 | Aipom +9.179%                          | 
 +----------------------------------------+ 
 | Checks and Counters                    | 
 +----------------------------------------+ 
 +----------------------------------------+ 
 | Clamperl                               | 
 +----------------------------------------+ 
 | Raw count: 4                           | 
 | Avg. weight: 0.00632299936439          | 
 | Viability Ceiling: 55                  | 
 +----------------------------------------+ 
 | Abilities                              | 
 | Shell Armor 100.000%                   | 
 +----------------------------------------+ 
 | Items                                  | 
 | Deep Sea Scale 100.000%                | 
 | Other  0.000%                          | 
 +----------------------------------------+ 
 | Spreads                                | 
 | Bold:236/0/236/8/0/20 100.000%         | 
 | Other  0.000%                          | 
 +----------------------------------------+ 
 | Moves                                  | 
 | Surf 100.000%                          | 
 | Rest 100.000%                          | 
 | Hidden Power Electric 100.000%         | 
 | Sleep Talk 100.000%                    | 
 | Other  0.000%                          | 
 +----------------------------------------+ 
 | Teammates                              | 
 | Elekid +55.682%                        | 
 | Chimchar +55.473%                      | 
 | Munchlax +53.635%                      | 
 +----------------------------------------+ 
 | Checks and Counters                    | 
 +----------------------------------------+ 
 +----------------------------------------+ 
 | Elekid                                 | 
 +----------------------------------------+ 
 | Raw count: 4                           | 
 | Avg. weight: 0.00632299936439          | 
 | Viability Ceiling: 47                  | 
 +----------------------------------------+ 
 | Abilities                              | 
 | Static 100.000%                        | 
 +----------------------------------------+ 
 | Items                                  | 
 | Life Orb 100.000%                      | 
 +----------------------------------------+ 
 | Spreads                                | 
 | Hasty:0/96/0/160/0/240 100.000%        | 
 | Other  0.000%                          | 
 +----------------------------------------+ 
 | Moves                                  | 
 | Thunderbolt 100.000%                   | 
 | Ice Punch 100.000%                     | 
 | Cross Chop 100.000%                    | 
 | Hidden Power Grass 100.000%            | 
 | Other  0.000%                          | 
 +----------------------------------------+ 
 | Teammates                              | 
 | Clamperl +55.682%                      | 
 | Chimchar +55.473%                      | 
 | Munchlax +53.635%                      | 
 +----------------------------------------+ 
 | Checks and Counters                    | 
 +----------------------------------------+ 
