 +----------------------------------------+ 
 | Croagunk                               | 
 +----------------------------------------+ 
 | Raw count: 3                           | 
 | Avg. weight: 0.457292399487            | 
 | Viability Ceiling: 55                  | 
 +----------------------------------------+ 
 | Abilities                              | 
 | Anticipation 54.214%                   | 
 | Dry Skin 45.786%                       | 
 +----------------------------------------+ 
 | Items                                  | 
 | Life Orb 45.786%                       | 
 | Nothing 27.107%                        | 
 | Sitrus Berry 27.107%                   | 
 +----------------------------------------+ 
 | Spreads                                | 
 | Lonely:0/188/0/108/196/0 45.786%       | 
 | Hardy:0/0/0/0/0/0 27.107%              | 
 | Hardy:108/80/36/80/80/80 27.107%       | 
 +----------------------------------------+ 
 | Moves                                  | 
 | Brick Break 54.214%                    | 
 | Cross Chop 54.214%                     | 
 | Ice Punch 45.786%                      | 
 | Sucker Punch 45.786%                   | 
 | Fake Out 45.786%                       | 
 | Vacuum Wave 45.786%                    | 
 | Bullet Punch 27.107%                   | 
 | Gunk Shot 27.107%                      | 
 | Focus Blast 27.107%                    | 
 | Earthquake 27.107%                     | 
 +----------------------------------------+ 
 | Teammates                              | 
 +----------------------------------------+ 
 | Checks and Counters                    | 
 +----------------------------------------+ 
 +----------------------------------------+ 
 | Gastly                                 | 
 +----------------------------------------+ 
 | Raw count: 1                           | 
 | Avg. weight: 0.628122801539            | 
 | Viability Ceiling: 55                  | 
 +----------------------------------------+ 
 | Abilities                              | 
 | Levitate 100.000%                      | 
 +----------------------------------------+ 
 | Items                                  | 
 | Choice Scarf 100.000%                  | 
 +----------------------------------------+ 
 | Spreads                                | 
 | Rash:36/76/0/196/0/196 100.000%        | 
 +----------------------------------------+ 
 | Moves                                  | 
 | Sludge Bomb 100.000%                   | 
 | Shadow Ball 100.000%                   | 
 | Thunderbolt 100.000%                   | 
 | Explosion 100.000%                     | 
 +----------------------------------------+ 
 | Teammates                              | 
 | Staryu +37.188%                        | 
 | Gligar +37.188%                        | 
 | Machop +37.188%                        | 
 | Stunky +37.188%                        | 
 +----------------------------------------+ 
 | Checks and Counters                    | 
 +----------------------------------------+ 
 +----------------------------------------+ 
 | Machop                                 | 
 +----------------------------------------+ 
 | Raw count: 1                           | 
 | Avg. weight: 0.628122801539            | 
 | Viability Ceiling: 55                  | 
 +----------------------------------------+ 
 | Abilities                              | 
 | No Guard 100.000%                      | 
 +----------------------------------------+ 
 | Items                                  | 
 | Oran Berry 100.000%                    | 
 +----------------------------------------+ 
 | Spreads                                | 
 | Adamant:36/196/36/0/236/0 100.000%     | 
 +----------------------------------------+ 
 | Moves                                  | 
 | Dynamic Punch 100.000%                 | 
 | Ice Punch 100.000%                     | 
 | Bullet Punch 100.000%                  | 
 | Earthquake 100.000%                    | 
 +----------------------------------------+ 
 | Teammates                              | 
 | Staryu +37.188%                        | 
 | Gligar +37.188%                        | 
 | Gastly +37.188%                        | 
 | Stunky +37.188%                        | 
 +----------------------------------------+ 
 | Checks and Counters                    | 
 +----------------------------------------+ 
 +----------------------------------------+ 
 | Gligar                                 | 
 +----------------------------------------+ 
 | Raw count: 1                           | 
 | Avg. weight: 0.628122801539            | 
 | Viability Ceiling: 55                  | 
 +----------------------------------------+ 
 | Abilities                              | 
 | Sand Veil 100.000%                     | 
 +----------------------------------------+ 
 | Items                                  | 
 | Oran Berry 100.000%                    | 
 +----------------------------------------+ 
 | Spreads                                | 
 | Adamant:36/236/0/0/0/236 100.000%      | 
 +----------------------------------------+ 
 | Moves                                  | 
 | Swords Dance 100.000%                  | 
 | Earthquake 100.000%                    | 
 | Aqua Tail 100.000%                     | 
 | Stone Edge 100.000%                    | 
 +----------------------------------------+ 
 | Teammates                              | 
 | Staryu +37.188%                        | 
 | Gastly +37.188%                        | 
 | Machop +37.188%                        | 
 | Stunky +37.188%                        | 
 +----------------------------------------+ 
 | Checks and Counters                    | 
 +----------------------------------------+ 
 +----------------------------------------+ 
 | Stunky                                 | 
 +----------------------------------------+ 
 | Raw count: 1                           | 
 | Avg. weight: 0.628122801539            | 
 | Viability Ceiling: 55                  | 
 +----------------------------------------+ 
 | Abilities                              | 
 | Aftermath 100.000%                     | 
 +----------------------------------------+ 
 | Items                                  | 
 | Life Orb 100.000%                      | 
 +----------------------------------------+ 
 | Spreads                                | 
 | Naive:0/252/0/0/0/244 100.000%         | 
 +----------------------------------------+ 
 | Moves                                  | 
 | Crunch 100.000%                        | 
 | Sucker Punch 100.000%                  | 
 | Hidden Power Ground 100.000%           | 
 | Explosion 100.000%                     | 
 +----------------------------------------+ 
 | Teammates                              | 
 | Staryu +37.188%                        | 
 | Gligar +37.188%                        | 
 | Machop +37.188%                        | 
 | Gastly +37.188%                        | 
 +----------------------------------------+ 
 | Checks and Counters                    | 
 +----------------------------------------+ 
 +----------------------------------------+ 
 | Staryu                                 | 
 +----------------------------------------+ 
 | Raw count: 1                           | 
 | Avg. weight: 0.628122801539            | 
 | Viability Ceiling: 55                  | 
 +----------------------------------------+ 
 | Abilities                              | 
 | Natural Cure 100.000%                  | 
 +----------------------------------------+ 
 | Items                                  | 
 | Life Orb 100.000%                      | 
 +----------------------------------------+ 
 | Spreads                                | 
 | Timid:0/0/0/200/0/240 100.000%         | 
 +----------------------------------------+ 
 | Moves                                  | 
 | Thunderbolt 100.000%                   | 
 | Hydro Pump 100.000%                    | 
 | Hidden Power Fire 100.000%             | 
 | Ice Beam 100.000%                      | 
 +----------------------------------------+ 
 | Teammates                              | 
 | Gligar +37.188%                        | 
 | Machop +37.188%                        | 
 | Gastly +37.188%                        | 
 | Stunky +37.188%                        | 
 +----------------------------------------+ 
 | Checks and Counters                    | 
 +----------------------------------------+ 
 +----------------------------------------+ 
 | Chimchar                               | 
 +----------------------------------------+ 
 | Raw count: 2                           | 
 | Avg. weight: 0.371877198461            | 
 | Viability Ceiling: 45                  | 
 +----------------------------------------+ 
 | Abilities                              | 
 | Blaze 100.000%                         | 
 +----------------------------------------+ 
 | Items                                  | 
 | Nothing 50.000%                        | 
 | Sitrus Berry 50.000%                   | 
 +----------------------------------------+ 
 | Spreads                                | 
 | Hardy:0/0/0/0/0/0 50.000%              | 
 | Hardy:108/80/4/80/80/80 50.000%        | 
 +----------------------------------------+ 
 | Moves                                  | 
 | Heat Wave 100.000%                     | 
 | Blaze Kick 100.000%                    | 
 | Flamethrower 100.000%                  | 
 | Fire Blast 50.000%                     | 
 | Brick Break 50.000%                    | 
 +----------------------------------------+ 
 | Teammates                              | 
 | Piplup +12.812%                        | 
 | Chinchou +12.812%                      | 
 | Onix +12.812%                          | 
 | Turtwig +12.812%                       | 
 +----------------------------------------+ 
 | Checks and Counters                    | 
 +----------------------------------------+ 
 +----------------------------------------+ 
 | Chinchou                               | 
 +----------------------------------------+ 
 | Raw count: 1                           | 
 | Avg. weight: 0.371877198461            | 
 | Viability Ceiling: 45                  | 
 +----------------------------------------+ 
 | Abilities                              | 
 | Volt Absorb 100.000%                   | 
 +----------------------------------------+ 
 | Items                                  | 
 | Sitrus Berry 100.000%                  | 
 +----------------------------------------+ 
 | Spreads                                | 
 | Hardy:108/80/52/80/80/80 100.000%      | 
 +----------------------------------------+ 
 | Moves                                  | 
 | Surf 100.000%                          | 
 | Discharge 100.000%                     | 
 | Thunderbolt 100.000%                   | 
 | Blizzard 100.000%                      | 
 +----------------------------------------+ 
 | Teammates                              | 
 | Piplup +62.812%                        | 
 | Chimchar +62.812%                      | 
 | Onix +62.812%                          | 
 | Turtwig +62.812%                       | 
 +----------------------------------------+ 
 | Checks and Counters                    | 
 +----------------------------------------+ 
 +----------------------------------------+ 
 | Piplup                                 | 
 +----------------------------------------+ 
 | Raw count: 1                           | 
 | Avg. weight: 0.371877198461            | 
 | Viability Ceiling: 45                  | 
 +----------------------------------------+ 
 | Abilities                              | 
 | Torrent 100.000%                       | 
 +----------------------------------------+ 
 | Items                                  | 
 | Sitrus Berry 100.000%                  | 
 +----------------------------------------+ 
 | Spreads                                | 
 | Hardy:108/80/12/80/80/80 100.000%      | 
 +----------------------------------------+ 
 | Moves                                  | 
 | Drill Peck 100.000%                    | 
 | Ice Beam 100.000%                      | 
 | Signal Beam 100.000%                   | 
 | Hydro Pump 100.000%                    | 
 +----------------------------------------+ 
 | Teammates                              | 
 | Chinchou +62.812%                      | 
 | Chimchar +62.812%                      | 
 | Onix +62.812%                          | 
 | Turtwig +62.812%                       | 
 +----------------------------------------+ 
 | Checks and Counters                    | 
 +----------------------------------------+ 
 +----------------------------------------+ 
 | Turtwig                                | 
 +----------------------------------------+ 
 | Raw count: 1                           | 
 | Avg. weight: 0.371877198461            | 
 | Viability Ceiling: 45                  | 
 +----------------------------------------+ 
 | Abilities                              | 
 | Overgrow 100.000%                      | 
 +----------------------------------------+ 
 | Items                                  | 
 | Sitrus Berry 100.000%                  | 
 +----------------------------------------+ 
 | Spreads                                | 
 | Hardy:108/80/4/80/80/80 100.000%       | 
 +----------------------------------------+ 
 | Moves                                  | 
 | Energy Ball 100.000%                   | 
 | Earth Power 100.000%                   | 
 | Superpower 100.000%                    | 
 | Giga Drain 100.000%                    | 
 +----------------------------------------+ 
 | Teammates                              | 
 | Piplup +62.812%                        | 
 | Chinchou +62.812%                      | 
 | Chimchar +62.812%                      | 
 | Onix +62.812%                          | 
 +----------------------------------------+ 
 | Checks and Counters                    | 
 +----------------------------------------+ 
 +----------------------------------------+ 
 | Onix                                   | 
 +----------------------------------------+ 
 | Raw count: 2                           | 
 | Avg. weight: 0.371877198461            | 
 | Viability Ceiling: 45                  | 
 +----------------------------------------+ 
 | Abilities                              | 
 | Rock Head 100.000%                     | 
 +----------------------------------------+ 
 | Items                                  | 
 | Nothing 50.000%                        | 
 | Sitrus Berry 50.000%                   | 
 +----------------------------------------+ 
 | Spreads                                | 
 | Hardy:0/0/0/0/0/0 50.000%              | 
 | Hardy:108/80/36/80/80/80 50.000%       | 
 +----------------------------------------+ 
 | Moves                                  | 
 | Explosion 100.000%                     | 
 | Earthquake 100.000%                    | 
 | Earth Power 50.000%                    | 
 | Dragon Pulse 50.000%                   | 
 | Flash Cannon 50.000%                   | 
 | Double-Edge 50.000%                    | 
 +----------------------------------------+ 
 | Teammates                              | 
 | Piplup +12.812%                        | 
 | Chinchou +12.812%                      | 
 | Chimchar +12.812%                      | 
 | Turtwig +12.812%                       | 
 +----------------------------------------+ 
 | Checks and Counters                    | 
 +----------------------------------------+ 
