 Total leads: 6
 + ---- + ------------------ + --------- + ------ + ------- + 
 | Rank | Pokemon            | Usage %   | Raw    | %       | 
 + ---- + ------------------ + --------- + ------ + ------- + 
 | 1    | Claydol            | 33.33333% | 2      | 33.333% | 
 | 2    | Venusaur           | 16.66667% | 1      | 16.667% | 
 | 3    | Electrode          | 16.66667% | 1      | 16.667% | 
 | 4    | Blaziken           | 16.66667% | 1      | 16.667% | 
 | 5    | Shuckle            | 16.66667% | 1      | 16.667% | 
 + ---- + ------------------ + --------- + ------ + ------- + 
