 +----------------------------------------+ 
 | Abra                                   | 
 +----------------------------------------+ 
 | Raw count: 28                          | 
 | Avg. weight: 0.526992353867            | 
 | Viability Ceiling: 69                  | 
 +----------------------------------------+ 
 | Abilities                              | 
 | Inner Focus 68.363%                    | 
 | Synchronize 31.637%                    | 
 +----------------------------------------+ 
 | Items                                  | 
 | Life Orb 64.246%                       | 
 | Sitrus Berry 23.123%                   | 
 | Focus Sash  4.257%                     | 
 | Choice Specs  4.257%                   | 
 | Other  4.118%                          | 
 +----------------------------------------+ 
 | Spreads                                | 
 | Timid:0/0/0/240/0/200 68.363%          | 
 | Timid:236/0/0/76/0/196 23.123%         | 
 | Timid:0/0/0/236/76/196  8.514%         | 
 +----------------------------------------+ 
 | Moves                                  | 
 | Psychic 100.000%                       | 
 | Signal Beam 72.759%                    | 
 | Encore 64.246%                         | 
 | Substitute 64.246%                     | 
 | Shadow Ball 35.754%                    | 
 | Calm Mind 23.123%                      | 
 | Recycle 23.123%                        | 
 | Other 16.749%                          | 
 +----------------------------------------+ 
 | Teammates                              | 
 | Staryu +3.180%                         | 
 | Chinchou +2.688%                       | 
 | Onix +2.688%                           | 
 | Porygon +1.707%                        | 
 +----------------------------------------+ 
 | Checks and Counters                    | 
 +----------------------------------------+ 
 +----------------------------------------+ 
 | Gligar                                 | 
 +----------------------------------------+ 
 | Raw count: 14                          | 
 | Avg. weight: 0.600678780712            | 
 | Viability Ceiling: 69                  | 
 +----------------------------------------+ 
 | Abilities                              | 
 | Sand Veil 62.899%                      | 
 | Hyper Cutter 37.101%                   | 
 +----------------------------------------+ 
 | Items                                  | 
 | Choice Scarf 67.321%                   | 
 | Choice Band 13.414%                    | 
 | Sitrus Berry  7.469%                   | 
 | Oran Berry  7.225%                     | 
 | Other  4.571%                          | 
 +----------------------------------------+ 
 | Spreads                                | 
 | Adamant:0/236/0/0/0/236 62.899%        | 
 | Naughty:0/236/0/0/236/0 13.414%        | 
 | Jolly:0/236/0/0/0/236  8.993%          | 
 | Impish:0/0/236/0/236/0  7.469%         | 
 | Impish:156/0/236/0/76/0  7.225%        | 
 +----------------------------------------+ 
 | Moves                                  | 
 | Earthquake 100.000%                    | 
 | Night Slash 76.313%                    | 
 | Aqua Tail 71.892%                      | 
 | U-turn 67.321%                         | 
 | Stealth Rock 19.265%                   | 
 | Dark Pulse 13.414%                     | 
 | Poison Jab 13.414%                     | 
 | X-Scissor  7.469%                      | 
 | Substitute  7.469%                     | 
 | Baton Pass  7.225%                     | 
 | Other 16.218%                          | 
 +----------------------------------------+ 
 | Teammates                              | 
 | Elekid +18.369%                        | 
 | Croagunk +16.870%                      | 
 | Munchlax +14.641%                      | 
 | Clamperl +14.604%                      | 
 | Duskull +14.604%                       | 
 | Snover +7.408%                         | 
 | Aipom +4.983%                          | 
 | Snubbull +3.704%                       | 
 | Drowzee +3.704%                        | 
 | Shellder +3.704%                       | 
 | Snorunt +3.704%                        | 
 | Barboach +3.704%                       | 
 +----------------------------------------+ 
 | Checks and Counters                    | 
 +----------------------------------------+ 
 +----------------------------------------+ 
 | Munchlax                               | 
 +----------------------------------------+ 
 | Raw count: 13                          | 
 | Avg. weight: 0.647566892695            | 
 | Viability Ceiling: 69                  | 
 +----------------------------------------+ 
 | Abilities                              | 
 | Thick Fat 95.583%                      | 
 | Pickup  4.417%                         | 
 +----------------------------------------+ 
 | Items                                  | 
 | Oran Berry 88.121%                     | 
 | Leftovers  7.461%                      | 
 | Other  4.417%                          | 
 +----------------------------------------+ 
 | Spreads                                | 
 | Sassy:76/0/196/0/236/0 83.555%         | 
 | Adamant:0/236/36/0/236/0 12.027%       | 
 | Other  4.417%                          | 
 +----------------------------------------+ 
 | Moves                                  | 
 | Return 92.539%                         | 
 | Fire Punch 88.121%                     | 
 | Recycle 83.555%                        | 
 | Curse 62.833%                          | 
 | Pursuit 29.706%                        | 
 | Rock Slide  7.461%                     | 
 | Ice Punch  7.461%                      | 
 | Gunk Shot  7.461%                      | 
 | Thunder Punch  7.461%                  | 
 | Other 13.401%                          | 
 +----------------------------------------+ 
 | Teammates                              | 
 | Clamperl +22.026%                      | 
 | Elekid +18.330%                        | 
 | Croagunk +16.827%                      | 
 | Duskull +14.565%                       | 
 | Gligar +9.419%                         | 
 | Teddiursa +3.696%                      | 
 | Bellsprout +3.696%                     | 
 | Machop +2.262%                         | 
 | Gastly +2.192%                         | 
 | Pichu +2.188%                          | 
 | Squirtle +2.188%                       | 
 | Eevee +2.188%                          | 
 +----------------------------------------+ 
 | Checks and Counters                    | 
 +----------------------------------------+ 
 +----------------------------------------+ 
 | Croagunk                               | 
 +----------------------------------------+ 
 | Raw count: 11                          | 
 | Avg. weight: 0.697692291647            | 
 | Viability Ceiling: 69                  | 
 +----------------------------------------+ 
 | Abilities                              | 
 | Dry Skin 100.000%                      | 
 +----------------------------------------+ 
 | Items                                  | 
 | Oran Berry 68.922%                     | 
 | Life Orb 22.894%                       | 
 | Focus Sash  8.184%                     | 
 +----------------------------------------+ 
 | Spreads                                | 
 | Modest:0/0/116/188/0/188 68.922%       | 
 | Lonely:0/188/0/188/0/116 22.894%       | 
 | Adamant:0/188/116/0/196/0  8.184%      | 
 +----------------------------------------+ 
 | Moves                                  | 
 | Vacuum Wave 91.816%                    | 
 | Sludge Bomb 68.922%                    | 
 | Shadow Ball 68.922%                    | 
 | Nasty Plot 68.922%                     | 
 | Sucker Punch 22.894%                   | 
 | Fake Out 22.894%                       | 
 | Dark Pulse 17.885%                     | 
 | Bullet Punch  8.184%                   | 
 | Brick Break  8.184%                    | 
 | Gunk Shot  8.184%                      | 
 | Other 13.193%                          | 
 +----------------------------------------+ 
 | Teammates                              | 
 | Duskull +26.335%                       | 
 | Elekid +21.916%                        | 
 | Munchlax +18.626%                      | 
 | Clamperl +18.151%                      | 
 | Gligar +13.447%                        | 
 | Krabby +4.419%                         | 
 | Psyduck +4.419%                        | 
 | Machop +2.704%                         | 
 +----------------------------------------+ 
 | Checks and Counters                    | 
 +----------------------------------------+ 
 +----------------------------------------+ 
 | Riolu                                  | 
 +----------------------------------------+ 
 | Raw count: 16                          | 
 | Avg. weight: 0.631754233305            | 
 | Viability Ceiling: 69                  | 
 +----------------------------------------+ 
 | Abilities                              | 
 | Steadfast 100.000%                     | 
 +----------------------------------------+ 
 | Items                                  | 
 | Life Orb 100.000%                      | 
 +----------------------------------------+ 
 | Spreads                                | 
 | Adamant:0/196/36/0/36/196 93.786%      | 
 | Adamant:36/196/0/0/196/36  6.214%      | 
 +----------------------------------------+ 
 | Moves                                  | 
 | Ice Punch 100.000%                     | 
 | Crunch 93.786%                         | 
 | Agility 93.786%                        | 
 | High Jump Kick 93.786%                 | 
 | Other 18.642%                          | 
 +----------------------------------------+ 
 | Teammates                              | 
 | Chinchou +13.393%                      | 
 | Onix +13.393%                          | 
 | Staryu +9.628%                         | 
 | Porygon +8.505%                        | 
 | Dratini +2.584%                        | 
 | Psyduck +2.449%                        | 
 | Krabby +2.449%                         | 
 +----------------------------------------+ 
 | Checks and Counters                    | 
 +----------------------------------------+ 
 +----------------------------------------+ 
 | Staryu                                 | 
 +----------------------------------------+ 
 | Raw count: 16                          | 
 | Avg. weight: 0.631754233305            | 
 | Viability Ceiling: 69                  | 
 +----------------------------------------+ 
 | Abilities                              | 
 | Natural Cure 93.786%                   | 
 | Illuminate  6.214%                     | 
 +----------------------------------------+ 
 | Items                                  | 
 | Life Orb 93.786%                       | 
 | Focus Sash  6.214%                     | 
 +----------------------------------------+ 
 | Spreads                                | 
 | Timid:0/0/0/200/0/236 93.786%          | 
 | Timid:0/0/0/196/76/236  6.214%         | 
 +----------------------------------------+ 
 | Moves                                  | 
 | Hydro Pump 100.000%                    | 
 | Thunderbolt 100.000%                   | 
 | Ice Beam 100.000%                      | 
 | Hidden Power Ground 93.786%            | 
 | Other  6.214%                          | 
 +----------------------------------------+ 
 | Teammates                              | 
 | Chinchou +13.393%                      | 
 | Onix +13.393%                          | 
 | Riolu +9.628%                          | 
 | Porygon +8.505%                        | 
 | Abra +3.208%                           | 
 | Dratini +2.584%                        | 
 | Starly +2.449%                         | 
 +----------------------------------------+ 
 | Checks and Counters                    | 
 +----------------------------------------+ 
 +----------------------------------------+ 
 | Duskull                                | 
 +----------------------------------------+ 
 | Raw count: 8                           | 
 | Avg. weight: 0.739702352432            | 
 | Viability Ceiling: 69                  | 
 +----------------------------------------+ 
 | Abilities                              | 
 | Levitate 100.000%                      | 
 +----------------------------------------+ 
 | Items                                  | 
 | Oran Berry 100.000%                    | 
 +----------------------------------------+ 
 | Spreads                                | 
 | Relaxed:196/116/36/0/116/0 89.386%     | 
 | Careful:36/36/0/0/196/0 10.614%        | 
 +----------------------------------------+ 
 | Moves                                  | 
 | Will-O-Wisp 100.000%                   | 
 | Pain Split 100.000%                    | 
 | Return 89.386%                         | 
 | Shadow Sneak 89.386%                   | 
 | Pursuit 10.614%                        | 
 | Other 10.614%                          | 
 +----------------------------------------+ 
 | Teammates                              | 
 | Croagunk +38.513%                      | 
 | Elekid +33.968%                        | 
 | Clamperl +30.202%                      | 
 | Munchlax +25.669%                      | 
 | Gligar +20.491%                        | 
 | Psyduck +6.849%                        | 
 | Krabby +6.849%                         | 
 +----------------------------------------+ 
 | Checks and Counters                    | 
 +----------------------------------------+ 
 +----------------------------------------+ 
 | Clamperl                               | 
 +----------------------------------------+ 
 | Raw count: 10                          | 
 | Avg. weight: 0.729025445616            | 
 | Viability Ceiling: 69                  | 
 +----------------------------------------+ 
 | Abilities                              | 
 | Shell Armor 100.000%                   | 
 +----------------------------------------+ 
 | Items                                  | 
 | DeepSeaScale 91.384%                   | 
 | Leftovers  8.616%                      | 
 +----------------------------------------+ 
 | Spreads                                | 
 | Bold:236/0/236/8/0/20 91.384%          | 
 | Modest:0/0/0/248/236/20  8.616%        | 
 +----------------------------------------+ 
 | Moves                                  | 
 | Surf 100.000%                          | 
 | Rest 91.384%                           | 
 | Sleep Talk 91.384%                     | 
 | Ice Beam 72.556%                       | 
 | Hidden Power Electric 18.828%          | 
 | Blizzard  8.616%                       | 
 | Other 17.232%                          | 
 +----------------------------------------+ 
 | Teammates                              | 
 | Munchlax +24.374%                      | 
 | Elekid +24.056%                        | 
 | Duskull +20.291%                       | 
 | Croagunk +17.987%                      | 
 | Gligar +10.579%                        | 
 | Bellsprout +4.851%                     | 
 | Teddiursa +4.851%                      | 
 +----------------------------------------+ 
 | Checks and Counters                    | 
 +----------------------------------------+ 
 +----------------------------------------+ 
 | Chinchou                               | 
 +----------------------------------------+ 
 | Raw count: 15                          | 
 | Avg. weight: 0.631996328757            | 
 | Viability Ceiling: 69                  | 
 +----------------------------------------+ 
 | Abilities                              | 
 | Volt Absorb 100.000%                   | 
 +----------------------------------------+ 
 | Items                                  | 
 | Life Orb 100.000%                      | 
 +----------------------------------------+ 
 | Spreads                                | 
 | Modest:0/0/52/228/0/220 100.000%       | 
 +----------------------------------------+ 
 | Moves                                  | 
 | Hydro Pump 100.000%                    | 
 | Agility 100.000%                       | 
 | Thunderbolt 100.000%                   | 
 | Ice Beam 100.000%                      | 
 +----------------------------------------+ 
 | Teammates                              | 
 | Onix +15.645%                          | 
 | Staryu +11.880%                        | 
 | Riolu +11.880%                         | 
 | Porygon +9.935%                        | 
 | Dratini +3.406%                        | 
 +----------------------------------------+ 
 | Checks and Counters                    | 
 +----------------------------------------+ 
 +----------------------------------------+ 
 | Onix                                   | 
 +----------------------------------------+ 
 | Raw count: 16                          | 
 | Avg. weight: 0.615738883113            | 
 | Viability Ceiling: 69                  | 
 +----------------------------------------+ 
 | Abilities                              | 
 | Rock Head 96.225%                      | 
 | Sturdy  3.775%                         | 
 +----------------------------------------+ 
 | Items                                  | 
 | Focus Sash 100.000%                    | 
 +----------------------------------------+ 
 | Spreads                                | 
 | Jolly:76/236/0/0/0/196 100.000%        | 
 +----------------------------------------+ 
 | Moves                                  | 
 | Stealth Rock 100.000%                  | 
 | Explosion 100.000%                     | 
 | Earthquake 100.000%                    | 
 | Stone Edge 100.000%                    | 
 +----------------------------------------+ 
 | Teammates                              | 
 | Chinchou +14.277%                      | 
 | Staryu +10.512%                        | 
 | Riolu +10.512%                         | 
 | Porygon +9.066%                        | 
 | Dratini +2.907%                        | 
 +----------------------------------------+ 
 | Checks and Counters                    | 
 +----------------------------------------+ 
 +----------------------------------------+ 
 | Elekid                                 | 
 +----------------------------------------+ 
 | Raw count: 10                          | 
 | Avg. weight: 0.703400885308            | 
 | Viability Ceiling: 69                  | 
 +----------------------------------------+ 
 | Abilities                              | 
 | Static 100.000%                        | 
 +----------------------------------------+ 
 | Items                                  | 
 | Life Orb 94.713%                       | 
 | Choice Specs  5.287%                   | 
 +----------------------------------------+ 
 | Spreads                                | 
 | Jolly:0/252/0/0/0/236 75.199%          | 
 | Hasty:0/96/0/160/0/240 19.514%         | 
 | Timid:0/0/0/252/4/252  5.287%          | 
 +----------------------------------------+ 
 | Moves                                  | 
 | Ice Punch 94.713%                      | 
 | Cross Chop 94.713%                     | 
 | Quick Attack 75.199%                   | 
 | Thunder Punch 75.199%                  | 
 | Thunderbolt 24.801%                    | 
 | Hidden Power Grass 24.801%             | 
 | Other 10.574%                          | 
 +----------------------------------------+ 
 | Teammates                              | 
 | Clamperl +21.847%                      | 
 | Duskull +21.847%                       | 
 | Croagunk +19.543%                      | 
 | Munchlax +17.314%                      | 
 | Gligar +12.136%                        | 
 +----------------------------------------+ 
 | Checks and Counters                    | 
 +----------------------------------------+ 
 +----------------------------------------+ 
 | Porygon                                | 
 +----------------------------------------+ 
 | Raw count: 13                          | 
 | Avg. weight: 0.632779063792            | 
 | Viability Ceiling: 67                  | 
 +----------------------------------------+ 
 | Abilities                              | 
 | Trace 100.000%                         | 
 +----------------------------------------+ 
 | Items                                  | 
 | Choice Specs 100.000%                  | 
 +----------------------------------------+ 
 | Spreads                                | 
 | Modest:236/0/36/236/0/0 100.000%       | 
 +----------------------------------------+ 
 | Moves                                  | 
 | Trick 100.000%                         | 
 | Shadow Ball 100.000%                   | 
 | Tri Attack 100.000%                    | 
 | Ice Beam 100.000%                      | 
 +----------------------------------------+ 
 | Teammates                              | 
 | Chinchou +5.926%                       | 
 | Onix +5.926%                           | 
 | Staryu +2.161%                         | 
 | Riolu +2.161%                          | 
 +----------------------------------------+ 
 | Checks and Counters                    | 
 +----------------------------------------+ 
 +----------------------------------------+ 
 | Bulbasaur                              | 
 +----------------------------------------+ 
 | Raw count: 5                           | 
 | Avg. weight: 0.495318112543            | 
 | Viability Ceiling: 59                  | 
 +----------------------------------------+ 
 | Abilities                              | 
 | Overgrow 100.000%                      | 
 +----------------------------------------+ 
 | Items                                  | 
 | Nothing 69.969%                        | 
 | Leftovers 30.031%                      | 
 +----------------------------------------+ 
 | Spreads                                | 
 | Hardy:0/0/0/0/0/0 69.969%              | 
 | Impish:4/0/204/0/252/0 15.016%         | 
 | Hardy:252/252/0/0/0/0 15.016%          | 
 +----------------------------------------+ 
 | Moves                                  | 
 | Giga Drain 100.000%                    | 
 | Bullet Seed 69.969%                    | 
 | Hidden Power Fire 54.953%              | 
 | Frustration 54.953%                    | 
 | Sludge Bomb 15.016%                    | 
 | Protect 15.016%                        | 
 | Hidden Power Ground 15.016%            | 
 | Leech Seed 15.016%                     | 
 | Sleep Powder 15.016%                   | 
 | Toxic 15.016%                          | 
 | Energy Ball 15.016%                    | 
 | Other 15.016%                          | 
 +----------------------------------------+ 
 | Teammates                              | 
 | Chikorita +46.795%                     | 
 | Cyndaquil +46.795%                     | 
 | Hippopotas +46.795%                    | 
 | Totodile +46.795%                      | 
 | Bonsly +42.336%                        | 
 | Pichu +12.786%                         | 
 | Glameow +12.786%                       | 
 | Squirtle +12.786%                      | 
 | Torchic +12.786%                       | 
 | Rhyhorn +12.786%                       | 
 | Eevee +12.786%                         | 
 | Charmander +12.786%                    | 
 +----------------------------------------+ 
 | Checks and Counters                    | 
 +----------------------------------------+ 
 +----------------------------------------+ 
 | Bonsly                                 | 
 +----------------------------------------+ 
 | Raw count: 4                           | 
 | Avg. weight: 0.526178341063            | 
 | Viability Ceiling: 59                  | 
 +----------------------------------------+ 
 | Abilities                              | 
 | Sturdy 100.000%                        | 
 +----------------------------------------+ 
 | Items                                  | 
 | Nothing 82.331%                        | 
 | Choice Band 17.669%                    | 
 +----------------------------------------+ 
 | Spreads                                | 
 | Hardy:0/0/0/0/0/0 82.331%              | 
 | Adamant:116/196/0/0/0/196 17.669%      | 
 +----------------------------------------+ 
 | Moves                                  | 
 | Frustration 64.662%                    | 
 | Calm Mind 64.662%                      | 
 | Hidden Power Grass 64.662%             | 
 | Facade 64.662%                         | 
 | Nothing 53.006%                        | 
 | Explosion 17.669%                      | 
 | Dig 17.669%                            | 
 | Secret Power 17.669%                   | 
 | Sucker Punch 17.669%                   | 
 | Other 17.669%                          | 
 +----------------------------------------+ 
 | Teammates                              | 
 | Chikorita +56.504%                     | 
 | Cyndaquil +56.504%                     | 
 | Hippopotas +56.504%                    | 
 | Totodile +56.504%                      | 
 | Bulbasaur +52.046%                     | 
 | Venonat +15.440%                       | 
 | Treecko +15.440%                       | 
 | Carvanha +15.440%                      | 
 | Kabuto +15.440%                        | 
 | Growlithe +15.440%                     | 
 | Seel +15.440%                          | 
 | Buneary +11.797%                       | 
 +----------------------------------------+ 
 | Checks and Counters                    | 
 +----------------------------------------+ 
 +----------------------------------------+ 
 | Diglett                                | 
 +----------------------------------------+ 
 | Raw count: 3                           | 
 | Avg. weight: 0.628122801539            | 
 | Viability Ceiling: 55                  | 
 +----------------------------------------+ 
 | Abilities                              | 
 | Arena Trap 100.000%                    | 
 +----------------------------------------+ 
 | Items                                  | 
 | Focus Sash 33.333%                     | 
 | Life Orb 33.333%                       | 
 | Choice Scarf 33.333%                   | 
 +----------------------------------------+ 
 | Spreads                                | 
 | Jolly:0/236/0/0/0/236 66.667%          | 
 | Jolly:36/236/0/0/0/236 33.333%         | 
 +----------------------------------------+ 
 | Moves                                  | 
 | Rock Slide 100.000%                    | 
 | Sucker Punch 100.000%                  | 
 | Earthquake 100.000%                    | 
 | Return 33.333%                         | 
 | Aerial Ace 33.333%                     | 
 | Stealth Rock 33.333%                   | 
 +----------------------------------------+ 
 | Teammates                              | 
 | Abra +29.674%                          | 
 | Snorunt +29.568%                       | 
 | Krabby +29.568%                        | 
 | Shellder +29.568%                      | 
 | Psyduck +29.568%                       | 
 | Starly +29.568%                        | 
 | Taillow +27.339%                       | 
 | Snover +25.803%                        | 
 | Gastly +23.499%                        | 
 | Duskull +10.895%                       | 
 | Staryu +8.975%                         | 
 | Riolu +8.975%                          | 
 +----------------------------------------+ 
 | Checks and Counters                    | 
 +----------------------------------------+ 
 +----------------------------------------+ 
 | Gastly                                 | 
 +----------------------------------------+ 
 | Raw count: 4                           | 
 | Avg. weight: 0.503120888374            | 
 | Viability Ceiling: 55                  | 
 +----------------------------------------+ 
 | Abilities                              | 
 | Levitate 100.000%                      | 
 +----------------------------------------+ 
 | Items                                  | 
 | Choice Scarf 37.577%                   | 
 | Focus Sash 31.211%                     | 
 | Choice Specs 31.211%                   | 
 +----------------------------------------+ 
 | Spreads                                | 
 | Timid:0/0/0/196/76/196 50.310%         | 
 | Timid:0/0/0/200/80/200 31.211%         | 
 | Timid:36/0/36/200/0/200 18.479%        | 
 +----------------------------------------+ 
 | Moves                                  | 
 | Sludge Bomb 100.000%                   | 
 | Shadow Ball 100.000%                   | 
 | Energy Ball 62.423%                    | 
 | Dark Pulse 31.211%                     | 
 | Hidden Power Fighting 31.211%          | 
 | Thunderbolt 19.099%                    | 
 | Destiny Bond 19.099%                   | 
 | Hidden Power Ground 18.479%            | 
 | Other 18.479%                          | 
 +----------------------------------------+ 
 | Teammates                              | 
 | Starly +27.446%                        | 
 | Bellsprout +27.446%                    | 
 | Teddiursa +27.446%                     | 
 | Taillow +25.217%                       | 
 | Munchlax +23.338%                      | 
 | Anorith +22.988%                       | 
 | Diglett +19.915%                       | 
 | Machop +16.795%                        | 
 | Houndour +14.491%                      | 
 | Clamperl +8.773%                       | 
 | Staryu +6.853%                         | 
 +----------------------------------------+ 
 | Checks and Counters                    | 
 +----------------------------------------+ 
 +----------------------------------------+ 
 | Dratini                                | 
 +----------------------------------------+ 
 | Raw count: 5                           | 
 | Avg. weight: 0.504495648255            | 
 | Viability Ceiling: 69                  | 
 +----------------------------------------+ 
 | Abilities                              | 
 | Shed Skin 100.000%                     | 
 +----------------------------------------+ 
 | Items                                  | 
 | Life Orb 64.448%                       | 
 | Sitrus Berry 35.552%                   | 
 +----------------------------------------+ 
 | Spreads                                | 
 | Adamant:28/244/0/0/36/196 64.448%      | 
 | Modest:108/84/76/88/36/116 35.552%     | 
 +----------------------------------------+ 
 | Moves                                  | 
 | Dragon Dance 100.000%                  | 
 | Waterfall 100.000%                     | 
 | Extreme Speed 64.448%                  | 
 | Outrage 64.448%                        | 
 | Thunderbolt 35.552%                    | 
 | Dragon Pulse 35.552%                   | 
 +----------------------------------------+ 
 | Teammates                              | 
 | Chinchou +29.113%                      | 
 | Onix +29.113%                          | 
 | Staryu +25.347%                        | 
 | Riolu +25.347%                         | 
 | Oddish +12.933%                        | 
 | Natu +12.933%                          | 
 | Abra +12.713%                          | 
 | Togepi +10.704%                        | 
 | Houndour +10.629%                      | 
 | Aipom +5.526%                          | 
 +----------------------------------------+ 
 | Checks and Counters                    | 
 +----------------------------------------+ 
 +----------------------------------------+ 
 | Aipom                                  | 
 +----------------------------------------+ 
 | Raw count: 7                           | 
 | Avg. weight: 0.429186757046            | 
 | Viability Ceiling: 55                  | 
 +----------------------------------------+ 
 | Abilities                              | 
 | Pickup 50.075%                         | 
 | Run Away 49.925%                       | 
 +----------------------------------------+ 
 | Items                                  | 
 | Leftovers 49.925%                      | 
 | Sitrus Berry 29.850%                   | 
 | Oran Berry 20.225%                     | 
 +----------------------------------------+ 
 | Spreads                                | 
 | Jolly:0/196/0/0/76/236 37.547%         | 
 | Naughty:76/116/76/36/48/156 29.850%    | 
 | Hardy:236/0/156/0/76/0 20.225%         | 
 | Hardy:236/196/0/76/0/0 12.378%         | 
 +----------------------------------------+ 
 | Moves                                  | 
 | Gunk Shot 79.775%                      | 
 | Agility 62.453%                        | 
 | Fire Punch 42.228%                     | 
 | Seed Bomb 37.547%                      | 
 | Brick Break 37.547%                    | 
 | Fake Out 37.547%                       | 
 | Seismic Toss 29.850%                   | 
 | Return 20.225%                         | 
 | Baton Pass 20.225%                     | 
 | Defense Curl 20.225%                   | 
 | Other 12.378%                          | 
 +----------------------------------------+ 
 | Teammates                              | 
 | Snubbull +17.142%                      | 
 | Drowzee +17.142%                       | 
 | Barboach +17.142%                      | 
 | Skitty +16.583%                        | 
 | Buneary +14.353%                       | 
 | Snover +13.377%                        | 
 | Drifloon +12.124%                      | 
 | Natu +10.490%                          | 
 | Oddish +10.490%                        | 
 | Gligar +8.982%                         | 
 | Togepi +8.260%                         | 
 | Houndour +8.186%                       | 
 +----------------------------------------+ 
 | Checks and Counters                    | 
 +----------------------------------------+ 
 +----------------------------------------+ 
 | Anorith                                | 
 +----------------------------------------+ 
 | Raw count: 3                           | 
 | Avg. weight: 0.457292399487            | 
 | Viability Ceiling: 55                  | 
 +----------------------------------------+ 
 | Abilities                              | 
 | Battle Armor 100.000%                  | 
 +----------------------------------------+ 
 | Items                                  | 
 | Life Orb 45.786%                       | 
 | Nothing 27.107%                        | 
 | Expert Belt 27.107%                    | 
 +----------------------------------------+ 
 | Spreads                                | 
 | Adamant:0/236/0/0/36/236 45.786%       | 
 | Hardy:0/0/0/36/36/0 27.107%            | 
 | Impish:252/252/0/0/0/4 27.107%         | 
 +----------------------------------------+ 
 | Moves                                  | 
 | Rock Slide 72.893%                     | 
 | X-Scissor 54.214%                      | 
 | Crush Claw 45.786%                     | 
 | Rock Polish 45.786%                    | 
 | Cross Poison 45.786%                   | 
 | Knock Off 27.107%                      | 
 | Dig 27.107%                            | 
 | Rock Blast 27.107%                     | 
 | Body Slam 27.107%                      | 
 | Rapid Spin 27.107%                     | 
 +----------------------------------------+ 
 | Teammates                              | 
 | Teddiursa +42.020%                     | 
 | Bellsprout +42.020%                    | 
 | Gastly +35.951%                        | 
 | Glameow +24.878%                       | 
 | Venonat +24.878%                       | 
 | Rhyhorn +24.878%                       | 
 | Torchic +24.878%                       | 
 | Carvanha +24.878%                      | 
 | Clamperl +23.347%                      | 
 | Buneary +21.236%                       | 
 | Drifloon +19.006%                      | 
 | Munchlax +18.814%                      | 
 +----------------------------------------+ 
 | Checks and Counters                    | 
 +----------------------------------------+ 
 +----------------------------------------+ 
 | Totodile                               | 
 +----------------------------------------+ 
 | Raw count: 3                           | 
 | Avg. weight: 0.577612055264            | 
 | Viability Ceiling: 59                  | 
 +----------------------------------------+ 
 | Abilities                              | 
 | Torrent 100.000%                       | 
 +----------------------------------------+ 
 | Items                                  | 
 | Nothing 78.539%                        | 
 | Life Orb 21.461%                       | 
 +----------------------------------------+ 
 | Spreads                                | 
 | Hardy:0/0/0/0/0/0 78.539%              | 
 | Adamant:252/252/4/0/0/0 21.461%        | 
 +----------------------------------------+ 
 | Moves                                  | 
 | Dragon Claw 100.000%                   | 
 | Double-Edge 78.539%                    | 
 | Body Slam 78.539%                      | 
 | Aqua Tail 78.539%                      | 
 | Crunch 21.461%                         | 
 | Brick Break 21.461%                    | 
 | Ancient Power 21.461%                  | 
 +----------------------------------------+ 
 | Teammates                              | 
 | Chikorita +70.381%                     | 
 | Hippopotas +70.381%                    | 
 | Cyndaquil +70.381%                     | 
 | Bulbasaur +65.923%                     | 
 | Bonsly +65.923%                        | 
 +----------------------------------------+ 
 | Checks and Counters                    | 
 +----------------------------------------+ 
 +----------------------------------------+ 
 | Cyndaquil                              | 
 +----------------------------------------+ 
 | Raw count: 2                           | 
 | Avg. weight: 0.680479483666            | 
 | Viability Ceiling: 59                  | 
 +----------------------------------------+ 
 | Abilities                              | 
 | Blaze 100.000%                         | 
 +----------------------------------------+ 
 | Items                                  | 
 | Nothing 100.000%                       | 
 +----------------------------------------+ 
 | Spreads                                | 
 | Hardy:0/0/0/0/0/0 100.000%             | 
 +----------------------------------------+ 
 | Moves                                  | 
 | Body Slam 100.000%                     | 
 | Fire Blast 100.000%                    | 
 | Double-Edge 100.000%                   | 
 | Frustration 100.000%                   | 
 +----------------------------------------+ 
 | Teammates                              | 
 | Chikorita +91.842%                     | 
 | Totodile +91.842%                      | 
 | Hippopotas +91.842%                    | 
 | Bulbasaur +87.383%                     | 
 | Bonsly +87.383%                        | 
 +----------------------------------------+ 
 | Checks and Counters                    | 
 +----------------------------------------+ 
 +----------------------------------------+ 
 | Chikorita                              | 
 +----------------------------------------+ 
 | Raw count: 2                           | 
 | Avg. weight: 0.680479483666            | 
 | Viability Ceiling: 59                  | 
 +----------------------------------------+ 
 | Abilities                              | 
 | Overgrow 100.000%                      | 
 +----------------------------------------+ 
 | Items                                  | 
 | Nothing 100.000%                       | 
 +----------------------------------------+ 
 | Spreads                                | 
 | Hardy:0/0/0/0/0/0 100.000%             | 
 +----------------------------------------+ 
 | Moves                                  | 
 | Giga Drain 100.000%                    | 
 | Ancient Power 100.000%                 | 
 | Grass Knot 100.000%                    | 
 | Bullet Seed 100.000%                   | 
 +----------------------------------------+ 
 | Teammates                              | 
 | Hippopotas +91.842%                    | 
 | Totodile +91.842%                      | 
 | Cyndaquil +91.842%                     | 
 | Bulbasaur +87.383%                     | 
 | Bonsly +87.383%                        | 
 +----------------------------------------+ 
 | Checks and Counters                    | 
 +----------------------------------------+ 
 +----------------------------------------+ 
 | Hippopotas                             | 
 +----------------------------------------+ 
 | Raw count: 2                           | 
 | Avg. weight: 0.680479483666            | 
 | Viability Ceiling: 59                  | 
 +----------------------------------------+ 
 | Abilities                              | 
 | Sand Stream 100.000%                   | 
 +----------------------------------------+ 
 | Items                                  | 
 | Nothing 100.000%                       | 
 +----------------------------------------+ 
 | Spreads                                | 
 | Hardy:0/0/0/0/0/0 100.000%             | 
 +----------------------------------------+ 
 | Moves                                  | 
 | Facade 100.000%                        | 
 | Hidden Power Electric 100.000%         | 
 | Earthquake 100.000%                    | 
 | Double-Edge 100.000%                   | 
 +----------------------------------------+ 
 | Teammates                              | 
 | Chikorita +91.842%                     | 
 | Totodile +91.842%                      | 
 | Cyndaquil +91.842%                     | 
 | Bulbasaur +87.383%                     | 
 | Bonsly +87.383%                        | 
 +----------------------------------------+ 
 | Checks and Counters                    | 
 +----------------------------------------+ 
 +----------------------------------------+ 
 | Drifloon                               | 
 +----------------------------------------+ 
 | Raw count: 6                           | 
 | Avg. weight: 0.454002225294            | 
 | Viability Ceiling: 60                  | 
 +----------------------------------------+ 
 | Abilities                              | 
 | Unburden 72.696%                       | 
 | Aftermath 27.304%                      | 
 +----------------------------------------+ 
 | Items                                  | 
 | Oran Berry 72.696%                     | 
 | Choice Specs 13.652%                   | 
 | Choice Scarf 13.652%                   | 
 +----------------------------------------+ 
 | Spreads                                | 
 | Modest:116/0/8/200/8/120 50.390%       | 
 | Calm:236/0/164/0/76/0 22.306%          | 
 | Modest:252/0/0/252/0/4 13.652%         | 
 | Timid:116/0/0/196/0/196 13.652%        | 
 +----------------------------------------+ 
 | Moves                                  | 
 | Shadow Ball 86.348%                    | 
 | Calm Mind 72.696%                      | 
 | Substitute 72.696%                     | 
 | Hidden Power Fighting 50.390%          | 
 | Air Cutter 27.304%                     | 
 | Baton Pass 22.306%                     | 
 | Thunderbolt 13.652%                    | 
 | Ominous Wind 13.652%                   | 
 | Mud-Slap 13.652%                       | 
 | Silver Wind 13.652%                    | 
 | Other 13.652%                          | 
 +----------------------------------------+ 
 | Teammates                              | 
 | Skitty +18.664%                        | 
 | Buneary +16.435%                       | 
 | Aipom +12.594%                         | 
 | Glameow +11.423%                       | 
 | Treecko +11.423%                       | 
 | Rhyhorn +11.423%                       | 
 | Kabuto +11.423%                        | 
 | Torchic +11.423%                       | 
 | Growlithe +11.423%                     | 
 | Seel +11.423%                          | 
 | Anorith +5.428%                        | 
 | Bonsly +1.035%                         | 
 +----------------------------------------+ 
 | Checks and Counters                    | 
 +----------------------------------------+ 
 +----------------------------------------+ 
 | Snover                                 | 
 +----------------------------------------+ 
 | Raw count: 3                           | 
 | Avg. weight: 0.585381881167            | 
 | Viability Ceiling: 55                  | 
 +----------------------------------------+ 
 | Abilities                              | 
 | Snow Warning 100.000%                  | 
 +----------------------------------------+ 
 | Items                                  | 
 | Leftovers 64.233%                      | 
 | Sitrus Berry 35.767%                   | 
 +----------------------------------------+ 
 | Spreads                                | 
 | Modest:0/0/116/180/196/0 64.233%       | 
 | Calm:0/0/0/100/196/0 35.767%           | 
 +----------------------------------------+ 
 | Moves                                  | 
 | Energy Ball 100.000%                   | 
 | Protect 64.233%                        | 
 | Giga Drain 64.233%                     | 
 | Ice Beam 64.233%                       | 
 | Blizzard 35.767%                       | 
 | Leech Seed 35.767%                     | 
 | Substitute 35.767%                     | 
 +----------------------------------------+ 
 | Teammates                              | 
 | Gligar +39.384%                        | 
 | Snubbull +32.002%                      | 
 | Snorunt +32.002%                       | 
 | Drowzee +32.002%                       | 
 | Shellder +32.002%                      | 
 | Barboach +32.002%                      | 
 | Aipom +26.055%                         | 
 | Diglett +24.471%                       | 
 +----------------------------------------+ 
 | Checks and Counters                    | 
 +----------------------------------------+ 
 +----------------------------------------+ 
 | Taillow                                | 
 +----------------------------------------+ 
 | Raw count: 2                           | 
 | Avg. weight: 0.5                       | 
 | Viability Ceiling: 55                  | 
 +----------------------------------------+ 
 | Abilities                              | 
 | Guts 100.000%                          | 
 +----------------------------------------+ 
 | Items                                  | 
 | Flame Orb 100.000%                     | 
 +----------------------------------------+ 
 | Spreads                                | 
 | Jolly:36/236/0/0/0/236 100.000%        | 
 +----------------------------------------+ 
 | Moves                                  | 
 | U-turn 100.000%                        | 
 | Quick Attack 100.000%                  | 
 | Aerial Ace 62.812%                     | 
 | Facade 62.812%                         | 
 | Protect 37.188%                        | 
 | Brave Bird 37.188%                     | 
 +----------------------------------------+ 
 | Teammates                              | 
 | Starly +59.047%                        | 
 | Gastly +52.978%                        | 
 | Diglett +51.516%                       | 
 | Staryu +38.454%                        | 
 | Feebas +34.959%                        | 
 | Magikarp +34.959%                      | 
 | Zubat +34.959%                         | 
 | Sunkern +34.959%                       | 
 | Togepi +32.654%                        | 
 | Abra +25.820%                          | 
 +----------------------------------------+ 
 | Checks and Counters                    | 
 +----------------------------------------+ 
 +----------------------------------------+ 
 | Buneary                                | 
 +----------------------------------------+ 
 | Raw count: 3                           | 
 | Avg. weight: 0.326500172199            | 
 | Viability Ceiling: 45                  | 
 +----------------------------------------+ 
 | Abilities                              | 
 | Run Away 100.000%                      | 
 +----------------------------------------+ 
 | Items                                  | 
 | Oran Berry 62.034%                     | 
 | Nothing 37.966%                        | 
 +----------------------------------------+ 
 | Spreads                                | 
 | Jolly:0/228/0/0/0/236 62.034%          | 
 | Hardy:0/0/4/4/0/0 37.966%              | 
 +----------------------------------------+ 
 | Moves                                  | 
 | Ice Punch 62.034%                      | 
 | Baton Pass 62.034%                     | 
 | Return 62.034%                         | 
 | Thunder Punch 62.034%                  | 
 | Thunderbolt 37.966%                    | 
 | Focus Punch 37.966%                    | 
 | Jump Kick 37.966%                      | 
 | Last Resort 37.966%                    | 
 +----------------------------------------+ 
 | Teammates                              | 
 | Skitty +58.392%                        | 
 | Drifloon +53.933%                      | 
 | Aipom +52.322%                         | 
 | Venonat +35.737%                       | 
 | Carvanha +35.737%                      | 
 | Gligar +29.884%                        | 
 | Anorith +29.742%                       | 
 | Bonsly +25.349%                        | 
 | Abra +25.042%                          | 
 +----------------------------------------+ 
 | Checks and Counters                    | 
 +----------------------------------------+ 
 +----------------------------------------+ 
 | Electrike                              | 
 +----------------------------------------+ 
 | Raw count: 2                           | 
 | Avg. weight: 0.441671139075            | 
 | Viability Ceiling: 50                  | 
 +----------------------------------------+ 
 | Abilities                              | 
 | Static 100.000%                        | 
 +----------------------------------------+ 
 | Items                                  | 
 | Nothing 100.000%                       | 
 +----------------------------------------+ 
 | Spreads                                | 
 | Hardy:0/0/0/0/0/0 100.000%             | 
 +----------------------------------------+ 
 | Moves                                  | 
 | Nothing 300.000%                       | 
 | Bite 100.000%                          | 
 +----------------------------------------+ 
 | Teammates                              | 
 +----------------------------------------+ 
 | Checks and Counters                    | 
 +----------------------------------------+ 
 +----------------------------------------+ 
 | Houndour                               | 
 +----------------------------------------+ 
 | Raw count: 3                           | 
 | Avg. weight: 0.427048230906            | 
 | Viability Ceiling: 50                  | 
 +----------------------------------------+ 
 | Abilities                              | 
 | Early Bird 69.999%                     | 
 | Flash Fire 30.001%                     | 
 +----------------------------------------+ 
 | Items                                  | 
 | Flame Plate 69.999%                    | 
 | Focus Sash 30.001%                     | 
 +----------------------------------------+ 
 | Spreads                                | 
 | Timid:76/36/116/168/36/76 69.999%      | 
 | Lonely:0/196/0/196/36/76 30.001%       | 
 +----------------------------------------+ 
 | Moves                                  | 
 | Dark Pulse 69.999%                     | 
 | Roar 69.999%                           | 
 | Shadow Ball 69.999%                    | 
 | Flamethrower 69.999%                   | 
 | Protect 30.001%                        | 
 | Overheat 30.001%                       | 
 | Sucker Punch 30.001%                   | 
 | Reversal 30.001%                       | 
 +----------------------------------------+ 
 | Teammates                              | 
 | Oddish +27.697%                        | 
 | Machop +27.697%                        | 
 | Natu +27.697%                          | 
 | Togepi +25.468%                        | 
 | Aipom +20.290%                         | 
 | Dratini +20.181%                       | 
 | Gastly +20.167%                        | 
 | Croagunk +5.259%                       | 
 | Munchlax +3.029%                       | 
 +----------------------------------------+ 
 | Checks and Counters                    | 
 +----------------------------------------+ 
 +----------------------------------------+ 
 | Togepi                                 | 
 +----------------------------------------+ 
 | Raw count: 3                           | 
 | Avg. weight: 0.422887046407            | 
 | Viability Ceiling: 50                  | 
 +----------------------------------------+ 
 | Abilities                              | 
 | Hustle 70.687%                         | 
 | Serene Grace 29.313%                   | 
 +----------------------------------------+ 
 | Items                                  | 
 | Leftovers 70.687%                      | 
 | Oran Berry 29.313%                     | 
 +----------------------------------------+ 
 | Spreads                                | 
 | Relaxed:76/36/156/36/76/116 70.687%    | 
 | Calm:236/0/0/36/236/0 29.313%          | 
 +----------------------------------------+ 
 | Moves                                  | 
 | Light Screen 70.687%                   | 
 | Extrasensory 70.687%                   | 
 | Toxic 70.687%                          | 
 | Encore 70.687%                         | 
 | Soft-Boiled 29.313%                    | 
 | Baton Pass 29.313%                     | 
 | Ancient Power 29.313%                  | 
 | Metronome 29.313%                      | 
 +----------------------------------------+ 
 | Teammates                              | 
 | Oddish +27.993%                        | 
 | Natu +27.993%                          | 
 | Feebas +27.083%                        | 
 | Magikarp +27.083%                      | 
 | Zubat +27.083%                         | 
 | Sunkern +27.083%                       | 
 | Houndour +25.688%                      | 
 | Taillow +23.318%                       | 
 | Aipom +20.585%                         | 
 | Dratini +20.477%                       | 
 +----------------------------------------+ 
 | Checks and Counters                    | 
 +----------------------------------------+ 
 +----------------------------------------+ 
 | Wynaut                                 | 
 +----------------------------------------+ 
 | Raw count: 3                           | 
 | Avg. weight: 0.422387944736            | 
 | Viability Ceiling: 55                  | 
 +----------------------------------------+ 
 | Abilities                              | 
 | Shadow Tag 100.000%                    | 
 +----------------------------------------+ 
 | Items                                  | 
 | Leftovers 100.000%                     | 
 +----------------------------------------+ 
 | Spreads                                | 
 | Calm:252/0/0/0/252/0 100.000%          | 
 +----------------------------------------+ 
 | Moves                                  | 
 | Mirror Coat 100.000%                   | 
 | Counter 100.000%                       | 
 | Safeguard 100.000%                     | 
 | Destiny Bond 100.000%                  | 
 +----------------------------------------+ 
 | Teammates                              | 
 +----------------------------------------+ 
 | Checks and Counters                    | 
 +----------------------------------------+ 
 +----------------------------------------+ 
 | Snorunt                                | 
 +----------------------------------------+ 
 | Raw count: 1                           | 
 | Avg. weight: 0.628122801539            | 
 | Viability Ceiling: 55                  | 
 +----------------------------------------+ 
 | Abilities                              | 
 | Ice Body 100.000%                      | 
 +----------------------------------------+ 
 | Items                                  | 
 | Life Orb 100.000%                      | 
 +----------------------------------------+ 
 | Spreads                                | 
 | Naive:0/196/0/200/0/112 100.000%       | 
 +----------------------------------------+ 
 | Moves                                  | 
 | Crunch 100.000%                        | 
 | Ice Shard 100.000%                     | 
 | Hidden Power Fighting 100.000%         | 
 | Blizzard 100.000%                      | 
 +----------------------------------------+ 
 | Teammates                              | 
 | Shellder +96.235%                      | 
 | Snover +92.469%                        | 
 | Diglett +88.704%                       | 
 | Gligar +67.850%                        | 
 | Abra +63.008%                          | 
 +----------------------------------------+ 
 | Checks and Counters                    | 
 +----------------------------------------+ 
 +----------------------------------------+ 
 | Drowzee                                | 
 +----------------------------------------+ 
 | Raw count: 2                           | 
 | Avg. weight: 0.564011420981            | 
 | Viability Ceiling: 55                  | 
 +----------------------------------------+ 
 | Abilities                              | 
 | Insomnia 100.000%                      | 
 +----------------------------------------+ 
 | Items                                  | 
 | Leftovers 100.000%                     | 
 +----------------------------------------+ 
 | Spreads                                | 
 | Modest:0/0/0/252/196/20 100.000%       | 
 +----------------------------------------+ 
 | Moves                                  | 
 | Psychic 100.000%                       | 
 | Signal Beam 100.000%                   | 
 | Rest 100.000%                          | 
 | Nasty Plot 100.000%                    | 
 +----------------------------------------+ 
 | Teammates                              | 
 | Snubbull +51.918%                      | 
 | Barboach +51.918%                      | 
 | Snover +48.153%                        | 
 | Aipom +45.972%                         | 
 | Gligar +23.533%                        | 
 +----------------------------------------+ 
 | Checks and Counters                    | 
 +----------------------------------------+ 
 +----------------------------------------+ 
 | Barboach                               | 
 +----------------------------------------+ 
 | Raw count: 2                           | 
 | Avg. weight: 0.564011420981            | 
 | Viability Ceiling: 55                  | 
 +----------------------------------------+ 
 | Abilities                              | 
 | Oblivious 100.000%                     | 
 +----------------------------------------+ 
 | Items                                  | 
 | Leftovers 100.000%                     | 
 +----------------------------------------+ 
 | Spreads                                | 
 | Naughty:0/212/0/68/0/196 100.000%      | 
 +----------------------------------------+ 
 | Moves                                  | 
 | Surf 100.000%                          | 
 | Dragon Dance 100.000%                  | 
 | Protect 100.000%                       | 
 | Earthquake 100.000%                    | 
 +----------------------------------------+ 
 | Teammates                              | 
 | Snubbull +51.918%                      | 
 | Drowzee +51.918%                       | 
 | Snover +48.153%                        | 
 | Aipom +45.972%                         | 
 | Gligar +23.533%                        | 
 +----------------------------------------+ 
 | Checks and Counters                    | 
 +----------------------------------------+ 
 +----------------------------------------+ 
 | Teddiursa                              | 
 +----------------------------------------+ 
 | Raw count: 1                           | 
 | Avg. weight: 0.628122801539            | 
 | Viability Ceiling: 55                  | 
 +----------------------------------------+ 
 | Abilities                              | 
 | Quick Feet 100.000%                    | 
 +----------------------------------------+ 
 | Items                                  | 
 | Choice Band 100.000%                   | 
 +----------------------------------------+ 
 | Spreads                                | 
 | Adamant:36/196/36/0/196/36 100.000%    | 
 +----------------------------------------+ 
 | Moves                                  | 
 | Gunk Shot 100.000%                     | 
 | Fire Punch 100.000%                    | 
 | Earthquake 100.000%                    | 
 | Close Combat 100.000%                  | 
 +----------------------------------------+ 
 | Teammates                              | 
 | Bellsprout +96.235%                    | 
 | Anorith +91.776%                       | 
 | Gastly +90.165%                        | 
 | Clamperl +77.561%                      | 
 | Munchlax +73.028%                      | 
 +----------------------------------------+ 
 | Checks and Counters                    | 
 +----------------------------------------+ 
 +----------------------------------------+ 
 | Bellsprout                             | 
 +----------------------------------------+ 
 | Raw count: 1                           | 
 | Avg. weight: 0.628122801539            | 
 | Viability Ceiling: 55                  | 
 +----------------------------------------+ 
 | Abilities                              | 
 | Chlorophyll 100.000%                   | 
 +----------------------------------------+ 
 | Items                                  | 
 | Life Orb 100.000%                      | 
 +----------------------------------------+ 
 | Spreads                                | 
 | Modest:0/0/0/196/116/196 100.000%      | 
 +----------------------------------------+ 
 | Moves                                  | 
 | Sleep Powder 100.000%                  | 
 | Sunny Day 100.000%                     | 
 | Hidden Power Ice 100.000%              | 
 | Giga Drain 100.000%                    | 
 +----------------------------------------+ 
 | Teammates                              | 
 | Teddiursa +96.235%                     | 
 | Anorith +91.776%                       | 
 | Gastly +90.165%                        | 
 | Clamperl +77.561%                      | 
 | Munchlax +73.028%                      | 
 +----------------------------------------+ 
 | Checks and Counters                    | 
 +----------------------------------------+ 
 +----------------------------------------+ 
 | Shellder                               | 
 +----------------------------------------+ 
 | Raw count: 1                           | 
 | Avg. weight: 0.628122801539            | 
 | Viability Ceiling: 55                  | 
 +----------------------------------------+ 
 | Abilities                              | 
 | Skill Link 100.000%                    | 
 +----------------------------------------+ 
 | Items                                  | 
 | Life Orb 100.000%                      | 
 +----------------------------------------+ 
 | Spreads                                | 
 | Adamant:0/236/36/0/236/0 100.000%      | 
 +----------------------------------------+ 
 | Moves                                  | 
 | Ice Shard 100.000%                     | 
 | Icicle Spear 100.000%                  | 
 | Explosion 100.000%                     | 
 | Rock Blast 100.000%                    | 
 +----------------------------------------+ 
 | Teammates                              | 
 | Snorunt +96.235%                       | 
 | Snover +92.469%                        | 
 | Diglett +88.704%                       | 
 | Gligar +67.850%                        | 
 | Abra +63.008%                          | 
 +----------------------------------------+ 
 | Checks and Counters                    | 
 +----------------------------------------+ 
 +----------------------------------------+ 
 | Psyduck                                | 
 +----------------------------------------+ 
 | Raw count: 1                           | 
 | Avg. weight: 0.628122801539            | 
 | Viability Ceiling: 55                  | 
 +----------------------------------------+ 
 | Abilities                              | 
 | Damp 100.000%                          | 
 +----------------------------------------+ 
 | Items                                  | 
 | Chesto Berry 100.000%                  | 
 +----------------------------------------+ 
 | Spreads                                | 
 | Calm:0/0/0/76/196/0 100.000%           | 
 +----------------------------------------+ 
 | Moves                                  | 
 | Toxic 100.000%                         | 
 | Hydro Pump 100.000%                    | 
 | Rest 100.000%                          | 
 | Ice Beam 100.000%                      | 
 +----------------------------------------+ 
 | Teammates                              | 
 | Krabby +96.235%                        | 
 | Diglett +88.704%                       | 
 | Duskull +77.561%                       | 
 | Riolu +75.642%                         | 
 | Croagunk +75.257%                      | 
 +----------------------------------------+ 
 | Checks and Counters                    | 
 +----------------------------------------+ 
 +----------------------------------------+ 
 | Starly                                 | 
 +----------------------------------------+ 
 | Raw count: 1                           | 
 | Avg. weight: 0.628122801539            | 
 | Viability Ceiling: 55                  | 
 +----------------------------------------+ 
 | Abilities                              | 
 | Keen Eye 100.000%                      | 
 +----------------------------------------+ 
 | Items                                  | 
 | Choice Scarf 100.000%                  | 
 +----------------------------------------+ 
 | Spreads                                | 
 | Hardy:0/0/0/0/0/0 100.000%             | 
 +----------------------------------------+ 
 | Moves                                  | 
 | U-turn 100.000%                        | 
 | Return 100.000%                        | 
 | Quick Attack 100.000%                  | 
 | Brave Bird 100.000%                    | 
 +----------------------------------------+ 
 | Teammates                              | 
 | Taillow +94.006%                       | 
 | Gastly +90.165%                        | 
 | Diglett +88.704%                       | 
 | Staryu +75.642%                        | 
 | Abra +63.008%                          | 
 +----------------------------------------+ 
 | Checks and Counters                    | 
 +----------------------------------------+ 
 +----------------------------------------+ 
 | Snubbull                               | 
 +----------------------------------------+ 
 | Raw count: 2                           | 
 | Avg. weight: 0.564011420981            | 
 | Viability Ceiling: 55                  | 
 +----------------------------------------+ 
 | Abilities                              | 
 | Intimidate 100.000%                    | 
 +----------------------------------------+ 
 | Items                                  | 
 | Leftovers 100.000%                     | 
 +----------------------------------------+ 
 | Spreads                                | 
 | Naughty:0/196/0/116/196/0 100.000%     | 
 +----------------------------------------+ 
 | Moves                                  | 
 | Crunch 100.000%                        | 
 | Earthquake 100.000%                    | 
 | Flamethrower 100.000%                  | 
 | Close Combat 100.000%                  | 
 +----------------------------------------+ 
 | Teammates                              | 
 | Drowzee +51.918%                       | 
 | Barboach +51.918%                      | 
 | Snover +48.153%                        | 
 | Aipom +45.972%                         | 
 | Gligar +23.533%                        | 
 +----------------------------------------+ 
 | Checks and Counters                    | 
 +----------------------------------------+ 
 +----------------------------------------+ 
 | Krabby                                 | 
 +----------------------------------------+ 
 | Raw count: 1                           | 
 | Avg. weight: 0.628122801539            | 
 | Viability Ceiling: 55                  | 
 +----------------------------------------+ 
 | Abilities                              | 
 | Hyper Cutter 100.000%                  | 
 +----------------------------------------+ 
 | Items                                  | 
 | Choice Band 100.000%                   | 
 +----------------------------------------+ 
 | Spreads                                | 
 | Adamant:0/236/36/0/236/0 100.000%      | 
 +----------------------------------------+ 
 | Moves                                  | 
 | Crabhammer 100.000%                    | 
 | Body Slam 100.000%                     | 
 | Rock Slide 100.000%                    | 
 | Knock Off 100.000%                     | 
 +----------------------------------------+ 
 | Teammates                              | 
 | Psyduck +96.235%                       | 
 | Diglett +88.704%                       | 
 | Duskull +77.561%                       | 
 | Riolu +75.642%                         | 
 | Croagunk +75.257%                      | 
 +----------------------------------------+ 
 | Checks and Counters                    | 
 +----------------------------------------+ 
 +----------------------------------------+ 
 | Skitty                                 | 
 +----------------------------------------+ 
 | Raw count: 2                           | 
 | Avg. weight: 0.303811659068            | 
 | Viability Ceiling: 45                  | 
 +----------------------------------------+ 
 | Abilities                              | 
 | Cute Charm 100.000%                    | 
 +----------------------------------------+ 
 | Items                                  | 
 | Oran Berry 100.000%                    | 
 +----------------------------------------+ 
 | Spreads                                | 
 | Impish:36/0/236/0/236/0 100.000%       | 
 +----------------------------------------+ 
 | Moves                                  | 
 | Return 100.000%                        | 
 | Calm Mind 100.000%                     | 
 | Baton Pass 100.000%                    | 
 | Substitute 100.000%                    | 
 +----------------------------------------+ 
 | Teammates                              | 
 | Buneary +94.128%                       | 
 | Drifloon +91.899%                      | 
 | Aipom +90.288%                         | 
 | Gligar +67.850%                        | 
 | Abra +63.008%                          | 
 +----------------------------------------+ 
 | Checks and Counters                    | 
 +----------------------------------------+ 
 +----------------------------------------+ 
 | Natu                                   | 
 +----------------------------------------+ 
 | Raw count: 2                           | 
 | Avg. weight: 0.448391970381            | 
 | Viability Ceiling: 50                  | 
 +----------------------------------------+ 
 | Abilities                              | 
 | Synchronize 100.000%                   | 
 +----------------------------------------+ 
 | Items                                  | 
 | Leftovers 100.000%                     | 
 +----------------------------------------+ 
 | Spreads                                | 
 | Rash:116/36/76/116/48/116 100.000%     | 
 +----------------------------------------+ 
 | Moves                                  | 
 | Signal Beam 100.000%                   | 
 | Thunder Wave 100.000%                  | 
 | Psychic 57.140%                        | 
 | Haze 57.140%                           | 
 | Zen Headbutt 42.860%                   | 
 | Drill Peck 42.860%                     | 
 +----------------------------------------+ 
 | Teammates                              | 
 | Oddish +40.556%                        | 
 | Togepi +38.327%                        | 
 | Houndour +38.252%                      | 
 | Aipom +33.148%                         | 
 | Dratini +33.040%                       | 
 +----------------------------------------+ 
 | Checks and Counters                    | 
 +----------------------------------------+ 
 +----------------------------------------+ 
 | Machop                                 | 
 +----------------------------------------+ 
 | Raw count: 1                           | 
 | Avg. weight: 0.384360751957            | 
 | Viability Ceiling: 45                  | 
 +----------------------------------------+ 
 | Abilities                              | 
 | No Guard 100.000%                      | 
 +----------------------------------------+ 
 | Items                                  | 
 | Choice Scarf 100.000%                  | 
 +----------------------------------------+ 
 | Spreads                                | 
 | Jolly:36/196/36/0/0/236 100.000%       | 
 +----------------------------------------+ 
 | Moves                                  | 
 | Payback 100.000%                       | 
 | Dynamic Punch 100.000%                 | 
 | Ice Punch 100.000%                     | 
 | Bullet Punch 100.000%                  | 
 +----------------------------------------+ 
 | Teammates                              | 
 | Houndour +95.392%                      | 
 | Gastly +90.165%                        | 
 | Croagunk +75.257%                      | 
 | Munchlax +73.028%                      | 
 | Gligar +67.850%                        | 
 +----------------------------------------+ 
 | Checks and Counters                    | 
 +----------------------------------------+ 
 +----------------------------------------+ 
 | Oddish                                 | 
 +----------------------------------------+ 
 | Raw count: 2                           | 
 | Avg. weight: 0.448391970381            | 
 | Viability Ceiling: 50                  | 
 +----------------------------------------+ 
 | Abilities                              | 
 | Chlorophyll 100.000%                   | 
 +----------------------------------------+ 
 | Items                                  | 
 | Black Sludge 100.000%                  | 
 +----------------------------------------+ 
 | Spreads                                | 
 | Jolly:76/144/0/156/0/116 100.000%      | 
 +----------------------------------------+ 
 | Moves                                  | 
 | Sleep Powder 100.000%                  | 
 | Hidden Power Fire 100.000%             | 
 | Sunny Day 100.000%                     | 
 | Giga Drain 57.140%                     | 
 | Grass Knot 42.860%                     | 
 +----------------------------------------+ 
 | Teammates                              | 
 | Natu +40.556%                          | 
 | Togepi +38.327%                        | 
 | Houndour +38.252%                      | 
 | Aipom +33.148%                         | 
 | Dratini +33.040%                       | 
 +----------------------------------------+ 
 | Checks and Counters                    | 
 +----------------------------------------+ 
 +----------------------------------------+ 
 | Pichu                                  | 
 +----------------------------------------+ 
 | Raw count: 1                           | 
 | Avg. weight: 0.371877198461            | 
 | Viability Ceiling: 45                  | 
 +----------------------------------------+ 
 | Abilities                              | 
 | Static 100.000%                        | 
 +----------------------------------------+ 
 | Items                                  | 
 | Nothing 100.000%                       | 
 +----------------------------------------+ 
 | Spreads                                | 
 | Hardy:0/0/0/0/0/0 100.000%             | 
 +----------------------------------------+ 
 | Moves                                  | 
 | Iron Tail 100.000%                     | 
 | Volt Tackle 100.000%                   | 
 | Fake Out 100.000%                      | 
 | Thunder 100.000%                       | 
 +----------------------------------------+ 
 | Teammates                              | 
 | Charmander +97.771%                    | 
 | Squirtle +97.771%                      | 
 | Eevee +97.771%                         | 
 | Bulbasaur +87.383%                     | 
 | Munchlax +73.028%                      | 
 +----------------------------------------+ 
 | Checks and Counters                    | 
 +----------------------------------------+ 
 +----------------------------------------+ 
 | Magikarp                               | 
 +----------------------------------------+ 
 | Raw count: 3                           | 
 | Avg. weight: 0.380199567458            | 
 | Viability Ceiling: 45                  | 
 +----------------------------------------+ 
 | Abilities                              | 
 | Swift Swim 100.000%                    | 
 +----------------------------------------+ 
 | Items                                  | 
 | Nothing 33.698%                        | 
 | Leftovers 33.698%                      | 
 | Focus Sash 32.604%                     | 
 +----------------------------------------+ 
 | Spreads                                | 
 | Hardy:0/0/0/0/0/0 67.396%              | 
 | Jolly:36/196/0/0/36/196 32.604%        | 
 +----------------------------------------+ 
 | Moves                                  | 
 | Nothing 202.189%                       | 
 | Splash 100.000%                        | 
 | Tackle 32.604%                         | 
 | Flail 32.604%                          | 
 | Bounce 32.604%                         | 
 +----------------------------------------+ 
 | Teammates                              | 
 | Feebas +30.374%                        | 
 | Zubat +30.374%                         | 
 | Sunkern +30.374%                       | 
 | Togepi +28.070%                        | 
 | Taillow +26.609%                       | 
 +----------------------------------------+ 
 | Checks and Counters                    | 
 +----------------------------------------+ 
 +----------------------------------------+ 
 | Growlithe                              | 
 +----------------------------------------+ 
 | Raw count: 1                           | 
 | Avg. weight: 0.371877198461            | 
 | Viability Ceiling: 45                  | 
 +----------------------------------------+ 
 | Abilities                              | 
 | Intimidate 100.000%                    | 
 +----------------------------------------+ 
 | Items                                  | 
 | Choice Band 100.000%                   | 
 +----------------------------------------+ 
 | Spreads                                | 
 | Jolly:116/196/0/0/0/196 100.000%       | 
 +----------------------------------------+ 
 | Moves                                  | 
 | Nothing 300.000%                       | 
 | Flare Blitz 100.000%                   | 
 +----------------------------------------+ 
 | Teammates                              | 
 | Seel +97.771%                          | 
 | Kabuto +97.771%                        | 
 | Treecko +97.771%                       | 
 | Drifloon +91.899%                      | 
 | Bonsly +87.383%                        | 
 +----------------------------------------+ 
 | Checks and Counters                    | 
 +----------------------------------------+ 
 +----------------------------------------+ 
 | Eevee                                  | 
 +----------------------------------------+ 
 | Raw count: 1                           | 
 | Avg. weight: 0.371877198461            | 
 | Viability Ceiling: 45                  | 
 +----------------------------------------+ 
 | Abilities                              | 
 | Run Away 100.000%                      | 
 +----------------------------------------+ 
 | Items                                  | 
 | Nothing 100.000%                       | 
 +----------------------------------------+ 
 | Spreads                                | 
 | Hardy:0/0/0/0/0/0 100.000%             | 
 +----------------------------------------+ 
 | Moves                                  | 
 | Swift 100.000%                         | 
 | Substitute 100.000%                    | 
 | Hidden Power Psychic 100.000%          | 
 | Mud-Slap 100.000%                      | 
 +----------------------------------------+ 
 | Teammates                              | 
 | Pichu +97.771%                         | 
 | Charmander +97.771%                    | 
 | Squirtle +97.771%                      | 
 | Bulbasaur +87.383%                     | 
 | Munchlax +73.028%                      | 
 +----------------------------------------+ 
 | Checks and Counters                    | 
 +----------------------------------------+ 
 +----------------------------------------+ 
 | Glameow                                | 
 +----------------------------------------+ 
 | Raw count: 1                           | 
 | Avg. weight: 0.371877198461            | 
 | Viability Ceiling: 45                  | 
 +----------------------------------------+ 
 | Abilities                              | 
 | Limber 100.000%                        | 
 +----------------------------------------+ 
 | Items                                  | 
 | Life Orb 100.000%                      | 
 +----------------------------------------+ 
 | Spreads                                | 
 | Jolly:4/252/0/0/0/252 100.000%         | 
 +----------------------------------------+ 
 | Moves                                  | 
 | U-turn 100.000%                        | 
 | Sucker Punch 100.000%                  | 
 | Shadow Claw 100.000%                   | 
 | Fake Out 100.000%                      | 
 +----------------------------------------+ 
 | Teammates                              | 
 | Rhyhorn +97.771%                       | 
 | Torchic +97.771%                       | 
 | Drifloon +91.899%                      | 
 | Anorith +91.776%                       | 
 | Bulbasaur +87.383%                     | 
 +----------------------------------------+ 
 | Checks and Counters                    | 
 +----------------------------------------+ 
 +----------------------------------------+ 
 | Treecko                                | 
 +----------------------------------------+ 
 | Raw count: 1                           | 
 | Avg. weight: 0.371877198461            | 
 | Viability Ceiling: 45                  | 
 +----------------------------------------+ 
 | Abilities                              | 
 | Overgrow 100.000%                      | 
 +----------------------------------------+ 
 | Items                                  | 
 | Life Orb 100.000%                      | 
 +----------------------------------------+ 
 | Spreads                                | 
 | Timid:72/0/0/240/0/196 100.000%        | 
 +----------------------------------------+ 
 | Moves                                  | 
 | Energy Ball 100.000%                   | 
 | Mimic 100.000%                         | 
 | Hidden Power Flying 100.000%           | 
 | Worry Seed 100.000%                    | 
 +----------------------------------------+ 
 | Teammates                              | 
 | Seel +97.771%                          | 
 | Growlithe +97.771%                     | 
 | Kabuto +97.771%                        | 
 | Drifloon +91.899%                      | 
 | Bonsly +87.383%                        | 
 +----------------------------------------+ 
 | Checks and Counters                    | 
 +----------------------------------------+ 
 +----------------------------------------+ 
 | Carvanha                               | 
 +----------------------------------------+ 
 | Raw count: 1                           | 
 | Avg. weight: 0.371877198461            | 
 | Viability Ceiling: 45                  | 
 +----------------------------------------+ 
 | Abilities                              | 
 | Rough Skin 100.000%                    | 
 +----------------------------------------+ 
 | Items                                  | 
 | Nothing 100.000%                       | 
 +----------------------------------------+ 
 | Spreads                                | 
 | Hardy:0/36/36/0/36/0 100.000%          | 
 +----------------------------------------+ 
 | Moves                                  | 
 | Hydro Pump 100.000%                    | 
 | Bounce 100.000%                        | 
 | Blizzard 100.000%                      | 
 | Zen Headbutt 100.000%                  | 
 +----------------------------------------+ 
 | Teammates                              | 
 | Venonat +97.771%                       | 
 | Buneary +94.128%                       | 
 | Anorith +91.776%                       | 
 | Bonsly +87.383%                        | 
 +----------------------------------------+ 
 | Checks and Counters                    | 
 +----------------------------------------+ 
 +----------------------------------------+ 
 | Sunkern                                | 
 +----------------------------------------+ 
 | Raw count: 1                           | 
 | Avg. weight: 0.371877198461            | 
 | Viability Ceiling: 45                  | 
 +----------------------------------------+ 
 | Abilities                              | 
 | Solar Power 100.000%                   | 
 +----------------------------------------+ 
 | Items                                  | 
 | Choice Specs 100.000%                  | 
 +----------------------------------------+ 
 | Spreads                                | 
 | Modest:0/0/0/196/196/116 100.000%      | 
 +----------------------------------------+ 
 | Moves                                  | 
 | Sludge Bomb 100.000%                   | 
 | Energy Ball 100.000%                   | 
 | Solar Beam 100.000%                    | 
 | Hidden Power Ice 100.000%              | 
 +----------------------------------------+ 
 | Teammates                              | 
 | Feebas +97.771%                        | 
 | Zubat +97.771%                         | 
 | Magikarp +97.771%                      | 
 | Togepi +95.467%                        | 
 | Taillow +94.006%                       | 
 +----------------------------------------+ 
 | Checks and Counters                    | 
 +----------------------------------------+ 
 +----------------------------------------+ 
 | Squirtle                               | 
 +----------------------------------------+ 
 | Raw count: 2                           | 
 | Avg. weight: 0.371877198461            | 
 | Viability Ceiling: 45                  | 
 +----------------------------------------+ 
 | Abilities                              | 
 | Torrent 100.000%                       | 
 +----------------------------------------+ 
 | Items                                  | 
 | Nothing 50.000%                        | 
 | Leftovers 50.000%                      | 
 +----------------------------------------+ 
 | Spreads                                | 
 | Hardy:0/0/0/0/0/0 50.000%              | 
 | Hardy:252/140/76/0/0/0 50.000%         | 
 +----------------------------------------+ 
 | Moves                                  | 
 | Aqua Tail 50.000%                      | 
 | Blizzard 50.000%                       | 
 | Aqua Jet 50.000%                       | 
 | Water Gun 50.000%                      | 
 | Hidden Power Fighting 50.000%          | 
 | Rapid Spin 50.000%                     | 
 | Hydro Pump 50.000%                     | 
 | Bubble 50.000%                         | 
 +----------------------------------------+ 
 | Teammates                              | 
 | Pichu +47.771%                         | 
 | Charmander +47.771%                    | 
 | Eevee +47.771%                         | 
 | Bulbasaur +37.383%                     | 
 | Munchlax +23.028%                      | 
 +----------------------------------------+ 
 | Checks and Counters                    | 
 +----------------------------------------+ 
 +----------------------------------------+ 
 | Venonat                                | 
 +----------------------------------------+ 
 | Raw count: 1                           | 
 | Avg. weight: 0.371877198461            | 
 | Viability Ceiling: 45                  | 
 +----------------------------------------+ 
 | Abilities                              | 
 | Compound Eyes 100.000%                 | 
 +----------------------------------------+ 
 | Items                                  | 
 | Nothing 100.000%                       | 
 +----------------------------------------+ 
 | Spreads                                | 
 | Hardy:0/0/0/0/0/0 100.000%             | 
 +----------------------------------------+ 
 | Moves                                  | 
 | Sludge Bomb 100.000%                   | 
 | Psychic 100.000%                       | 
 | Solar Beam 100.000%                    | 
 | Double-Edge 100.000%                   | 
 +----------------------------------------+ 
 | Teammates                              | 
 | Carvanha +97.771%                      | 
 | Buneary +94.128%                       | 
 | Anorith +91.776%                       | 
 | Bonsly +87.383%                        | 
 +----------------------------------------+ 
 | Checks and Counters                    | 
 +----------------------------------------+ 
 +----------------------------------------+ 
 | Torchic                                | 
 +----------------------------------------+ 
 | Raw count: 1                           | 
 | Avg. weight: 0.371877198461            | 
 | Viability Ceiling: 45                  | 
 +----------------------------------------+ 
 | Abilities                              | 
 | Blaze 100.000%                         | 
 +----------------------------------------+ 
 | Items                                  | 
 | BrightPowder 100.000%                  | 
 +----------------------------------------+ 
 | Spreads                                | 
 | Impish:4/0/196/0/252/0 100.000%        | 
 +----------------------------------------+ 
 | Moves                                  | 
 | Swords Dance 100.000%                  | 
 | Sand Attack 100.000%                   | 
 | Agility 100.000%                       | 
 | Baton Pass 100.000%                    | 
 +----------------------------------------+ 
 | Teammates                              | 
 | Glameow +97.771%                       | 
 | Rhyhorn +97.771%                       | 
 | Drifloon +91.899%                      | 
 | Anorith +91.776%                       | 
 | Bulbasaur +87.383%                     | 
 +----------------------------------------+ 
 | Checks and Counters                    | 
 +----------------------------------------+ 
 +----------------------------------------+ 
 | Kabuto                                 | 
 +----------------------------------------+ 
 | Raw count: 1                           | 
 | Avg. weight: 0.371877198461            | 
 | Viability Ceiling: 45                  | 
 +----------------------------------------+ 
 | Abilities                              | 
 | Battle Armor 100.000%                  | 
 +----------------------------------------+ 
 | Items                                  | 
 | Sitrus Berry 100.000%                  | 
 +----------------------------------------+ 
 | Spreads                                | 
 | Hardy:196/196/0/0/0/116 100.000%       | 
 +----------------------------------------+ 
 | Moves                                  | 
 | Stealth Rock 100.000%                  | 
 | Aqua Jet 100.000%                      | 
 | Knock Off 100.000%                     | 
 | Rock Slide 100.000%                    | 
 +----------------------------------------+ 
 | Teammates                              | 
 | Seel +97.771%                          | 
 | Growlithe +97.771%                     | 
 | Treecko +97.771%                       | 
 | Drifloon +91.899%                      | 
 | Bonsly +87.383%                        | 
 +----------------------------------------+ 
 | Checks and Counters                    | 
 +----------------------------------------+ 
 +----------------------------------------+ 
 | Rhyhorn                                | 
 +----------------------------------------+ 
 | Raw count: 1                           | 
 | Avg. weight: 0.371877198461            | 
 | Viability Ceiling: 45                  | 
 +----------------------------------------+ 
 | Abilities                              | 
 | Rock Head 100.000%                     | 
 +----------------------------------------+ 
 | Items                                  | 
 | Life Orb 100.000%                      | 
 +----------------------------------------+ 
 | Spreads                                | 
 | Adamant:0/4/236/0/252/0 100.000%       | 
 +----------------------------------------+ 
 | Moves                                  | 
 | Stealth Rock 100.000%                  | 
 | Aqua Tail 100.000%                     | 
 | Double-Edge 100.000%                   | 
 | Earthquake 100.000%                    | 
 +----------------------------------------+ 
 | Teammates                              | 
 | Glameow +97.771%                       | 
 | Torchic +97.771%                       | 
 | Drifloon +91.899%                      | 
 | Anorith +91.776%                       | 
 | Bulbasaur +87.383%                     | 
 +----------------------------------------+ 
 | Checks and Counters                    | 
 +----------------------------------------+ 
 +----------------------------------------+ 
 | Charmander                             | 
 +----------------------------------------+ 
 | Raw count: 2                           | 
 | Avg. weight: 0.371877198461            | 
 | Viability Ceiling: 45                  | 
 +----------------------------------------+ 
 | Abilities                              | 
 | Blaze 100.000%                         | 
 +----------------------------------------+ 
 | Items                                  | 
 | Nothing 50.000%                        | 
 | Leftovers 50.000%                      | 
 +----------------------------------------+ 
 | Spreads                                | 
 | Hardy:0/0/0/0/0/0 50.000%              | 
 | Hardy:252/252/0/0/0/0 50.000%          | 
 +----------------------------------------+ 
 | Moves                                  | 
 | Fire Punch 100.000%                    | 
 | Flamethrower 50.000%                   | 
 | Return 50.000%                         | 
 | Dragon Dance 50.000%                   | 
 | Dragon Claw 50.000%                    | 
 | Fire Blast 50.000%                     | 
 | Fire Fang 50.000%                      | 
 +----------------------------------------+ 
 | Teammates                              | 
 | Pichu +47.771%                         | 
 | Squirtle +47.771%                      | 
 | Eevee +47.771%                         | 
 | Bulbasaur +37.383%                     | 
 | Munchlax +23.028%                      | 
 +----------------------------------------+ 
 | Checks and Counters                    | 
 +----------------------------------------+ 
 +----------------------------------------+ 
 | Feebas                                 | 
 +----------------------------------------+ 
 | Raw count: 1                           | 
 | Avg. weight: 0.371877198461            | 
 | Viability Ceiling: 45                  | 
 +----------------------------------------+ 
 | Abilities                              | 
 | Swift Swim 100.000%                    | 
 +----------------------------------------+ 
 | Items                                  | 
 | Damp Rock 100.000%                     | 
 +----------------------------------------+ 
 | Spreads                                | 
 | Jolly:36/40/0/0/236/196 100.000%       | 
 +----------------------------------------+ 
 | Moves                                  | 
 | Toxic 100.000%                         | 
 | Rain Dance 100.000%                    | 
 | Waterfall 100.000%                     | 
 | Substitute 100.000%                    | 
 +----------------------------------------+ 
 | Teammates                              | 
 | Zubat +97.771%                         | 
 | Magikarp +97.771%                      | 
 | Sunkern +97.771%                       | 
 | Togepi +95.467%                        | 
 | Taillow +94.006%                       | 
 +----------------------------------------+ 
 | Checks and Counters                    | 
 +----------------------------------------+ 
 +----------------------------------------+ 
 | Zubat                                  | 
 +----------------------------------------+ 
 | Raw count: 1                           | 
 | Avg. weight: 0.371877198461            | 
 | Viability Ceiling: 45                  | 
 +----------------------------------------+ 
 | Abilities                              | 
 | Inner Focus 100.000%                   | 
 +----------------------------------------+ 
 | Items                                  | 
 | Oran Berry 100.000%                    | 
 +----------------------------------------+ 
 | Spreads                                | 
 | Bold:196/0/156/0/116/40 100.000%       | 
 +----------------------------------------+ 
 | Moves                                  | 
 | Toxic 100.000%                         | 
 | Tailwind 100.000%                      | 
 | Super Fang 100.000%                    | 
 | Roost 100.000%                         | 
 +----------------------------------------+ 
 | Teammates                              | 
 | Feebas +97.771%                        | 
 | Magikarp +97.771%                      | 
 | Sunkern +97.771%                       | 
 | Togepi +95.467%                        | 
 | Taillow +94.006%                       | 
 +----------------------------------------+ 
 | Checks and Counters                    | 
 +----------------------------------------+ 
 +----------------------------------------+ 
 | Seel                                   | 
 +----------------------------------------+ 
 | Raw count: 1                           | 
 | Avg. weight: 0.371877198461            | 
 | Viability Ceiling: 45                  | 
 +----------------------------------------+ 
 | Abilities                              | 
 | Thick Fat 100.000%                     | 
 +----------------------------------------+ 
 | Items                                  | 
 | Leftovers 100.000%                     | 
 +----------------------------------------+ 
 | Spreads                                | 
 | Hardy:236/0/156/0/116/0 100.000%       | 
 +----------------------------------------+ 
 | Moves                                  | 
 | Toxic 100.000%                         | 
 | Surf 100.000%                          | 
 | Fake Out 100.000%                      | 
 | Encore 100.000%                        | 
 +----------------------------------------+ 
 | Teammates                              | 
 | Growlithe +97.771%                     | 
 | Kabuto +97.771%                        | 
 | Treecko +97.771%                       | 
 | Drifloon +91.899%                      | 
 | Bonsly +87.383%                        | 
 +----------------------------------------+ 
 | Checks and Counters                    | 
 +----------------------------------------+ 
