 +----------------------------------------+ 
 | Abra                                   | 
 +----------------------------------------+ 
 | Raw count: 5                           | 
 | Avg. weight: 0.497155180862            | 
 | Viability Ceiling: 55                  | 
 +----------------------------------------+ 
 | Abilities                              | 
 | Inner Focus 59.771%                    | 
 | Synchronize 40.229%                    | 
 +----------------------------------------+ 
 | Items                                  | 
 | Focus Sash 85.040%                     | 
 | Leftovers 14.960%                      | 
 +----------------------------------------+ 
 | Spreads                                | 
 | Hardy:236/0/0/0/0/0 35.075%            | 
 | Mild:0/0/0/252/4/252 25.269%           | 
 | Timid:0/0/0/240/0/200 24.696%          | 
 | Hardy:0/0/0/0/0/0 14.960%              | 
 +----------------------------------------+ 
 | Moves                                  | 
 | Nothing 105.224%                       | 
 | Psychic 100.000%                       | 
 | Shadow Ball 49.965%                    | 
 | Calm Mind 40.229%                      | 
 | Signal Beam 25.269%                    | 
 | Hidden Power Fighting 24.696%          | 
 | Energy Ball 24.696%                    | 
 | Ice Punch 14.960%                      | 
 | Other 14.960%                          | 
 +----------------------------------------+ 
 | Teammates                              | 
 | Mantyke +9.566%                        | 
 | Munchlax +9.566%                       | 
 | Elekid +9.566%                         | 
 | Cranidos +9.566%                       | 
 | Onix +9.566%                           | 
 | Gastly +5.663%                         | 
 | Aron +5.663%                           | 
 | Staryu +5.663%                         | 
 | Charmander +5.663%                     | 
 | Shroomish +5.663%                      | 
 +----------------------------------------+ 
 | Checks and Counters                    | 
 +----------------------------------------+ 
 +----------------------------------------+ 
 | Aipom                                  | 
 +----------------------------------------+ 
 | Raw count: 4                           | 
 | Avg. weight: 0.467969299615            | 
 | Viability Ceiling: 55                  | 
 +----------------------------------------+ 
 | Abilities                              | 
 | Pickup 53.422%                         | 
 | Run Away 46.578%                       | 
 +----------------------------------------+ 
 | Items                                  | 
 | Life Orb 46.578%                       | 
 | Choice Scarf 33.556%                   | 
 | King's Rock 19.867%                    | 
 +----------------------------------------+ 
 | Spreads                                | 
 | Hardy:236/0/0/0/0/0 46.578%            | 
 | Jolly:4/252/0/0/0/252 33.556%          | 
 | Jolly:0/196/0/0/76/236 19.867%         | 
 +----------------------------------------+ 
 | Moves                                  | 
 | Nothing 300.000%                       | 
 | Return 46.578%                         | 
 | Thunder 33.556%                        | 
 | Other 19.867%                          | 
 +----------------------------------------+ 
 | Teammates                              | 
 +----------------------------------------+ 
 | Checks and Counters                    | 
 +----------------------------------------+ 
 +----------------------------------------+ 
 | Anorith                                | 
 +----------------------------------------+ 
 | Raw count: 2                           | 
 | Avg. weight: 0.564061400769            | 
 | Viability Ceiling: 55                  | 
 +----------------------------------------+ 
 | Abilities                              | 
 | Battle Armor 100.000%                  | 
 +----------------------------------------+ 
 | Items                                  | 
 | Nothing 100.000%                       | 
 +----------------------------------------+ 
 | Spreads                                | 
 | Hardy:0/236/0/0/0/0 55.679%            | 
 | Hardy:0/0/0/0/0/0 44.321%              | 
 +----------------------------------------+ 
 | Moves                                  | 
 | Nothing 300.000%                       | 
 | Body Slam 100.000%                     | 
 +----------------------------------------+ 
 | Teammates                              | 
 | Azurill +71.797%                       | 
 +----------------------------------------+ 
 | Checks and Counters                    | 
 +----------------------------------------+ 
 +----------------------------------------+ 
 | Azurill                                | 
 +----------------------------------------+ 
 | Raw count: 2                           | 
 | Avg. weight: 0.564061400769            | 
 | Viability Ceiling: 55                  | 
 +----------------------------------------+ 
 | Abilities                              | 
 | Thick Fat 100.000%                     | 
 +----------------------------------------+ 
 | Items                                  | 
 | Nothing 100.000%                       | 
 +----------------------------------------+ 
 | Spreads                                | 
 | Hardy:0/196/0/0/0/0 55.679%            | 
 | Hardy:0/0/0/0/0/0 44.321%              | 
 +----------------------------------------+ 
 | Moves                                  | 
 | Nothing 300.000%                       | 
 | Frustration 100.000%                   | 
 +----------------------------------------+ 
 | Teammates                              | 
 | Anorith +71.797%                       | 
 +----------------------------------------+ 
 | Checks and Counters                    | 
 +----------------------------------------+ 
 +----------------------------------------+ 
 | Mantyke                                | 
 +----------------------------------------+ 
 | Raw count: 1                           | 
 | Avg. weight: 0.628122801539            | 
 | Viability Ceiling: 55                  | 
 +----------------------------------------+ 
 | Abilities                              | 
 | Water Absorb 100.000%                  | 
 +----------------------------------------+ 
 | Items                                  | 
 | Leftovers 100.000%                     | 
 +----------------------------------------+ 
 | Spreads                                | 
 | Calm:0/0/0/252/252/4 100.000%          | 
 +----------------------------------------+ 
 | Moves                                  | 
 | Toxic 100.000%                         | 
 | Hydro Pump 100.000%                    | 
 | Agility 100.000%                       | 
 | Protect 100.000%                       | 
 +----------------------------------------+ 
 | Teammates                              | 
 | Munchlax +84.297%                      | 
 | Cranidos +84.297%                      | 
 | Onix +84.297%                          | 
 | Elekid +84.297%                        | 
 | Abra +53.203%                          | 
 +----------------------------------------+ 
 | Checks and Counters                    | 
 +----------------------------------------+ 
 +----------------------------------------+ 
 | Munchlax                               | 
 +----------------------------------------+ 
 | Raw count: 1                           | 
 | Avg. weight: 0.628122801539            | 
 | Viability Ceiling: 55                  | 
 +----------------------------------------+ 
 | Abilities                              | 
 | Thick Fat 100.000%                     | 
 +----------------------------------------+ 
 | Items                                  | 
 | Leftovers 100.000%                     | 
 +----------------------------------------+ 
 | Spreads                                | 
 | Adamant:252/252/0/0/0/0 100.000%       | 
 +----------------------------------------+ 
 | Moves                                  | 
 | Toxic 100.000%                         | 
 | Body Slam 100.000%                     | 
 | Zen Headbutt 100.000%                  | 
 | Superpower 100.000%                    | 
 +----------------------------------------+ 
 | Teammates                              | 
 | Mantyke +84.297%                       | 
 | Cranidos +84.297%                      | 
 | Onix +84.297%                          | 
 | Elekid +84.297%                        | 
 | Abra +53.203%                          | 
 +----------------------------------------+ 
 | Checks and Counters                    | 
 +----------------------------------------+ 
 +----------------------------------------+ 
 | Elekid                                 | 
 +----------------------------------------+ 
 | Raw count: 1                           | 
 | Avg. weight: 0.628122801539            | 
 | Viability Ceiling: 55                  | 
 +----------------------------------------+ 
 | Abilities                              | 
 | Static 100.000%                        | 
 +----------------------------------------+ 
 | Items                                  | 
 | Zap Plate 100.000%                     | 
 +----------------------------------------+ 
 | Spreads                                | 
 | Hardy:0/0/0/0/0/0 100.000%             | 
 +----------------------------------------+ 
 | Moves                                  | 
 | Brick Break 100.000%                   | 
 | Thunderbolt 100.000%                   | 
 | Thunder Wave 100.000%                  | 
 | Hidden Power Ice 100.000%              | 
 +----------------------------------------+ 
 | Teammates                              | 
 | Munchlax +84.297%                      | 
 | Mantyke +84.297%                       | 
 | Cranidos +84.297%                      | 
 | Onix +84.297%                          | 
 | Abra +53.203%                          | 
 +----------------------------------------+ 
 | Checks and Counters                    | 
 +----------------------------------------+ 
 +----------------------------------------+ 
 | Cranidos                               | 
 +----------------------------------------+ 
 | Raw count: 1                           | 
 | Avg. weight: 0.628122801539            | 
 | Viability Ceiling: 55                  | 
 +----------------------------------------+ 
 | Abilities                              | 
 | Mold Breaker 100.000%                  | 
 +----------------------------------------+ 
 | Items                                  | 
 | Life Orb 100.000%                      | 
 +----------------------------------------+ 
 | Spreads                                | 
 | Adamant:252/252/0/0/0/4 100.000%       | 
 +----------------------------------------+ 
 | Moves                                  | 
 | Iron Head 100.000%                     | 
 | Stealth Rock 100.000%                  | 
 | Thunder Punch 100.000%                 | 
 | Head Smash 100.000%                    | 
 +----------------------------------------+ 
 | Teammates                              | 
 | Munchlax +84.297%                      | 
 | Mantyke +84.297%                       | 
 | Onix +84.297%                          | 
 | Elekid +84.297%                        | 
 | Abra +53.203%                          | 
 +----------------------------------------+ 
 | Checks and Counters                    | 
 +----------------------------------------+ 
 +----------------------------------------+ 
 | Onix                                   | 
 +----------------------------------------+ 
 | Raw count: 1                           | 
 | Avg. weight: 0.628122801539            | 
 | Viability Ceiling: 55                  | 
 +----------------------------------------+ 
 | Abilities                              | 
 | Rock Head 100.000%                     | 
 +----------------------------------------+ 
 | Items                                  | 
 | Life Orb 100.000%                      | 
 +----------------------------------------+ 
 | Spreads                                | 
 | Impish:4/0/196/0/0/252 100.000%        | 
 +----------------------------------------+ 
 | Moves                                  | 
 | Ancient Power 100.000%                 | 
 | Earthquake 100.000%                    | 
 | Double-Edge 100.000%                   | 
 | Stone Edge 100.000%                    | 
 +----------------------------------------+ 
 | Teammates                              | 
 | Mantyke +84.297%                       | 
 | Cranidos +84.297%                      | 
 | Munchlax +84.297%                      | 
 | Elekid +84.297%                        | 
 | Abra +53.203%                          | 
 +----------------------------------------+ 
 | Checks and Counters                    | 
 +----------------------------------------+ 
 +----------------------------------------+ 
 | Shroomish                              | 
 +----------------------------------------+ 
 | Raw count: 1                           | 
 | Avg. weight: 0.371877198461            | 
 | Viability Ceiling: 45                  | 
 +----------------------------------------+ 
 | Abilities                              | 
 | Effect Spore 100.000%                  | 
 +----------------------------------------+ 
 | Items                                  | 
 | Leftovers 100.000%                     | 
 +----------------------------------------+ 
 | Spreads                                | 
 | Hardy:0/0/0/0/0/0 100.000%             | 
 +----------------------------------------+ 
 | Moves                                  | 
 | Sludge Bomb 100.000%                   | 
 | Leech Seed 100.000%                    | 
 | Spore 100.000%                         | 
 | Giga Drain 100.000%                    | 
 +----------------------------------------+ 
 | Teammates                              | 
 | Staryu +90.703%                        | 
 | Gastly +90.703%                        | 
 | Charmander +90.703%                    | 
 | Aron +90.703%                          | 
 | Abra +53.203%                          | 
 +----------------------------------------+ 
 | Checks and Counters                    | 
 +----------------------------------------+ 
 +----------------------------------------+ 
 | Staryu                                 | 
 +----------------------------------------+ 
 | Raw count: 1                           | 
 | Avg. weight: 0.371877198461            | 
 | Viability Ceiling: 45                  | 
 +----------------------------------------+ 
 | Abilities                              | 
 | Natural Cure 100.000%                  | 
 +----------------------------------------+ 
 | Items                                  | 
 | Leftovers 100.000%                     | 
 +----------------------------------------+ 
 | Spreads                                | 
 | Hardy:0/0/0/0/0/0 100.000%             | 
 +----------------------------------------+ 
 | Moves                                  | 
 | Surf 100.000%                          | 
 | Psychic 100.000%                       | 
 | Recover 100.000%                       | 
 | Thunderbolt 100.000%                   | 
 +----------------------------------------+ 
 | Teammates                              | 
 | Gastly +90.703%                        | 
 | Charmander +90.703%                    | 
 | Shroomish +90.703%                     | 
 | Aron +90.703%                          | 
 | Abra +53.203%                          | 
 +----------------------------------------+ 
 | Checks and Counters                    | 
 +----------------------------------------+ 
 +----------------------------------------+ 
 | Charmander                             | 
 +----------------------------------------+ 
 | Raw count: 1                           | 
 | Avg. weight: 0.371877198461            | 
 | Viability Ceiling: 45                  | 
 +----------------------------------------+ 
 | Abilities                              | 
 | Blaze 100.000%                         | 
 +----------------------------------------+ 
 | Items                                  | 
 | Leftovers 100.000%                     | 
 +----------------------------------------+ 
 | Spreads                                | 
 | Hardy:0/0/0/0/0/0 100.000%             | 
 +----------------------------------------+ 
 | Moves                                  | 
 | Crunch 100.000%                        | 
 | Dragon Claw 100.000%                   | 
 | Thunder Punch 100.000%                 | 
 | Flamethrower 100.000%                  | 
 +----------------------------------------+ 
 | Teammates                              | 
 | Staryu +90.703%                        | 
 | Gastly +90.703%                        | 
 | Shroomish +90.703%                     | 
 | Aron +90.703%                          | 
 | Abra +53.203%                          | 
 +----------------------------------------+ 
 | Checks and Counters                    | 
 +----------------------------------------+ 
 +----------------------------------------+ 
 | Gastly                                 | 
 +----------------------------------------+ 
 | Raw count: 2                           | 
 | Avg. weight: 0.492887952154            | 
 | Viability Ceiling: 54                  | 
 +----------------------------------------+ 
 | Abilities                              | 
 | Levitate 100.000%                      | 
 +----------------------------------------+ 
 | Items                                  | 
 | Life Orb 62.276%                       | 
 | Leftovers 37.724%                      | 
 +----------------------------------------+ 
 | Spreads                                | 
 | Hasty:0/76/0/196/0/196 62.276%         | 
 | Hardy:0/0/0/0/0/0 37.724%              | 
 +----------------------------------------+ 
 | Moves                                  | 
 | Sludge Bomb 100.000%                   | 
 | Shadow Ball 100.000%                   | 
 | Explosion 100.000%                     | 
 | Energy Ball 62.276%                    | 
 | Sucker Punch 37.724%                   | 
 +----------------------------------------+ 
 | Teammates                              | 
 | Staryu +28.427%                        | 
 | Charmander +28.427%                    | 
 | Shroomish +28.427%                     | 
 | Aron +28.427%                          | 
 +----------------------------------------+ 
 | Checks and Counters                    | 
 +----------------------------------------+ 
 +----------------------------------------+ 
 | Aron                                   | 
 +----------------------------------------+ 
 | Raw count: 1                           | 
 | Avg. weight: 0.371877198461            | 
 | Viability Ceiling: 45                  | 
 +----------------------------------------+ 
 | Abilities                              | 
 | Sturdy 100.000%                        | 
 +----------------------------------------+ 
 | Items                                  | 
 | Leftovers 100.000%                     | 
 +----------------------------------------+ 
 | Spreads                                | 
 | Hardy:0/0/0/0/0/0 100.000%             | 
 +----------------------------------------+ 
 | Moves                                  | 
 | Iron Head 100.000%                     | 
 | Body Slam 100.000%                     | 
 | Earthquake 100.000%                    | 
 | Rock Slide 100.000%                    | 
 +----------------------------------------+ 
 | Teammates                              | 
 | Staryu +90.703%                        | 
 | Gastly +90.703%                        | 
 | Charmander +90.703%                    | 
 | Shroomish +90.703%                     | 
 | Abra +53.203%                          | 
 +----------------------------------------+ 
 | Checks and Counters                    | 
 +----------------------------------------+ 
