 dragmag....................... 0.00000%
 sandoffense................... 0.00000%
 rain.......................... 0.00000%
 hyperoffense.................. 0.00000%
 sand.......................... 0.00000%
 rainoffense................... 0.00000%
 offense....................... 0.00000%
 balance....................... 0.00000%
 weatherless................... 0.00000%

