 weatherless...................93.87222%
 offense.......................51.76221%
 balance.......................26.15891%
 hyperoffense..................14.38088%
 stall......................... 7.69800%
 hailstall..................... 3.84900%
 hail.......................... 3.84900%
 choice........................ 2.35652%
 sand.......................... 2.27878%
 monorock...................... 2.27878%
 monotype...................... 2.27878%

 Stalliness (mean: -0.201)
 -1.5|################
     |
 -1.0|#########
     |##############################
 -0.5|##################
     |##############
  0.0|###################
     |############
 +0.5|####
     |###################
 +1.0|
     |
 +1.5|
     |
 more negative = more offensive, more positive = more stall
 one # =  0.65%
