 weatherless...................86.64611%
 hyperoffense..................67.66847%
 offense.......................28.65147%
 dragmag.......................19.57030%
 rain.......................... 7.13805%
 rainoffense................... 7.13805%
 sandoffense................... 6.21584%
 sand.......................... 6.21584%
 balance....................... 3.68006%

 Stalliness (mean: -1.237)
     |##############################
     |
     |
     |
     |###
     |###
 -1.2|#####
     |
 -1.0|#############
     |
 -0.8|#######
     |
 -0.6|###########
     |
 -0.4|
     |
 -0.2|
     |
  0.0|###
 more negative = more offensive, more positive = more stall
 one # =  1.35%
