 Total leads: 12
 + ---- + ------------------ + --------- + ------ + ------- + 
 | Rank | Pokemon            | Usage %   | Raw    | %       | 
 + ---- + ------------------ + --------- + ------ + ------- + 
 | 1    | Primeape           |  0.00000% | 1      |  8.333% | 
 | 2    | Moltres            |  0.00000% | 2      | 16.667% | 
 | 3    | Registeel          |  0.00000% | 2      | 16.667% | 
 | 4    | Houndoom           |  0.00000% | 1      |  8.333% | 
 | 5    | Kangaskhan         |  0.00000% | 1      |  8.333% | 
 | 6    | Venusaur           |  0.00000% | 3      | 25.000% | 
 | 7    | Riolu              |  0.00000% | 2      | 16.667% | 
 + ---- + ------------------ + --------- + ------ + ------- + 
