 +----------------------------------------+ 
 | Registeel                              | 
 +----------------------------------------+ 
 | Raw count: 34                          | 
 | Avg. weight: 0.144208888556            | 
 | Viability Ceiling: 79                  | 
 +----------------------------------------+ 
 | Abilities                              | 
 | Clear Body 100.000%                    | 
 +----------------------------------------+ 
 | Items                                  | 
 | Leftovers 100.000%                     | 
 | Other  0.000%                          | 
 +----------------------------------------+ 
 | Spreads                                | 
 | Careful:252/0/4/0/252/0 65.630%        | 
 | Careful:252/4/0/0/252/0 18.280%        | 
 | Adamant:252/252/0/0/4/0 16.090%        | 
 | Other  0.000%                          | 
 +----------------------------------------+ 
 | Moves                                  | 
 | Curse 65.630%                          | 
 | Rest 65.630%                           | 
 | Sleep Talk 65.630%                     | 
 | Iron Head 65.630%                      | 
 | Stealth Rock 34.370%                   | 
 | Explosion 18.280%                      | 
 | Thunder Wave 18.280%                   | 
 | Seismic Toss 18.280%                   | 
 | Ice Punch 16.090%                      | 
 | Body Slam 16.090%                      | 
 | Other 16.090%                          | 
 +----------------------------------------+ 
 | Teammates                              | 
 | Claydol +15.529%                       | 
 | Clefable +13.365%                      | 
 | Drapion +8.060%                        | 
 | Spiritomb +7.479%                      | 
 | Milotic +7.479%                        | 
 | Lanturn +7.469%                        | 
 | Scyther +5.376%                        | 
 | Dugtrio +5.305%                        | 
 | Hitmontop +5.305%                      | 
 | Blaziken +4.472%                       | 
 | Nidoking +2.094%                       | 
 | Venusaur +1.583%                       | 
 +----------------------------------------+ 
 | Checks and Counters                    | 
 +----------------------------------------+ 
 +----------------------------------------+ 
 | Spiritomb                              | 
 +----------------------------------------+ 
 | Raw count: 21                          | 
 | Avg. weight: 0.178818022746            | 
 | Viability Ceiling: 79                  | 
 +----------------------------------------+ 
 | Abilities                              | 
 | Pressure 100.000%                      | 
 +----------------------------------------+ 
 | Items                                  | 
 | Choice Band 55.123%                    | 
 | Leftovers 44.877%                      | 
 | Other  0.000%                          | 
 +----------------------------------------+ 
 | Spreads                                | 
 | Adamant:252/252/4/0/0/0 55.123%        | 
 | Careful:252/4/0/0/252/0 23.868%        | 
 | Calm:248/0/148/0/112/0 21.009%         | 
 | Other  0.000%                          | 
 +----------------------------------------+ 
 | Moves                                  | 
 | Pursuit 78.991%                        | 
 | Shadow Sneak 78.991%                   | 
 | Trick 55.123%                          | 
 | Sucker Punch 55.123%                   | 
 | Rest 44.877%                           | 
 | Will-O-Wisp 23.868%                    | 
 | Dark Pulse 21.009%                     | 
 | Sleep Talk 21.009%                     | 
 | Calm Mind 21.009%                      | 
 | Other  0.000%                          | 
 +----------------------------------------+ 
 | Teammates                              | 
 | Milotic +48.664%                       | 
 | Clefable +25.756%                      | 
 | Registeel +22.186%                     | 
 | Drapion +15.532%                       | 
 | Cloyster +11.293%                      | 
 | Ursaring +11.293%                      | 
 | Miltank +11.293%                       | 
 | Dugtrio +10.224%                       | 
 | Hitmontop +10.224%                     | 
 | Venusaur +7.724%                       | 
 +----------------------------------------+ 
 | Checks and Counters                    | 
 +----------------------------------------+ 
 +----------------------------------------+ 
 | Milotic                                | 
 +----------------------------------------+ 
 | Raw count: 25                          | 
 | Avg. weight: 0.150207139106            | 
 | Viability Ceiling: 79                  | 
 +----------------------------------------+ 
 | Abilities                              | 
 | Marvel Scale 100.000%                  | 
 +----------------------------------------+ 
 | Items                                  | 
 | Leftovers 100.000%                     | 
 | Other  0.000%                          | 
 +----------------------------------------+ 
 | Spreads                                | 
 | Bold:252/0/252/0/4/0 44.877%           | 
 | Bold:248/0/252/0/0/8 31.917%           | 
 | Calm:252/0/0/4/252/0 23.206%           | 
 | Other  0.000%                          | 
 +----------------------------------------+ 
 | Moves                                  | 
 | Surf 100.000%                          | 
 | Recover 100.000%                       | 
 | Ice Beam 55.785%                       | 
 | Hidden Power Electric 44.215%          | 
 | Hidden Power Grass 31.917%             | 
 | Toxic 23.868%                          | 
 | Light Screen 23.206%                   | 
 | Refresh 21.009%                        | 
 | Other  0.000%                          | 
 +----------------------------------------+ 
 | Teammates                              | 
 | Spiritomb +48.664%                     | 
 | Clefable +25.756%                      | 
 | Registeel +22.186%                     | 
 | Drapion +15.532%                       | 
 | Cloyster +11.293%                      | 
 | Ursaring +11.293%                      | 
 | Miltank +11.293%                       | 
 | Hitmontop +10.224%                     | 
 | Dugtrio +10.224%                       | 
 | Venusaur +7.724%                       | 
 +----------------------------------------+ 
 | Checks and Counters                    | 
 +----------------------------------------+ 
 +----------------------------------------+ 
 | Rhyperior                              | 
 +----------------------------------------+ 
 | Raw count: 20                          | 
 | Avg. weight: 0.167263837232            | 
 | Viability Ceiling: 79                  | 
 +----------------------------------------+ 
 | Abilities                              | 
 | Solid Rock 100.000%                    | 
 | Lightning Rod  0.000%                  | 
 +----------------------------------------+ 
 | Items                                  | 
 | Life Orb 53.827%                       | 
 | Leftovers 26.793%                      | 
 | Choice Band 19.380%                    | 
 +----------------------------------------+ 
 | Spreads                                | 
 | Brave:248/252/8/0/0/0 53.827%          | 
 | Impish:252/4/252/0/0/0 26.793%         | 
 | Adamant:92/252/0/0/0/164 19.380%       | 
 | Other -0.000%                          | 
 +----------------------------------------+ 
 | Moves                                  | 
 | Stone Edge 100.000%                    | 
 | Megahorn 100.000%                      | 
 | Earthquake 100.000%                    | 
 | Swords Dance 53.827%                   | 
 | Rest 26.793%                           | 
 | Other 19.380%                          | 
 +----------------------------------------+ 
 | Teammates                              | 
 | Uxie +43.750%                          | 
 | Steelix +29.211%                       | 
 | Hariyama +29.211%                      | 
 | Exeggutor +29.211%                     | 
 | Azumarill +29.211%                     | 
 | Swellow +10.517%                       | 
 | Chansey +10.517%                       | 
 | Kabutops +10.517%                      | 
 | Tangrowth +6.961%                      | 
 | Arcanine +6.961%                       | 
 | Mismagius +3.556%                      | 
 +----------------------------------------+ 
 | Checks and Counters                    | 
 +----------------------------------------+ 
 +----------------------------------------+ 
 | Venusaur                               | 
 +----------------------------------------+ 
 | Raw count: 18                          | 
 | Avg. weight: 0.210393620462            | 
 | Viability Ceiling: 79                  | 
 +----------------------------------------+ 
 | Abilities                              | 
 | Overgrow 100.000%                      | 
 +----------------------------------------+ 
 | Items                                  | 
 | Life Orb 53.322%                       | 
 | Black Sludge 23.667%                   | 
 | Leftovers 23.011%                      | 
 +----------------------------------------+ 
 | Spreads                                | 
 | Timid:4/0/0/252/0/252 53.322%          | 
 | Sassy:252/4/0/0/252/0 23.667%          | 
 | Hardy:0/0/0/0/0/0 23.011%              | 
 | Other  0.000%                          | 
 +----------------------------------------+ 
 | Moves                                  | 
 | Sludge Bomb 76.989%                    | 
 | Sleep Powder 76.333%                   | 
 | Leaf Storm 53.322%                     | 
 | Synthesis 53.322%                      | 
 | Earthquake 46.678%                     | 
 | Power Whip 23.667%                     | 
 | Giga Drain 23.667%                     | 
 | Seed Bomb 23.011%                      | 
 | Swords Dance 23.011%                   | 
 | Other -0.000%                          | 
 +----------------------------------------+ 
 | Teammates                              | 
 | Lanturn +14.145%                       | 
 | Blaziken +11.148%                      | 
 | Cloyster +11.098%                      | 
 | Ursaring +11.098%                      | 
 | Miltank +11.098%                       | 
 | Scyther +10.180%                       | 
 | Nidoking +3.965%                       | 
 +----------------------------------------+ 
 | Checks and Counters                    | 
 +----------------------------------------+ 
 +----------------------------------------+ 
 | Uxie                                   | 
 +----------------------------------------+ 
 | Raw count: 17                          | 
 | Avg. weight: 0.158644255421            | 
 | Viability Ceiling: 79                  | 
 +----------------------------------------+ 
 | Abilities                              | 
 | Levitate 100.000%                      | 
 +----------------------------------------+ 
 | Items                                  | 
 | Leftovers 100.000%                     | 
 | Other  0.000%                          | 
 +----------------------------------------+ 
 | Spreads                                | 
 | Relaxed:252/0/252/0/4/0 66.766%        | 
 | Bold:252/0/252/0/4/0 33.234%           | 
 | Other  0.000%                          | 
 +----------------------------------------+ 
 | Moves                                  | 
 | Psychic 100.000%                       | 
 | Trick Room 66.766%                     | 
 | U-turn 66.766%                         | 
 | Yawn 66.766%                           | 
 | Calm Mind 33.234%                      | 
 | Rest 33.234%                           | 
 | Shadow Ball 33.234%                    | 
 | Other  0.000%                          | 
 +----------------------------------------+ 
 | Teammates                              | 
 | Rhyperior +54.268%                     | 
 | Hariyama +42.150%                      | 
 | Steelix +42.150%                       | 
 | Exeggutor +42.150%                     | 
 | Azumarill +42.150%                     | 
 +----------------------------------------+ 
 | Checks and Counters                    | 
 +----------------------------------------+ 
 +----------------------------------------+ 
 | Claydol                                | 
 +----------------------------------------+ 
 | Raw count: 22                          | 
 | Avg. weight: 0.185364579224            | 
 | Viability Ceiling: 77                  | 
 +----------------------------------------+ 
 | Abilities                              | 
 | Levitate 100.000%                      | 
 +----------------------------------------+ 
 | Items                                  | 
 | Leftovers 78.908%                      | 
 | Light Clay 21.092%                     | 
 +----------------------------------------+ 
 | Spreads                                | 
 | Bold:252/0/144/112/0/0 78.908%         | 
 | Calm:252/0/4/0/252/0 21.092%           | 
 | Other  0.000%                          | 
 +----------------------------------------+ 
 | Moves                                  | 
 | Earth Power 100.000%                   | 
 | Psychic 100.000%                       | 
 | Stealth Rock 78.908%                   | 
 | Rapid Spin 78.908%                     | 
 | Reflect 21.092%                        | 
 | Light Screen 21.092%                   | 
 | Other  0.000%                          | 
 +----------------------------------------+ 
 | Teammates                              | 
 | Drapion +13.005%                       | 
 | Lanturn +12.053%                       | 
 | Blaziken +9.056%                       | 
 | Scyther +8.674%                        | 
 | Nidoking +3.378%                       | 
 | Clefable +2.220%                       | 
 | Registeel +2.020%                      | 
 +----------------------------------------+ 
 | Checks and Counters                    | 
 +----------------------------------------+ 
 +----------------------------------------+ 
 | Clefable                               | 
 +----------------------------------------+ 
 | Raw count: 13                          | 
 | Avg. weight: 0.152880696901            | 
 | Viability Ceiling: 74                  | 
 +----------------------------------------+ 
 | Abilities                              | 
 | Magic Guard 100.000%                   | 
 | Cute Charm  0.000%                     | 
 +----------------------------------------+ 
 | Items                                  | 
 | Life Orb 60.305%                       | 
 | Leftovers 39.695%                      | 
 +----------------------------------------+ 
 | Spreads                                | 
 | Quiet:4/252/0/252/0/0 60.305%          | 
 | Calm:252/0/4/0/252/0 39.695%           | 
 | Other  0.000%                          | 
 +----------------------------------------+ 
 | Moves                                  | 
 | Soft-Boiled 100.000%                   | 
 | Grass Knot 60.305%                     | 
 | Double-Edge 60.305%                    | 
 | Fire Blast 60.305%                     | 
 | Knock Off 39.695%                      | 
 | Thunder Wave 39.695%                   | 
 | Ice Beam 39.695%                       | 
 | Other  0.000%                          | 
 +----------------------------------------+ 
 | Teammates                              | 
 | Milotic +48.664%                       | 
 | Spiritomb +48.664%                     | 
 | Registeel +45.392%                     | 
 | Drapion +43.920%                       | 
 | Dugtrio +28.910%                       | 
 | Hitmontop +28.910%                     | 
 | Claydol +28.735%                       | 
 +----------------------------------------+ 
 | Checks and Counters                    | 
 +----------------------------------------+ 
 +----------------------------------------+ 
 | Exeggutor                              | 
 +----------------------------------------+ 
 | Raw count: 16                          | 
 | Avg. weight: 0.112540933833            | 
 | Viability Ceiling: 70                  | 
 +----------------------------------------+ 
 | Abilities                              | 
 | Chlorophyll 100.000%                   | 
 +----------------------------------------+ 
 | Items                                  | 
 | Life Orb 100.000%                      | 
 | Other  0.000%                          | 
 +----------------------------------------+ 
 | Spreads                                | 
 | Quiet:4/252/0/252/0/0 100.000%         | 
 | Other  0.000%                          | 
 +----------------------------------------+ 
 | Moves                                  | 
 | Trick Room 100.000%                    | 
 | Explosion 100.000%                     | 
 | Sleep Powder 100.000%                  | 
 | Leaf Storm 100.000%                    | 
 | Other  0.000%                          | 
 +----------------------------------------+ 
 | Teammates                              | 
 | Hariyama +75.384%                      | 
 | Steelix +75.384%                       | 
 | Azumarill +75.384%                     | 
 | Uxie +63.131%                          | 
 | Rhyperior +54.268%                     | 
 +----------------------------------------+ 
 | Checks and Counters                    | 
 +----------------------------------------+ 
 +----------------------------------------+ 
 | Hariyama                               | 
 +----------------------------------------+ 
 | Raw count: 9                           | 
 | Avg. weight: 0.200072771258            | 
 | Viability Ceiling: 70                  | 
 +----------------------------------------+ 
 | Abilities                              | 
 | Thick Fat 100.000%                     | 
 +----------------------------------------+ 
 | Items                                  | 
 | Leftovers 100.000%                     | 
 +----------------------------------------+ 
 | Spreads                                | 
 | Brave:0/252/128/0/128/0 100.000%       | 
 +----------------------------------------+ 
 | Moves                                  | 
 | Ice Punch 100.000%                     | 
 | Stone Edge 100.000%                    | 
 | Fake Out 100.000%                      | 
 | Close Combat 100.000%                  | 
 +----------------------------------------+ 
 | Teammates                              | 
 | Azumarill +75.384%                     | 
 | Exeggutor +75.384%                     | 
 | Steelix +75.384%                       | 
 | Uxie +63.131%                          | 
 | Rhyperior +54.268%                     | 
 +----------------------------------------+ 
 | Checks and Counters                    | 
 +----------------------------------------+ 
 +----------------------------------------+ 
 | Steelix                                | 
 +----------------------------------------+ 
 | Raw count: 13                          | 
 | Avg. weight: 0.204676421313            | 
 | Viability Ceiling: 77                  | 
 +----------------------------------------+ 
 | Abilities                              | 
 | Sturdy 67.674%                         | 
 | Rock Head 32.326%                      | 
 +----------------------------------------+ 
 | Items                                  | 
 | Passho Berry 67.674%                   | 
 | Leftovers 32.326%                      | 
 | Other  0.000%                          | 
 +----------------------------------------+ 
 | Spreads                                | 
 | Brave:100/164/0/0/244/0 67.674%        | 
 | Impish:252/4/252/0/0/0 32.326%         | 
 | Other  0.000%                          | 
 +----------------------------------------+ 
 | Moves                                  | 
 | Explosion 100.000%                     | 
 | Stealth Rock 100.000%                  | 
 | Earthquake 100.000%                    | 
 | Iron Head 67.674%                      | 
 | Roar 32.326%                           | 
 | Other  0.000%                          | 
 +----------------------------------------+ 
 | Teammates                              | 
 | Hariyama +43.057%                      | 
 | Exeggutor +43.057%                     | 
 | Azumarill +43.057%                     | 
 | Uxie +30.804%                          | 
 | Rhyperior +21.941%                     | 
 +----------------------------------------+ 
 | Checks and Counters                    | 
 +----------------------------------------+ 
 +----------------------------------------+ 
 | Azumarill                              | 
 +----------------------------------------+ 
 | Raw count: 16                          | 
 | Avg. weight: 0.112540933833            | 
 | Viability Ceiling: 70                  | 
 +----------------------------------------+ 
 | Abilities                              | 
 | Huge Power 100.000%                    | 
 +----------------------------------------+ 
 | Items                                  | 
 | Leftovers 100.000%                     | 
 | Other  0.000%                          | 
 +----------------------------------------+ 
 | Spreads                                | 
 | Brave:252/252/0/0/4/0 100.000%         | 
 | Other  0.000%                          | 
 +----------------------------------------+ 
 | Moves                                  | 
 | Aqua Jet 100.000%                      | 
 | Ice Punch 100.000%                     | 
 | Waterfall 100.000%                     | 
 | Superpower 100.000%                    | 
 | Other  0.000%                          | 
 +----------------------------------------+ 
 | Teammates                              | 
 | Hariyama +75.384%                      | 
 | Exeggutor +75.384%                     | 
 | Steelix +75.384%                       | 
 | Uxie +63.131%                          | 
 | Rhyperior +54.268%                     | 
 +----------------------------------------+ 
 | Checks and Counters                    | 
 +----------------------------------------+ 
 +----------------------------------------+ 
 | Blaziken                               | 
 +----------------------------------------+ 
 | Raw count: 16                          | 
 | Avg. weight: 0.139910825319            | 
 | Viability Ceiling: 66                  | 
 +----------------------------------------+ 
 | Abilities                              | 
 | Blaze 100.000%                         | 
 +----------------------------------------+ 
 | Items                                  | 
 | Choice Band 90.207%                    | 
 | Life Orb  9.793%                       | 
 | Other  0.000%                          | 
 +----------------------------------------+ 
 | Spreads                                | 
 | Adamant:0/252/0/0/4/252 90.207%        | 
 | Jolly:0/252/4/0/0/252  9.793%          | 
 | Other  0.000%                          | 
 +----------------------------------------+ 
 | Moves                                  | 
 | Flare Blitz 100.000%                   | 
 | Thunder Punch 100.000%                 | 
 | Stone Edge 90.207%                     | 
 | Superpower 76.300%                     | 
 | Low Kick 23.700%                       | 
 | Other  9.793%                          | 
 +----------------------------------------+ 
 | Teammates                              | 
 | Lanturn +34.434%                       | 
 | Scyther +24.782%                       | 
 | Claydol +18.049%                       | 
 | Venusaur +10.267%                      | 
 | Nidoking +9.652%                       | 
 | Mismagius +6.796%                      | 
 | Swellow +0.930%                        | 
 | Chansey +0.930%                        | 
 | Kabutops +0.930%                       | 
 +----------------------------------------+ 
 | Checks and Counters                    | 
 +----------------------------------------+ 
 +----------------------------------------+ 
 | Drapion                                | 
 +----------------------------------------+ 
 | Raw count: 15                          | 
 | Avg. weight: 0.0799017637874           | 
 | Viability Ceiling: 64                  | 
 +----------------------------------------+ 
 | Abilities                              | 
 | Battle Armor 100.000%                  | 
 | Sniper  0.000%                         | 
 +----------------------------------------+ 
 | Items                                  | 
 | Leftovers 100.000%                     | 
 | Other  0.000%                          | 
 +----------------------------------------+ 
 | Spreads                                | 
 | Careful:252/0/4/0/252/0 100.000%       | 
 | Other  0.000%                          | 
 +----------------------------------------+ 
 | Moves                                  | 
 | Crunch 100.000%                        | 
 | Taunt 100.000%                         | 
 | Toxic Spikes 100.000%                  | 
 | Whirlwind 100.000%                     | 
 | Other  0.000%                          | 
 +----------------------------------------+ 
 | Teammates                              | 
 | Clefable +72.830%                      | 
 | Claydol +68.431%                       | 
 | Milotic +48.664%                       | 
 | Spiritomb +48.664%                     | 
 | Registeel +45.392%                     | 
 +----------------------------------------+ 
 | Checks and Counters                    | 
 +----------------------------------------+ 
 +----------------------------------------+ 
 | Lanturn                                | 
 +----------------------------------------+ 
 | Raw count: 5                           | 
 | Avg. weight: 0.403871150075            | 
 | Viability Ceiling: 66                  | 
 +----------------------------------------+ 
 | Abilities                              | 
 | Volt Absorb 100.000%                   | 
 +----------------------------------------+ 
 | Items                                  | 
 | Leftovers 100.000%                     | 
 +----------------------------------------+ 
 | Spreads                                | 
 | Calm:40/0/192/100/176/0 100.000%       | 
 +----------------------------------------+ 
 | Moves                                  | 
 | Surf 100.000%                          | 
 | Thunderbolt 100.000%                   | 
 | Heal Bell 100.000%                     | 
 | Ice Beam 100.000%                      | 
 +----------------------------------------+ 
 | Teammates                              | 
 | Blaziken +36.823%                      | 
 | Scyther +28.659%                       | 
 | Claydol +23.435%                       | 
 | Venusaur +15.654%                      | 
 | Nidoking +11.161%                      | 
 +----------------------------------------+ 
 | Checks and Counters                    | 
 +----------------------------------------+ 
 +----------------------------------------+ 
 | Cloyster                               | 
 +----------------------------------------+ 
 | Raw count: 3                           | 
 | Avg. weight: 0.29047733904             | 
 | Viability Ceiling: 77                  | 
 +----------------------------------------+ 
 | Abilities                              | 
 | Skill Link 100.000%                    | 
 | Shell Armor  0.000%                    | 
 +----------------------------------------+ 
 | Items                                  | 
 | Life Orb 100.000%                      | 
 | Other  0.000%                          | 
 +----------------------------------------+ 
 | Spreads                                | 
 | Adamant:160/252/0/0/96/0 100.000%      | 
 | Other  0.000%                          | 
 +----------------------------------------+ 
 | Moves                                  | 
 | Ice Shard 100.000%                     | 
 | Explosion 100.000%                     | 
 | Rock Blast 100.000%                    | 
 | Spikes 100.000%                        | 
 | Other  0.000%                          | 
 +----------------------------------------+ 
 | Teammates                              | 
 | Ursaring +88.087%                      | 
 | Miltank +88.087%                       | 
 | Venusaur +60.649%                      | 
 | Milotic +48.664%                       | 
 | Spiritomb +48.664%                     | 
 +----------------------------------------+ 
 | Checks and Counters                    | 
 +----------------------------------------+ 
 +----------------------------------------+ 
 | Ursaring                               | 
 +----------------------------------------+ 
 | Raw count: 2                           | 
 | Avg. weight: 0.435716008559            | 
 | Viability Ceiling: 77                  | 
 +----------------------------------------+ 
 | Abilities                              | 
 | Quick Feet 100.000%                    | 
 | Guts  0.000%                           | 
 +----------------------------------------+ 
 | Items                                  | 
 | Toxic Orb 100.000%                     | 
 | Other  0.000%                          | 
 +----------------------------------------+ 
 | Spreads                                | 
 | Jolly:4/252/0/0/0/252 100.000%         | 
 | Other  0.000%                          | 
 +----------------------------------------+ 
 | Moves                                  | 
 | Crunch 100.000%                        | 
 | Close Combat 100.000%                  | 
 | Swords Dance 100.000%                  | 
 | Facade 100.000%                        | 
 | Other  0.000%                          | 
 +----------------------------------------+ 
 | Teammates                              | 
 | Cloyster +88.087%                      | 
 | Miltank +88.087%                       | 
 | Venusaur +60.649%                      | 
 | Spiritomb +48.664%                     | 
 | Milotic +48.664%                       | 
 +----------------------------------------+ 
 | Checks and Counters                    | 
 +----------------------------------------+ 
 +----------------------------------------+ 
 | Miltank                                | 
 +----------------------------------------+ 
 | Raw count: 3                           | 
 | Avg. weight: 0.29047733904             | 
 | Viability Ceiling: 77                  | 
 +----------------------------------------+ 
 | Abilities                              | 
 | Thick Fat 100.000%                     | 
 +----------------------------------------+ 
 | Items                                  | 
 | Leftovers 100.000%                     | 
 | Other  0.000%                          | 
 +----------------------------------------+ 
 | Spreads                                | 
 | Impish:252/4/252/0/0/0 100.000%        | 
 | Other  0.000%                          | 
 +----------------------------------------+ 
 | Moves                                  | 
 | Thunder Wave 100.000%                  | 
 | Body Slam 100.000%                     | 
 | Milk Drink 100.000%                    | 
 | Heal Bell 100.000%                     | 
 | Other  0.000%                          | 
 +----------------------------------------+ 
 | Teammates                              | 
 | Cloyster +88.087%                      | 
 | Ursaring +88.087%                      | 
 | Venusaur +60.649%                      | 
 | Milotic +48.664%                       | 
 | Spiritomb +48.664%                     | 
 +----------------------------------------+ 
 | Checks and Counters                    | 
 +----------------------------------------+ 
 +----------------------------------------+ 
 | Scyther                                | 
 +----------------------------------------+ 
 | Raw count: 10                          | 
 | Avg. weight: 0.170802196987            | 
 | Viability Ceiling: 66                  | 
 +----------------------------------------+ 
 | Abilities                              | 
 | Technician 100.000%                    | 
 | Swarm  0.000%                          | 
 +----------------------------------------+ 
 | Items                                  | 
 | Life Orb 100.000%                      | 
 | Other  0.000%                          | 
 +----------------------------------------+ 
 | Spreads                                | 
 | Jolly:0/252/0/0/4/252 100.000%         | 
 | Other  0.000%                          | 
 +----------------------------------------+ 
 | Moves                                  | 
 | Brick Break 100.000%                   | 
 | Aerial Ace 100.000%                    | 
 | Swords Dance 100.000%                  | 
 | Quick Attack 100.000%                  | 
 | Other  0.000%                          | 
 +----------------------------------------+ 
 | Teammates                              | 
 | Lanturn +31.618%                       | 
 | Blaziken +28.622%                      | 
 | Claydol +15.234%                       | 
 | Venusaur +7.452%                       | 
 +----------------------------------------+ 
 | Checks and Counters                    | 
 +----------------------------------------+ 
 +----------------------------------------+ 
 | Dugtrio                                | 
 +----------------------------------------+ 
 | Raw count: 7                           | 
 | Avg. weight: 0.112703228985            | 
 | Viability Ceiling: 74                  | 
 +----------------------------------------+ 
 | Abilities                              | 
 | Arena Trap 100.000%                    | 
 +----------------------------------------+ 
 | Items                                  | 
 | Life Orb 100.000%                      | 
 | Other  0.000%                          | 
 +----------------------------------------+ 
 | Spreads                                | 
 | Jolly:0/252/0/0/4/252 100.000%         | 
 | Other  0.000%                          | 
 +----------------------------------------+ 
 | Moves                                  | 
 | Earthquake 100.000%                    | 
 | Sucker Punch 100.000%                  | 
 | Stone Edge 100.000%                    | 
 | Substitute 100.000%                    | 
 | Other  0.000%                          | 
 +----------------------------------------+ 
 | Teammates                              | 
 | Hitmontop +89.215%                     | 
 | Clefable +72.830%                      | 
 | Spiritomb +48.664%                     | 
 | Milotic +48.664%                       | 
 | Registeel +45.392%                     | 
 +----------------------------------------+ 
 | Checks and Counters                    | 
 +----------------------------------------+ 
 +----------------------------------------+ 
 | Hitmontop                              | 
 +----------------------------------------+ 
 | Raw count: 9                           | 
 | Avg. weight: 0.0876580669884           | 
 | Viability Ceiling: 74                  | 
 +----------------------------------------+ 
 | Abilities                              | 
 | Intimidate 100.000%                    | 
 +----------------------------------------+ 
 | Items                                  | 
 | Leftovers 100.000%                     | 
 +----------------------------------------+ 
 | Spreads                                | 
 | Impish:252/4/252/0/0/0 100.000%        | 
 | Other  0.000%                          | 
 +----------------------------------------+ 
 | Moves                                  | 
 | Rest 100.000%                          | 
 | Close Combat 100.000%                  | 
 | Foresight 100.000%                     | 
 | Rapid Spin 100.000%                    | 
 | Other  0.000%                          | 
 +----------------------------------------+ 
 | Teammates                              | 
 | Dugtrio +89.215%                       | 
 | Clefable +72.830%                      | 
 | Milotic +48.664%                       | 
 | Spiritomb +48.664%                     | 
 | Registeel +45.392%                     | 
 +----------------------------------------+ 
 | Checks and Counters                    | 
 +----------------------------------------+ 
 +----------------------------------------+ 
 | Swellow                                | 
 +----------------------------------------+ 
 | Raw count: 16                          | 
 | Avg. weight: 0.0942789336397           | 
 | Viability Ceiling: 77                  | 
 +----------------------------------------+ 
 | Abilities                              | 
 | Guts 100.000%                          | 
 +----------------------------------------+ 
 | Items                                  | 
 | Flame Orb 57.021%                      | 
 | Toxic Orb 42.979%                      | 
 | Other  0.000%                          | 
 +----------------------------------------+ 
 | Spreads                                | 
 | Jolly:0/252/0/0/4/252 57.021%          | 
 | Jolly:4/252/0/0/0/252 42.979%          | 
 | Other  0.000%                          | 
 +----------------------------------------+ 
 | Moves                                  | 
 | U-turn 100.000%                        | 
 | Protect 100.000%                       | 
 | Brave Bird 100.000%                    | 
 | Facade 100.000%                        | 
 | Other  0.000%                          | 
 +----------------------------------------+ 
 | Teammates                              | 
 | Chansey +34.116%                       | 
 | Kabutops +34.116%                      | 
 | Tangrowth +22.580%                     | 
 | Arcanine +22.580%                      | 
 | Mismagius +11.536%                     | 
 +----------------------------------------+ 
 | Checks and Counters                    | 
 +----------------------------------------+ 
 +----------------------------------------+ 
 | Chansey                                | 
 +----------------------------------------+ 
 | Raw count: 17                          | 
 | Avg. weight: 0.0381367295581           | 
 | Viability Ceiling: 59                  | 
 +----------------------------------------+ 
 | Abilities                              | 
 | Natural Cure 100.000%                  | 
 +----------------------------------------+ 
 | Items                                  | 
 | Leftovers 100.000%                     | 
 | Other  0.000%                          | 
 +----------------------------------------+ 
 | Spreads                                | 
 | Bold:4/0/252/0/252/0 100.000%          | 
 | Other  0.000%                          | 
 +----------------------------------------+ 
 | Moves                                  | 
 | Soft-Boiled 100.000%                   | 
 | Aromatherapy 100.000%                  | 
 | Thunder Wave 100.000%                  | 
 | Seismic Toss 100.000%                  | 
 | Other  0.000%                          | 
 +----------------------------------------+ 
 | Teammates                              | 
 | Kabutops +91.137%                      | 
 | Swellow +91.137%                       | 
 | Tangrowth +60.321%                     | 
 | Arcanine +60.321%                      | 
 | Rhyperior +54.268%                     | 
 | Mismagius +30.816%                     | 
 | Blaziken +15.631%                      | 
 +----------------------------------------+ 
 | Checks and Counters                    | 
 +----------------------------------------+ 
 +----------------------------------------+ 
 | Kabutops                               | 
 +----------------------------------------+ 
 | Raw count: 4                           | 
 | Avg. weight: 0.162081100622            | 
 | Viability Ceiling: 59                  | 
 +----------------------------------------+ 
 | Abilities                              | 
 | Swift Swim 100.000%                    | 
 | Battle Armor  0.000%                   | 
 +----------------------------------------+ 
 | Items                                  | 
 | Lum Berry 100.000%                     | 
 | Other  0.000%                          | 
 +----------------------------------------+ 
 | Spreads                                | 
 | Adamant:132/252/0/0/0/124 100.000%     | 
 | Other  0.000%                          | 
 +----------------------------------------+ 
 | Moves                                  | 
 | Aqua Jet 100.000%                      | 
 | Stealth Rock 100.000%                  | 
 | Rapid Spin 100.000%                    | 
 | Stone Edge 100.000%                    | 
 | Other  0.000%                          | 
 +----------------------------------------+ 
 | Teammates                              | 
 | Chansey +91.137%                       | 
 | Swellow +91.137%                       | 
 | Tangrowth +60.321%                     | 
 | Arcanine +60.321%                      | 
 | Rhyperior +54.268%                     | 
 | Mismagius +30.816%                     | 
 | Blaziken +15.631%                      | 
 +----------------------------------------+ 
 | Checks and Counters                    | 
 +----------------------------------------+ 
 +----------------------------------------+ 
 | Arcanine                               | 
 +----------------------------------------+ 
 | Raw count: 13                          | 
 | Avg. weight: 0.0330082267507           | 
 | Viability Ceiling: 59                  | 
 +----------------------------------------+ 
 | Abilities                              | 
 | Intimidate 100.000%                    | 
 | Flash Fire  0.000%                     | 
 +----------------------------------------+ 
 | Items                                  | 
 | Leftovers 100.000%                     | 
 | Other  0.000%                          | 
 +----------------------------------------+ 
 | Spreads                                | 
 | Adamant:120/152/0/0/0/236 100.000%     | 
 | Other  0.000%                          | 
 +----------------------------------------+ 
 | Moves                                  | 
 | Flare Blitz 100.000%                   | 
 | Extreme Speed 100.000%                 | 
 | Will-O-Wisp 100.000%                   | 
 | Morning Sun 100.000%                   | 
 | Other  0.000%                          | 
 +----------------------------------------+ 
 | Teammates                              | 
 | Tangrowth +94.134%                     | 
 | Kabutops +91.137%                      | 
 | Swellow +91.137%                       | 
 | Chansey +91.137%                       | 
 | Rhyperior +54.268%                     | 
 +----------------------------------------+ 
 | Checks and Counters                    | 
 +----------------------------------------+ 
 +----------------------------------------+ 
 | Tangrowth                              | 
 +----------------------------------------+ 
 | Raw count: 6                           | 
 | Avg. weight: 0.214874247251            | 
 | Viability Ceiling: 77                  | 
 +----------------------------------------+ 
 | Abilities                              | 
 | Chlorophyll 100.000%                   | 
 +----------------------------------------+ 
 | Items                                  | 
 | Leftovers 100.000%                     | 
 +----------------------------------------+ 
 | Spreads                                | 
 | Bold:252/0/252/4/0/0 66.716%           | 
 | Relaxed:252/0/252/0/4/0 33.284%        | 
 | Other  0.000%                          | 
 +----------------------------------------+ 
 | Moves                                  | 
 | Sleep Powder 100.000%                  | 
 | Giga Drain 66.716%                     | 
 | Leech Seed 66.716%                     | 
 | Substitute 66.716%                     | 
 | Power Whip 33.284%                     | 
 | Hidden Power Ice 33.284%               | 
 | Synthesis 33.284%                      | 
 | Other  0.000%                          | 
 +----------------------------------------+ 
 | Teammates                              | 
 | Arcanine +27.417%                      | 
 | Kabutops +24.421%                      | 
 | Chansey +24.421%                       | 
 | Swellow +24.421%                       | 
 +----------------------------------------+ 
 | Checks and Counters                    | 
 +----------------------------------------+ 
 +----------------------------------------+ 
 | Nidoking                               | 
 +----------------------------------------+ 
 | Raw count: 1                           | 
 | Avg. weight: 0.3113337805              | 
 | Viability Ceiling: 61                  | 
 +----------------------------------------+ 
 | Abilities                              | 
 | Poison Point 100.000%                  | 
 +----------------------------------------+ 
 | Items                                  | 
 | Focus Sash 100.000%                    | 
 +----------------------------------------+ 
 | Spreads                                | 
 | Timid:4/0/0/252/0/252 100.000%         | 
 +----------------------------------------+ 
 | Moves                                  | 
 | Stealth Rock 100.000%                  | 
 | Ice Beam 100.000%                      | 
 | Earth Power 100.000%                   | 
 | Taunt 100.000%                         | 
 +----------------------------------------+ 
 | Teammates                              | 
 | Lanturn +84.815%                       | 
 | Blaziken +81.818%                      | 
 | Claydol +68.431%                       | 
 | Venusaur +60.649%                      | 
 | Registeel +45.392%                     | 
 +----------------------------------------+ 
 | Checks and Counters                    | 
 +----------------------------------------+ 
 +----------------------------------------+ 
 | Mismagius                              | 
 +----------------------------------------+ 
 | Raw count: 8                           | 
 | Avg. weight: 0.0274021818411           | 
 | Viability Ceiling: 59                  | 
 +----------------------------------------+ 
 | Abilities                              | 
 | Levitate 100.000%                      | 
 +----------------------------------------+ 
 | Items                                  | 
 | Leftovers 100.000%                     | 
 | Other  0.000%                          | 
 +----------------------------------------+ 
 | Spreads                                | 
 | Timid:4/0/0/252/0/252 100.000%         | 
 | Other  0.000%                          | 
 +----------------------------------------+ 
 | Moves                                  | 
 | Thunderbolt 100.000%                   | 
 | Shadow Ball 100.000%                   | 
 | Nasty Plot 100.000%                    | 
 | Substitute 100.000%                    | 
 | Other  0.000%                          | 
 +----------------------------------------+ 
 | Teammates                              | 
 | Swellow +91.137%                       | 
 | Chansey +91.137%                       | 
 | Kabutops +91.137%                      | 
 | Blaziken +81.818%                      | 
 | Rhyperior +54.268%                     | 
 +----------------------------------------+ 
 | Checks and Counters                    | 
 +----------------------------------------+ 
