 offense.......................71.07147%
 weatherless...................56.44674%
 rain..........................24.79461%
 sun...........................19.70967%
 dragmag.......................17.17753%
 hyperoffense..................15.25482%
 balance.......................13.67371%
 multiweather..................11.12090%
 sand..........................10.16988%
 sandoffense................... 5.08494%
 choice........................ 5.08494%
 rainoffense................... 5.08494%

 Stalliness (mean: -0.622)
     |#######
     |
     |
     |
     |
 -1.2|
     |#######
 -1.0|##############################
     |#############
 -0.8|#############################
     |
 -0.6|
     |#######
 -0.4|#############
     |#######
 -0.2|
     |
  0.0|#############
     |
 +0.2|
 more negative = more offensive, more positive = more stall
 one # =  0.68%
