 weatherless...................72.13912%
 hyperoffense..................64.69077%
 rain..........................27.86088%
 rainoffense...................27.86088%
 offense.......................25.94419%
 balance....................... 9.36504%
 semistall..................... 0.00000%
 stall......................... 0.00000%
 hailstall..................... 0.00000%
 monowater..................... 0.00000%
 choice........................ 0.00000%
 hail.......................... 0.00000%
 sun........................... 0.00000%
 monotype...................... 0.00000%

 Stalliness (mean: -0.861)
     |###########
 -1.0|##############################
     |
 -0.5|##
     |#########
  0.0|####
     |
 +0.5|
     |
 +1.0|#
     |
 +1.5|
     |
 +2.0|
 more negative = more offensive, more positive = more stall
 one # =  1.77%
