 sun........................... 0.00000%
 rain.......................... 0.00000%
 monotype...................... 0.00000%
 hyperoffense.................. 0.00000%
 monopsychic................... 0.00000%
 sand.......................... 0.00000%
 rainoffense................... 0.00000%
 hail.......................... 0.00000%
 monofire...................... 0.00000%
 offense....................... 0.00000%
 monodragon.................... 0.00000%
 balance....................... 0.00000%
 weatherless................... 0.00000%
 multiweather.................. 0.00000%
 monoflying.................... 0.00000%

