 Total leads: 6
 + ---- + ------------------ + --------- + ------ + ------- + 
 | Rank | Pokemon            | Usage %   | Raw    | %       | 
 + ---- + ------------------ + --------- + ------ + ------- + 
 | 1    | Scyther            | 33.33333% | 2      | 33.333% | 
 | 2    | Electrode          | 16.66667% | 1      | 16.667% | 
 | 3    | Torterra           | 16.66667% | 1      | 16.667% | 
 | 4    | Absol              | 16.66667% | 1      | 16.667% | 
 | 5    | Shiftry            | 16.66667% | 1      | 16.667% | 
 + ---- + ------------------ + --------- + ------ + ------- + 
