 +----------------------------------------+ 
 | Kyogre                                 | 
 +----------------------------------------+ 
 | Raw count: 844                         | 
 | Avg. weight: 0.282468215533            | 
 | Viability Ceiling: 94                  | 
 +----------------------------------------+ 
 | Abilities                              | 
 | Drizzle 100.000%                       | 
 +----------------------------------------+ 
 | Items                                  | 
 | Leftovers 99.946%                      | 
 | Other  0.054%                          | 
 +----------------------------------------+ 
 | Spreads                                | 
 | Modest:252/0/4/252/0/0 39.383%         | 
 | Modest:108/0/148/252/0/0 19.744%       | 
 | Modest:108/0/116/252/0/32 14.239%      | 
 | Modest:108/0/132/252/0/16 11.385%      | 
 | Modest:108/0/148/228/0/24  7.877%      | 
 | Modest:252/0/0/232/0/24  5.230%        | 
 | Other  2.142%                          | 
 +----------------------------------------+ 
 | Moves                                  | 
 | Ice Beam 85.373%                       | 
 | Calm Mind 63.940%                      | 
 | Thunder 60.142%                        | 
 | Surf 59.781%                           | 
 | Substitute 40.104%                     | 
 | Hydro Pump 30.926%                     | 
 | Thunder Wave 30.318%                   | 
 | Water Spout 10.537%                    | 
 | Other 18.880%                          | 
 +----------------------------------------+ 
 | Teammates                              | 
 +----------------------------------------+ 
 | Checks and Counters                    | 
 +----------------------------------------+ 
 +----------------------------------------+ 
 | Groudon                                | 
 +----------------------------------------+ 
 | Raw count: 630                         | 
 | Avg. weight: 0.295102662679            | 
 | Viability Ceiling: 94                  | 
 +----------------------------------------+ 
 | Abilities                              | 
 | Drought 100.000%                       | 
 +----------------------------------------+ 
 | Items                                  | 
 | Leftovers 81.485%                      | 
 | Salac Berry 17.039%                    | 
 | Other  1.476%                          | 
 +----------------------------------------+ 
 | Spreads                                | 
 | Careful:224/0/0/0/252/32 39.374%       | 
 | Adamant:252/252/0/0/4/0 12.361%        | 
 | Adamant:252/252/0/0/0/4 10.714%        | 
 | Adamant:28/252/0/0/12/216 10.240%      | 
 | Adamant:236/252/0/0/4/16  7.899%       | 
 | Adamant:28/252/0/0/8/220  6.799%       | 
 | Other 12.614%                          | 
 +----------------------------------------+ 
 | Moves                                  | 
 | Earthquake 98.451%                     | 
 | Hidden Power Ghost 69.083%             | 
 | Swords Dance 58.028%                   | 
 | Thunder Wave 45.788%                   | 
 | Fire Blast 40.819%                     | 
 | Rock Slide 33.873%                     | 
 | Toxic 21.609%                          | 
 | Substitute 18.586%                     | 
 | Other 13.762%                          | 
 +----------------------------------------+ 
 | Teammates                              | 
 | Snorlax +6.478%                        | 
 | Deoxys-Attack +5.789%                  | 
 | Slaking +5.770%                        | 
 | Latios +5.271%                         | 
 | Jirachi +2.158%                        | 
 | Salamence +2.104%                      | 
 | Tyranitar +2.102%                      | 
 | Metagross +2.075%                      | 
 | Skarmory +1.444%                       | 
 | Umbreon +1.010%                        | 
 | Latias +0.692%                         | 
 | Aerodactyl +0.524%                     | 
 +----------------------------------------+ 
 | Checks and Counters                    | 
 +----------------------------------------+ 
 +----------------------------------------+ 
 | Latios                                 | 
 +----------------------------------------+ 
 | Raw count: 447                         | 
 | Avg. weight: 0.28007223881             | 
 | Viability Ceiling: 94                  | 
 +----------------------------------------+ 
 | Abilities                              | 
 | Levitate 100.000%                      | 
 +----------------------------------------+ 
 | Items                                  | 
 | Soul Dew 99.989%                       | 
 | Other  0.011%                          | 
 +----------------------------------------+ 
 | Spreads                                | 
 | Modest:224/0/0/0/252/0 45.993%         | 
 | Timid:4/0/0/252/0/252 35.063%          | 
 | Modest:4/0/0/252/0/252 10.994%         | 
 | Modest:252/0/0/4/252/0  6.711%         | 
 | Other  1.238%                          | 
 +----------------------------------------+ 
 | Moves                                  | 
 | Calm Mind 99.539%                      | 
 | Recover 99.330%                        | 
 | Ice Beam 53.708%                       | 
 | Thunder 53.088%                        | 
 | Dragon Claw 46.650%                    | 
 | Thunderbolt 30.234%                    | 
 | Other 17.450%                          | 
 +----------------------------------------+ 
 | Teammates                              | 
 | Metagross +27.404%                     | 
 | Snorlax +18.368%                       | 
 | Slaking +17.660%                       | 
 | Groudon +8.461%                        | 
 | Umbreon +2.999%                        | 
 | Blissey +0.639%                        | 
 +----------------------------------------+ 
 | Checks and Counters                    | 
 +----------------------------------------+ 
 +----------------------------------------+ 
 | Metagross                              | 
 +----------------------------------------+ 
 | Raw count: 303                         | 
 | Avg. weight: 0.343311064187            | 
 | Viability Ceiling: 94                  | 
 +----------------------------------------+ 
 | Abilities                              | 
 | Clear Body 100.000%                    | 
 +----------------------------------------+ 
 | Items                                  | 
 | Lum Berry 60.715%                      | 
 | Leftovers 39.030%                      | 
 | Other  0.255%                          | 
 +----------------------------------------+ 
 | Spreads                                | 
 | Brave:252/180/20/0/56/0 60.715%        | 
 | Brave:244/228/20/16/0/0 12.181%        | 
 | Adamant:248/156/48/0/36/20 10.484%     | 
 | Adamant:252/228/20/0/0/0  8.226%       | 
 | Brave:252/228/20/8/0/0  4.777%         | 
 | Other  3.617%                          | 
 +----------------------------------------+ 
 | Moves                                  | 
 | Meteor Mash 99.999%                    | 
 | Explosion 95.219%                      | 
 | Pursuit 75.976%                        | 
 | Hidden Power Fire 71.200%              | 
 | Earthquake 28.798%                     | 
 | Hidden Power Bug 16.362%               | 
 | Other 12.446%                          | 
 +----------------------------------------+ 
 | Teammates                              | 
 | Latios +31.041%                        | 
 | Snorlax +25.513%                       | 
 | Slaking +24.805%                       | 
 | Umbreon +4.084%                        | 
 | Groudon +3.897%                        | 
 +----------------------------------------+ 
 | Checks and Counters                    | 
 +----------------------------------------+ 
 +----------------------------------------+ 
 | Deoxys-Attack                          | 
 +----------------------------------------+ 
 | Raw count: 409                         | 
 | Avg. weight: 0.25691369062             | 
 | Viability Ceiling: 94                  | 
 +----------------------------------------+ 
 | Abilities                              | 
 | Pressure 100.000%                      | 
 +----------------------------------------+ 
 | Items                                  | 
 | Choice Band 86.096%                    | 
 | Lum Berry 13.807%                      | 
 | Other  0.096%                          | 
 +----------------------------------------+ 
 | Spreads                                | 
 | Hasty:0/252/0/4/0/252 49.428%          | 
 | Lonely:0/252/0/4/0/252 35.951%         | 
 | Adamant:0/252/0/0/0/252 13.155%        | 
 | Other  1.467%                          | 
 +----------------------------------------+ 
 | Moves                                  | 
 | Shadow Ball 99.865%                    | 
 | Extreme Speed 99.251%                  | 
 | Superpower 86.749%                     | 
 | Ice Beam 72.571%                       | 
 | Fire Punch 24.387%                     | 
 | Other 17.176%                          | 
 +----------------------------------------+ 
 | Teammates                              | 
 | Tyranitar +13.467%                     | 
 | Salamence +13.378%                     | 
 | Jirachi +13.307%                       | 
 | Groudon +9.385%                        | 
 | Blissey +8.129%                        | 
 | Umbreon +6.394%                        | 
 | Aerodactyl +5.536%                     | 
 | Lugia +3.714%                          | 
 | Crobat +0.855%                         | 
 | Ho-Oh +0.769%                          | 
 +----------------------------------------+ 
 | Checks and Counters                    | 
 +----------------------------------------+ 
 +----------------------------------------+ 
 | Rayquaza                               | 
 +----------------------------------------+ 
 | Raw count: 531                         | 
 | Avg. weight: 0.157660663416            | 
 | Viability Ceiling: 87                  | 
 +----------------------------------------+ 
 | Abilities                              | 
 | Air Lock 100.000%                      | 
 +----------------------------------------+ 
 | Items                                  | 
 | Leftovers 66.762%                      | 
 | Choice Band 32.851%                    | 
 | Other  0.387%                          | 
 +----------------------------------------+ 
 | Spreads                                | 
 | Adamant:252/228/0/0/28/0 43.266%       | 
 | Adamant:96/252/0/0/0/160 30.396%       | 
 | Adamant:252/228/0/0/0/28 23.621%       | 
 | Other  2.717%                          | 
 +----------------------------------------+ 
 | Moves                                  | 
 | Earthquake 99.110%                     | 
 | Extreme Speed 97.533%                  | 
 | Hidden Power Ghost 60.653%             | 
 | Rock Slide 43.266%                     | 
 | Hidden Power Bug 36.814%               | 
 | Dragon Dance 30.642%                   | 
 | Overheat 23.621%                       | 
 | Other  8.360%                          | 
 +----------------------------------------+ 
 | Teammates                              | 
 | Deoxys-Defense +28.824%                | 
 | Wobbuffet +25.662%                     | 
 | Mewtwo +22.644%                        | 
 | Smeargle +21.607%                      | 
 | Mew +7.412%                            | 
 | Blissey +5.852%                        | 
 | Ho-Oh +4.287%                          | 
 | Gengar +1.636%                         | 
 | Heracross +1.611%                      | 
 +----------------------------------------+ 
 | Checks and Counters                    | 
 +----------------------------------------+ 
 +----------------------------------------+ 
 | Blissey                                | 
 +----------------------------------------+ 
 | Raw count: 258                         | 
 | Avg. weight: 0.331898233907            | 
 | Viability Ceiling: 94                  | 
 +----------------------------------------+ 
 | Abilities                              | 
 | Natural Cure 94.666%                   | 
 | Serene Grace  5.334%                   | 
 +----------------------------------------+ 
 | Items                                  | 
 | Leftovers 100.000%                     | 
 | Other  0.000%                          | 
 +----------------------------------------+ 
 | Spreads                                | 
 | Bold:200/0/252/0/56/0 41.284%          | 
 | Bold:188/0/252/68/0/0 25.294%          | 
 | Calm:4/0/252/0/252/0 22.839%           | 
 | Serious:188/0/68/0/252/0  3.581%       | 
 | Bold:252/0/252/4/0/0  3.451%           | 
 | Other  3.550%                          | 
 +----------------------------------------+ 
 | Moves                                  | 
 | Soft-Boiled 99.806%                    | 
 | Psych Up 90.035%                       | 
 | Ice Beam 71.913%                       | 
 | Toxic 69.726%                          | 
 | Thunder 51.584%                        | 
 | Other 16.935%                          | 
 +----------------------------------------+ 
 | Teammates                              | 
 | Skarmory +13.002%                      | 
 | Latias +11.385%                        | 
 | Deoxys-Attack +11.254%                 | 
 | Rayquaza +6.047%                       | 
 | Gengar +4.636%                         | 
 | Lugia +4.567%                          | 
 | Ho-Oh +4.252%                          | 
 | Mewtwo +2.301%                         | 
 | Latios +1.368%                         | 
 | Crobat +1.084%                         | 
 | Forretress +0.826%                     | 
 +----------------------------------------+ 
 | Checks and Counters                    | 
 +----------------------------------------+ 
 +----------------------------------------+ 
 | Mewtwo                                 | 
 +----------------------------------------+ 
 | Raw count: 471                         | 
 | Avg. weight: 0.159681828833            | 
 | Viability Ceiling: 94                  | 
 +----------------------------------------+ 
 | Abilities                              | 
 | Pressure 100.000%                      | 
 +----------------------------------------+ 
 | Items                                  | 
 | Leftovers 75.020%                      | 
 | Lum Berry 24.426%                      | 
 | Other  0.553%                          | 
 +----------------------------------------+ 
 | Spreads                                | 
 | Modest:104/0/0/184/0/220 56.655%       | 
 | Hasty:8/0/0/232/16/252 16.020%         | 
 | Hasty:12/0/0/220/24/252  8.021%        | 
 | Modest:252/0/0/36/0/220  5.115%        | 
 | Modest:108/0/0/252/0/148  3.770%       | 
 | Modest:252/0/0/252/4/0  2.876%         | 
 | Other  7.543%                          | 
 +----------------------------------------+ 
 | Moves                                  | 
 | Ice Beam 88.888%                       | 
 | Thunder 80.883%                        | 
 | Calm Mind 72.305%                      | 
 | Recover 68.565%                        | 
 | Self-Destruct 27.440%                  | 
 | Fire Blast 24.041%                     | 
 | Psychic  8.286%                        | 
 | Thunderbolt  7.675%                    | 
 | Taunt  5.257%                          | 
 | Other 16.660%                          | 
 +----------------------------------------+ 
 | Teammates                              | 
 | Deoxys-Defense +34.896%                | 
 | Wobbuffet +30.869%                     | 
 | Rayquaza +27.089%                      | 
 | Smeargle +26.120%                      | 
 | Skarmory +14.089%                      | 
 | Latias +11.958%                        | 
 | Mew +8.957%                            | 
 | Lugia +5.609%                          | 
 | Blissey +4.088%                        | 
 | Heracross +1.947%                      | 
 | Gengar +1.348%                         | 
 +----------------------------------------+ 
 | Checks and Counters                    | 
 +----------------------------------------+ 
 +----------------------------------------+ 
 | Slaking                                | 
 +----------------------------------------+ 
 | Raw count: 109                         | 
 | Avg. weight: 0.510054155049            | 
 | Viability Ceiling: 84                  | 
 +----------------------------------------+ 
 | Abilities                              | 
 | Truant 100.000%                        | 
 +----------------------------------------+ 
 | Items                                  | 
 | Choice Band 100.000%                   | 
 | Other  0.000%                          | 
 +----------------------------------------+ 
 | Spreads                                | 
 | Jolly:0/252/0/0/4/252 97.725%          | 
 | Other  2.275%                          | 
 +----------------------------------------+ 
 | Moves                                  | 
 | Shadow Ball 100.000%                   | 
 | Double-Edge 100.000%                   | 
 | Return 97.725%                         | 
 | Focus Punch 97.725%                    | 
 | Other  4.550%                          | 
 +----------------------------------------+ 
 | Teammates                              | 
 | Snorlax +58.523%                       | 
 | Metagross +40.549%                     | 
 | Latios +32.935%                        | 
 | Groudon +15.980%                       | 
 | Heracross +1.240%                      | 
 +----------------------------------------+ 
 | Checks and Counters                    | 
 +----------------------------------------+ 
 +----------------------------------------+ 
 | Snorlax                                | 
 +----------------------------------------+ 
 | Raw count: 171                         | 
 | Avg. weight: 0.352495118824            | 
 | Viability Ceiling: 84                  | 
 +----------------------------------------+ 
 | Abilities                              | 
 | Immunity 99.704%                       | 
 | Thick Fat  0.296%                      | 
 +----------------------------------------+ 
 | Items                                  | 
 | Leftovers 100.000%                     | 
 | Other  0.000%                          | 
 +----------------------------------------+ 
 | Spreads                                | 
 | Adamant:80/252/0/0/176/0 99.562%       | 
 | Other  0.438%                          | 
 +----------------------------------------+ 
 | Moves                                  | 
 | Body Slam 100.000%                     | 
 | Shadow Ball 99.955%                    | 
 | Curse 99.658%                          | 
 | Protect 99.562%                        | 
 | Other  0.826%                          | 
 +----------------------------------------+ 
 | Teammates                              | 
 | Slaking +59.454%                       | 
 | Metagross +42.187%                     | 
 | Latios +34.573%                        | 
 | Groudon +17.618%                       | 
 +----------------------------------------+ 
 | Checks and Counters                    | 
 +----------------------------------------+ 
 +----------------------------------------+ 
 | Wobbuffet                              | 
 +----------------------------------------+ 
 | Raw count: 290                         | 
 | Avg. weight: 0.215800366553            | 
 | Viability Ceiling: 83                  | 
 +----------------------------------------+ 
 | Abilities                              | 
 | Shadow Tag 100.000%                    | 
 +----------------------------------------+ 
 | Items                                  | 
 | Focus Band 77.870%                     | 
 | Sitrus Berry 22.105%                   | 
 | Other  0.025%                          | 
 +----------------------------------------+ 
 | Spreads                                | 
 | Careful:4/0/252/0/252/0 77.870%        | 
 | Calm:248/0/8/0/252/0 22.051%           | 
 | Other  0.080%                          | 
 +----------------------------------------+ 
 | Moves                                  | 
 | Mirror Coat 100.000%                   | 
 | Counter 100.000%                       | 
 | Encore 100.000%                        | 
 | Safeguard 77.925%                      | 
 | Destiny Bond 22.075%                   | 
 | Other  0.000%                          | 
 +----------------------------------------+ 
 | Teammates                              | 
 | Deoxys-Defense +54.801%                | 
 | Smeargle +41.288%                      | 
 | Mewtwo +41.044%                        | 
 | Rayquaza +39.734%                      | 
 | Mew +13.667%                           | 
 | Aerodactyl +12.009%                    | 
 | Ho-Oh +6.466%                          | 
 | Latias +2.878%                         | 
 +----------------------------------------+ 
 | Checks and Counters                    | 
 +----------------------------------------+ 
 +----------------------------------------+ 
 | Deoxys-Defense                         | 
 +----------------------------------------+ 
 | Raw count: 177                         | 
 | Avg. weight: 0.264308157741            | 
 | Viability Ceiling: 83                  | 
 +----------------------------------------+ 
 | Abilities                              | 
 | Pressure 100.000%                      | 
 +----------------------------------------+ 
 | Items                                  | 
 | Leftovers 100.000%                     | 
 | Other  0.000%                          | 
 +----------------------------------------+ 
 | Spreads                                | 
 | Calm:252/0/160/0/96/0 100.000%         | 
 | Other  0.000%                          | 
 +----------------------------------------+ 
 | Moves                                  | 
 | Recover 100.000%                       | 
 | Toxic 100.000%                         | 
 | Spikes 98.751%                         | 
 | Seismic Toss 97.525%                   | 
 | Other  3.725%                          | 
 +----------------------------------------+ 
 | Teammates                              | 
 | Wobbuffet +70.306%                     | 
 | Mewtwo +60.845%                        | 
 | Rayquaza +58.255%                      | 
 | Smeargle +55.629%                      | 
 | Mew +18.734%                           | 
 | Ludicolo +0.999%                       | 
 | Forretress +0.774%                     | 
 +----------------------------------------+ 
 | Checks and Counters                    | 
 +----------------------------------------+ 
 +----------------------------------------+ 
 | Smeargle                               | 
 +----------------------------------------+ 
 | Raw count: 40                          | 
 | Avg. weight: 0.595198468782            | 
 | Viability Ceiling: 83                  | 
 +----------------------------------------+ 
 | Abilities                              | 
 | Own Tempo 100.000%                     | 
 +----------------------------------------+ 
 | Items                                  | 
 | Salac Berry 100.000%                   | 
 | Other  0.000%                          | 
 +----------------------------------------+ 
 | Spreads                                | 
 | Jolly:96/0/120/0/40/252 100.000%       | 
 | Other  0.000%                          | 
 +----------------------------------------+ 
 | Moves                                  | 
 | Spore 100.000%                         | 
 | Baton Pass 100.000%                    | 
 | Belly Drum 100.000%                    | 
 | Substitute 100.000%                    | 
 | Other  0.000%                          | 
 +----------------------------------------+ 
 | Teammates                              | 
 | Deoxys-Defense +81.083%                | 
 | Wobbuffet +77.421%                     | 
 | Mewtwo +67.325%                        | 
 | Rayquaza +64.735%                      | 
 | Kyogre +5.947%                         | 
 +----------------------------------------+ 
 | Checks and Counters                    | 
 +----------------------------------------+ 
 +----------------------------------------+ 
 | Latias                                 | 
 +----------------------------------------+ 
 | Raw count: 227                         | 
 | Avg. weight: 0.195046778012            | 
 | Viability Ceiling: 94                  | 
 +----------------------------------------+ 
 | Abilities                              | 
 | Levitate 100.000%                      | 
 +----------------------------------------+ 
 | Items                                  | 
 | Soul Dew 100.000%                      | 
 | Other  0.000%                          | 
 +----------------------------------------+ 
 | Spreads                                | 
 | Timid:4/0/0/252/0/252 53.324%          | 
 | Relaxed:252/4/252/0/0/0 35.460%        | 
 | Modest:4/0/0/252/0/252  8.561%         | 
 | Other  2.655%                          | 
 +----------------------------------------+ 
 | Moves                                  | 
 | Dragon Claw 100.000%                   | 
 | Recover 100.000%                       | 
 | Calm Mind 88.983%                      | 
 | Refresh 53.324%                        | 
 | Psychic 35.460%                        | 
 | Ice Beam  8.362%                       | 
 | Other 13.870%                          | 
 +----------------------------------------+ 
 | Teammates                              | 
 | Skarmory +39.715%                      | 
 | Blissey +24.595%                       | 
 | Mewtwo +23.053%                        | 
 | Aerodactyl +21.766%                    | 
 | Ho-Oh +17.283%                         | 
 | Lugia +4.629%                          | 
 | Wobbuffet +3.222%                      | 
 | Ludicolo +1.344%                       | 
 | Forretress +1.120%                     | 
 | Groudon +0.983%                        | 
 | Exeggutor +0.893%                      | 
 +----------------------------------------+ 
 | Checks and Counters                    | 
 +----------------------------------------+ 
 +----------------------------------------+ 
 | Tyranitar                              | 
 +----------------------------------------+ 
 | Raw count: 130                         | 
 | Avg. weight: 0.196075556902            | 
 | Viability Ceiling: 86                  | 
 +----------------------------------------+ 
 | Abilities                              | 
 | Sand Stream 100.000%                   | 
 +----------------------------------------+ 
 | Items                                  | 
 | Leftovers 100.000%                     | 
 | Other  0.000%                          | 
 +----------------------------------------+ 
 | Spreads                                | 
 | Adamant:8/252/0/0/0/248 96.958%        | 
 | Other  3.042%                          | 
 +----------------------------------------+ 
 | Moves                                  | 
 | Rock Slide 97.406%                     | 
 | Earthquake 97.406%                     | 
 | Dragon Dance 97.354%                   | 
 | Hidden Power Bug 97.354%               | 
 | Other 10.479%                          | 
 +----------------------------------------+ 
 | Teammates                              | 
 | Jirachi +67.984%                       | 
 | Salamence +67.930%                     | 
 | Deoxys-Attack +43.046%                 | 
 | Groudon +6.896%                        | 
 | Regice +0.774%                         | 
 +----------------------------------------+ 
 | Checks and Counters                    | 
 +----------------------------------------+ 
 +----------------------------------------+ 
 | Salamence                              | 
 +----------------------------------------+ 
 | Raw count: 140                         | 
 | Avg. weight: 0.198153011828            | 
 | Viability Ceiling: 86                  | 
 +----------------------------------------+ 
 | Abilities                              | 
 | Intimidate 100.000%                    | 
 +----------------------------------------+ 
 | Items                                  | 
 | Leftovers 99.989%                      | 
 | Other  0.011%                          | 
 +----------------------------------------+ 
 | Spreads                                | 
 | Lonely:0/252/0/4/0/252 98.849%         | 
 | Other  1.151%                          | 
 +----------------------------------------+ 
 | Moves                                  | 
 | Dragon Dance 100.000%                  | 
 | Hidden Power Flying 99.989%            | 
 | Earthquake 99.989%                     | 
 | Rock Slide 98.849%                     | 
 | Other  1.172%                          | 
 +----------------------------------------+ 
 | Teammates                              | 
 | Jirachi +69.499%                       | 
 | Tyranitar +69.382%                     | 
 | Deoxys-Attack +44.061%                 | 
 | Groudon +8.015%                        | 
 +----------------------------------------+ 
 | Checks and Counters                    | 
 +----------------------------------------+ 
 +----------------------------------------+ 
 | Jirachi                                | 
 +----------------------------------------+ 
 | Raw count: 59                          | 
 | Avg. weight: 0.374403345042            | 
 | Viability Ceiling: 86                  | 
 +----------------------------------------+ 
 | Abilities                              | 
 | Serene Grace 100.000%                  | 
 +----------------------------------------+ 
 | Items                                  | 
 | Leftovers 100.000%                     | 
 | Other  0.000%                          | 
 +----------------------------------------+ 
 | Spreads                                | 
 | Modest:252/0/68/188/0/0 98.653%        | 
 | Other  1.347%                          | 
 +----------------------------------------+ 
 | Moves                                  | 
 | Ice Punch 100.000%                     | 
 | Substitute 98.653%                     | 
 | Calm Mind 98.653%                      | 
 | Thunder 98.653%                        | 
 | Other  4.042%                          | 
 +----------------------------------------+ 
 | Teammates                              | 
 | Salamence +69.288%                     | 
 | Tyranitar +69.225%                     | 
 | Deoxys-Attack +43.467%                 | 
 | Groudon +7.857%                        | 
 +----------------------------------------+ 
 | Checks and Counters                    | 
 +----------------------------------------+ 
 +----------------------------------------+ 
 | Ho-Oh                                  | 
 +----------------------------------------+ 
 | Raw count: 295                         | 
 | Avg. weight: 0.119637195404            | 
 | Viability Ceiling: 86                  | 
 +----------------------------------------+ 
 | Abilities                              | 
 | Pressure 100.000%                      | 
 +----------------------------------------+ 
 | Items                                  | 
 | Leftovers 55.108%                      | 
 | Lum Berry 42.134%                      | 
 | Other  2.758%                          | 
 +----------------------------------------+ 
 | Spreads                                | 
 | Timid:8/0/0/248/0/252 52.174%          | 
 | Relaxed:248/8/252/0/0/0 42.134%        | 
 | Lonely:252/252/0/0/0/4  2.450%         | 
 | Other  3.242%                          | 
 +----------------------------------------+ 
 | Moves                                  | 
 | Sacred Fire 99.692%                    | 
 | Calm Mind 95.983%                      | 
 | Recover 95.941%                        | 
 | Thunderbolt 53.849%                    | 
 | Hidden Power Ice 42.134%               | 
 | Other 12.401%                          | 
 +----------------------------------------+ 
 | Teammates                              | 
 | Aerodactyl +26.621%                    | 
 | Latias +18.750%                        | 
 | Gengar +8.844%                         | 
 | Wobbuffet +8.078%                      | 
 | Rayquaza +5.921%                       | 
 | Blissey +5.637%                        | 
 | Exeggutor +1.092%                      | 
 | Regice +0.725%                         | 
 +----------------------------------------+ 
 | Checks and Counters                    | 
 +----------------------------------------+ 
 +----------------------------------------+ 
 | Skarmory                               | 
 +----------------------------------------+ 
 | Raw count: 43                          | 
 | Avg. weight: 0.294805948713            | 
 | Viability Ceiling: 94                  | 
 +----------------------------------------+ 
 | Abilities                              | 
 | Keen Eye 96.334%                       | 
 | Sturdy  3.666%                         | 
 +----------------------------------------+ 
 | Items                                  | 
 | Leftovers 100.000%                     | 
 | Other  0.000%                          | 
 +----------------------------------------+ 
 | Spreads                                | 
 | Impish:252/0/0/0/240/16 94.814%        | 
 | Impish:252/0/232/0/0/24  3.666%        | 
 | Other  1.520%                          | 
 +----------------------------------------+ 
 | Moves                                  | 
 | Spikes 100.000%                        | 
 | Whirlwind 100.000%                     | 
 | Taunt 98.480%                          | 
 | Toxic 96.334%                          | 
 | Other  5.186%                          | 
 +----------------------------------------+ 
 | Teammates                              | 
 | Latias +71.055%                        | 
 | Mewtwo +53.066%                        | 
 | Blissey +53.013%                       | 
 | Groudon +13.037%                       | 
 | Regice +1.139%                         | 
 +----------------------------------------+ 
 | Checks and Counters                    | 
 +----------------------------------------+ 
 +----------------------------------------+ 
 | Lugia                                  | 
 +----------------------------------------+ 
 | Raw count: 342                         | 
 | Avg. weight: 0.0377125069794           | 
 | Viability Ceiling: 77                  | 
 +----------------------------------------+ 
 | Abilities                              | 
 | Pressure 100.000%                      | 
 +----------------------------------------+ 
 | Items                                  | 
 | Leftovers 71.246%                      | 
 | Nothing 24.889%                        | 
 | Other  3.865%                          | 
 +----------------------------------------+ 
 | Spreads                                | 
 | Jolly:192/176/0/0/0/140 25.828%        | 
 | Timid:248/0/0/8/0/252 24.889%          | 
 | Relaxed:252/0/128/0/128/0 13.579%      | 
 | Hardy:0/0/0/0/0/0 12.687%              | 
 | Hardy:0/252/0/0/0/0  7.750%            | 
 | Bold:248/0/252/0/8/0  4.457%           | 
 | Other 10.810%                          | 
 +----------------------------------------+ 
 | Moves                                  | 
 | Recover 92.753%                        | 
 | Aeroblast 92.269%                      | 
 | Whirlwind 66.198%                      | 
 | Toxic 49.492%                          | 
 | Earthquake 33.075%                     | 
 | Psychic 13.867%                        | 
 | Giga Drain 12.687%                     | 
 | Roar 12.687%                           | 
 | Ice Beam  7.708%                       | 
 | Other 19.263%                          | 
 +----------------------------------------+ 
 | Teammates                              | 
 | Mewtwo +38.596%                        | 
 | Deoxys-Attack +34.922%                 | 
 | Blissey +34.773%                       | 
 | Gengar +27.566%                        | 
 | Heracross +19.402%                     | 
 | Latias +15.936%                        | 
 | Crobat +11.701%                        | 
 | Forretress +3.982%                     | 
 | Exeggutor +3.107%                      | 
 | Shuckle +0.603%                        | 
 +----------------------------------------+ 
 | Checks and Counters                    | 
 +----------------------------------------+ 
 +----------------------------------------+ 
 | Mew                                    | 
 +----------------------------------------+ 
 | Raw count: 150                         | 
 | Avg. weight: 0.0831973757457           | 
 | Viability Ceiling: 82                  | 
 +----------------------------------------+ 
 | Abilities                              | 
 | Synchronize 100.000%                   | 
 +----------------------------------------+ 
 | Items                                  | 
 | Leftovers 100.000%                     | 
 | Other  0.000%                          | 
 +----------------------------------------+ 
 | Spreads                                | 
 | Jolly:36/252/0/0/0/220 97.831%         | 
 | Other  2.169%                          | 
 +----------------------------------------+ 
 | Moves                                  | 
 | Explosion 97.831%                      | 
 | Swords Dance 97.831%                   | 
 | Shadow Ball 97.831%                    | 
 | Earthquake 97.831%                     | 
 | Other  8.676%                          | 
 +----------------------------------------+ 
 | Teammates                              | 
 | Deoxys-Defense +62.776%                | 
 | Wobbuffet +58.156%                     | 
 | Mewtwo +50.215%                        | 
 | Rayquaza +47.638%                      | 
 | Deoxys-Speed +1.116%                   | 
 +----------------------------------------+ 
 | Checks and Counters                    | 
 +----------------------------------------+ 
 +----------------------------------------+ 
 | Umbreon                                | 
 +----------------------------------------+ 
 | Raw count: 44                          | 
 | Avg. weight: 0.265918639649            | 
 | Viability Ceiling: 94                  | 
 +----------------------------------------+ 
 | Abilities                              | 
 | Synchronize 100.000%                   | 
 +----------------------------------------+ 
 | Items                                  | 
 | Leftovers 99.990%                      | 
 | Other  0.010%                          | 
 +----------------------------------------+ 
 | Spreads                                | 
 | Calm:252/0/24/0/176/56 97.103%         | 
 | Other  2.897%                          | 
 +----------------------------------------+ 
 | Moves                                  | 
 | Baton Pass 99.990%                     | 
 | Mean Look 99.990%                      | 
 | Taunt 99.990%                          | 
 | Wish 99.990%                           | 
 | Other  0.041%                          | 
 +----------------------------------------+ 
 | Teammates                              | 
 | Deoxys-Attack +45.823%                 | 
 | Metagross +34.391%                     | 
 | Latios +27.511%                        | 
 | Groudon +9.822%                        | 
 +----------------------------------------+ 
 | Checks and Counters                    | 
 +----------------------------------------+ 
 +----------------------------------------+ 
 | Aerodactyl                             | 
 +----------------------------------------+ 
 | Raw count: 75                          | 
 | Avg. weight: 0.198271209847            | 
 | Viability Ceiling: 83                  | 
 +----------------------------------------+ 
 | Abilities                              | 
 | Rock Head 100.000%                     | 
 | Pressure  0.000%                       | 
 +----------------------------------------+ 
 | Items                                  | 
 | Choice Band 100.000%                   | 
 | Other  0.000%                          | 
 +----------------------------------------+ 
 | Spreads                                | 
 | Adamant:0/252/0/0/4/252 100.000%       | 
 | Other  0.000%                          | 
 +----------------------------------------+ 
 | Moves                                  | 
 | Aerial Ace 100.000%                    | 
 | Rock Slide 100.000%                    | 
 | Earthquake 100.000%                    | 
 | Hidden Power Bug 100.000%              | 
 | Other  0.000%                          | 
 +----------------------------------------+ 
 | Teammates                              | 
 | Ho-Oh +63.182%                         | 
 | Latias +59.593%                        | 
 | Wobbuffet +50.181%                     | 
 | Deoxys-Attack +36.843%                 | 
 +----------------------------------------+ 
 | Checks and Counters                    | 
 +----------------------------------------+ 
 +----------------------------------------+ 
 | Gengar                                 | 
 +----------------------------------------+ 
 | Raw count: 160                         | 
 | Avg. weight: 0.0517552177083           | 
 | Viability Ceiling: 82                  | 
 +----------------------------------------+ 
 | Abilities                              | 
 | Levitate 100.000%                      | 
 +----------------------------------------+ 
 | Items                                  | 
 | Leftovers 99.616%                      | 
 | Other  0.384%                          | 
 +----------------------------------------+ 
 | Spreads                                | 
 | Timid:172/0/0/148/0/188 68.535%        | 
 | Jolly:252/4/0/0/0/252 30.724%          | 
 | Other  0.740%                          | 
 +----------------------------------------+ 
 | Moves                                  | 
 | Destiny Bond 99.951%                   | 
 | Will-O-Wisp 68.870%                    | 
 | Ice Punch 68.870%                      | 
 | Thunderbolt 68.535%                    | 
 | Toxic 31.080%                          | 
 | Explosion 30.724%                      | 
 | Hypnosis 30.724%                       | 
 | Other  1.245%                          | 
 +----------------------------------------+ 
 | Teammates                              | 
 | Blissey +36.431%                       | 
 | Lugia +33.102%                         | 
 | Ho-Oh +28.857%                         | 
 | Rayquaza +10.198%                      | 
 | Heracross +5.993%                      | 
 | Mewtwo +5.221%                         | 
 +----------------------------------------+ 
 | Checks and Counters                    | 
 +----------------------------------------+ 
 +----------------------------------------+ 
 | Heracross                              | 
 +----------------------------------------+ 
 | Raw count: 59                          | 
 | Avg. weight: 0.0347115367697           | 
 | Viability Ceiling: 74                  | 
 +----------------------------------------+ 
 | Abilities                              | 
 | Guts 99.918%                           | 
 | Swarm  0.082%                          | 
 +----------------------------------------+ 
 | Items                                  | 
 | Choice Band 99.918%                    | 
 | Other  0.082%                          | 
 +----------------------------------------+ 
 | Spreads                                | 
 | Adamant:0/252/0/0/0/252 62.029%        | 
 | Jolly:4/252/0/0/0/252 37.889%          | 
 | Other  0.082%                          | 
 +----------------------------------------+ 
 | Moves                                  | 
 | Megahorn 100.000%                      | 
 | Rock Slide 99.918%                     | 
 | Brick Break 62.111%                    | 
 | Earthquake 62.044%                     | 
 | Focus Punch 37.889%                    | 
 | Sleep Talk 37.889%                     | 
 | Other  0.150%                          | 
 +----------------------------------------+ 
 | Teammates                              | 
 | Lugia +95.124%                         | 
 | Mewtwo +67.243%                        | 
 | Rayquaza +64.652%                      | 
 | Slaking +42.734%                       | 
 | Gengar +24.702%                        | 
 | Kyogre +5.933%                         | 
 +----------------------------------------+ 
 | Checks and Counters                    | 
 +----------------------------------------+ 
 +----------------------------------------+ 
 | Crobat                                 | 
 +----------------------------------------+ 
 | Raw count: 71                          | 
 | Avg. weight: 0.0263857562511           | 
 | Viability Ceiling: 73                  | 
 +----------------------------------------+ 
 | Abilities                              | 
 | Inner Focus 100.000%                   | 
 +----------------------------------------+ 
 | Items                                  | 
 | Leftovers 100.000%                     | 
 | Other  0.000%                          | 
 +----------------------------------------+ 
 | Spreads                                | 
 | Jolly:4/252/0/0/0/252 99.813%          | 
 | Other  0.187%                          | 
 +----------------------------------------+ 
 | Moves                                  | 
 | Shadow Ball 100.000%                   | 
 | Sludge Bomb 99.813%                    | 
 | Confuse Ray 99.813%                    | 
 | Substitute 99.813%                     | 
 | Other  0.560%                          | 
 +----------------------------------------+ 
 | Teammates                              | 
 | Lugia +85.815%                         | 
 | Blissey +57.880%                       | 
 | Deoxys-Attack +54.691%                 | 
 | Groudon +19.424%                       | 
 +----------------------------------------+ 
 | Checks and Counters                    | 
 +----------------------------------------+ 
 +----------------------------------------+ 
 | Forretress                             | 
 +----------------------------------------+ 
 | Raw count: 62                          | 
 | Avg. weight: 0.0169844103108           | 
 | Viability Ceiling: 75                  | 
 +----------------------------------------+ 
 | Abilities                              | 
 | Sturdy 100.000%                        | 
 +----------------------------------------+ 
 | Items                                  | 
 | Leftovers 100.000%                     | 
 | Other  0.000%                          | 
 +----------------------------------------+ 
 | Spreads                                | 
 | Impish:252/12/0/0/244/0 52.498%        | 
 | Careful:248/8/0/0/252/0 47.502%        | 
 | Other  0.000%                          | 
 +----------------------------------------+ 
 | Moves                                  | 
 | Hidden Power Bug 100.000%              | 
 | Spikes 100.000%                        | 
 | Rapid Spin 100.000%                    | 
 | Rest 52.498%                           | 
 | Explosion 47.502%                      | 
 | Other  0.000%                          | 
 +----------------------------------------+ 
 | Teammates                              | 
 | Blissey +67.272%                       | 
 | Ludicolo +52.247%                      | 
 | Lugia +42.709%                         | 
 | Latias +39.331%                        | 
 | Deoxys-Defense +33.580%                | 
 | Deoxys-Attack +11.586%                 | 
 +----------------------------------------+ 
 | Checks and Counters                    | 
 +----------------------------------------+ 
 +----------------------------------------+ 
 | Ludicolo                               | 
 +----------------------------------------+ 
 | Raw count: 39                          | 
 | Avg. weight: 0.0128033406539           | 
 | Viability Ceiling: 69                  | 
 +----------------------------------------+ 
 | Abilities                              | 
 | Rain Dish 100.000%                     | 
 | Swift Swim  0.000%                     | 
 +----------------------------------------+ 
 | Items                                  | 
 | Leftovers 100.000%                     | 
 | Other  0.000%                          | 
 +----------------------------------------+ 
 | Spreads                                | 
 | Calm:252/0/0/36/220/0 99.487%          | 
 | Other  0.513%                          | 
 +----------------------------------------+ 
 | Moves                                  | 
 | Surf 100.000%                          | 
 | Leech Seed 100.000%                    | 
 | Protect 99.487%                        | 
 | Toxic 99.487%                          | 
 | Other  1.025%                          | 
 +----------------------------------------+ 
 | Teammates                              | 
 | Forretress +99.012%                    | 
 | Latias +86.321%                        | 
 | Deoxys-Defense +80.570%                | 
 | Blissey +66.759%                       | 
 | Kyogre +5.435%                         | 
 +----------------------------------------+ 
 | Checks and Counters                    | 
 +----------------------------------------+ 
 +----------------------------------------+ 
 | Exeggutor                              | 
 +----------------------------------------+ 
 | Raw count: 25                          | 
 | Avg. weight: 0.0149738423489           | 
 | Viability Ceiling: 70                  | 
 +----------------------------------------+ 
 | Abilities                              | 
 | Chlorophyll 100.000%                   | 
 +----------------------------------------+ 
 | Items                                  | 
 | Leftovers 98.962%                      | 
 | Other  1.038%                          | 
 +----------------------------------------+ 
 | Spreads                                | 
 | Modest:124/0/0/188/96/100 98.962%      | 
 | Other  1.038%                          | 
 +----------------------------------------+ 
 | Moves                                  | 
 | Light Screen 100.000%                  | 
 | Sleep Powder 100.000%                  | 
 | Leech Seed 98.962%                     | 
 | Solar Beam 98.962%                     | 
 | Other  2.077%                          | 
 +----------------------------------------+ 
 | Teammates                              | 
 | Lugia +94.168%                         | 
 | Ho-Oh +89.384%                         | 
 | Latias +85.795%                        | 
 | Latios +44.732%                        | 
 | Groudon +27.778%                       | 
 | Rhydon +1.037%                         | 
 | Pidgeot +1.037%                        | 
 | Arcanine +1.037%                       | 
 | Alakazam +1.037%                       | 
 | Gyarados +1.037%                       | 
 +----------------------------------------+ 
 | Checks and Counters                    | 
 +----------------------------------------+ 
 +----------------------------------------+ 
 | Regice                                 | 
 +----------------------------------------+ 
 | Raw count: 39                          | 
 | Avg. weight: 0.0157202781513           | 
 | Viability Ceiling: 69                  | 
 +----------------------------------------+ 
 | Abilities                              | 
 | Clear Body 100.000%                    | 
 +----------------------------------------+ 
 | Items                                  | 
 | Leftovers 100.000%                     | 
 | Other  0.000%                          | 
 +----------------------------------------+ 
 | Spreads                                | 
 | Sassy:252/120/0/0/136/0 100.000%       | 
 | Other  0.000%                          | 
 +----------------------------------------+ 
 | Moves                                  | 
 | Ice Beam 100.000%                      | 
 | Explosion 100.000%                     | 
 | Thunder Wave 100.000%                  | 
 | Thunderbolt 100.000%                   | 
 | Other  0.000%                          | 
 +----------------------------------------+ 
 | Teammates                              | 
 | Skarmory +26.408%                      | 
 | Ho-Oh +24.482%                         | 
 | Tyranitar +24.243%                     | 
 +----------------------------------------+ 
 | Checks and Counters                    | 
 +----------------------------------------+ 
 +----------------------------------------+ 
 | Deoxys-Speed                           | 
 +----------------------------------------+ 
 | Raw count: 72                          | 
 | Avg. weight: 0.00385120290373          | 
 | Viability Ceiling: 65                  | 
 +----------------------------------------+ 
 | Abilities                              | 
 | Pressure 100.000%                      | 
 +----------------------------------------+ 
 | Items                                  | 
 | Leftovers 80.376%                      | 
 | TwistedSpoon 19.624%                   | 
 | Other  0.000%                          | 
 +----------------------------------------+ 
 | Spreads                                | 
 | Jolly:252/80/76/0/84/16 54.652%        | 
 | Modest:80/0/0/252/0/176 24.761%        | 
 | Mild:0/252/0/252/0/0 19.624%           | 
 | Other  0.963%                          | 
 +----------------------------------------+ 
 | Moves                                  | 
 | Spikes 79.413%                         | 
 | Recover 54.652%                        | 
 | Shadow Ball 54.652%                    | 
 | Knock Off 54.652%                      | 
 | Fire Punch 44.385%                     | 
 | Ice Beam 24.761%                       | 
 | Pursuit 24.761%                        | 
 | Return 19.624%                         | 
 | Psycho Boost 19.624%                   | 
 | Thunder Punch 19.624%                  | 
 | Other  3.852%                          | 
 +----------------------------------------+ 
 | Teammates                              | 
 | Mew +50.521%                           | 
 | Mewtwo +41.601%                        | 
 | Rayquaza +39.973%                      | 
 | Latios +20.047%                        | 
 | Zapdos +0.822%                         | 
 +----------------------------------------+ 
 | Checks and Counters                    | 
 +----------------------------------------+ 
 +----------------------------------------+ 
 | Jolteon                                | 
 +----------------------------------------+ 
 | Raw count: 118                         | 
 | Avg. weight: 0.00158512381382          | 
 | Viability Ceiling: 67                  | 
 +----------------------------------------+ 
 | Abilities                              | 
 | Volt Absorb 100.000%                   | 
 +----------------------------------------+ 
 | Items                                  | 
 | Scope Lens 65.271%                     | 
 | Leftovers 33.598%                      | 
 | Other  1.131%                          | 
 +----------------------------------------+ 
 | Spreads                                | 
 | Modest:0/0/4/252/0/252 65.271%         | 
 | Lonely:252/252/0/4/0/0 20.704%         | 
 | Timid:0/0/4/252/0/252 10.082%          | 
 | Other  3.943%                          | 
 +----------------------------------------+ 
 | Moves                                  | 
 | Thunderbolt 79.296%                    | 
 | Hidden Power Water 65.271%             | 
 | Bite 65.271%                           | 
 | Nothing 65.271%                        | 
 | Pin Missile 23.516%                    | 
 | Shadow Ball 21.835%                    | 
 | Quick Attack 20.704%                   | 
 | Wish 20.704%                           | 
 | Protect 11.213%                        | 
 | Substitute 10.082%                     | 
 | Other 16.837%                          | 
 +----------------------------------------+ 
 | Teammates                              | 
 | Registeel +65.231%                     | 
 | Ho-Oh +55.694%                         | 
 | Mewtwo +42.065%                        | 
 | Deoxys-Attack +29.354%                 | 
 | Latios +11.042%                        | 
 | Gengar +6.336%                         | 
 | Lugia +4.675%                          | 
 | Medicham +3.933%                       | 
 | Breloom +3.933%                        | 
 | Ninjask +3.933%                        | 
 | Blaziken +1.130%                       | 
 +----------------------------------------+ 
 | Checks and Counters                    | 
 +----------------------------------------+ 
 +----------------------------------------+ 
 | Registeel                              | 
 +----------------------------------------+ 
 | Raw count: 19                          | 
 | Avg. weight: 0.00362120286753          | 
 | Viability Ceiling: 64                  | 
 +----------------------------------------+ 
 | Abilities                              | 
 | Clear Body 100.000%                    | 
 +----------------------------------------+ 
 | Items                                  | 
 | Leftovers 100.000%                     | 
 | Other  0.000%                          | 
 +----------------------------------------+ 
 | Spreads                                | 
 | Brave:252/0/124/0/124/0 100.000%       | 
 | Other  0.000%                          | 
 +----------------------------------------+ 
 | Moves                                  | 
 | Dynamic Punch 100.000%                 | 
 | Explosion 100.000%                     | 
 | Ancient Power 100.000%                 | 
 | Earthquake 100.000%                    | 
 | Other  0.000%                          | 
 +----------------------------------------+ 
 | Teammates                              | 
 | Jolteon +99.950%                       | 
 | Ho-Oh +90.422%                         | 
 | Mewtwo +67.325%                        | 
 | Deoxys-Attack +64.083%                 | 
 | Latios +45.771%                        | 
 +----------------------------------------+ 
 | Checks and Counters                    | 
 +----------------------------------------+ 
 +----------------------------------------+ 
 | Shuckle                                | 
 +----------------------------------------+ 
 | Raw count: 13                          | 
 | Avg. weight: 0.00690150590556          | 
 | Viability Ceiling: 66                  | 
 +----------------------------------------+ 
 | Abilities                              | 
 | Sturdy 100.000%                        | 
 +----------------------------------------+ 
 | Items                                  | 
 | Leftovers 100.000%                     | 
 | Other  0.000%                          | 
 +----------------------------------------+ 
 | Spreads                                | 
 | Sassy:252/0/252/0/4/0 100.000%         | 
 | Other  0.000%                          | 
 +----------------------------------------+ 
 | Moves                                  | 
 | Rest 100.000%                          | 
 | Wrap 100.000%                          | 
 | Toxic 100.000%                         | 
 | Attract 100.000%                       | 
 | Other  0.000%                          | 
 +----------------------------------------+ 
 | Teammates                              | 
 | Lugia +95.207%                         | 
 | Ho-Oh +90.422%                         | 
 | Deoxys-Attack +64.083%                 | 
 | Latios +45.771%                        | 
 | Kyogre +5.947%                         | 
 +----------------------------------------+ 
 | Checks and Counters                    | 
 +----------------------------------------+ 
 +----------------------------------------+ 
 | Shedinja                               | 
 +----------------------------------------+ 
 | Raw count: 11                          | 
 | Avg. weight: 0.00237511125622          | 
 | Viability Ceiling: 62                  | 
 +----------------------------------------+ 
 | Abilities                              | 
 | Wonder Guard 100.000%                  | 
 +----------------------------------------+ 
 | Items                                  | 
 | Quick Claw 100.000%                    | 
 | Other  0.000%                          | 
 +----------------------------------------+ 
 | Spreads                                | 
 | Adamant:0/252/0/0/0/252 100.000%       | 
 | Other  0.000%                          | 
 +----------------------------------------+ 
 | Moves                                  | 
 | Hidden Power Bug 100.000%              | 
 | Protect 100.000%                       | 
 | Shadow Ball 100.000%                   | 
 | Swords Dance 100.000%                  | 
 | Other  0.000%                          | 
 +----------------------------------------+ 
 | Teammates                              | 
 | Mewtwo +67.325%                        | 
 | Rayquaza +64.735%                      | 
 | Deoxys-Attack +64.083%                 | 
 | Groudon +28.816%                       | 
 | Kyogre +5.947%                         | 
 +----------------------------------------+ 
 | Checks and Counters                    | 
 +----------------------------------------+ 
