 weatherless...................92.02175%
 offense.......................46.83013%
 balance.......................26.57320%
 hyperoffense..................20.10297%
 semistall..................... 5.46280%
 hail.......................... 4.51487%
 monotype...................... 2.04313%
 sun........................... 1.62596%
 monofire...................... 1.17270%
 rain.......................... 1.08441%
 stall......................... 1.03089%
 sunoffense.................... 0.94470%
 sand.......................... 0.75301%
 hailstall..................... 0.50536%
 batonpass..................... 0.47321%
 rainoffense................... 0.28924%
 monodragon.................... 0.25268%
 mononormal.................... 0.16897%
 monopoison.................... 0.14960%
 monosteel..................... 0.14960%
 monorock...................... 0.14960%
 choice........................ 0.14960%
 monoflying.................... 0.14960%

 Stalliness (mean: -0.240)
     |
 -3.0|
     |
 -2.5|
     |
 -2.0|
     |#
 -1.5|##########
     |######
 -1.0|############
     |######
 -0.5|##############
     |##############################
  0.0|###########
     |########
 +0.5|#########
     |##
 +1.0|############
     |
 +1.5|##
     |#
 more negative = more offensive, more positive = more stall
 one # =  0.80%
