 +----------------------------------------+ 
 | Sableye                                | 
 +----------------------------------------+ 
 | Raw count: 1                           | 
 | Avg. weight: 0.628122801539            | 
 +----------------------------------------+ 
 | Abilities                              | 
 | Keen Eye 100.000%                      | 
 +----------------------------------------+ 
 | Items                                  | 
 | Leftovers 100.000%                     | 
 +----------------------------------------+ 
 | Spreads                                | 
 | Calm:252/0/0/80/126/50 100.000%        | 
 +----------------------------------------+ 
 | Moves                                  | 
 | Shadow Ball 100.000%                   | 
 | Recover 100.000%                       | 
 | Mean Look 100.000%                     | 
 | Calm Mind 100.000%                     | 
 +----------------------------------------+ 
 | Teammates                              | 
 | Relicanth +37.188%                     | 
 | Primeape +37.188%                      | 
 | Golbat +37.188%                        | 
 | Roselia +37.188%                       | 
 | Cradily +37.188%                       | 
 +----------------------------------------+ 
 | Checks and Counters                    | 
 +----------------------------------------+ 
 +----------------------------------------+ 
 | Primeape                               | 
 +----------------------------------------+ 
 | Raw count: 1                           | 
 | Avg. weight: 0.628122801539            | 
 +----------------------------------------+ 
 | Abilities                              | 
 | Vital Spirit 100.000%                  | 
 +----------------------------------------+ 
 | Items                                  | 
 | Black Belt 100.000%                    | 
 +----------------------------------------+ 
 | Spreads                                | 
 | Adamant:4/252/0/0/0/252 100.000%       | 
 +----------------------------------------+ 
 | Moves                                  | 
 | Brick Break 100.000%                   | 
 | Reversal 100.000%                      | 
 | Substitute 100.000%                    | 
 | Earthquake 100.000%                    | 
 +----------------------------------------+ 
 | Teammates                              | 
 | Relicanth +37.188%                     | 
 | Sableye +37.188%                       | 
 | Golbat +37.188%                        | 
 | Roselia +37.188%                       | 
 | Cradily +37.188%                       | 
 +----------------------------------------+ 
 | Checks and Counters                    | 
 +----------------------------------------+ 
 +----------------------------------------+ 
 | Relicanth                              | 
 +----------------------------------------+ 
 | Raw count: 1                           | 
 | Avg. weight: 0.628122801539            | 
 +----------------------------------------+ 
 | Abilities                              | 
 | Swift Swim 100.000%                    | 
 +----------------------------------------+ 
 | Items                                  | 
 | Leftovers 100.000%                     | 
 +----------------------------------------+ 
 | Spreads                                | 
 | Impish:252/176/76/0/0/0 100.000%       | 
 +----------------------------------------+ 
 | Moves                                  | 
 | Sleep Talk 100.000%                    | 
 | Waterfall 100.000%                     | 
 | Rest 100.000%                          | 
 | Rock Slide 100.000%                    | 
 +----------------------------------------+ 
 | Teammates                              | 
 | Sableye +37.188%                       | 
 | Primeape +37.188%                      | 
 | Golbat +37.188%                        | 
 | Roselia +37.188%                       | 
 | Cradily +37.188%                       | 
 +----------------------------------------+ 
 | Checks and Counters                    | 
 +----------------------------------------+ 
 +----------------------------------------+ 
 | Cradily                                | 
 +----------------------------------------+ 
 | Raw count: 1                           | 
 | Avg. weight: 0.628122801539            | 
 +----------------------------------------+ 
 | Abilities                              | 
 | Suction Cups 100.000%                  | 
 +----------------------------------------+ 
 | Items                                  | 
 | Leftovers 100.000%                     | 
 +----------------------------------------+ 
 | Spreads                                | 
 | Modest:252/0/0/164/92/0 100.000%       | 
 +----------------------------------------+ 
 | Moves                                  | 
 | Recover 100.000%                       | 
 | Amnesia 100.000%                       | 
 | Ancient Power 100.000%                 | 
 | Giga Drain 100.000%                    | 
 +----------------------------------------+ 
 | Teammates                              | 
 | Sableye +37.188%                       | 
 | Primeape +37.188%                      | 
 | Relicanth +37.188%                     | 
 | Roselia +37.188%                       | 
 | Golbat +37.188%                        | 
 +----------------------------------------+ 
 | Checks and Counters                    | 
 +----------------------------------------+ 
 +----------------------------------------+ 
 | Golbat                                 | 
 +----------------------------------------+ 
 | Raw count: 1                           | 
 | Avg. weight: 0.628122801539            | 
 +----------------------------------------+ 
 | Abilities                              | 
 | Inner Focus 100.000%                   | 
 +----------------------------------------+ 
 | Items                                  | 
 | Leftovers 100.000%                     | 
 +----------------------------------------+ 
 | Spreads                                | 
 | Impish:252/0/252/0/0/4 100.000%        | 
 +----------------------------------------+ 
 | Moves                                  | 
 | Poison Fang 100.000%                   | 
 | Haze 100.000%                          | 
 | Confuse Ray 100.000%                   | 
 | Aerial Ace 100.000%                    | 
 +----------------------------------------+ 
 | Teammates                              | 
 | Sableye +37.188%                       | 
 | Primeape +37.188%                      | 
 | Relicanth +37.188%                     | 
 | Roselia +37.188%                       | 
 | Cradily +37.188%                       | 
 +----------------------------------------+ 
 | Checks and Counters                    | 
 +----------------------------------------+ 
 +----------------------------------------+ 
 | Roselia                                | 
 +----------------------------------------+ 
 | Raw count: 1                           | 
 | Avg. weight: 0.628122801539            | 
 +----------------------------------------+ 
 | Abilities                              | 
 | Natural Cure 100.000%                  | 
 +----------------------------------------+ 
 | Items                                  | 
 | Leftovers 100.000%                     | 
 +----------------------------------------+ 
 | Spreads                                | 
 | Calm:252/0/0/0/252/4 100.000%          | 
 +----------------------------------------+ 
 | Moves                                  | 
 | Sludge Bomb 100.000%                   | 
 | Leech Seed 100.000%                    | 
 | Spikes 100.000%                        | 
 | Aromatherapy 100.000%                  | 
 +----------------------------------------+ 
 | Teammates                              | 
 | Sableye +37.188%                       | 
 | Primeape +37.188%                      | 
 | Relicanth +37.188%                     | 
 | Golbat +37.188%                        | 
 | Cradily +37.188%                       | 
 +----------------------------------------+ 
 | Checks and Counters                    | 
 +----------------------------------------+ 
 +----------------------------------------+ 
 | Shuckle                                | 
 +----------------------------------------+ 
 | Raw count: 2                           | 
 | Avg. weight: 0.319520516334            | 
 +----------------------------------------+ 
 | Abilities                              | 
 | Sturdy 100.000%                        | 
 +----------------------------------------+ 
 | Items                                  | 
 | Leftovers 100.000%                     | 
 +----------------------------------------+ 
 | Spreads                                | 
 | Hardy:252/0/216/0/40/0 58.193%         | 
 | Hardy:252/0/212/0/40/0 41.807%         | 
 +----------------------------------------+ 
 | Moves                                  | 
 | Toxic 100.000%                         | 
 | Protect 100.000%                       | 
 | Rest 100.000%                          | 
 | Withdraw 100.000%                      | 
 +----------------------------------------+ 
 | Teammates                              | 
 | Hitmontop +21.005%                     | 
 | Mr. Mime +21.005%                      | 
 | Absol +21.005%                         | 
 | Lapras +21.005%                        | 
 | Ampharos +21.005%                      | 
 +----------------------------------------+ 
 | Checks and Counters                    | 
 +----------------------------------------+ 
 +----------------------------------------+ 
 | Lapras                                 | 
 +----------------------------------------+ 
 | Raw count: 2                           | 
 | Avg. weight: 0.319520516334            | 
 +----------------------------------------+ 
 | Abilities                              | 
 | Water Absorb 100.000%                  | 
 +----------------------------------------+ 
 | Items                                  | 
 | Leftovers 100.000%                     | 
 +----------------------------------------+ 
 | Spreads                                | 
 | Modest:252/0/0/140/116/0 58.193%       | 
 | Modest:252/0/0/128/128/0 41.807%       | 
 +----------------------------------------+ 
 | Moves                                  | 
 | Roar 100.000%                          | 
 | Surf 100.000%                          | 
 | Thunderbolt 100.000%                   | 
 | Ice Beam 100.000%                      | 
 +----------------------------------------+ 
 | Teammates                              | 
 | Hitmontop +21.005%                     | 
 | Mr. Mime +21.005%                      | 
 | Absol +21.005%                         | 
 | Shuckle +21.005%                       | 
 | Ampharos +21.005%                      | 
 +----------------------------------------+ 
 | Checks and Counters                    | 
 +----------------------------------------+ 
 +----------------------------------------+ 
 | Ampharos                               | 
 +----------------------------------------+ 
 | Raw count: 2                           | 
 | Avg. weight: 0.319520516334            | 
 +----------------------------------------+ 
 | Abilities                              | 
 | Static 100.000%                        | 
 +----------------------------------------+ 
 | Items                                  | 
 | Sitrus Berry 100.000%                  | 
 +----------------------------------------+ 
 | Spreads                                | 
 | Modest:136/0/0/252/120/0 100.000%      | 
 +----------------------------------------+ 
 | Moves                                  | 
 | Thunder Wave 100.000%                  | 
 | Light Screen 100.000%                  | 
 | Thunderbolt 100.000%                   | 
 | Heal Bell 100.000%                     | 
 +----------------------------------------+ 
 | Teammates                              | 
 | Hitmontop +21.005%                     | 
 | Mr. Mime +21.005%                      | 
 | Absol +21.005%                         | 
 | Shuckle +21.005%                       | 
 | Lapras +21.005%                        | 
 +----------------------------------------+ 
 | Checks and Counters                    | 
 +----------------------------------------+ 
 +----------------------------------------+ 
 | Hitmontop                              | 
 +----------------------------------------+ 
 | Raw count: 2                           | 
 | Avg. weight: 0.319520516334            | 
 +----------------------------------------+ 
 | Abilities                              | 
 | Intimidate 100.000%                    | 
 +----------------------------------------+ 
 | Items                                  | 
 | Salac Berry 100.000%                   | 
 +----------------------------------------+ 
 | Spreads                                | 
 | Adamant:252/252/0/0/0/0 100.000%       | 
 +----------------------------------------+ 
 | Moves                                  | 
 | Mach Punch 100.000%                    | 
 | Earthquake 100.000%                    | 
 | Fake Out 100.000%                      | 
 | Rock Slide 100.000%                    | 
 +----------------------------------------+ 
 | Teammates                              | 
 | Ampharos +21.005%                      | 
 | Mr. Mime +21.005%                      | 
 | Absol +21.005%                         | 
 | Shuckle +21.005%                       | 
 | Lapras +21.005%                        | 
 +----------------------------------------+ 
 | Checks and Counters                    | 
 +----------------------------------------+ 
 +----------------------------------------+ 
 | Mr. Mime                               | 
 +----------------------------------------+ 
 | Raw count: 1                           | 
 | Avg. weight: 0.371877198461            | 
 +----------------------------------------+ 
 | Abilities                              | 
 | Soundproof 100.000%                    | 
 +----------------------------------------+ 
 | Items                                  | 
 | Sitrus Berry 100.000%                  | 
 +----------------------------------------+ 
 | Spreads                                | 
 | Calm:252/0/0/108/148/0 100.000%        | 
 +----------------------------------------+ 
 | Moves                                  | 
 | Reflect 100.000%                       | 
 | Taunt 100.000%                         | 
 | Psychic 100.000%                       | 
 | Calm Mind 100.000%                     | 
 +----------------------------------------+ 
 | Teammates                              | 
 | Hitmontop +62.812%                     | 
 | Lapras +62.812%                        | 
 | Absol +62.812%                         | 
 | Shuckle +62.812%                       | 
 | Ampharos +62.812%                      | 
 +----------------------------------------+ 
 | Checks and Counters                    | 
 +----------------------------------------+ 
 +----------------------------------------+ 
 | Absol                                  | 
 +----------------------------------------+ 
 | Raw count: 2                           | 
 | Avg. weight: 0.319520516334            | 
 +----------------------------------------+ 
 | Abilities                              | 
 | Pressure 100.000%                      | 
 +----------------------------------------+ 
 | Items                                  | 
 | Choice Band 100.000%                   | 
 +----------------------------------------+ 
 | Spreads                                | 
 | Adamant:4/252/0/0/0/252 100.000%       | 
 +----------------------------------------+ 
 | Moves                                  | 
 | Bite 100.000%                          | 
 | Aerial Ace 100.000%                    | 
 | Double-Edge 100.000%                   | 
 | X-Scissor 58.193%                      | 
 | Megahorn 41.807%                       | 
 +----------------------------------------+ 
 | Teammates                              | 
 | Hitmontop +21.005%                     | 
 | Mr. Mime +21.005%                      | 
 | Lapras +21.005%                        | 
 | Shuckle +21.005%                       | 
 | Ampharos +21.005%                      | 
 +----------------------------------------+ 
 | Checks and Counters                    | 
 +----------------------------------------+ 
