 +----------------------------------------+ 
 | Kyogre                                 | 
 +----------------------------------------+ 
 | Raw count: 6                           | 
 | Avg. weight: 1.0                       | 
 +----------------------------------------+ 
 | Abilities                              | 
 | Drizzle 100.000%                       | 
 +----------------------------------------+ 
 | Items                                  | 
 | Nothing 33.333%                        | 
 | Lum Berry 33.333%                      | 
 | Leftovers 16.667%                      | 
 | Choice Scarf 16.667%                   | 
 +----------------------------------------+ 
 | Spreads                                | 
 | Modest:0/0/0/252/4/252 33.333%         | 
 | Hardy:0/0/0/0/0/0 33.333%              | 
 | Timid:4/0/0/252/0/252 16.667%          | 
 | Timid:0/0/0/0/0/0 16.667%              | 
 +----------------------------------------+ 
 | Moves                                  | 
 | Nothing 83.333%                        | 
 | Ice Beam 66.667%                       | 
 | Thunder 66.667%                        | 
 | Surf 50.000%                           | 
 | Calm Mind 50.000%                      | 
 | Aqua Tail 33.333%                      | 
 | Hydro Pump 33.333%                     | 
 | Other 16.667%                          | 
 +----------------------------------------+ 
 | Teammates                              | 
 | Deoxys-Attack +8.333%                  | 
 | Spearow +4.167%                        | 
 | Kabutops +4.167%                       | 
 | Wobbuffet +4.167%                      | 
 | Aerodactyl +4.167%                     | 
 | Rhyhorn +4.167%                        | 
 | Latias +4.167%                         | 
 | Darkrai +4.167%                        | 
 | Tauros +4.167%                         | 
 | Charizard +4.167%                      | 
 | Stunky +4.167%                         | 
 | Groudon +4.167%                        | 
 +----------------------------------------+ 
 | Checks and Counters                    | 
 +----------------------------------------+ 
 +----------------------------------------+ 
 | Lucario                                | 
 +----------------------------------------+ 
 | Raw count: 4                           | 
 | Avg. weight: 1.0                       | 
 +----------------------------------------+ 
 | Abilities                              | 
 | Inner Focus 50.000%                    | 
 | Steadfast 50.000%                      | 
 +----------------------------------------+ 
 | Items                                  | 
 | Choice Band 50.000%                    | 
 | Life Orb 25.000%                       | 
 | Black Belt 25.000%                     | 
 +----------------------------------------+ 
 | Spreads                                | 
 | Adamant:0/252/0/0/4/252 25.000%        | 
 | Hardy:0/0/0/0/0/0 25.000%              | 
 | Hasty:0/252/0/0/0/252 25.000%          | 
 | Hardy:0/252/0/6/252/0 25.000%          | 
 +----------------------------------------+ 
 | Moves                                  | 
 | Aura Sphere 75.000%                    | 
 | Dragon Pulse 50.000%                   | 
 | Psychic 50.000%                        | 
 | Close Combat 50.000%                   | 
 | Swords Dance 50.000%                   | 
 | Earthquake 50.000%                     | 
 | Crunch 25.000%                         | 
 | Flash Cannon 25.000%                   | 
 | Extreme Speed 25.000%                  | 
 +----------------------------------------+ 
 | Teammates                              | 
 | Giratina-Origin +25.000%               | 
 | Milotic +12.500%                       | 
 | Togekiss +12.500%                      | 
 | Spiritomb +12.500%                     | 
 | Mewtwo +12.500%                        | 
 | Lapras +12.500%                        | 
 | Absol +12.500%                         | 
 | Garchomp +12.500%                      | 
 | Roserade +12.500%                      | 
 | Dialga +12.500%                        | 
 | Deoxys-Speed +12.500%                  | 
 +----------------------------------------+ 
 | Checks and Counters                    | 
 +----------------------------------------+ 
 +----------------------------------------+ 
 | Rayquaza                               | 
 +----------------------------------------+ 
 | Raw count: 4                           | 
 | Avg. weight: 1.0                       | 
 +----------------------------------------+ 
 | Abilities                              | 
 | Air Lock 100.000%                      | 
 +----------------------------------------+ 
 | Items                                  | 
 | Life Orb 100.000%                      | 
 +----------------------------------------+ 
 | Spreads                                | 
 | Mild:0/40/0/252/0/216 50.000%          | 
 | Adamant:0/0/0/0/0/0 25.000%            | 
 | Naive:0/4/0/252/0/252 25.000%          | 
 +----------------------------------------+ 
 | Moves                                  | 
 | Extreme Speed 100.000%                 | 
 | Earthquake 100.000%                    | 
 | Fire Blast 75.000%                     | 
 | Draco Meteor 75.000%                   | 
 | Overheat 25.000%                       | 
 | Dragon Claw 25.000%                    | 
 +----------------------------------------+ 
 | Teammates                              | 
 | Jirachi +25.000%                       | 
 | Kabutops +12.500%                      | 
 | Giratina +12.500%                      | 
 | Aerodactyl +12.500%                    | 
 | Latias +12.500%                        | 
 | Dialga +12.500%                        | 
 | Groudon +12.500%                       | 
 | Palkia +12.500%                        | 
 | Deoxys-Speed +12.500%                  | 
 +----------------------------------------+ 
 | Checks and Counters                    | 
 +----------------------------------------+ 
 +----------------------------------------+ 
 | Garchomp                               | 
 +----------------------------------------+ 
 | Raw count: 4                           | 
 | Avg. weight: 1.0                       | 
 +----------------------------------------+ 
 | Abilities                              | 
 | Sand Veil 100.000%                     | 
 +----------------------------------------+ 
 | Items                                  | 
 | Sitrus Berry 50.000%                   | 
 | Dragon Fang 25.000%                    | 
 | Choice Band 25.000%                    | 
 +----------------------------------------+ 
 | Spreads                                | 
 | Jolly:4/252/0/0/0/252 25.000%          | 
 | Jolly:0/252/0/0/4/252 25.000%          | 
 | Hardy:0/252/0/4/0/252 25.000%          | 
 | Hardy:0/0/0/0/0/0 25.000%              | 
 +----------------------------------------+ 
 | Moves                                  | 
 | Earthquake 100.000%                    | 
 | Dragon Rush 50.000%                    | 
 | Brick Break 50.000%                    | 
 | Giga Impact 50.000%                    | 
 | Outrage 50.000%                        | 
 | Dragon Claw 50.000%                    | 
 | Stone Edge 25.000%                     | 
 | Stealth Rock 25.000%                   | 
 +----------------------------------------+ 
 | Teammates                              | 
 | Milotic +12.500%                       | 
 | Wobbuffet +12.500%                     | 
 | Togekiss +12.500%                      | 
 | Spiritomb +12.500%                     | 
 | Mewtwo +12.500%                        | 
 | Lapras +12.500%                        | 
 | Absol +12.500%                         | 
 | Lucario +12.500%                       | 
 | Roserade +12.500%                      | 
 | Darkrai +12.500%                       | 
 | Kingdra +12.500%                       | 
 +----------------------------------------+ 
 | Checks and Counters                    | 
 +----------------------------------------+ 
 +----------------------------------------+ 
 | Giratina-Origin                        | 
 +----------------------------------------+ 
 | Raw count: 2                           | 
 | Avg. weight: 1.0                       | 
 +----------------------------------------+ 
 | Abilities                              | 
 | Levitate 100.000%                      | 
 +----------------------------------------+ 
 | Items                                  | 
 | Griseous Orb 100.000%                  | 
 +----------------------------------------+ 
 | Spreads                                | 
 | Adamant:248/80/0/24/0/0 50.000%        | 
 | Naive:0/60/0/252/0/196 50.000%         | 
 +----------------------------------------+ 
 | Moves                                  | 
 | Dragon Pulse 100.000%                  | 
 | Calm Mind 50.000%                      | 
 | Aura Sphere 50.000%                    | 
 | Shadow Ball 50.000%                    | 
 | Shadow Force 50.000%                   | 
 | Shadow Sneak 50.000%                   | 
 | Draco Meteor 50.000%                   | 
 +----------------------------------------+ 
 | Teammates                              | 
 | Lucario +62.500%                       | 
 | Mewtwo +37.500%                        | 
 | Lapras +37.500%                        | 
 | Absol +37.500%                         | 
 | Dialga +37.500%                        | 
 | Deoxys-Speed +37.500%                  | 
 | Jirachi +25.000%                       | 
 | Rayquaza +12.500%                      | 
 | Garchomp +12.500%                      | 
 +----------------------------------------+ 
 | Checks and Counters                    | 
 +----------------------------------------+ 
 +----------------------------------------+ 
 | Deoxys-Attack                          | 
 +----------------------------------------+ 
 | Raw count: 3                           | 
 | Avg. weight: 1.0                       | 
 +----------------------------------------+ 
 | Abilities                              | 
 | Pressure 100.000%                      | 
 +----------------------------------------+ 
 | Items                                  | 
 | Focus Sash 66.667%                     | 
 | Life Orb 33.333%                       | 
 +----------------------------------------+ 
 | Spreads                                | 
 | Mild:0/20/0/252/0/236 66.667%          | 
 | Naive:0/4/0/252/0/252 33.333%          | 
 +----------------------------------------+ 
 | Moves                                  | 
 | Shadow Ball 100.000%                   | 
 | Superpower 100.000%                    | 
 | Extreme Speed 66.667%                  | 
 | Stealth Rock 66.667%                   | 
 | Thunder 33.333%                        | 
 | Ice Beam 33.333%                       | 
 +----------------------------------------+ 
 | Teammates                              | 
 | Kabutops +20.833%                      | 
 | Wobbuffet +20.833%                     | 
 | Latias +20.833%                        | 
 | Darkrai +20.833%                       | 
 | Kingdra +20.833%                       | 
 | Kyogre +16.667%                        | 
 | Jirachi +8.333%                        | 
 +----------------------------------------+ 
 | Checks and Counters                    | 
 +----------------------------------------+ 
 +----------------------------------------+ 
 | Jirachi                                | 
 +----------------------------------------+ 
 | Raw count: 3                           | 
 | Avg. weight: 1.0                       | 
 +----------------------------------------+ 
 | Abilities                              | 
 | Serene Grace 100.000%                  | 
 +----------------------------------------+ 
 | Items                                  | 
 | Leftovers 66.667%                      | 
 | Choice Scarf 33.333%                   | 
 +----------------------------------------+ 
 | Spreads                                | 
 | Careful:240/0/0/0/232/36 66.667%       | 
 | Hasty:0/252/0/0/4/252 33.333%          | 
 +----------------------------------------+ 
 | Moves                                  | 
 | Iron Head 100.000%                     | 
 | Protect 66.667%                        | 
 | Wish 66.667%                           | 
 | Body Slam 66.667%                      | 
 | U-turn 33.333%                         | 
 | Trick 33.333%                          | 
 | Draco Meteor 33.333%                   | 
 +----------------------------------------+ 
 | Teammates                              | 
 | Rayquaza +29.167%                      | 
 | Kabutops +20.833%                      | 
 | Latias +20.833%                        | 
 | Dialga +20.833%                        | 
 | Deoxys-Speed +20.833%                  | 
 | Giratina-Origin +8.333%                | 
 | Deoxys-Attack +8.333%                  | 
 +----------------------------------------+ 
 | Checks and Counters                    | 
 +----------------------------------------+ 
 +----------------------------------------+ 
 | Palkia                                 | 
 +----------------------------------------+ 
 | Raw count: 1                           | 
 | Avg. weight: 1.0                       | 
 +----------------------------------------+ 
 | Abilities                              | 
 | Pressure 100.000%                      | 
 +----------------------------------------+ 
 | Items                                  | 
 | Lustrous Orb 100.000%                  | 
 +----------------------------------------+ 
 | Spreads                                | 
 | Modest:0/0/0/0/0/0 100.000%            | 
 +----------------------------------------+ 
 | Moves                                  | 
 | Surf 100.000%                          | 
 | Fire Blast 100.000%                    | 
 | Blizzard 100.000%                      | 
 | Spacial Rend 100.000%                  | 
 +----------------------------------------+ 
 | Teammates                              | 
 | Groudon +87.500%                       | 
 | Giratina +87.500%                      | 
 | Aerodactyl +87.500%                    | 
 | Rayquaza +62.500%                      | 
 | Kyogre +50.000%                        | 
 +----------------------------------------+ 
 | Checks and Counters                    | 
 +----------------------------------------+ 
 +----------------------------------------+ 
 | Tauros                                 | 
 +----------------------------------------+ 
 | Raw count: 2                           | 
 | Avg. weight: 1.0                       | 
 +----------------------------------------+ 
 | Abilities                              | 
 | Intimidate 100.000%                    | 
 +----------------------------------------+ 
 | Items                                  | 
 | Nothing 100.000%                       | 
 +----------------------------------------+ 
 | Spreads                                | 
 | Hardy:0/0/0/0/0/0 50.000%              | 
 | Hardy:248/0/0/8/252/0 50.000%          | 
 +----------------------------------------+ 
 | Moves                                  | 
 | Nothing 200.000%                       | 
 | Facade 100.000%                        | 
 | Frustration 100.000%                   | 
 +----------------------------------------+ 
 | Teammates                              | 
 | Spearow +37.500%                       | 
 | Rhyhorn +37.500%                       | 
 | Charizard +37.500%                     | 
 | Stunky +37.500%                        | 
 +----------------------------------------+ 
 | Checks and Counters                    | 
 +----------------------------------------+ 
 +----------------------------------------+ 
 | Spiritomb                              | 
 +----------------------------------------+ 
 | Raw count: 3                           | 
 | Avg. weight: 1.0                       | 
 +----------------------------------------+ 
 | Abilities                              | 
 | Pressure 100.000%                      | 
 +----------------------------------------+ 
 | Items                                  | 
 | Leftovers 66.667%                      | 
 | Lum Berry 33.333%                      | 
 +----------------------------------------+ 
 | Spreads                                | 
 | Hardy:0/0/0/0/0/0 66.667%              | 
 | Hardy:0/0/252/252/4/0 33.333%          | 
 +----------------------------------------+ 
 | Moves                                  | 
 | Dark Pulse 100.000%                    | 
 | Psychic 100.000%                       | 
 | Ominous Wind 66.667%                   | 
 | Silver Wind 66.667%                    | 
 | Shadow Ball 33.333%                    | 
 | Nasty Plot 33.333%                     | 
 +----------------------------------------+ 
 | Teammates                              | 
 | Togekiss +20.833%                      | 
 | Milotic +20.833%                       | 
 | Roserade +20.833%                      | 
 +----------------------------------------+ 
 | Checks and Counters                    | 
 +----------------------------------------+ 
 +----------------------------------------+ 
 | Mewtwo                                 | 
 +----------------------------------------+ 
 | Raw count: 1                           | 
 | Avg. weight: 1.0                       | 
 +----------------------------------------+ 
 | Abilities                              | 
 | Pressure 100.000%                      | 
 +----------------------------------------+ 
 | Items                                  | 
 | Odd Incense 100.000%                   | 
 +----------------------------------------+ 
 | Spreads                                | 
 | Timid:0/0/0/252/4/252 100.000%         | 
 +----------------------------------------+ 
 | Moves                                  | 
 | Reflect 100.000%                       | 
 | Calm Mind 100.000%                     | 
 | Psychic 100.000%                       | 
 | Thunderbolt 100.000%                   | 
 +----------------------------------------+ 
 | Teammates                              | 
 | Lapras +87.500%                        | 
 | Absol +87.500%                         | 
 | Giratina-Origin +75.000%               | 
 | Garchomp +62.500%                      | 
 | Lucario +62.500%                       | 
 +----------------------------------------+ 
 | Checks and Counters                    | 
 +----------------------------------------+ 
 +----------------------------------------+ 
 | Deoxys-Speed                           | 
 +----------------------------------------+ 
 | Raw count: 1                           | 
 | Avg. weight: 1.0                       | 
 +----------------------------------------+ 
 | Abilities                              | 
 | Pressure 100.000%                      | 
 +----------------------------------------+ 
 | Items                                  | 
 | Focus Sash 100.000%                    | 
 +----------------------------------------+ 
 | Spreads                                | 
 | Rash:0/80/0/252/0/176 100.000%         | 
 +----------------------------------------+ 
 | Moves                                  | 
 | Shadow Ball 100.000%                   | 
 | Spikes 100.000%                        | 
 | Hidden Power Fire 100.000%             | 
 | Extreme Speed 100.000%                 | 
 +----------------------------------------+ 
 | Teammates                              | 
 | Dialga +87.500%                        | 
 | Jirachi +75.000%                       | 
 | Giratina-Origin +75.000%               | 
 | Rayquaza +62.500%                      | 
 | Lucario +62.500%                       | 
 +----------------------------------------+ 
 | Checks and Counters                    | 
 +----------------------------------------+ 
 +----------------------------------------+ 
 | Giratina                               | 
 +----------------------------------------+ 
 | Raw count: 4                           | 
 | Avg. weight: 1.0                       | 
 +----------------------------------------+ 
 | Abilities                              | 
 | Pressure 100.000%                      | 
 +----------------------------------------+ 
 | Items                                  | 
 | Leftovers 75.000%                      | 
 | Chesto Berry 25.000%                   | 
 +----------------------------------------+ 
 | Spreads                                | 
 | Bold:252/0/252/4/0/0 75.000%           | 
 | Quirky:0/0/0/0/0/0 25.000%             | 
 +----------------------------------------+ 
 | Moves                                  | 
 | Will-O-Wisp 100.000%                   | 
 | Dragon Pulse 75.000%                   | 
 | Calm Mind 75.000%                      | 
 | Shadow Ball 75.000%                    | 
 | Rest 25.000%                           | 
 | Toxic 25.000%                          | 
 | Dragon Claw 25.000%                    | 
 +----------------------------------------+ 
 | Teammates                              | 
 | Groudon +12.500%                       | 
 | Palkia +12.500%                        | 
 | Aerodactyl +12.500%                    | 
 +----------------------------------------+ 
 | Checks and Counters                    | 
 +----------------------------------------+ 
 +----------------------------------------+ 
 | Charizard                              | 
 +----------------------------------------+ 
 | Raw count: 2                           | 
 | Avg. weight: 1.0                       | 
 +----------------------------------------+ 
 | Abilities                              | 
 | Blaze 100.000%                         | 
 +----------------------------------------+ 
 | Items                                  | 
 | Nothing 100.000%                       | 
 +----------------------------------------+ 
 | Spreads                                | 
 | Hardy:0/0/0/0/0/0 100.000%             | 
 +----------------------------------------+ 
 | Moves                                  | 
 | Fire Blast 100.000%                    | 
 | Overheat 100.000%                      | 
 | Fire Fang 100.000%                     | 
 | Nothing 100.000%                       | 
 +----------------------------------------+ 
 | Teammates                              | 
 | Spearow +37.500%                       | 
 | Rhyhorn +37.500%                       | 
 | Tauros +37.500%                        | 
 | Stunky +37.500%                        | 
 +----------------------------------------+ 
 | Checks and Counters                    | 
 +----------------------------------------+ 
 +----------------------------------------+ 
 | Absol                                  | 
 +----------------------------------------+ 
 | Raw count: 1                           | 
 | Avg. weight: 1.0                       | 
 +----------------------------------------+ 
 | Abilities                              | 
 | Super Luck 100.000%                    | 
 +----------------------------------------+ 
 | Items                                  | 
 | Black Glasses 100.000%                 | 
 +----------------------------------------+ 
 | Spreads                                | 
 | Jolly:0/252/0/0/4/252 100.000%         | 
 +----------------------------------------+ 
 | Moves                                  | 
 | Swords Dance 100.000%                  | 
 | Perish Song 100.000%                   | 
 | Night Slash 100.000%                   | 
 | Sucker Punch 100.000%                  | 
 +----------------------------------------+ 
 | Teammates                              | 
 | Lapras +87.500%                        | 
 | Mewtwo +87.500%                        | 
 | Giratina-Origin +75.000%               | 
 | Garchomp +62.500%                      | 
 | Lucario +62.500%                       | 
 +----------------------------------------+ 
 | Checks and Counters                    | 
 +----------------------------------------+ 
 +----------------------------------------+ 
 | Skarmory                               | 
 +----------------------------------------+ 
 | Raw count: 1                           | 
 | Avg. weight: 1.0                       | 
 +----------------------------------------+ 
 | Abilities                              | 
 | Sturdy 100.000%                        | 
 +----------------------------------------+ 
 | Items                                  | 
 | Shed Shell 100.000%                    | 
 +----------------------------------------+ 
 | Spreads                                | 
 | Impish:252/0/252/0/4/0 100.000%        | 
 +----------------------------------------+ 
 | Moves                                  | 
 | Spikes 100.000%                        | 
 | Roost 100.000%                         | 
 | Brave Bird 100.000%                    | 
 | Whirlwind 100.000%                     | 
 +----------------------------------------+ 
 | Teammates                              | 
 | Azelf +87.500%                         | 
 | Blissey +87.500%                       | 
 | Electivire +87.500%                    | 
 | Gyarados +87.500%                      | 
 | Gengar +87.500%                        | 
 +----------------------------------------+ 
 | Checks and Counters                    | 
 +----------------------------------------+ 
 +----------------------------------------+ 
 | Blissey                                | 
 +----------------------------------------+ 
 | Raw count: 1                           | 
 | Avg. weight: 1.0                       | 
 +----------------------------------------+ 
 | Abilities                              | 
 | Natural Cure 100.000%                  | 
 +----------------------------------------+ 
 | Items                                  | 
 | Leftovers 100.000%                     | 
 +----------------------------------------+ 
 | Spreads                                | 
 | Bold:252/0/252/0/4/0 100.000%          | 
 +----------------------------------------+ 
 | Moves                                  | 
 | Toxic 100.000%                         | 
 | Wish 100.000%                          | 
 | Protect 100.000%                       | 
 | Seismic Toss 100.000%                  | 
 +----------------------------------------+ 
 | Teammates                              | 
 | Azelf +87.500%                         | 
 | Gyarados +87.500%                      | 
 | Electivire +87.500%                    | 
 | Gengar +87.500%                        | 
 | Skarmory +87.500%                      | 
 +----------------------------------------+ 
 | Checks and Counters                    | 
 +----------------------------------------+ 
 +----------------------------------------+ 
 | Kabutops                               | 
 +----------------------------------------+ 
 | Raw count: 2                           | 
 | Avg. weight: 1.0                       | 
 +----------------------------------------+ 
 | Abilities                              | 
 | Swift Swim 100.000%                    | 
 +----------------------------------------+ 
 | Items                                  | 
 | Life Orb 100.000%                      | 
 +----------------------------------------+ 
 | Spreads                                | 
 | Adamant:0/252/0/0/4/252 100.000%       | 
 +----------------------------------------+ 
 | Moves                                  | 
 | Swords Dance 100.000%                  | 
 | Waterfall 100.000%                     | 
 | Stone Edge 100.000%                    | 
 | Rapid Spin 100.000%                    | 
 +----------------------------------------+ 
 | Teammates                              | 
 | Latias +37.500%                        | 
 | Jirachi +25.000%                       | 
 | Deoxys-Attack +25.000%                 | 
 | Rayquaza +12.500%                      | 
 +----------------------------------------+ 
 | Checks and Counters                    | 
 +----------------------------------------+ 
 +----------------------------------------+ 
 | Milotic                                | 
 +----------------------------------------+ 
 | Raw count: 2                           | 
 | Avg. weight: 1.0                       | 
 +----------------------------------------+ 
 | Abilities                              | 
 | Marvel Scale 100.000%                  | 
 +----------------------------------------+ 
 | Items                                  | 
 | Leftovers 100.000%                     | 
 +----------------------------------------+ 
 | Spreads                                | 
 | Hardy:0/4/0/252/252/0 50.000%          | 
 | Hardy:0/0/0/0/0/0 50.000%              | 
 +----------------------------------------+ 
 | Moves                                  | 
 | Surf 100.000%                          | 
 | Ice Beam 100.000%                      | 
 | Dragon Pulse 50.000%                   | 
 | Aqua Ring 50.000%                      | 
 | Hydro Pump 50.000%                     | 
 | Recover 50.000%                        | 
 +----------------------------------------+ 
 | Teammates                              | 
 | Togekiss +37.500%                      | 
 | Spiritomb +37.500%                     | 
 | Roserade +37.500%                      | 
 | Lucario +12.500%                       | 
 | Garchomp +12.500%                      | 
 +----------------------------------------+ 
 | Checks and Counters                    | 
 +----------------------------------------+ 
 +----------------------------------------+ 
 | Aerodactyl                             | 
 +----------------------------------------+ 
 | Raw count: 1                           | 
 | Avg. weight: 1.0                       | 
 +----------------------------------------+ 
 | Abilities                              | 
 | Rock Head 100.000%                     | 
 +----------------------------------------+ 
 | Items                                  | 
 | Focus Sash 100.000%                    | 
 +----------------------------------------+ 
 | Spreads                                | 
 | Jolly:0/0/0/0/0/0 100.000%             | 
 +----------------------------------------+ 
 | Moves                                  | 
 | Taunt 100.000%                         | 
 | Earthquake 100.000%                    | 
 | Stone Edge 100.000%                    | 
 | Stealth Rock 100.000%                  | 
 +----------------------------------------+ 
 | Teammates                              | 
 | Groudon +87.500%                       | 
 | Giratina +87.500%                      | 
 | Palkia +87.500%                        | 
 | Rayquaza +62.500%                      | 
 | Kyogre +50.000%                        | 
 +----------------------------------------+ 
 | Checks and Counters                    | 
 +----------------------------------------+ 
 +----------------------------------------+ 
 | Gyarados                               | 
 +----------------------------------------+ 
 | Raw count: 5                           | 
 | Avg. weight: 1.0                       | 
 +----------------------------------------+ 
 | Abilities                              | 
 | Intimidate 100.000%                    | 
 +----------------------------------------+ 
 | Items                                  | 
 | Leftovers 80.000%                      | 
 | Expert Belt 20.000%                    | 
 +----------------------------------------+ 
 | Spreads                                | 
 | Adamant:0/252/0/0/4/252 60.000%        | 
 | Adamant:248/252/0/0/8/0 20.000%        | 
 | Adamant:156/72/96/0/0/184 20.000%      | 
 +----------------------------------------+ 
 | Moves                                  | 
 | Stone Edge 100.000%                    | 
 | Dragon Dance 80.000%                   | 
 | Waterfall 80.000%                      | 
 | Earthquake 80.000%                     | 
 | Aqua Tail 20.000%                      | 
 | Taunt 20.000%                          | 
 | Other 20.000%                          | 
 +----------------------------------------+ 
 | Teammates                              | 
 | Azelf +7.500%                          | 
 | Blissey +7.500%                        | 
 | Electivire +7.500%                     | 
 | Gengar +7.500%                         | 
 | Skarmory +7.500%                       | 
 +----------------------------------------+ 
 | Checks and Counters                    | 
 +----------------------------------------+ 
 +----------------------------------------+ 
 | Rhyhorn                                | 
 +----------------------------------------+ 
 | Raw count: 1                           | 
 | Avg. weight: 1.0                       | 
 +----------------------------------------+ 
 | Abilities                              | 
 | Lightning Rod 100.000%                 | 
 +----------------------------------------+ 
 | Items                                  | 
 | Nothing 100.000%                       | 
 +----------------------------------------+ 
 | Spreads                                | 
 | Hardy:0/0/0/0/0/0 100.000%             | 
 +----------------------------------------+ 
 | Moves                                  | 
 | Nothing 300.000%                       | 
 | Take Down 100.000%                     | 
 +----------------------------------------+ 
 | Teammates                              | 
 | Spearow +87.500%                       | 
 | Tauros +87.500%                        | 
 | Charizard +87.500%                     | 
 | Stunky +87.500%                        | 
 | Kyogre +50.000%                        | 
 +----------------------------------------+ 
 | Checks and Counters                    | 
 +----------------------------------------+ 
 +----------------------------------------+ 
 | Latias                                 | 
 +----------------------------------------+ 
 | Raw count: 2                           | 
 | Avg. weight: 1.0                       | 
 +----------------------------------------+ 
 | Abilities                              | 
 | Levitate 100.000%                      | 
 +----------------------------------------+ 
 | Items                                  | 
 | Soul Dew 100.000%                      | 
 +----------------------------------------+ 
 | Spreads                                | 
 | Timid:0/0/0/252/4/252 100.000%         | 
 +----------------------------------------+ 
 | Moves                                  | 
 | Thunder 100.000%                       | 
 | Recover 100.000%                       | 
 | Calm Mind 100.000%                     | 
 | Dragon Pulse 100.000%                  | 
 +----------------------------------------+ 
 | Teammates                              | 
 | Kabutops +37.500%                      | 
 | Deoxys-Attack +25.000%                 | 
 | Jirachi +25.000%                       | 
 | Rayquaza +12.500%                      | 
 +----------------------------------------+ 
 | Checks and Counters                    | 
 +----------------------------------------+ 
 +----------------------------------------+ 
 | Lapras                                 | 
 +----------------------------------------+ 
 | Raw count: 1                           | 
 | Avg. weight: 1.0                       | 
 +----------------------------------------+ 
 | Abilities                              | 
 | Water Absorb 100.000%                  | 
 +----------------------------------------+ 
 | Items                                  | 
 | Never-Melt Ice 100.000%                | 
 +----------------------------------------+ 
 | Spreads                                | 
 | Modest:248/0/0/252/8/0 100.000%        | 
 +----------------------------------------+ 
 | Moves                                  | 
 | Surf 100.000%                          | 
 | Hydro Pump 100.000%                    | 
 | Blizzard 100.000%                      | 
 | Ice Beam 100.000%                      | 
 +----------------------------------------+ 
 | Teammates                              | 
 | Absol +87.500%                         | 
 | Mewtwo +87.500%                        | 
 | Giratina-Origin +75.000%               | 
 | Garchomp +62.500%                      | 
 | Lucario +62.500%                       | 
 +----------------------------------------+ 
 | Checks and Counters                    | 
 +----------------------------------------+ 
 +----------------------------------------+ 
 | Stunky                                 | 
 +----------------------------------------+ 
 | Raw count: 1                           | 
 | Avg. weight: 1.0                       | 
 +----------------------------------------+ 
 | Abilities                              | 
 | Stench 100.000%                        | 
 +----------------------------------------+ 
 | Items                                  | 
 | Nothing 100.000%                       | 
 +----------------------------------------+ 
 | Spreads                                | 
 | Hardy:0/0/0/0/0/0 100.000%             | 
 +----------------------------------------+ 
 | Moves                                  | 
 | Nothing 300.000%                       | 
 | Slash 100.000%                         | 
 +----------------------------------------+ 
 | Teammates                              | 
 | Spearow +87.500%                       | 
 | Rhyhorn +87.500%                       | 
 | Tauros +87.500%                        | 
 | Charizard +87.500%                     | 
 | Kyogre +50.000%                        | 
 +----------------------------------------+ 
 | Checks and Counters                    | 
 +----------------------------------------+ 
 +----------------------------------------+ 
 | Roserade                               | 
 +----------------------------------------+ 
 | Raw count: 2                           | 
 | Avg. weight: 1.0                       | 
 +----------------------------------------+ 
 | Abilities                              | 
 | Natural Cure 100.000%                  | 
 +----------------------------------------+ 
 | Items                                  | 
 | Black Sludge 50.000%                   | 
 | Leftovers 50.000%                      | 
 +----------------------------------------+ 
 | Spreads                                | 
 | Hardy:0/0/4/252/252/0 50.000%          | 
 | Hardy:0/0/0/0/0/0 50.000%              | 
 +----------------------------------------+ 
 | Moves                                  | 
 | Sludge Bomb 100.000%                   | 
 | Shadow Ball 100.000%                   | 
 | Extrasensory 100.000%                  | 
 | Energy Ball 100.000%                   | 
 +----------------------------------------+ 
 | Teammates                              | 
 | Milotic +37.500%                       | 
 | Spiritomb +37.500%                     | 
 | Togekiss +37.500%                      | 
 | Lucario +12.500%                       | 
 | Garchomp +12.500%                      | 
 +----------------------------------------+ 
 | Checks and Counters                    | 
 +----------------------------------------+ 
 +----------------------------------------+ 
 | Groudon                                | 
 +----------------------------------------+ 
 | Raw count: 1                           | 
 | Avg. weight: 1.0                       | 
 +----------------------------------------+ 
 | Abilities                              | 
 | Drought 100.000%                       | 
 +----------------------------------------+ 
 | Items                                  | 
 | Expert Belt 100.000%                   | 
 +----------------------------------------+ 
 | Spreads                                | 
 | Adamant:0/0/0/0/0/0 100.000%           | 
 +----------------------------------------+ 
 | Moves                                  | 
 | Dragon Claw 100.000%                   | 
 | Stone Edge 100.000%                    | 
 | Earthquake 100.000%                    | 
 | Fire Punch 100.000%                    | 
 +----------------------------------------+ 
 | Teammates                              | 
 | Palkia +87.500%                        | 
 | Giratina +87.500%                      | 
 | Aerodactyl +87.500%                    | 
 | Rayquaza +62.500%                      | 
 | Kyogre +50.000%                        | 
 +----------------------------------------+ 
 | Checks and Counters                    | 
 +----------------------------------------+ 
 +----------------------------------------+ 
 | Wobbuffet                              | 
 +----------------------------------------+ 
 | Raw count: 1                           | 
 | Avg. weight: 1.0                       | 
 +----------------------------------------+ 
 | Abilities                              | 
 | Shadow Tag 100.000%                    | 
 +----------------------------------------+ 
 | Items                                  | 
 | Leftovers 100.000%                     | 
 +----------------------------------------+ 
 | Spreads                                | 
 | Calm:28/0/228/0/252/0 100.000%         | 
 +----------------------------------------+ 
 | Moves                                  | 
 | Mirror Coat 100.000%                   | 
 | Counter 100.000%                       | 
 | Safeguard 100.000%                     | 
 | Encore 100.000%                        | 
 +----------------------------------------+ 
 | Teammates                              | 
 | Kingdra +87.500%                       | 
 | Darkrai +87.500%                       | 
 | Deoxys-Attack +75.000%                 | 
 | Garchomp +62.500%                      | 
 | Kyogre +50.000%                        | 
 +----------------------------------------+ 
 | Checks and Counters                    | 
 +----------------------------------------+ 
 +----------------------------------------+ 
 | Spearow                                | 
 +----------------------------------------+ 
 | Raw count: 1                           | 
 | Avg. weight: 1.0                       | 
 +----------------------------------------+ 
 | Abilities                              | 
 | Keen Eye 100.000%                      | 
 +----------------------------------------+ 
 | Items                                  | 
 | Nothing 100.000%                       | 
 +----------------------------------------+ 
 | Spreads                                | 
 | Hardy:0/0/0/0/0/0 100.000%             | 
 +----------------------------------------+ 
 | Moves                                  | 
 | Nothing 200.000%                       | 
 | Defog 100.000%                         | 
 | Aerial Ace 100.000%                    | 
 +----------------------------------------+ 
 | Teammates                              | 
 | Rhyhorn +87.500%                       | 
 | Tauros +87.500%                        | 
 | Charizard +87.500%                     | 
 | Stunky +87.500%                        | 
 | Kyogre +50.000%                        | 
 +----------------------------------------+ 
 | Checks and Counters                    | 
 +----------------------------------------+ 
 +----------------------------------------+ 
 | Electivire                             | 
 +----------------------------------------+ 
 | Raw count: 1                           | 
 | Avg. weight: 1.0                       | 
 +----------------------------------------+ 
 | Abilities                              | 
 | Motor Drive 100.000%                   | 
 +----------------------------------------+ 
 | Items                                  | 
 | Expert Belt 100.000%                   | 
 +----------------------------------------+ 
 | Spreads                                | 
 | Mild:0/40/0/252/0/216 100.000%         | 
 +----------------------------------------+ 
 | Moves                                  | 
 | Flamethrower 100.000%                  | 
 | Thunderbolt 100.000%                   | 
 | Cross Chop 100.000%                    | 
 | Hidden Power Ice 100.000%              | 
 +----------------------------------------+ 
 | Teammates                              | 
 | Azelf +87.500%                         | 
 | Blissey +87.500%                       | 
 | Skarmory +87.500%                      | 
 | Gyarados +87.500%                      | 
 | Gengar +87.500%                        | 
 +----------------------------------------+ 
 | Checks and Counters                    | 
 +----------------------------------------+ 
 +----------------------------------------+ 
 | Togekiss                               | 
 +----------------------------------------+ 
 | Raw count: 2                           | 
 | Avg. weight: 1.0                       | 
 +----------------------------------------+ 
 | Abilities                              | 
 | Hustle 100.000%                        | 
 +----------------------------------------+ 
 | Items                                  | 
 | Nothing 50.000%                        | 
 | Leftovers 50.000%                      | 
 +----------------------------------------+ 
 | Spreads                                | 
 | Hardy:0/0/0/252/6/252 50.000%          | 
 | Hardy:0/0/0/0/0/0 50.000%              | 
 +----------------------------------------+ 
 | Moves                                  | 
 | Aura Sphere 100.000%                   | 
 | Water Pulse 100.000%                   | 
 | Psychic 100.000%                       | 
 | Air Slash 100.000%                     | 
 +----------------------------------------+ 
 | Teammates                              | 
 | Milotic +37.500%                       | 
 | Spiritomb +37.500%                     | 
 | Roserade +37.500%                      | 
 | Lucario +12.500%                       | 
 | Garchomp +12.500%                      | 
 +----------------------------------------+ 
 | Checks and Counters                    | 
 +----------------------------------------+ 
 +----------------------------------------+ 
 | Azelf                                  | 
 +----------------------------------------+ 
 | Raw count: 2                           | 
 | Avg. weight: 1.0                       | 
 +----------------------------------------+ 
 | Abilities                              | 
 | Levitate 100.000%                      | 
 +----------------------------------------+ 
 | Items                                  | 
 | Focus Sash 50.000%                     | 
 | Life Orb 50.000%                       | 
 +----------------------------------------+ 
 | Spreads                                | 
 | Naive:4/0/0/252/0/252 50.000%          | 
 | Timid:0/0/0/252/4/252 50.000%          | 
 +----------------------------------------+ 
 | Moves                                  | 
 | Explosion 50.000%                      | 
 | Taunt 50.000%                          | 
 | Psychic 50.000%                        | 
 | Stealth Rock 50.000%                   | 
 | Shadow Ball 50.000%                    | 
 | Nasty Plot 50.000%                     | 
 | Thunderbolt 50.000%                    | 
 | Fire Blast 50.000%                     | 
 +----------------------------------------+ 
 | Teammates                              | 
 | Electivire +37.500%                    | 
 | Blissey +37.500%                       | 
 | Skarmory +37.500%                      | 
 | Gyarados +37.500%                      | 
 | Gengar +37.500%                        | 
 +----------------------------------------+ 
 | Checks and Counters                    | 
 +----------------------------------------+ 
 +----------------------------------------+ 
 | Gengar                                 | 
 +----------------------------------------+ 
 | Raw count: 1                           | 
 | Avg. weight: 1.0                       | 
 +----------------------------------------+ 
 | Abilities                              | 
 | Levitate 100.000%                      | 
 +----------------------------------------+ 
 | Items                                  | 
 | Choice Scarf 100.000%                  | 
 +----------------------------------------+ 
 | Spreads                                | 
 | Timid:0/0/4/252/0/252 100.000%         | 
 +----------------------------------------+ 
 | Moves                                  | 
 | Focus Blast 100.000%                   | 
 | Shadow Ball 100.000%                   | 
 | Trick 100.000%                         | 
 | Thunderbolt 100.000%                   | 
 +----------------------------------------+ 
 | Teammates                              | 
 | Azelf +87.500%                         | 
 | Blissey +87.500%                       | 
 | Electivire +87.500%                    | 
 | Gyarados +87.500%                      | 
 | Skarmory +87.500%                      | 
 +----------------------------------------+ 
 | Checks and Counters                    | 
 +----------------------------------------+ 
 +----------------------------------------+ 
 | Dialga                                 | 
 +----------------------------------------+ 
 | Raw count: 7                           | 
 | Avg. weight: 1.0                       | 
 +----------------------------------------+ 
 | Abilities                              | 
 | Pressure 100.000%                      | 
 +----------------------------------------+ 
 | Items                                  | 
 | Leftovers 71.429%                      | 
 | Nothing 28.571%                        | 
 +----------------------------------------+ 
 | Spreads                                | 
 | Careful:252/4/0/0/252/0 42.857%        | 
 | Hardy:0/0/0/0/0/0 28.571%              | 
 | Modest:252/0/0/252/4/0 14.286%         | 
 | Timid:0/0/4/252/0/252 14.286%          | 
 +----------------------------------------+ 
 | Moves                                  | 
 | Nothing 85.714%                        | 
 | Bulk Up 42.857%                        | 
 | Rest 42.857%                           | 
 | Sleep Talk 42.857%                     | 
 | Outrage 42.857%                        | 
 | Roar of Time 28.571%                   | 
 | Thunderbolt 14.286%                    | 
 | Dragon Pulse 14.286%                   | 
 | Thunder 14.286%                        | 
 | Flash Cannon 14.286%                   | 
 | Aura Sphere 14.286%                    | 
 | Stealth Rock 14.286%                   | 
 | Fire Blast 14.286%                     | 
 | Other 14.286%                          | 
 +----------------------------------------+ 
 | Teammates                              | 
 | Deoxys-Speed +1.786%                   | 
 +----------------------------------------+ 
 | Checks and Counters                    | 
 +----------------------------------------+ 
 +----------------------------------------+ 
 | Darkrai                                | 
 +----------------------------------------+ 
 | Raw count: 1                           | 
 | Avg. weight: 1.0                       | 
 +----------------------------------------+ 
 | Abilities                              | 
 | Bad Dreams 100.000%                    | 
 +----------------------------------------+ 
 | Items                                  | 
 | Focus Sash 100.000%                    | 
 +----------------------------------------+ 
 | Spreads                                | 
 | Timid:0/0/0/252/4/252 100.000%         | 
 +----------------------------------------+ 
 | Moves                                  | 
 | Dark Void 100.000%                     | 
 | Focus Blast 100.000%                   | 
 | Dark Pulse 100.000%                    | 
 | Nasty Plot 100.000%                    | 
 +----------------------------------------+ 
 | Teammates                              | 
 | Wobbuffet +87.500%                     | 
 | Kingdra +87.500%                       | 
 | Deoxys-Attack +75.000%                 | 
 | Garchomp +62.500%                      | 
 | Kyogre +50.000%                        | 
 +----------------------------------------+ 
 | Checks and Counters                    | 
 +----------------------------------------+ 
 +----------------------------------------+ 
 | Kingdra                                | 
 +----------------------------------------+ 
 | Raw count: 1                           | 
 | Avg. weight: 1.0                       | 
 +----------------------------------------+ 
 | Abilities                              | 
 | Swift Swim 100.000%                    | 
 +----------------------------------------+ 
 | Items                                  | 
 | Life Orb 100.000%                      | 
 +----------------------------------------+ 
 | Spreads                                | 
 | Naughty:0/252/0/80/0/176 100.000%      | 
 +----------------------------------------+ 
 | Moves                                  | 
 | Outrage 100.000%                       | 
 | Dragon Dance 100.000%                  | 
 | Waterfall 100.000%                     | 
 | Draco Meteor 100.000%                  | 
 +----------------------------------------+ 
 | Teammates                              | 
 | Wobbuffet +87.500%                     | 
 | Darkrai +87.500%                       | 
 | Deoxys-Attack +75.000%                 | 
 | Garchomp +62.500%                      | 
 | Kyogre +50.000%                        | 
 +----------------------------------------+ 
 | Checks and Counters                    | 
 +----------------------------------------+ 
