 +----------------------------------------+ 
 | Munchlax                               | 
 +----------------------------------------+ 
 | Raw count: 3                           | 
 | Avg. weight: 0.585415201026            | 
 +----------------------------------------+ 
 | Abilities                              | 
 | Thick Fat 100.000%                     | 
 +----------------------------------------+ 
 | Items                                  | 
 | Oran Berry 100.000%                    | 
 +----------------------------------------+ 
 | Spreads                                | 
 | Careful:236/0/36/0/236/0 64.235%       | 
 | Brave:0/236/36/0/236/0 35.765%         | 
 +----------------------------------------+ 
 | Moves                                  | 
 | Return 100.000%                        | 
 | Fire Punch 100.000%                    | 
 | Earthquake 100.000%                    | 
 | Pursuit 64.235%                        | 
 | Protect 35.765%                        | 
 +----------------------------------------+ 
 | Teammates                              | 
 +----------------------------------------+ 
 | Checks and Counters                    | 
 +----------------------------------------+ 
 +----------------------------------------+ 
 | Carvanha                               | 
 +----------------------------------------+ 
 | Raw count: 1                           | 
 | Avg. weight: 0.628122801539            | 
 +----------------------------------------+ 
 | Abilities                              | 
 | Rough Skin 100.000%                    | 
 +----------------------------------------+ 
 | Items                                  | 
 | Life Orb 100.000%                      | 
 +----------------------------------------+ 
 | Spreads                                | 
 | Adamant:0/236/36/0/0/236 100.000%      | 
 +----------------------------------------+ 
 | Moves                                  | 
 | Crunch 100.000%                        | 
 | Aqua Jet 100.000%                      | 
 | Zen Headbutt 100.000%                  | 
 | Substitute 100.000%                    | 
 +----------------------------------------+ 
 | Teammates                              | 
 | Phanpy +44.321%                        | 
 | Krabby +44.321%                        | 
 | Dratini +44.321%                       | 
 | Gastly +44.321%                        | 
 +----------------------------------------+ 
 | Checks and Counters                    | 
 +----------------------------------------+ 
 +----------------------------------------+ 
 | Gastly                                 | 
 +----------------------------------------+ 
 | Raw count: 1                           | 
 | Avg. weight: 0.628122801539            | 
 +----------------------------------------+ 
 | Abilities                              | 
 | Levitate 100.000%                      | 
 +----------------------------------------+ 
 | Items                                  | 
 | Choice Scarf 100.000%                  | 
 +----------------------------------------+ 
 | Spreads                                | 
 | Rash:36/76/0/196/0/196 100.000%        | 
 +----------------------------------------+ 
 | Moves                                  | 
 | Sludge Bomb 100.000%                   | 
 | Shadow Ball 100.000%                   | 
 | Explosion 100.000%                     | 
 | Hypnosis 100.000%                      | 
 +----------------------------------------+ 
 | Teammates                              | 
 | Carvanha +44.321%                      | 
 | Dratini +44.321%                       | 
 | Krabby +44.321%                        | 
 | Phanpy +44.321%                        | 
 +----------------------------------------+ 
 | Checks and Counters                    | 
 +----------------------------------------+ 
 +----------------------------------------+ 
 | Krabby                                 | 
 +----------------------------------------+ 
 | Raw count: 1                           | 
 | Avg. weight: 0.628122801539            | 
 +----------------------------------------+ 
 | Abilities                              | 
 | Hyper Cutter 100.000%                  | 
 +----------------------------------------+ 
 | Items                                  | 
 | Oran Berry 100.000%                    | 
 +----------------------------------------+ 
 | Spreads                                | 
 | Adamant:36/236/36/0/0/196 100.000%     | 
 +----------------------------------------+ 
 | Moves                                  | 
 | Swords Dance 100.000%                  | 
 | Crabhammer 100.000%                    | 
 | Return 100.000%                        | 
 | Agility 100.000%                       | 
 +----------------------------------------+ 
 | Teammates                              | 
 | Carvanha +44.321%                      | 
 | Phanpy +44.321%                        | 
 | Gastly +44.321%                        | 
 | Dratini +44.321%                       | 
 +----------------------------------------+ 
 | Checks and Counters                    | 
 +----------------------------------------+ 
 +----------------------------------------+ 
 | Phanpy                                 | 
 +----------------------------------------+ 
 | Raw count: 1                           | 
 | Avg. weight: 0.628122801539            | 
 +----------------------------------------+ 
 | Abilities                              | 
 | Pickup 100.000%                        | 
 +----------------------------------------+ 
 | Items                                  | 
 | Oran Berry 100.000%                    | 
 +----------------------------------------+ 
 | Spreads                                | 
 | Adamant:116/196/116/0/36/36 100.000%   | 
 +----------------------------------------+ 
 | Moves                                  | 
 | Stealth Rock 100.000%                  | 
 | Protect 100.000%                       | 
 | Ice Shard 100.000%                     | 
 | Earthquake 100.000%                    | 
 +----------------------------------------+ 
 | Teammates                              | 
 | Carvanha +44.321%                      | 
 | Dratini +44.321%                       | 
 | Krabby +44.321%                        | 
 | Gastly +44.321%                        | 
 +----------------------------------------+ 
 | Checks and Counters                    | 
 +----------------------------------------+ 
 +----------------------------------------+ 
 | Dratini                                | 
 +----------------------------------------+ 
 | Raw count: 1                           | 
 | Avg. weight: 0.628122801539            | 
 +----------------------------------------+ 
 | Abilities                              | 
 | Shed Skin 100.000%                     | 
 +----------------------------------------+ 
 | Items                                  | 
 | Life Orb 100.000%                      | 
 +----------------------------------------+ 
 | Spreads                                | 
 | Lonely:0/244/0/116/0/116 100.000%      | 
 +----------------------------------------+ 
 | Moves                                  | 
 | Outrage 100.000%                       | 
 | Fire Blast 100.000%                    | 
 | Extreme Speed 100.000%                 | 
 | Substitute 100.000%                    | 
 +----------------------------------------+ 
 | Teammates                              | 
 | Carvanha +44.321%                      | 
 | Phanpy +44.321%                        | 
 | Krabby +44.321%                        | 
 | Gastly +44.321%                        | 
 +----------------------------------------+ 
 | Checks and Counters                    | 
 +----------------------------------------+ 
 +----------------------------------------+ 
 | Snover                                 | 
 +----------------------------------------+ 
 | Raw count: 2                           | 
 | Avg. weight: 0.564061400769            | 
 +----------------------------------------+ 
 | Abilities                              | 
 | Snow Warning 100.000%                  | 
 +----------------------------------------+ 
 | Items                                  | 
 | Life Orb 100.000%                      | 
 +----------------------------------------+ 
 | Spreads                                | 
 | Adamant:196/180/36/20/36/36 100.000%   | 
 +----------------------------------------+ 
 | Moves                                  | 
 | Swords Dance 100.000%                  | 
 | Ice Shard 100.000%                     | 
 | Blizzard 100.000%                      | 
 | Wood Hammer 100.000%                   | 
 +----------------------------------------+ 
 | Teammates                              | 
 +----------------------------------------+ 
 | Checks and Counters                    | 
 +----------------------------------------+ 
 +----------------------------------------+ 
 | Machop                                 | 
 +----------------------------------------+ 
 | Raw count: 2                           | 
 | Avg. weight: 0.564061400769            | 
 +----------------------------------------+ 
 | Abilities                              | 
 | No Guard 100.000%                      | 
 +----------------------------------------+ 
 | Items                                  | 
 | Oran Berry 100.000%                    | 
 +----------------------------------------+ 
 | Spreads                                | 
 | Adamant:196/196/36/0/76/0 100.000%     | 
 +----------------------------------------+ 
 | Moves                                  | 
 | Payback 100.000%                       | 
 | Dynamic Punch 100.000%                 | 
 | Protect 100.000%                       | 
 | Ice Punch 100.000%                     | 
 +----------------------------------------+ 
 | Teammates                              | 
 +----------------------------------------+ 
 | Checks and Counters                    | 
 +----------------------------------------+ 
 +----------------------------------------+ 
 | Gligar                                 | 
 +----------------------------------------+ 
 | Raw count: 2                           | 
 | Avg. weight: 0.564061400769            | 
 +----------------------------------------+ 
 | Abilities                              | 
 | Hyper Cutter 100.000%                  | 
 +----------------------------------------+ 
 | Items                                  | 
 | Yache Berry 100.000%                   | 
 +----------------------------------------+ 
 | Spreads                                | 
 | Jolly:0/236/0/0/0/236 100.000%         | 
 +----------------------------------------+ 
 | Moves                                  | 
 | Swords Dance 100.000%                  | 
 | Night Slash 100.000%                   | 
 | Earthquake 100.000%                    | 
 | Aerial Ace 100.000%                    | 
 +----------------------------------------+ 
 | Teammates                              | 
 +----------------------------------------+ 
 | Checks and Counters                    | 
 +----------------------------------------+ 
 +----------------------------------------+ 
 | Porygon                                | 
 +----------------------------------------+ 
 | Raw count: 2                           | 
 | Avg. weight: 0.564061400769            | 
 +----------------------------------------+ 
 | Abilities                              | 
 | Trace 100.000%                         | 
 +----------------------------------------+ 
 | Items                                  | 
 | Choice Scarf 100.000%                  | 
 +----------------------------------------+ 
 | Spreads                                | 
 | Timid:0/0/36/240/0/196 100.000%        | 
 +----------------------------------------+ 
 | Moves                                  | 
 | Shadow Ball 100.000%                   | 
 | Thunderbolt 100.000%                   | 
 | Blizzard 100.000%                      | 
 +----------------------------------------+ 
 | Teammates                              | 
 +----------------------------------------+ 
 | Checks and Counters                    | 
 +----------------------------------------+ 
 +----------------------------------------+ 
 | Chinchou                               | 
 +----------------------------------------+ 
 | Raw count: 2                           | 
 | Avg. weight: 0.564061400769            | 
 +----------------------------------------+ 
 | Abilities                              | 
 | Volt Absorb 100.000%                   | 
 +----------------------------------------+ 
 | Items                                  | 
 | Choice Scarf 100.000%                  | 
 +----------------------------------------+ 
 | Spreads                                | 
 | Timid:0/0/0/232/56/220 100.000%        | 
 +----------------------------------------+ 
 | Moves                                  | 
 | Surf 100.000%                          | 
 | Thunderbolt 100.000%                   | 
 | Ice Beam 100.000%                      | 
 +----------------------------------------+ 
 | Teammates                              | 
 +----------------------------------------+ 
 | Checks and Counters                    | 
 +----------------------------------------+ 
