 Total battles: 56888
 Avg. weight/team: 0.026
 + ---- + ------------------ + --------- + ------ + ------- + ------ + ------- + 
 | Rank | Pokemon            | Usage %   | Raw    | %       | Real   | %       | 
 + ---- + ------------------ + --------- + ------ + ------- + ------ + ------- + 
 | 1    | Mewtwo-Mega-X      | 71.84771% | 23229  | 20.416% | 12503  | 18.801% | 
 | 2    | Giratina           | 39.74609% | 13840  | 12.164% | 9752   | 14.664% | 
 | 3    | Kyogre-Primal      | 39.42557% | 16594  | 14.585% | 9851   | 14.813% | 
 | 4    | Chansey            | 34.57324% | 17257  | 15.168% | 11220  | 16.872% | 
 | 5    | Mewtwo-Mega-Y      | 33.93653% | 22923  | 20.147% | 13070  | 19.654% | 
 | 6    | Zygarde-Complete   | 31.40982% | 16695  | 14.674% | 10305  | 15.496% | 
 | 7    | Gengar-Mega        | 21.11620% | 22047  | 19.378% | 13494  | 20.291% | 
 | 8    | Diancie-Mega       | 18.08373% | 7632   |  6.708% | 5037   |  7.574% | 
 | 9    | Registeel          | 17.29497% | 5606   |  4.927% | 4177   |  6.281% | 
 | 10   | Xerneas            | 14.62093% | 6983   |  6.137% | 4453   |  6.696% | 
 | 11   | Regigigas          | 14.58226% | 13646  | 11.994% | 8176   | 12.295% | 
 | 12   | Yveltal            | 14.42058% | 6593   |  5.795% | 4322   |  6.499% | 
 | 13   | Deoxys-Attack      | 14.24957% | 7893   |  6.937% | 4307   |  6.477% | 
 | 14   | Arceus             | 13.40738% | 10032  |  8.817% | 5621   |  8.453% | 
 | 15   | Aegislash          | 11.92194% | 8732   |  7.675% | 5863   |  8.816% | 
 | 16   | Blissey            | 11.28736% | 16299  | 14.326% | 9444   | 14.201% | 
 | 17   | Dialga             | 11.01953% | 5418   |  4.762% | 3588   |  5.395% | 
 | 18   | Tyranitar-Mega     | 10.93837% | 6386   |  5.613% | 3872   |  5.822% | 
 | 19   | Necrozma-Dusk-Mane | 10.21788% | 3153   |  2.771% | 2091   |  3.144% | 
 | 20   | Shedinja           | 10.11376% | 32916  | 28.931% | 20061  | 30.166% | 
 | 21   | Gyarados-Mega      |  9.31648% | 2531   |  2.225% | 1724   |  2.592% | 
 | 22   | Arceus-Fairy       |  7.19576% | 1682   |  1.478% | 1102   |  1.657% | 
 | 23   | Slowbro-Mega       |  6.88982% | 967    |  0.850% | 699    |  1.051% | 
 | 24   | Steelix-Mega       |  6.79888% | 3521   |  3.095% | 2486   |  3.738% | 
 | 25   | Magearna           |  6.68825% | 2591   |  2.277% | 1725   |  2.594% | 
 | 26   | Rayquaza-Mega      |  5.63152% | 2656   |  2.334% | 1570   |  2.361% | 
 | 27   | Ho-Oh              |  5.60944% | 2528   |  2.222% | 1633   |  2.456% | 
 | 28   | Deoxys-Speed       |  5.24824% | 17279  | 15.187% | 11767  | 17.694% | 
 | 29   | Groudon-Primal     |  5.21706% | 3089   |  2.715% | 2000   |  3.007% | 
 | 30   | Kyurem-Black       |  4.58664% | 5350   |  4.702% | 3335   |  5.015% | 
 | 31   | Charizard-Mega-Y   |  4.02361% | 4590   |  4.034% | 2860   |  4.301% | 
 | 32   | Heracross-Mega     |  3.78659% | 3494   |  3.071% | 2036   |  3.062% | 
 | 33   | Necrozma-Ultra     |  3.71860% | 6873   |  6.041% | 3911   |  5.881% | 
 | 34   | Ferrothorn         |  3.53076% | 4698   |  4.129% | 3465   |  5.210% | 
 | 35   | Solgaleo           |  3.43730% | 1240   |  1.090% | 820    |  1.233% | 
 | 36   | Arceus-Psychic     |  3.36904% | 381    |  0.335% | 256    |  0.385% | 
 | 37   | Audino-Mega        |  3.30680% | 2787   |  2.450% | 1910   |  2.872% | 
 | 38   | Nihilego           |  3.08377% | 316    |  0.278% | 240    |  0.361% | 
 | 39   | Kyurem-White       |  3.07612% | 4048   |  3.558% | 2374   |  3.570% | 
 | 40   | Lugia              |  2.95367% | 4519   |  3.972% | 2622   |  3.943% | 
 | 41   | Aerodactyl-Mega    |  2.75366% | 1895   |  1.666% | 1272   |  1.913% | 
 | 42   | Garchomp-Mega      |  2.60688% | 3800   |  3.340% | 2256   |  3.392% | 
 | 43   | Arceus-Dark        |  2.36273% | 841    |  0.739% | 548    |  0.824% | 
 | 44   | Scizor-Mega        |  2.27395% | 4405   |  3.872% | 2663   |  4.004% | 
 | 45   | Sableye-Mega       |  2.20419% | 2615   |  2.298% | 1933   |  2.907% | 
 | 46   | Aggron-Mega        |  2.16410% | 2306   |  2.027% | 1558   |  2.343% | 
 | 47   | Rayquaza           |  2.07340% | 4146   |  3.644% | 2487   |  3.740% | 
 | 48   | Blaziken-Mega      |  1.86344% | 5639   |  4.956% | 3407   |  5.123% | 
 | 49   | Kartana            |  1.85465% | 4544   |  3.994% | 2649   |  3.983% | 
 | 50   | Heatran            |  1.81610% | 778    |  0.684% | 513    |  0.771% | 
 | 51   | Beedrill-Mega      |  1.66771% | 3498   |  3.074% | 2305   |  3.466% | 
 | 52   | Celesteela         |  1.54242% | 2010   |  1.767% | 1335   |  2.007% | 
 | 53   | Zekrom             |  1.42745% | 2990   |  2.628% | 1844   |  2.773% | 
 | 54   | Swampert-Mega      |  1.37916% | 3474   |  3.053% | 2033   |  3.057% | 
 | 55   | Lopunny-Mega       |  1.30942% | 2246   |  1.974% | 1524   |  2.292% | 
 | 56   | Venusaur-Mega      |  1.28946% | 1939   |  1.704% | 1242   |  1.868% | 
 | 57   | Muk-Alola          |  1.27196% | 1120   |  0.984% | 631    |  0.949% | 
 | 58   | Slaking            |  1.24036% | 8131   |  7.146% | 4593   |  6.907% | 
 | 59   | Eevee              |  0.92943% | 3982   |  3.500% | 3197   |  4.807% | 
 | 60   | Pheromosa          |  0.91034% | 2263   |  1.989% | 1411   |  2.122% | 
 | 61   | Blacephalon        |  0.90794% | 1234   |  1.085% | 793    |  1.192% | 
 | 62   | Diancie            |  0.88411% | 137    |  0.120% | 101    |  0.152% | 
 | 63   | Shuckle            |  0.84592% | 13217  | 11.617% | 8355   | 12.564% | 
 | 64   | Greninja-Ash       |  0.84266% | 7713   |  6.779% | 5062   |  7.612% | 
 | 65   | Cresselia          |  0.77924% | 423    |  0.372% | 270    |  0.406% | 
 | 66   | Arceus-Ghost       |  0.77638% | 1442   |  1.267% | 816    |  1.227% | 
 | 67   | Genesect           |  0.68736% | 1565   |  1.376% | 969    |  1.457% | 
 | 68   | Metagross-Mega     |  0.58027% | 4155   |  3.652% | 2330   |  3.504% | 
 | 69   | Kangaskhan-Mega    |  0.57012% | 1629   |  1.432% | 932    |  1.401% | 
 | 70   | Groudon            |  0.55947% | 1848   |  1.624% | 1185   |  1.782% | 
 | 71   | Darmanitan         |  0.52612% | 4540   |  3.990% | 2949   |  4.435% | 
 | 72   | Toxapex            |  0.51438% | 2394   |  2.104% | 1660   |  2.496% | 
 | 73   | Banette-Mega       |  0.49583% | 2487   |  2.186% | 1379   |  2.074% | 
 | 74   | Deoxys-Defense     |  0.47479% | 6123   |  5.382% | 3921   |  5.896% | 
 | 75   | Ferroseed          |  0.45157% | 2045   |  1.797% | 1778   |  2.674% | 
 | 76   | Golisopod          |  0.43997% | 2252   |  1.979% | 1271   |  1.911% | 
 | 77   | Sceptile-Mega      |  0.42592% | 2780   |  2.443% | 1738   |  2.613% | 
 | 78   | Pinsir-Mega        |  0.41696% | 915    |  0.804% | 553    |  0.832% | 
 | 79   | Marshadow          |  0.40803% | 5366   |  4.716% | 3369   |  5.066% | 
 | 80   | Empoleon           |  0.34365% | 693    |  0.609% | 511    |  0.768% | 
 | 81   | Xurkitree          |  0.33300% | 1478   |  1.299% | 826    |  1.242% | 
 | 82   | Excadrill          |  0.31712% | 741    |  0.651% | 436    |  0.656% | 
 | 83   | Wobbuffet          |  0.27707% | 1583   |  1.391% | 829    |  1.247% | 
 | 84   | Victini            |  0.26216% | 503    |  0.442% | 311    |  0.468% | 
 | 85   | Palkia             |  0.25388% | 1643   |  1.444% | 1003   |  1.508% | 
 | 86   | Meloetta           |  0.23387% | 945    |  0.831% | 637    |  0.958% | 
 | 87   | Darkrai            |  0.22429% | 5724   |  5.031% | 3740   |  5.624% | 
 | 88   | Gardevoir-Mega     |  0.21965% | 3868   |  3.400% | 2288   |  3.441% | 
 | 89   | Altaria-Mega       |  0.21299% | 997    |  0.876% | 575    |  0.865% | 
 | 90   | Weavile            |  0.18871% | 900    |  0.791% | 546    |  0.821% | 
 | 91   | Pikachu            |  0.18380% | 803    |  0.706% | 488    |  0.734% | 
 | 92   | Reshiram           |  0.18364% | 1103   |  0.969% | 620    |  0.932% | 
 | 93   | Giratina-Origin    |  0.18254% | 4114   |  3.616% | 2512   |  3.777% | 
 | 94   | Mawile-Mega        |  0.18245% | 698    |  0.613% | 405    |  0.609% | 
 | 95   | Diggersby          |  0.18170% | 145    |  0.127% | 75     |  0.113% | 
 | 96   | Snorlax            |  0.17914% | 1779   |  1.564% | 1137   |  1.710% | 
 | 97   | Milotic            |  0.17577% | 391    |  0.344% | 235    |  0.353% | 
 | 98   | Salamence-Mega     |  0.17501% | 3994   |  3.510% | 2177   |  3.274% | 
 | 99   | Lucario-Mega       |  0.17453% | 4373   |  3.844% | 2558   |  3.847% | 
 | 100  | Necrozma-Dawn-Wings |  0.16938% | 1449   |  1.274% | 917    |  1.379% | 
 | 101  | Zeraora            |  0.16914% | 2330   |  2.048% | 1448   |  2.177% | 
 | 102  | Hoopa-Unbound      |  0.16613% | 1460   |  1.283% | 909    |  1.367% | 
 | 103  | Lunala             |  0.16191% | 1210   |  1.063% | 761    |  1.144% | 
 | 104  | Dusclops           |  0.15701% | 988    |  0.868% | 658    |  0.989% | 
 | 105  | Arceus-Ground      |  0.15656% | 222    |  0.195% | 131    |  0.197% | 
 | 106  | Regice             |  0.15594% | 730    |  0.642% | 481    |  0.723% | 
 | 107  | Alakazam-Mega      |  0.15425% | 2812   |  2.472% | 1722   |  2.589% | 
 | 108  | Krookodile         |  0.14888% | 797    |  0.700% | 462    |  0.695% | 
 | 109  | Zapdos             |  0.14392% | 607    |  0.534% | 402    |  0.605% | 
 | 110  | Thundurus-Therian  |  0.13925% | 874    |  0.768% | 495    |  0.744% | 
 | 111  | Latios-Mega        |  0.13070% | 528    |  0.464% | 286    |  0.430% | 
 | 112  | Charizard-Mega-X   |  0.12521% | 3411   |  2.998% | 2160   |  3.248% | 
 | 113  | Jirachi            |  0.12506% | 791    |  0.695% | 556    |  0.836% | 
 | 114  | Doublade           |  0.12208% | 285    |  0.250% | 210    |  0.316% | 
 | 115  | Escavalier         |  0.11489% | 323    |  0.284% | 218    |  0.328% | 
 | 116  | Umbreon            |  0.11411% | 1039   |  0.913% | 740    |  1.113% | 
 | 117  | Linoone            |  0.10863% | 172    |  0.151% | 100    |  0.150% | 
 | 118  | Pidgeot-Mega       |  0.10796% | 1199   |  1.054% | 720    |  1.083% | 
 | 119  | Regirock           |  0.10781% | 296    |  0.260% | 198    |  0.298% | 
 | 120  | Tapu Fini          |  0.10700% | 426    |  0.374% | 272    |  0.409% | 
 | 121  | Arceus-Steel       |  0.10668% | 825    |  0.725% | 504    |  0.758% | 
 | 122  | Tapu Koko          |  0.09903% | 1891   |  1.662% | 1193   |  1.794% | 
 | 123  | Buzzwole           |  0.09822% | 655    |  0.576% | 388    |  0.583% | 
 | 124  | Cosmoem            |  0.09412% | 1023   |  0.899% | 488    |  0.734% | 
 | 125  | Arceus-Fire        |  0.09364% | 429    |  0.377% | 255    |  0.383% | 
 | 126  | Arceus-Dragon      |  0.09303% | 604    |  0.531% | 340    |  0.511% | 
 | 127  | Arceus-Grass       |  0.09150% | 349    |  0.307% | 227    |  0.341% | 
 | 128  | Shaymin-Sky        |  0.09138% | 875    |  0.769% | 532    |  0.800% | 
 | 129  | Manectric-Mega     |  0.08527% | 746    |  0.656% | 433    |  0.651% | 
 | 130  | Tyranitar          |  0.08453% | 808    |  0.710% | 548    |  0.824% | 
 | 131  | Igglybuff          |  0.08448% | 145    |  0.127% | 102    |  0.153% | 
 | 132  | Dhelmise           |  0.07663% | 231    |  0.203% | 117    |  0.176% | 
 | 133  | Volcarona          |  0.07480% | 1111   |  0.976% | 601    |  0.904% | 
 | 134  | Bewear             |  0.07206% | 127    |  0.112% | 87     |  0.131% | 
 | 135  | Gallade-Mega       |  0.07155% | 1697   |  1.492% | 1026   |  1.543% | 
 | 136  | Raticate-Alola     |  0.07117% | 204    |  0.179% | 123    |  0.185% | 
 | 137  | Ampharos-Mega      |  0.06841% | 778    |  0.684% | 468    |  0.704% | 
 | 138  | Clefable           |  0.06474% | 931    |  0.818% | 572    |  0.860% | 
 | 139  | Decidueye          |  0.06072% | 675    |  0.593% | 429    |  0.645% | 
 | 140  | Accelgor           |  0.06028% | 285    |  0.250% | 168    |  0.253% | 
 | 141  | Naganadel          |  0.05607% | 1640   |  1.441% | 931    |  1.400% | 
 | 142  | Froakie            |  0.05517% | 19     |  0.017% | 11     |  0.017% | 
 | 143  | Arceus-Electric    |  0.05394% | 763    |  0.671% | 437    |  0.657% | 
 | 144  | Stakataka          |  0.05262% | 715    |  0.628% | 520    |  0.782% | 
 | 145  | Camerupt-Mega      |  0.05035% | 1072   |  0.942% | 543    |  0.817% | 
 | 146  | Arceus-Ice         |  0.04964% | 441    |  0.388% | 263    |  0.395% | 
 | 147  | Marowak-Alola      |  0.04918% | 722    |  0.635% | 394    |  0.592% | 
 | 148  | Skarmory           |  0.04740% | 774    |  0.680% | 587    |  0.883% | 
 | 149  | Ninjask            |  0.04732% | 1924   |  1.691% | 1375   |  2.068% | 
 | 150  | Houndoom-Mega      |  0.04461% | 751    |  0.660% | 455    |  0.684% | 
 | 151  | Togekiss           |  0.04289% | 876    |  0.770% | 591    |  0.889% | 
 | 152  | Sharpedo-Mega      |  0.04183% | 274    |  0.241% | 137    |  0.206% | 
 | 153  | Porygon2           |  0.03804% | 352    |  0.309% | 183    |  0.275% | 
 | 154  | Mimikyu            |  0.03585% | 2132   |  1.874% | 1324   |  1.991% | 
 | 155  | Kommo-o            |  0.03538% | 851    |  0.748% | 535    |  0.804% | 
 | 156  | Salazzle           |  0.03530% | 423    |  0.372% | 300    |  0.451% | 
 | 157  | Rotom-Heat         |  0.03479% | 274    |  0.241% | 149    |  0.224% | 
 | 158  | Celebi             |  0.03270% | 367    |  0.323% | 204    |  0.307% | 
 | 159  | Wishiwashi-School  |  0.03199% | 88     |  0.077% | 54     |  0.081% | 
 | 160  | Malamar            |  0.03113% | 132    |  0.116% | 97     |  0.146% | 
 | 161  | Bisharp            |  0.02990% | 597    |  0.525% | 378    |  0.568% | 
 | 162  | Tyrantrum          |  0.02948% | 307    |  0.270% | 165    |  0.248% | 
 | 163  | Sylveon            |  0.02946% | 382    |  0.336% | 231    |  0.347% | 
 | 164  | Latias-Mega        |  0.02909% | 714    |  0.628% | 452    |  0.680% | 
 | 165  | Sandshrew-Alola    |  0.02881% | 174    |  0.153% | 136    |  0.205% | 
 | 166  | Azelf              |  0.02720% | 52     |  0.046% | 37     |  0.056% | 
 | 167  | Hydreigon          |  0.02613% | 783    |  0.688% | 473    |  0.711% | 
 | 168  | Magikarp           |  0.02529% | 1627   |  1.430% | 848    |  1.275% | 
 | 169  | Chandelure         |  0.02508% | 591    |  0.519% | 381    |  0.573% | 
 | 170  | Arceus-Bug         |  0.02501% | 149    |  0.131% | 100    |  0.150% | 
 | 171  | Garchomp           |  0.02468% | 1574   |  1.383% | 989    |  1.487% | 
 | 172  | Pikachu-Sinnoh     |  0.02353% | 43     |  0.038% | 29     |  0.044% | 
 | 173  | Landorus-Therian   |  0.02333% | 993    |  0.873% | 635    |  0.955% | 
 | 174  | Jellicent          |  0.02290% | 146    |  0.128% | 133    |  0.200% | 
 | 175  | Mew                |  0.02254% | 1011   |  0.889% | 668    |  1.004% | 
 | 176  | Honedge            |  0.02245% | 75     |  0.066% | 62     |  0.093% | 
 | 177  | Cinccino           |  0.02204% | 168    |  0.148% | 114    |  0.171% | 
 | 178  | Arceus-Flying      |  0.02162% | 342    |  0.301% | 218    |  0.328% | 
 | 179  | Virizion           |  0.02116% | 85     |  0.075% | 62     |  0.093% | 
 | 180  | Rattata            |  0.02100% | 2057   |  1.808% | 794    |  1.194% | 
 | 181  | Happiny            |  0.02043% | 161    |  0.142% | 104    |  0.156% | 
 | 182  | Carbink            |  0.01928% | 210    |  0.185% | 158    |  0.238% | 
 | 183  | Rampardos          |  0.01898% | 237    |  0.208% | 136    |  0.205% | 
 | 184  | Guzzlord           |  0.01894% | 746    |  0.656% | 490    |  0.737% | 
 | 185  | Smeargle           |  0.01850% | 1134   |  0.997% | 760    |  1.143% | 
 | 186  | Crobat             |  0.01823% | 404    |  0.355% | 269    |  0.405% | 
 | 187  | Thundurus          |  0.01822% | 344    |  0.302% | 225    |  0.338% | 
 | 188  | Mewtwo             |  0.01817% | 551    |  0.484% | 352    |  0.529% | 
 | 189  | Dragonite          |  0.01725% | 726    |  0.638% | 442    |  0.665% | 
 | 190  | Rotom-Wash         |  0.01720% | 561    |  0.493% | 344    |  0.517% | 
 | 191  | Spiritomb          |  0.01649% | 692    |  0.608% | 507    |  0.762% | 
 | 192  | Galvantula         |  0.01627% | 412    |  0.362% | 348    |  0.523% | 
 | 193  | Machamp            |  0.01620% | 493    |  0.433% | 313    |  0.471% | 
 | 194  | Ditto              |  0.01587% | 855    |  0.751% | 529    |  0.795% | 
 | 195  | Suicune            |  0.01578% | 189    |  0.166% | 117    |  0.176% | 
 | 196  | Vikavolt           |  0.01541% | 132    |  0.116% | 92     |  0.138% | 
 | 197  | Conkeldurr         |  0.01537% | 181    |  0.159% | 104    |  0.156% | 
 | 198  | Starmie            |  0.01450% | 176    |  0.155% | 108    |  0.162% | 
 | 199  | Alakazam           |  0.01429% | 325    |  0.286% | 191    |  0.287% | 
 | 200  | Whimsicott         |  0.01389% | 250    |  0.220% | 155    |  0.233% | 
 | 201  | Rotom-Frost        |  0.01385% | 128    |  0.113% | 96     |  0.144% | 
 | 202  | Pangoro            |  0.01371% | 215    |  0.189% | 129    |  0.194% | 
 | 203  | Durant             |  0.01327% | 296    |  0.260% | 206    |  0.310% | 
 | 204  | Gengar             |  0.01310% | 1006   |  0.884% | 616    |  0.926% | 
 | 205  | Roserade           |  0.01295% | 403    |  0.354% | 290    |  0.436% | 
 | 206  | Blaziken           |  0.01211% | 508    |  0.446% | 321    |  0.483% | 
 | 207  | Electrode          |  0.01188% | 367    |  0.323% | 256    |  0.385% | 
 | 208  | Gliscor            |  0.01096% | 1251   |  1.100% | 813    |  1.223% | 
 | 209  | Jolteon            |  0.01074% | 460    |  0.404% | 282    |  0.424% | 
 | 210  | Abomasnow          |  0.01041% | 118    |  0.104% | 74     |  0.111% | 
 | 211  | Arceus-Water       |  0.01014% | 460    |  0.404% | 271    |  0.408% | 
 | 212  | Eelektross         |  0.01014% | 177    |  0.156% | 79     |  0.119% | 
 | 213  | Pyukumuku          |  0.00970% | 349    |  0.307% | 249    |  0.374% | 
 | 214  | Noivern            |  0.00965% | 361    |  0.317% | 221    |  0.332% | 
 | 215  | Heliolisk          |  0.00954% | 127    |  0.112% | 63     |  0.095% | 
 | 216  | Pawniard           |  0.00946% | 21     |  0.018% | 12     |  0.018% | 
 | 217  | Miltank            |  0.00937% | 239    |  0.210% | 146    |  0.220% | 
 | 218  | Greninja           |  0.00924% | 596    |  0.524% | 385    |  0.579% | 
 | 219  | Arceus-Poison      |  0.00915% | 396    |  0.348% | 240    |  0.361% | 
 | 220  | Arcanine           |  0.00905% | 530    |  0.466% | 330    |  0.496% | 
 | 221  | Azumarill          |  0.00888% | 575    |  0.505% | 352    |  0.529% | 
 | 222  | Goodra             |  0.00862% | 383    |  0.337% | 243    |  0.365% | 
 | 223  | Absol-Mega         |  0.00856% | 782    |  0.687% | 506    |  0.761% | 
 | 224  | Wailord            |  0.00855% | 305    |  0.268% | 197    |  0.296% | 
 | 225  | Keldeo             |  0.00829% | 425    |  0.374% | 247    |  0.371% | 
 | 226  | Breloom            |  0.00829% | 636    |  0.559% | 414    |  0.623% | 
 | 227  | Cloyster           |  0.00814% | 486    |  0.427% | 321    |  0.483% | 
 | 228  | Volcanion          |  0.00809% | 398    |  0.350% | 273    |  0.411% | 
 | 229  | Ribombee           |  0.00803% | 101    |  0.089% | 70     |  0.105% | 
 | 230  | Meganium           |  0.00766% | 168    |  0.148% | 85     |  0.128% | 
 | 231  | Dodrio             |  0.00765% | 50     |  0.044% | 36     |  0.054% | 
 | 232  | Magnezone          |  0.00756% | 577    |  0.507% | 364    |  0.547% | 
 | 233  | Rotom-Fan          |  0.00752% | 93     |  0.082% | 69     |  0.104% | 
 | 234  | Lucario            |  0.00724% | 415    |  0.365% | 273    |  0.411% | 
 | 235  | Scolipede          |  0.00719% | 420    |  0.369% | 288    |  0.433% | 
 | 236  | Munchlax           |  0.00680% | 52     |  0.046% | 38     |  0.057% | 
 | 237  | Incineroar         |  0.00673% | 578    |  0.508% | 418    |  0.629% | 
 | 238  | Manaphy            |  0.00651% | 224    |  0.197% | 135    |  0.203% | 
 | 239  | Raikou             |  0.00633% | 245    |  0.215% | 162    |  0.244% | 
 | 240  | Arbok              |  0.00632% | 81     |  0.071% | 40     |  0.060% | 
 | 241  | Steelix            |  0.00610% | 119    |  0.105% | 80     |  0.120% | 
 | 242  | Ninetales-Alola    |  0.00594% | 420    |  0.369% | 266    |  0.400% | 
 | 243  | Mareanie           |  0.00583% | 21     |  0.018% | 13     |  0.020% | 
 | 244  | Palossand          |  0.00570% | 182    |  0.160% | 109    |  0.164% | 
 | 245  | Magneton           |  0.00545% | 91     |  0.080% | 53     |  0.080% | 
 | 246  | Sunkern            |  0.00543% | 326    |  0.287% | 193    |  0.290% | 
 | 247  | Ledian             |  0.00534% | 63     |  0.055% | 44     |  0.066% | 
 | 248  | Dunsparce          |  0.00531% | 128    |  0.113% | 96     |  0.144% | 
 | 249  | Dwebble            |  0.00526% | 20     |  0.018% | 17     |  0.026% | 
 | 250  | Silvally-Ice       |  0.00523% | 25     |  0.022% | 17     |  0.026% | 
 | 251  | Caterpie           |  0.00520% | 180    |  0.158% | 92     |  0.138% | 
 | 252  | Electivire         |  0.00509% | 339    |  0.298% | 209    |  0.314% | 
 | 253  | Zygarde            |  0.00508% | 342    |  0.301% | 219    |  0.329% | 
 | 254  | Chesnaught         |  0.00507% | 206    |  0.181% | 134    |  0.202% | 
 | 255  | Haxorus            |  0.00504% | 495    |  0.435% | 306    |  0.460% | 
 | 256  | Landorus           |  0.00497% | 243    |  0.214% | 152    |  0.229% | 
 | 257  | Gardevoir          |  0.00494% | 617    |  0.542% | 354    |  0.532% | 
 | 258  | Cottonee           |  0.00491% | 302    |  0.265% | 153    |  0.230% | 
 | 259  | Wailmer            |  0.00485% | 32     |  0.028% | 24     |  0.036% | 
 | 260  | Cofagrigus         |  0.00483% | 688    |  0.605% | 419    |  0.630% | 
 | 261  | Dusknoir           |  0.00478% | 415    |  0.365% | 273    |  0.411% | 
 | 262  | Primarina          |  0.00475% | 335    |  0.294% | 194    |  0.292% | 
 | 263  | Florges            |  0.00473% | 183    |  0.161% | 126    |  0.189% | 
 | 264  | Infernape          |  0.00470% | 762    |  0.670% | 464    |  0.698% | 
 | 265  | Sudowoodo          |  0.00463% | 29     |  0.025% | 24     |  0.036% | 
 | 266  | Raichu             |  0.00453% | 209    |  0.184% | 141    |  0.212% | 
 | 267  | Audino             |  0.00442% | 15     |  0.013% | 9      |  0.014% | 
 | 268  | Gyarados           |  0.00437% | 440    |  0.387% | 240    |  0.361% | 
 | 269  | Archeops           |  0.00429% | 574    |  0.505% | 356    |  0.535% | 
 | 270  | Druddigon          |  0.00426% | 66     |  0.058% | 49     |  0.074% | 
 | 271  | Altaria            |  0.00423% | 73     |  0.064% | 50     |  0.075% | 
 | 272  | Torracat           |  0.00414% | 14     |  0.012% | 11     |  0.017% | 
 | 273  | Kyurem             |  0.00406% | 256    |  0.225% | 155    |  0.233% | 
 | 274  | Trevenant          |  0.00379% | 225    |  0.198% | 149    |  0.224% | 
 | 275  | Riolu              |  0.00369% | 349    |  0.307% | 194    |  0.292% | 
 | 276  | Staraptor          |  0.00359% | 378    |  0.332% | 249    |  0.374% | 
 | 277  | Leafeon            |  0.00354% | 219    |  0.192% | 121    |  0.182% | 
 | 278  | Tapu Lele          |  0.00352% | 309    |  0.272% | 205    |  0.308% | 
 | 279  | Zoroark            |  0.00348% | 423    |  0.372% | 269    |  0.405% | 
 | 280  | Ambipom            |  0.00337% | 156    |  0.137% | 116    |  0.174% | 
 | 281  | Togedemaru         |  0.00335% | 186    |  0.163% | 133    |  0.200% | 
 | 282  | Arceus-Fighting    |  0.00333% | 175    |  0.154% | 107    |  0.161% | 
 | 283  | Porygon-Z          |  0.00327% | 457    |  0.402% | 243    |  0.365% | 
 | 284  | Shaymin            |  0.00319% | 60     |  0.053% | 31     |  0.047% | 
 | 285  | Ursaring           |  0.00316% | 137    |  0.120% | 94     |  0.141% | 
 | 286  | Kabutops           |  0.00315% | 227    |  0.200% | 156    |  0.235% | 
 | 287  | Cosmog             |  0.00313% | 56     |  0.049% | 42     |  0.063% | 
 | 288  | Drampa             |  0.00312% | 74     |  0.065% | 44     |  0.066% | 
 | 289  | Nidoking           |  0.00296% | 435    |  0.382% | 265    |  0.398% | 
 | 290  | Salamence          |  0.00288% | 346    |  0.304% | 212    |  0.319% | 
 | 291  | Lycanroc-Dusk      |  0.00276% | 385    |  0.338% | 284    |  0.427% | 
 | 292  | Tornadus           |  0.00268% | 106    |  0.093% | 48     |  0.072% | 
 | 293  | Swellow            |  0.00261% | 154    |  0.135% | 99     |  0.149% | 
 | 294  | Lopunny            |  0.00260% | 60     |  0.053% | 47     |  0.071% | 
 | 295  | Sableye            |  0.00256% | 177    |  0.156% | 119    |  0.179% | 
 | 296  | Serperior          |  0.00252% | 631    |  0.555% | 456    |  0.686% | 
 | 297  | Hypno              |  0.00251% | 62     |  0.054% | 48     |  0.072% | 
 | 298  | Deoxys             |  0.00250% | 645    |  0.567% | 366    |  0.550% | 
 | 299  | Zangoose           |  0.00247% | 118    |  0.104% | 58     |  0.087% | 
 | 300  | Tyrunt             |  0.00244% | 13     |  0.011% | 11     |  0.017% | 
 | 301  | Moltres            |  0.00243% | 214    |  0.188% | 126    |  0.189% | 
 | 302  | Swalot             |  0.00243% | 64     |  0.056% | 46     |  0.069% | 
 | 303  | Mismagius          |  0.00243% | 163    |  0.143% | 94     |  0.141% | 
 | 304  | Golurk             |  0.00236% | 239    |  0.210% | 144    |  0.217% | 
 | 305  | Gallade            |  0.00225% | 147    |  0.129% | 96     |  0.144% | 
 | 306  | Ninetales          |  0.00225% | 149    |  0.131% | 97     |  0.146% | 
 | 307  | Feraligatr         |  0.00218% | 285    |  0.250% | 189    |  0.284% | 
 | 308  | Espeon             |  0.00217% | 332    |  0.292% | 198    |  0.298% | 
 | 309  | Kyogre             |  0.00214% | 459    |  0.403% | 249    |  0.374% | 
 | 310  | Type: Null         |  0.00214% | 268    |  0.236% | 164    |  0.247% | 
 | 311  | Pichu              |  0.00208% | 101    |  0.089% | 81     |  0.122% | 
 | 312  | Forretress         |  0.00204% | 345    |  0.303% | 268    |  0.403% | 
 | 313  | Lickilicky         |  0.00197% | 30     |  0.026% | 18     |  0.027% | 
 | 314  | Mandibuzz          |  0.00197% | 30     |  0.026% | 29     |  0.044% | 
 | 315  | Abomasnow-Mega     |  0.00197% | 293    |  0.258% | 189    |  0.284% | 
 | 316  | Metagross          |  0.00195% | 306    |  0.269% | 196    |  0.295% | 
 | 317  | Hawlucha           |  0.00191% | 480    |  0.422% | 313    |  0.471% | 
 | 318  | Quagsire           |  0.00190% | 311    |  0.273% | 226    |  0.340% | 
 | 319  | Cacturne           |  0.00184% | 117    |  0.103% | 71     |  0.107% | 
 | 320  | Aggron             |  0.00176% | 326    |  0.287% | 183    |  0.275% | 
 | 321  | Vileplume          |  0.00176% | 81     |  0.071% | 53     |  0.080% | 
 | 322  | Slurpuff           |  0.00173% | 52     |  0.046% | 33     |  0.050% | 
 | 323  | Silvally-Steel     |  0.00163% | 56     |  0.049% | 24     |  0.036% | 
 | 324  | Glaceon            |  0.00162% | 164    |  0.144% | 93     |  0.140% | 
 | 325  | Medicham-Mega      |  0.00161% | 328    |  0.288% | 228    |  0.343% | 
 | 326  | Arceus-Rock        |  0.00154% | 88     |  0.077% | 54     |  0.081% | 
 | 327  | Mienshao           |  0.00146% | 107    |  0.094% | 67     |  0.101% | 
 | 328  | Trubbish           |  0.00143% | 37     |  0.033% | 25     |  0.038% | 
 | 329  | Vivillon           |  0.00142% | 129    |  0.113% | 46     |  0.069% | 
 | 330  | Parasect           |  0.00141% | 35     |  0.031% | 17     |  0.026% | 
 | 331  | Liepard            |  0.00138% | 41     |  0.036% | 30     |  0.045% | 
 | 332  | Reuniclus          |  0.00137% | 137    |  0.120% | 75     |  0.113% | 
 | 333  | Sceptile           |  0.00134% | 219    |  0.192% | 140    |  0.211% | 
 | 334  | Lycanroc           |  0.00133% | 52     |  0.046% | 30     |  0.045% | 
 | 335  | Gothitelle         |  0.00129% | 13     |  0.011% | 9      |  0.014% | 
 | 336  | Tangrowth          |  0.00126% | 217    |  0.191% | 138    |  0.208% | 
 | 337  | Tapu Bulu          |  0.00123% | 257    |  0.226% | 162    |  0.244% | 
 | 338  | Noctowl            |  0.00120% | 17     |  0.015% | 11     |  0.017% | 
 | 339  | Pikachu-Original   |  0.00117% | 103    |  0.091% | 73     |  0.110% | 
 | 340  | Zygarde-10%        |  0.00112% | 133    |  0.117% | 73     |  0.110% | 
 | 341  | Cobalion           |  0.00105% | 162    |  0.142% | 88     |  0.132% | 
 | 342  | Pachirisu          |  0.00104% | 151    |  0.133% | 110    |  0.165% | 
 | 343  | Skuntank           |  0.00103% | 73     |  0.064% | 50     |  0.075% | 
 | 344  | Dustox             |  0.00103% | 38     |  0.033% | 10     |  0.015% | 
 | 345  | Kommo-o-Totem      |  0.00102% | 150    |  0.132% | 105    |  0.158% | 
 | 346  | Absol              |  0.00102% | 56     |  0.049% | 33     |  0.050% | 
 | 347  | Garbodor           |  0.00098% | 447    |  0.393% | 330    |  0.496% | 
 | 348  | Manectric          |  0.00097% | 46     |  0.040% | 27     |  0.041% | 
 | 349  | Bidoof             |  0.00092% | 353    |  0.310% | 266    |  0.400% | 
 | 350  | Nosepass           |  0.00092% | 87     |  0.076% | 73     |  0.110% | 
 | 351  | Avalugg            |  0.00091% | 299    |  0.263% | 165    |  0.248% | 
 | 352  | Sandslash-Alola    |  0.00090% | 159    |  0.140% | 103    |  0.155% | 
 | 353  | Bastiodon          |  0.00089% | 286    |  0.251% | 198    |  0.298% | 
 | 354  | Pikachu-Alola      |  0.00089% | 205    |  0.180% | 148    |  0.223% | 
 | 355  | Gligar             |  0.00087% | 135    |  0.119% | 109    |  0.164% | 
 | 356  | Toxicroak          |  0.00086% | 293    |  0.258% | 159    |  0.239% | 
 | 357  | Silvally-Dragon    |  0.00085% | 52     |  0.046% | 29     |  0.044% | 
 | 358  | Cradily            |  0.00084% | 183    |  0.161% | 99     |  0.149% | 
 | 359  | Gigalith           |  0.00084% | 157    |  0.138% | 114    |  0.171% | 
 | 360  | Unown              |  0.00083% | 198    |  0.174% | 72     |  0.108% | 
 | 361  | Salandit           |  0.00082% | 28     |  0.025% | 24     |  0.036% | 
 | 362  | Rotom-Mow          |  0.00081% | 148    |  0.130% | 92     |  0.138% | 
 | 363  | Poliwrath          |  0.00078% | 157    |  0.138% | 106    |  0.159% | 
 | 364  | Mimikyu-Totem      |  0.00077% | 114    |  0.100% | 84     |  0.126% | 
 | 365  | Octillery          |  0.00077% | 37     |  0.033% | 20     |  0.030% | 
 | 366  | Aurorus            |  0.00076% | 54     |  0.047% | 31     |  0.047% | 
 | 367  | Drapion            |  0.00075% | 607    |  0.534% | 472    |  0.710% | 
 | 368  | Rattata-Alola      |  0.00075% | 562    |  0.494% | 171    |  0.257% | 
 | 369  | Furret             |  0.00075% | 713    |  0.627% | 249    |  0.374% | 
 | 370  | Marowak            |  0.00074% | 70     |  0.062% | 47     |  0.071% | 
 | 371  | Froslass           |  0.00072% | 171    |  0.150% | 145    |  0.218% | 
 | 372  | Lanturn            |  0.00071% | 69     |  0.061% | 38     |  0.057% | 
 | 373  | Carracosta         |  0.00071% | 30     |  0.026% | 19     |  0.029% | 
 | 374  | Diglett            |  0.00071% | 146    |  0.128% | 72     |  0.108% | 
 | 375  | Lapras             |  0.00071% | 232    |  0.204% | 175    |  0.263% | 
 | 376  | Latios             |  0.00069% | 181    |  0.159% | 116    |  0.174% | 
 | 377  | Flareon            |  0.00068% | 203    |  0.178% | 141    |  0.212% | 
 | 378  | Shroomish          |  0.00067% | 14     |  0.012% | 12     |  0.018% | 
 | 379  | Blastoise-Mega     |  0.00067% | 748    |  0.657% | 447    |  0.672% | 
 | 380  | Entei              |  0.00067% | 177    |  0.156% | 106    |  0.159% | 
 | 381  | Squirtle           |  0.00064% | 70     |  0.062% | 46     |  0.069% | 
 | 382  | Terrakion          |  0.00062% | 90     |  0.079% | 53     |  0.080% | 
 | 383  | Mudsdale           |  0.00062% | 74     |  0.065% | 52     |  0.078% | 
 | 384  | Comfey             |  0.00061% | 29     |  0.025% | 17     |  0.026% | 
 | 385  | Diglett-Alola      |  0.00061% | 43     |  0.038% | 33     |  0.050% | 
 | 386  | Magmortar          |  0.00060% | 154    |  0.135% | 91     |  0.137% | 
 | 387  | Araquanid          |  0.00059% | 57     |  0.050% | 47     |  0.071% | 
 | 388  | Dragonair          |  0.00058% | 50     |  0.044% | 31     |  0.047% | 
 | 389  | Lilligant          |  0.00057% | 69     |  0.061% | 34     |  0.051% | 
 | 390  | Seaking            |  0.00057% | 16     |  0.014% | 12     |  0.018% | 
 | 391  | Charizard          |  0.00056% | 424    |  0.373% | 292    |  0.439% | 
 | 392  | Slowbro            |  0.00055% | 77     |  0.068% | 36     |  0.054% | 
 | 393  | Lycanroc-Midnight  |  0.00054% | 270    |  0.237% | 158    |  0.238% | 
 | 394  | Luxray             |  0.00054% | 282    |  0.248% | 181    |  0.272% | 
 | 395  | Nincada            |  0.00054% | 11     |  0.010% | 9      |  0.014% | 
 | 396  | Venusaur           |  0.00053% | 176    |  0.155% | 116    |  0.174% | 
 | 397  | Talonflame         |  0.00051% | 311    |  0.273% | 185    |  0.278% | 
 | 398  | Tornadus-Therian   |  0.00047% | 241    |  0.212% | 143    |  0.215% | 
 | 399  | Nidoqueen          |  0.00047% | 108    |  0.095% | 84     |  0.126% | 
 | 400  | Aron               |  0.00046% | 267    |  0.235% | 192    |  0.289% | 
 | 401  | Hakamo-o           |  0.00046% | 60     |  0.053% | 27     |  0.041% | 
 | 402  | Farfetch'd         |  0.00044% | 126    |  0.111% | 71     |  0.107% | 
 | 403  | Wooper             |  0.00044% | 67     |  0.059% | 40     |  0.060% | 
 | 404  | Swampert           |  0.00044% | 301    |  0.265% | 198    |  0.298% | 
 | 405  | Golbat             |  0.00043% | 31     |  0.027% | 19     |  0.029% | 
 | 406  | Pikachu-Kalos      |  0.00042% | 147    |  0.129% | 85     |  0.128% | 
 | 407  | Starly             |  0.00041% | 129    |  0.113% | 43     |  0.065% | 
 | 408  | Hippopotas         |  0.00041% | 15     |  0.013% | 10     |  0.015% | 
 | 409  | Heracross          |  0.00038% | 107    |  0.094% | 65     |  0.098% | 
 | 410  | Exploud            |  0.00038% | 91     |  0.080% | 53     |  0.080% | 
 | 411  | Cutiefly           |  0.00038% | 15     |  0.013% | 9      |  0.014% | 
 | 412  | Pineco             |  0.00035% | 69     |  0.061% | 55     |  0.083% | 
 | 413  | Jynx               |  0.00035% | 56     |  0.049% | 31     |  0.047% | 
 | 414  | Pikachu-Partner    |  0.00034% | 93     |  0.082% | 55     |  0.083% | 
 | 415  | Braviary           |  0.00034% | 161    |  0.142% | 128    |  0.192% | 
 | 416  | Mamoswine          |  0.00033% | 148    |  0.130% | 104    |  0.156% | 
 | 417  | Weezing            |  0.00032% | 81     |  0.071% | 61     |  0.092% | 
 | 418  | Rhydon             |  0.00032% | 162    |  0.142% | 122    |  0.183% | 
 | 419  | Flygon             |  0.00031% | 225    |  0.198% | 161    |  0.242% | 
 | 420  | Toucannon          |  0.00028% | 73     |  0.064% | 30     |  0.045% | 
 | 421  | Glalie-Mega        |  0.00028% | 92     |  0.081% | 63     |  0.095% | 
 | 422  | Sawsbuck           |  0.00027% | 69     |  0.061% | 36     |  0.054% | 
 | 423  | Snorunt            |  0.00027% | 11     |  0.010% | 3      |  0.005% | 
 | 424  | Wimpod             |  0.00026% | 21     |  0.018% | 12     |  0.018% | 
 | 425  | Vanilluxe          |  0.00026% | 106    |  0.093% | 53     |  0.080% | 
 | 426  | Weedle             |  0.00026% | 143    |  0.126% | 119    |  0.179% | 
 | 427  | Muk                |  0.00025% | 57     |  0.050% | 30     |  0.045% | 
 | 428  | Unfezant           |  0.00024% | 79     |  0.069% | 45     |  0.068% | 
 | 429  | Tentacruel         |  0.00024% | 119    |  0.105% | 78     |  0.117% | 
 | 430  | Bellossom          |  0.00023% | 52     |  0.046% | 30     |  0.045% | 
 | 431  | Tsareena           |  0.00022% | 153    |  0.134% | 88     |  0.132% | 
 | 432  | Articuno           |  0.00022% | 251    |  0.221% | 144    |  0.217% | 
 | 433  | Probopass          |  0.00022% | 123    |  0.108% | 91     |  0.137% | 
 | 434  | Amoonguss          |  0.00021% | 56     |  0.049% | 43     |  0.065% | 
 | 435  | Butterfree         |  0.00021% | 176    |  0.155% | 95     |  0.143% | 
 | 436  | Machop             |  0.00021% | 42     |  0.037% | 29     |  0.044% | 
 | 437  | Machoke            |  0.00021% | 28     |  0.025% | 18     |  0.027% | 
 | 438  | Floette-Eternal    |  0.00021% | 361    |  0.317% | 196    |  0.295% | 
 | 439  | Blastoise          |  0.00020% | 208    |  0.183% | 124    |  0.186% | 
 | 440  | Chimecho           |  0.00020% | 24     |  0.021% | 20     |  0.030% | 
 | 441  | Turtonator         |  0.00020% | 112    |  0.098% | 87     |  0.131% | 
 | 442  | Alomomola          |  0.00020% | 88     |  0.077% | 57     |  0.086% | 
 | 443  | Meowstic           |  0.00020% | 72     |  0.063% | 41     |  0.062% | 
 | 444  | Glalie             |  0.00019% | 23     |  0.020% | 10     |  0.015% | 
 | 445  | Silvally           |  0.00019% | 70     |  0.062% | 46     |  0.069% | 
 | 446  | Xatu               |  0.00019% | 115    |  0.101% | 52     |  0.078% | 
 | 447  | Golem              |  0.00019% | 96     |  0.084% | 70     |  0.105% | 
 | 448  | Geodude            |  0.00019% | 167    |  0.147% | 130    |  0.195% | 
 | 449  | Seismitoad         |  0.00018% | 163    |  0.143% | 96     |  0.144% | 
 | 450  | Torterra           |  0.00018% | 194    |  0.171% | 132    |  0.198% | 
 | 451  | Stunfisk           |  0.00017% | 51     |  0.045% | 42     |  0.063% | 
 | 452  | Clamperl           |  0.00017% | 38     |  0.033% | 27     |  0.041% | 
 | 453  | Clefairy           |  0.00017% | 39     |  0.034% | 35     |  0.053% | 
 | 454  | Bronzong           |  0.00016% | 34     |  0.030% | 22     |  0.033% | 
 | 455  | Mr. Mime           |  0.00015% | 136    |  0.120% | 96     |  0.144% | 
 | 456  | Whiscash           |  0.00015% | 9      |  0.008% | 5      |  0.008% | 
 | 457  | Treecko            |  0.00015% | 19     |  0.017% | 10     |  0.015% | 
 | 458  | Musharna           |  0.00014% | 65     |  0.057% | 32     |  0.048% | 
 | 459  | Yamask             |  0.00013% | 24     |  0.021% | 16     |  0.024% | 
 | 460  | Wingull            |  0.00013% | 57     |  0.050% | 30     |  0.045% | 
 | 461  | Raticate-Alola-Totem |  0.00013% | 45     |  0.040% | 31     |  0.047% | 
 | 462  | Exeggutor          |  0.00013% | 57     |  0.050% | 39     |  0.059% | 
 | 463  | Meowth             |  0.00013% | 16     |  0.014% | 11     |  0.017% | 
 | 464  | Rapidash           |  0.00013% | 86     |  0.076% | 57     |  0.086% | 
 | 465  | Delibird           |  0.00013% | 113    |  0.099% | 73     |  0.110% | 
 | 466  | Psyduck            |  0.00012% | 52     |  0.046% | 29     |  0.044% | 
 | 467  | Dewott             |  0.00012% | 47     |  0.041% | 39     |  0.059% | 
 | 468  | Cryogonal          |  0.00012% | 33     |  0.029% | 31     |  0.047% | 
 | 469  | Chatot             |  0.00012% | 54     |  0.047% | 32     |  0.048% | 
 | 470  | Crabominable       |  0.00012% | 68     |  0.060% | 50     |  0.075% | 
 | 471  | Rhyperior          |  0.00011% | 109    |  0.096% | 75     |  0.113% | 
 | 472  | Oshawott           |  0.00011% | 76     |  0.067% | 50     |  0.075% | 
 | 473  | Komala             |  0.00011% | 36     |  0.032% | 17     |  0.026% | 
 | 474  | Swanna             |  0.00011% | 54     |  0.047% | 27     |  0.041% | 
 | 475  | Gurdurr            |  0.00011% | 16     |  0.014% | 7      |  0.011% | 
 | 476  | Omastar            |  0.00011% | 65     |  0.057% | 49     |  0.074% | 
 | 477  | Kricketune         |  0.00011% | 25     |  0.022% | 14     |  0.021% | 
 | 478  | Snivy              |  0.00011% | 28     |  0.025% | 14     |  0.021% | 
 | 479  | Braixen            |  0.00011% | 45     |  0.040% | 26     |  0.039% | 
 | 480  | Chespin            |  0.00011% | 6      |  0.005% | 3      |  0.005% | 
 | 481  | Sawk               |  0.00011% | 129    |  0.113% | 79     |  0.119% | 
 | 482  | Latias             |  0.00010% | 104    |  0.091% | 60     |  0.090% | 
 | 483  | Vaporeon           |  0.00010% | 181    |  0.159% | 130    |  0.195% | 
 | 484  | Gastrodon          |  0.00010% | 139    |  0.122% | 68     |  0.102% | 
 | 485  | Sigilyph           |  0.00009% | 79     |  0.069% | 43     |  0.065% | 
 | 486  | Torkoal            |  0.00008% | 71     |  0.062% | 27     |  0.041% | 
 | 487  | Jigglypuff         |  0.00008% | 90     |  0.079% | 48     |  0.072% | 
 | 488  | Necrozma           |  0.00008% | 222    |  0.195% | 135    |  0.203% | 
 | 489  | Omanyte            |  0.00007% | 41     |  0.036% | 32     |  0.048% | 
 | 490  | Hippowdon          |  0.00007% | 123    |  0.108% | 89     |  0.134% | 
 | 491  | Dugtrio            |  0.00007% | 134    |  0.118% | 113    |  0.170% | 
 | 492  | Scrafty            |  0.00007% | 93     |  0.082% | 63     |  0.095% | 
 | 493  | Gourgeist-Super    |  0.00006% | 48     |  0.042% | 25     |  0.038% | 
 | 494  | Silvally-Dark      |  0.00006% | 23     |  0.020% | 12     |  0.018% | 
 | 495  | Honchkrow          |  0.00006% | 115    |  0.101% | 84     |  0.126% | 
 | 496  | Seviper            |  0.00006% | 52     |  0.046% | 36     |  0.054% | 
 | 497  | Raichu-Alola       |  0.00006% | 248    |  0.218% | 148    |  0.223% | 
 | 498  | Haunter            |  0.00006% | 85     |  0.075% | 41     |  0.062% | 
 | 499  | Granbull           |  0.00005% | 70     |  0.062% | 35     |  0.053% | 
 | 500  | Crawdaunt          |  0.00005% | 210    |  0.185% | 105    |  0.158% | 
 | 501  | Kingler            |  0.00005% | 102    |  0.090% | 74     |  0.111% | 
 | 502  | Jumpluff           |  0.00005% | 23     |  0.020% | 12     |  0.018% | 
 | 503  | Uxie               |  0.00005% | 61     |  0.054% | 39     |  0.059% | 
 | 504  | Poliwag            |  0.00005% | 31     |  0.027% | 22     |  0.033% | 
 | 505  | Grovyle            |  0.00005% | 17     |  0.015% | 15     |  0.023% | 
 | 506  | Charmander         |  0.00005% | 139    |  0.122% | 77     |  0.116% | 
 | 507  | Drifblim           |  0.00005% | 527    |  0.463% | 349    |  0.525% | 
 | 508  | Klefki             |  0.00005% | 146    |  0.128% | 93     |  0.140% | 
 | 509  | Silvally-Water     |  0.00005% | 6      |  0.005% | 3      |  0.005% | 
 | 510  | Elekid             |  0.00005% | 6      |  0.005% | 4      |  0.006% | 
 | 511  | Magnemite          |  0.00005% | 59     |  0.052% | 41     |  0.062% | 
 | 512  | Zorua              |  0.00005% | 43     |  0.038% | 31     |  0.047% | 
 | 513  | Furfrou            |  0.00005% | 66     |  0.058% | 39     |  0.059% | 
 | 514  | Samurott           |  0.00005% | 132    |  0.116% | 70     |  0.105% | 
 | 515  | Camerupt           |  0.00005% | 93     |  0.082% | 48     |  0.072% | 
 | 516  | Yanmega            |  0.00005% | 59     |  0.052% | 40     |  0.060% | 
 | 517  | Emboar             |  0.00005% | 278    |  0.244% | 137    |  0.206% | 
 | 518  | Drifloon           |  0.00004% | 9      |  0.008% | 7      |  0.011% | 
 | 519  | Silvally-Fairy     |  0.00004% | 33     |  0.029% | 22     |  0.033% | 
 | 520  | Typhlosion         |  0.00004% | 329    |  0.289% | 213    |  0.320% | 
 | 521  | Floatzel           |  0.00004% | 65     |  0.057% | 41     |  0.062% | 
 | 522  | Lickitung          |  0.00004% | 33     |  0.029% | 21     |  0.032% | 
 | 523  | Cherrim            |  0.00004% | 44     |  0.039% | 38     |  0.057% | 
 | 524  | Lurantis           |  0.00003% | 65     |  0.057% | 40     |  0.060% | 
 | 525  | Hitmonchan         |  0.00003% | 65     |  0.057% | 47     |  0.071% | 
 | 526  | Girafarig          |  0.00003% | 28     |  0.025% | 20     |  0.030% | 
 | 527  | Cleffa             |  0.00003% | 34     |  0.030% | 25     |  0.038% | 
 | 528  | Zubat              |  0.00003% | 236    |  0.207% | 157    |  0.236% | 
 | 529  | Pikachu-Hoenn      |  0.00003% | 50     |  0.044% | 39     |  0.059% | 
 | 530  | Silvally-Flying    |  0.00003% | 11     |  0.010% | 8      |  0.012% | 
 | 531  | Silvally-Poison    |  0.00003% | 24     |  0.021% | 10     |  0.015% | 
 | 532  | Gorebyss           |  0.00003% | 11     |  0.010% | 10     |  0.015% | 
 | 533  | Zigzagoon          |  0.00003% | 75     |  0.066% | 62     |  0.093% | 
 | 534  | Piplup             |  0.00003% | 20     |  0.018% | 14     |  0.021% | 
 | 535  | Yungoos            |  0.00003% | 17     |  0.015% | 12     |  0.018% | 
 | 536  | Sentret            |  0.00003% | 2      |  0.002% | 2      |  0.003% | 
 | 537  | Silvally-Fighting  |  0.00003% | 8      |  0.007% | 3      |  0.005% | 
 | 538  | Kingdra            |  0.00003% | 80     |  0.070% | 46     |  0.069% | 
 | 539  | Marill             |  0.00003% | 32     |  0.028% | 21     |  0.032% | 
 | 540  | Stoutland          |  0.00002% | 54     |  0.047% | 40     |  0.060% | 
 | 541  | Vigoroth           |  0.00002% | 11     |  0.010% | 4      |  0.006% | 
 | 542  | Spinda             |  0.00002% | 7      |  0.006% | 6      |  0.009% | 
 | 543  | Rockruff           |  0.00002% | 35     |  0.031% | 32     |  0.048% | 
 | 544  | Silvally-Ghost     |  0.00002% | 50     |  0.044% | 35     |  0.053% | 
 | 545  | Abra               |  0.00002% | 46     |  0.040% | 32     |  0.048% | 
 | 546  | Togetic            |  0.00002% | 30     |  0.026% | 22     |  0.033% | 
 | 547  | Bronzor            |  0.00002% | 9      |  0.008% | 7      |  0.011% | 
 | 548  | Frillish           |  0.00002% | 9      |  0.008% | 7      |  0.011% | 
 | 549  | Aipom              |  0.00002% | 10     |  0.009% | 7      |  0.011% | 
 | 550  | Cranidos           |  0.00002% | 10     |  0.009% | 9      |  0.014% | 
 | 551  | Ralts              |  0.00002% | 239    |  0.210% | 156    |  0.235% | 
 | 552  | Trapinch           |  0.00002% | 20     |  0.018% | 9      |  0.014% | 
 | 553  | Shelmet            |  0.00002% | 14     |  0.012% | 11     |  0.017% | 
 | 554  | Tynamo             |  0.00002% | 35     |  0.031% | 16     |  0.024% | 
 | 555  | Tauros             |  0.00002% | 47     |  0.041% | 22     |  0.033% | 
 | 556  | Mantine            |  0.00002% | 17     |  0.015% | 10     |  0.015% | 
 | 557  | Medicham           |  0.00002% | 27     |  0.024% | 18     |  0.027% | 
 | 558  | Meditite           |  0.00002% | 10     |  0.009% | 7      |  0.011% | 
 | 559  | Beartic            |  0.00001% | 44     |  0.039% | 31     |  0.047% | 
 | 560  | Pidgey             |  0.00001% | 56     |  0.049% | 33     |  0.050% | 
 | 561  | Pancham            |  0.00001% | 8      |  0.007% | 7      |  0.011% | 
 | 562  | Spearow            |  0.00001% | 53     |  0.047% | 13     |  0.020% | 
 | 563  | Pidgeotto          |  0.00001% | 16     |  0.014% | 15     |  0.023% | 
 | 564  | Fearow             |  0.00001% | 7      |  0.006% | 5      |  0.008% | 
 | 565  | Taillow            |  0.00001% | 15     |  0.013% | 13     |  0.020% | 
 | 566  | Aerodactyl         |  0.00001% | 54     |  0.047% | 29     |  0.044% | 
 | 567  | Simisage           |  0.00001% | 129    |  0.113% | 98     |  0.147% | 
 | 568  | Bagon              |  0.00001% | 36     |  0.032% | 15     |  0.023% | 
 | 569  | Gastly             |  0.00001% | 112    |  0.098% | 60     |  0.090% | 
 | 570  | Clawitzer          |  0.00001% | 110    |  0.097% | 54     |  0.081% | 
 | 571  | Misdreavus         |  0.00001% | 74     |  0.065% | 42     |  0.063% | 
 | 572  | Hoppip             |  0.00001% | 7      |  0.006% | 3      |  0.005% | 
 | 573  | Scizor             |  0.00001% | 135    |  0.119% | 81     |  0.122% | 
 | 574  | Hariyama           |  0.00001% | 66     |  0.058% | 47     |  0.071% | 
 | 575  | Sharpedo           |  0.00001% | 43     |  0.038% | 21     |  0.032% | 
 | 576  | Pyroar             |  0.00001% | 49     |  0.043% | 32     |  0.048% | 
 | 577  | Minior             |  0.00001% | 96     |  0.084% | 65     |  0.098% | 
 | 578  | Stantler           |  0.00001% | 70     |  0.062% | 18     |  0.027% | 
 | 579  | Staryu             |  0.00001% | 13     |  0.011% | 6      |  0.009% | 
 | 580  | Donphan            |  0.00001% | 43     |  0.038% | 29     |  0.044% | 
 | 581  | Kecleon            |  0.00001% | 51     |  0.045% | 36     |  0.054% | 
 | 582  | Vulpix-Alola       |  0.00001% | 24     |  0.021% | 15     |  0.023% | 
 | 583  | Pumpkaboo-Large    |  0.00001% | 12     |  0.011% | 4      |  0.006% | 
 | 584  | Golduck            |  0.00001% | 79     |  0.069% | 57     |  0.086% | 
 | 585  | Shiinotic          |  0.00001% | 28     |  0.025% | 19     |  0.029% | 
 | 586  | Hitmonlee          |  0.00001% | 94     |  0.083% | 57     |  0.086% | 
 | 587  | Delphox            |  0.00001% | 170    |  0.149% | 115    |  0.173% | 
 | 588  | Golem-Alola        |  0.00001% | 64     |  0.056% | 33     |  0.050% | 
 | 589  | Oranguru           |  0.00001% | 53     |  0.047% | 42     |  0.063% | 
 | 590  | Pidgeot            |  0.00001% | 49     |  0.043% | 33     |  0.050% | 
 | 591  | Vespiquen          |  0.00001% | 38     |  0.033% | 17     |  0.026% | 
 | 592  | Slakoth            |  0.00001% | 18     |  0.016% | 13     |  0.020% | 
 | 593  | Cubone             |  0.00001% | 46     |  0.040% | 29     |  0.044% | 
 | 594  | Piloswine          |  0.00001% | 16     |  0.014% | 12     |  0.018% | 
 | 595  | Magcargo           |  0.00001% | 50     |  0.044% | 30     |  0.045% | 
 | 596  | Litten             |  0.00001% | 11     |  0.010% | 10     |  0.015% | 
 | 597  | Litwick            |  0.00001% | 88     |  0.077% | 77     |  0.116% | 
 | 598  | Togepi             |  0.00001% | 94     |  0.083% | 55     |  0.083% | 
 | 599  | Emolga             |  0.00001% | 47     |  0.041% | 36     |  0.054% | 
 | 600  | Dewgong            |  0.00000% | 9      |  0.008% | 7      |  0.011% | 
 | 601  | Bibarel            |  0.00000% | 63     |  0.055% | 37     |  0.056% | 
 | 602  | Beedrill           |  0.00000% | 36     |  0.032% | 29     |  0.044% | 
 | 603  | Rotom              |  0.00000% | 81     |  0.071% | 61     |  0.092% | 
 | 604  | Raticate           |  0.00000% | 37     |  0.033% | 30     |  0.045% | 
 | 605  | Walrein            |  0.00000% | 210    |  0.185% | 93     |  0.140% | 
 | 606  | Kabuto             |  0.00000% | 45     |  0.040% | 39     |  0.059% | 
 | 607  | Charmeleon         |  0.00000% | 33     |  0.029% | 27     |  0.041% | 
 | 608  | Sandslash          |  0.00000% | 66     |  0.058% | 40     |  0.060% | 
 | 609  | Combee             |  0.00000% | 9      |  0.008% | 9      |  0.014% | 
 | 610  | Banette            |  0.00000% | 56     |  0.049% | 20     |  0.030% | 
 | 611  | Luvdisc            |  0.00000% | 12     |  0.011% | 9      |  0.014% | 
 | 612  | Ribombee-Totem     |  0.00000% | 22     |  0.019% | 13     |  0.020% | 
 | 613  | Primeape           |  0.00000% | 20     |  0.018% | 13     |  0.020% | 
 | 614  | Herdier            |  0.00000% | 2      |  0.002% | 2      |  0.003% | 
 | 615  | Lampent            |  0.00000% | 107    |  0.094% | 79     |  0.119% | 
 | 616  | Cyndaquil          |  0.00000% | 112    |  0.098% | 80     |  0.120% | 
 | 617  | Cascoon            |  0.00000% | 42     |  0.037% | 34     |  0.051% | 
 | 618  | Totodile           |  0.00000% | 13     |  0.011% | 10     |  0.015% | 
 | 619  | Chimchar           |  0.00000% | 11     |  0.010% | 10     |  0.015% | 
 | 620  | Mawile             |  0.00000% | 39     |  0.034% | 18     |  0.027% | 
 | 621  | Buizel             |  0.00000% | 18     |  0.016% | 14     |  0.021% | 
 | 622  | Solrock            |  0.00000% | 29     |  0.025% | 16     |  0.024% | 
 | 623  | Bulbasaur          |  0.00000% | 468    |  0.411% | 345    |  0.519% | 
 | 624  | Fennekin           |  0.00000% | 14     |  0.012% | 9      |  0.014% | 
 | 625  | Nuzleaf            |  0.00000% | 27     |  0.024% | 25     |  0.038% | 
 | 626  | Maractus           |  0.00000% | 73     |  0.064% | 53     |  0.080% | 
 | 627  | Poipole            |  0.00000% | 28     |  0.025% | 25     |  0.038% | 
 | 628  | Wishiwashi         |  0.00000% | 72     |  0.063% | 49     |  0.074% | 
 | 629  | Porygon            |  0.00000% | 17     |  0.015% | 15     |  0.023% | 
 | 630  | Shieldon           |  0.00000% | 39     |  0.034% | 31     |  0.047% | 
 | 631  | Beautifly          |  0.00000% | 11     |  0.010% | 4      |  0.006% | 
 | 632  | Metapod            |  0.00000% | 122    |  0.107% | 69     |  0.104% | 
 | 633  | Archen             |  0.00000% | 13     |  0.011% | 5      |  0.008% | 
 | 634  | Simipour           |  0.00000% | 24     |  0.021% | 10     |  0.015% | 
 | 635  | Grimer-Alola       |  0.00000% | 1      |  0.001% | 1      |  0.002% | 
 | 636  | Huntail            |  0.00000% | 10     |  0.009% | 8      |  0.012% | 
 | 637  | Mareep             |  0.00000% | 22     |  0.019% | 14     |  0.021% | 
 | 638  | Politoed           |  0.00000% | 77     |  0.068% | 45     |  0.068% | 
 | 639  | Crustle            |  0.00000% | 23     |  0.020% | 15     |  0.023% | 
 | 640  | Oricorio-Sensu     |  0.00000% | 50     |  0.044% | 34     |  0.051% | 
 | 641  | Leavanny           |  0.00000% | 32     |  0.028% | 17     |  0.026% | 
 | 642  | Pelipper           |  0.00000% | 70     |  0.062% | 47     |  0.071% | 
 | 643  | Budew              |  0.00000% | 415    |  0.365% | 233    |  0.350% | 
 | 644  | Masquerain         |  0.00000% | 19     |  0.017% | 4      |  0.006% | 
 | 645  | Wurmple            |  0.00000% | 21     |  0.018% | 19     |  0.029% | 
 | 646  | Dugtrio-Alola      |  0.00000% | 30     |  0.026% | 18     |  0.027% | 
 | 647  | Gumshoos           |  0.00000% | 10     |  0.009% | 4      |  0.006% | 
 | 648  | Wartortle          |  0.00000% | 39     |  0.034% | 28     |  0.042% | 
 | 649  | Ivysaur            |  0.00000% | 27     |  0.024% | 24     |  0.036% | 
 | 650  | Palpitoad          |  0.00000% | 35     |  0.031% | 30     |  0.045% | 
 | 651  | Persian-Alola      |  0.00000% | 76     |  0.067% | 58     |  0.087% | 
 | 652  | Silvally-Electric  |  0.00000% | 26     |  0.023% | 11     |  0.017% | 
 | 653  | Exeggutor-Alola    |  0.00000% | 40     |  0.035% | 28     |  0.042% | 
 | 654  | Skiploom           |  0.00000% | 34     |  0.030% | 20     |  0.030% | 
 | 655  | Croconaw           |  0.00000% | 38     |  0.033% | 24     |  0.036% | 
 | 656  | Barbaracle         |  0.00000% | 31     |  0.027% | 19     |  0.029% | 
 | 657  | Pidove             |  0.00000% | 20     |  0.018% | 15     |  0.023% | 
 | 658  | Klinklang          |  0.00000% | 8      |  0.007% | 6      |  0.009% | 
 | 659  | Ludicolo           |  0.00000% | 169    |  0.149% | 101    |  0.152% | 
 | 660  | Mesprit            |  0.00000% | 52     |  0.046% | 30     |  0.045% | 
 | 661  | Persian            |  0.00000% | 40     |  0.035% | 33     |  0.050% | 
 | 662  | Watchog            |  0.00000% | 50     |  0.044% | 24     |  0.036% | 
 | 663  | Seedot             |  0.00000% | 27     |  0.024% | 10     |  0.015% | 
 | 664  | Basculin           |  0.00000% | 33     |  0.029% | 18     |  0.027% | 
 | 665  | Sunflora           |  0.00000% | 128    |  0.113% | 76     |  0.114% | 
 | 666  | Dewpider           |  0.00000% | 9      |  0.008% | 6      |  0.009% | 
 | 667  | Gogoat             |  0.00000% | 18     |  0.016% | 7      |  0.011% | 
 | 668  | Kadabra            |  0.00000% | 15     |  0.013% | 11     |  0.017% | 
 | 669  | Plusle             |  0.00000% | 9      |  0.008% | 6      |  0.009% | 
 | 670  | Hoopa              |  0.00000% | 88     |  0.077% | 53     |  0.080% | 
 | 671  | Torchic            |  0.00000% | 48     |  0.042% | 39     |  0.059% | 
 | 672  | Bouffalant         |  0.00000% | 40     |  0.035% | 31     |  0.047% | 
 | 673  | Mudkip             |  0.00000% | 45     |  0.040% | 32     |  0.048% | 
 | 674  | Poochyena          |  0.00000% | 2      |  0.002% | 2      |  0.003% | 
 | 675  | Chikorita          |  0.00000% | 7      |  0.006% | 5      |  0.008% | 
 | 676  | Ducklett           |  0.00000% | 6      |  0.005% | 5      |  0.008% | 
 | 677  | Dratini            |  0.00000% | 44     |  0.039% | 20     |  0.030% | 
 | 678  | Axew               |  0.00000% | 17     |  0.015% | 8      |  0.012% | 
 | 679  | Corsola            |  0.00000% | 77     |  0.068% | 63     |  0.095% | 
 | 680  | Simisear           |  0.00000% | 67     |  0.059% | 61     |  0.092% | 
 | 681  | Wynaut             |  0.00000% | 119    |  0.105% | 47     |  0.071% | 
 | 682  | Larvesta           |  0.00000% | 7      |  0.006% | 4      |  0.006% | 
 | 683  | Mightyena          |  0.00000% | 22     |  0.019% | 14     |  0.021% | 
 | 684  | Skitty             |  0.00000% | 17     |  0.015% | 13     |  0.020% | 
 | 685  | Ariados            |  0.00000% | 42     |  0.037% | 29     |  0.044% | 
 | 686  | Ampharos           |  0.00000% | 106    |  0.093% | 74     |  0.111% | 
 | 687  | Kangaskhan         |  0.00000% | 21     |  0.018% | 15     |  0.023% | 
 | 688  | Fletchinder        |  0.00000% | 9      |  0.008% | 8      |  0.012% | 
 | 689  | Krabby             |  0.00000% | 11     |  0.010% | 10     |  0.015% | 
 | 690  | Claydol            |  0.00000% | 58     |  0.051% | 35     |  0.053% | 
 | 691  | Kakuna             |  0.00000% | 45     |  0.040% | 28     |  0.042% | 
 | 692  | Amaura             |  0.00000% | 2      |  0.002% | 2      |  0.003% | 
 | 693  | Wormadam-Trash     |  0.00000% | 16     |  0.014% | 12     |  0.018% | 
 | 694  | Tyrogue            |  0.00000% | 1      |  0.001% | 1      |  0.002% | 
 | 695  | Purugly            |  0.00000% | 11     |  0.010% | 9      |  0.014% | 
 | 696  | Victreebel         |  0.00000% | 68     |  0.060% | 49     |  0.074% | 
 | 697  | Aromatisse         |  0.00000% | 28     |  0.025% | 15     |  0.023% | 
 | 698  | Shiftry            |  0.00000% | 19     |  0.017% | 16     |  0.024% | 
 | 699  | Wigglytuff         |  0.00000% | 130    |  0.114% | 60     |  0.090% | 
 | 700  | Nidorina           |  0.00000% | 5      |  0.004% | 4      |  0.006% | 
 | 701  | Pansear            |  0.00000% | 5      |  0.004% | 5      |  0.008% | 
 | 702  | Houndoom           |  0.00000% | 47     |  0.041% | 36     |  0.054% | 
 | 703  | Scyther            |  0.00000% | 71     |  0.062% | 35     |  0.053% | 
 | 704  | Rowlet             |  0.00000% | 24     |  0.021% | 17     |  0.026% | 
 | 705  | Qwilfish           |  0.00000% | 16     |  0.014% | 8      |  0.012% | 
 | 706  | Onix               |  0.00000% | 32     |  0.028% | 28     |  0.042% | 
 | 707  | Sealeo             |  0.00000% | 5      |  0.004% | 4      |  0.006% | 
 | 708  | Combusken          |  0.00000% | 21     |  0.018% | 14     |  0.021% | 
 | 709  | Bruxish            |  0.00000% | 7      |  0.006% | 3      |  0.005% | 
 | 710  | Ledyba             |  0.00000% | 4      |  0.004% | 1      |  0.002% | 
 | 711  | Deerling           |  0.00000% | 39     |  0.034% | 20     |  0.030% | 
 | 712  | Litleo             |  0.00000% | 3      |  0.003% | 2      |  0.003% | 
 | 713  | Silcoon            |  0.00000% | 8      |  0.007% | 6      |  0.009% | 
 | 714  | Shelgon            |  0.00000% | 63     |  0.055% | 39     |  0.059% | 
 | 715  | Cubchoo            |  0.00000% | 9      |  0.008% | 6      |  0.009% | 
 | 716  | Bonsly             |  0.00000% | 1      |  0.001% | 1      |  0.002% | 
 | 717  | Bunnelby           |  0.00000% | 4      |  0.004% | 4      |  0.006% | 
 | 718  | Delcatty           |  0.00000% | 9      |  0.008% | 5      |  0.008% | 
 | 719  | Gourgeist-Large    |  0.00000% | 2      |  0.002% | 1      |  0.002% | 
 | 720  | Roggenrola         |  0.00000% | 32     |  0.028% | 24     |  0.036% | 
 | 721  | Swoobat            |  0.00000% | 72     |  0.063% | 42     |  0.063% | 
 | 722  | Venomoth           |  0.00000% | 52     |  0.046% | 43     |  0.065% | 
 | 723  | Dedenne            |  0.00000% | 26     |  0.023% | 19     |  0.029% | 
 | 724  | Murkrow            |  0.00000% | 27     |  0.024% | 14     |  0.021% | 
 | 725  | Mimikyu-Busted     |  0.00000% | 14     |  0.012% | 12     |  0.018% | 
 | 726  | Salazzle-Totem     |  0.00000% | 55     |  0.048% | 40     |  0.060% | 
 | 727  | Pikachu-Unova      |  0.00000% | 51     |  0.045% | 27     |  0.041% | 
 | 728  | Hitmontop          |  0.00000% | 52     |  0.046% | 31     |  0.047% | 
 | 729  | Doduo              |  0.00000% | 4      |  0.004% | 1      |  0.002% | 
 | 730  | Vanillish          |  0.00000% | 9      |  0.008% | 4      |  0.006% | 
 | 731  | Lotad              |  0.00000% | 6      |  0.005% | 4      |  0.006% | 
 | 732  | Exeggcute          |  0.00000% | 15     |  0.013% | 9      |  0.014% | 
 | 733  | Teddiursa          |  0.00000% | 8      |  0.007% | 5      |  0.008% | 
 | 734  | Armaldo            |  0.00000% | 41     |  0.036% | 27     |  0.041% | 
 | 735  | Feebas             |  0.00000% | 32     |  0.028% | 15     |  0.023% | 
 | 736  | Heatmor            |  0.00000% | 41     |  0.036% | 25     |  0.038% | 
 | 737  | Karrablast         |  0.00000% | 1      |  0.001% | 1      |  0.002% | 
 | 738  | Zweilous           |  0.00000% | 25     |  0.022% | 14     |  0.021% | 
 | 739  | Deino              |  0.00000% | 1      |  0.001% | 1      |  0.002% | 
 | 740  | Surskit            |  0.00000% | 6      |  0.005% | 2      |  0.003% | 
 | 741  | Ponyta             |  0.00000% | 8      |  0.007% | 5      |  0.008% | 
 | 742  | Smoochum           |  0.00000% | 7      |  0.006% | 5      |  0.008% | 
 | 743  | Wormadam           |  0.00000% | 7      |  0.006% | 6      |  0.009% | 
 | 744  | Electabuzz         |  0.00000% | 57     |  0.050% | 24     |  0.036% | 
 | 745  | Koffing            |  0.00000% | 10     |  0.009% | 9      |  0.014% | 
 | 746  | Beheeyem           |  0.00000% | 15     |  0.013% | 8      |  0.012% | 
 | 747  | Sneasel            |  0.00000% | 121    |  0.106% | 84     |  0.126% | 
 | 748  | Lombre             |  0.00000% | 2      |  0.002% | 2      |  0.003% | 
 | 749  | NidoranF           |  0.00000% | 10     |  0.009% | 8      |  0.012% | 
 | 750  | Metang             |  0.00000% | 29     |  0.025% | 18     |  0.027% | 
 | 751  | Popplio            |  0.00000% | 27     |  0.024% | 9      |  0.014% | 
 | 752  | Castform           |  0.00000% | 89     |  0.078% | 38     |  0.057% | 
 | 753  | Lillipup           |  0.00000% | 8      |  0.007% | 5      |  0.008% | 
 | 754  | Fomantis           |  0.00000% | 5      |  0.004% | 5      |  0.008% | 
 | 755  | Weepinbell         |  0.00000% | 2      |  0.002% | 2      |  0.003% | 
 | 756  | Lunatone           |  0.00000% | 11     |  0.010% | 10     |  0.015% | 
 | 757  | Frogadier          |  0.00000% | 15     |  0.013% | 7      |  0.011% | 
 | 758  | Gabite             |  0.00000% | 17     |  0.015% | 9      |  0.014% | 
 | 759  | Pupitar            |  0.00000% | 11     |  0.010% | 7      |  0.011% | 
 | 760  | Eelektrik          |  0.00000% | 4      |  0.004% | 2      |  0.003% | 
 | 761  | Ekans              |  0.00000% | 3      |  0.003% | 2      |  0.003% | 
 | 762  | Vikavolt-Totem     |  0.00000% | 26     |  0.023% | 16     |  0.024% | 
 | 763  | Tangela            |  0.00000% | 39     |  0.034% | 34     |  0.051% | 
 | 764  | Sandygast          |  0.00000% | 10     |  0.009% | 7      |  0.011% | 
 | 765  | Minun              |  0.00000% | 29     |  0.025% | 21     |  0.032% | 
 | 766  | Pansage            |  0.00000% | 2      |  0.002% | 1      |  0.002% | 
 | 767  | Gumshoos-Totem     |  0.00000% | 3      |  0.003% | 3      |  0.005% | 
 | 768  | Oddish             |  0.00000% | 8      |  0.007% | 6      |  0.009% | 
 | 769  | Burmy              |  0.00000% | 2      |  0.002% | 2      |  0.003% | 
 | 770  | Lairon             |  0.00000% | 14     |  0.012% | 12     |  0.018% | 
 | 771  | Rhyhorn            |  0.00000% | 4      |  0.004% | 4      |  0.006% | 
 | 772  | Kirlia             |  0.00000% | 21     |  0.018% | 14     |  0.021% | 
 | 773  | Krokorok           |  0.00000% | 43     |  0.038% | 31     |  0.047% | 
 | 774  | Sliggoo            |  0.00000% | 12     |  0.011% | 8      |  0.012% | 
 | 775  | Magby              |  0.00000% | 12     |  0.011% | 7      |  0.011% | 
 | 776  | Quilava            |  0.00000% | 11     |  0.010% | 6      |  0.009% | 
 | 777  | Azurill            |  0.00000% | 26     |  0.023% | 16     |  0.024% | 
 | 778  | Steenee            |  0.00000% | 4      |  0.004% | 2      |  0.003% | 
 | 779  | Snover             |  0.00000% | 7      |  0.006% | 4      |  0.006% | 
 | 780  | Araquanid-Totem    |  0.00000% | 36     |  0.032% | 24     |  0.036% | 
 | 781  | Togedemaru-Totem   |  0.00000% | 7      |  0.006% | 4      |  0.006% | 
 | 782  | Silvally-Fire      |  0.00000% | 23     |  0.020% | 20     |  0.030% | 
 | 783  | Venonat            |  0.00000% | 15     |  0.013% | 13     |  0.020% | 
 | 784  | Throh              |  0.00000% | 6      |  0.005% | 3      |  0.005% | 
 | 785  | Carnivine          |  0.00000% | 15     |  0.013% | 7      |  0.011% | 
 | 786  | Remoraid           |  0.00000% | 11     |  0.010% | 5      |  0.008% | 
 | 787  | Goldeen            |  0.00000% | 5      |  0.004% | 4      |  0.006% | 
 | 788  | Barboach           |  0.00000% | 4      |  0.004% | 2      |  0.003% | 
 | 789  | Marowak-Alola-Totem |  0.00000% | 15     |  0.013% | 11     |  0.017% | 
 | 790  | Pikipek            |  0.00000% | 4      |  0.004% | 2      |  0.003% | 
 | 791  | Panpour            |  0.00000% | 13     |  0.011% | 12     |  0.018% | 
 | 792  | Buneary            |  0.00000% | 7      |  0.006% | 2      |  0.003% | 
 | 793  | Duosion            |  0.00000% | 1      |  0.001% | 1      |  0.002% | 
 | 794  | Mankey             |  0.00000% | 5      |  0.004% | 3      |  0.005% | 
 | 795  | Gothorita          |  0.00000% | 12     |  0.011% | 6      |  0.009% | 
 | 796  | Snubbull           |  0.00000% | 1      |  0.001% | 1      |  0.002% | 
 | 797  | Mantyke            |  0.00000% | 6      |  0.005% | 4      |  0.006% | 
 | 798  | Pignite            |  0.00000% | 3      |  0.003% | 3      |  0.005% | 
 | 799  | Skrelp             |  0.00000% | 1      |  0.001% | 1      |  0.002% | 
 | 800  | Swirlix            |  0.00000% | 2      |  0.002% | 2      |  0.003% | 
 | 801  | Mime Jr.           |  0.00000% | 12     |  0.011% | 8      |  0.012% | 
 | 802  | NidoranM           |  0.00000% | 1      |  0.001% | 0      |  0.000% | 
 | 803  | Zebstrika          |  0.00000% | 20     |  0.018% | 15     |  0.023% | 
 | 804  | Minccino           |  0.00000% | 1      |  0.001% | 1      |  0.002% | 
 | 805  | Dragalge           |  0.00000% | 44     |  0.039% | 36     |  0.054% | 
 | 806  | Yanma              |  0.00000% | 1      |  0.001% | 1      |  0.002% | 
 | 807  | Shuppet            |  0.00000% | 8      |  0.007% | 5      |  0.008% | 
 | 808  | Dartrix            |  0.00000% | 6      |  0.005% | 3      |  0.005% | 
 | 809  | Gourgeist-Small    |  0.00000% | 1      |  0.001% | 0      |  0.000% | 
 | 810  | Fletchling         |  0.00000% | 2      |  0.002% | 1      |  0.002% | 
 | 811  | Oricorio-Pom-Pom   |  0.00000% | 19     |  0.017% | 10     |  0.015% | 
 | 812  | Chinchou           |  0.00000% | 3      |  0.003% | 3      |  0.005% | 
 | 813  | Gulpin             |  0.00000% | 1      |  0.001% | 1      |  0.002% | 
 | 814  | Mudbray            |  0.00000% | 6      |  0.005% | 5      |  0.008% | 
 | 815  | Geodude-Alola      |  0.00000% | 11     |  0.010% | 6      |  0.009% | 
 | 816  | Prinplup           |  0.00000% | 3      |  0.003% | 3      |  0.005% | 
 | 817  | Tropius            |  0.00000% | 7      |  0.006% | 4      |  0.006% | 
 | 818  | Slowpoke           |  0.00000% | 2      |  0.002% | 0      |  0.000% | 
 | 819  | Scraggy            |  0.00000% | 8      |  0.007% | 7      |  0.011% | 
 | 820  | Grubbin            |  0.00000% | 2      |  0.002% | 2      |  0.003% | 
 | 821  | Klink              |  0.00000% | 1      |  0.001% | 1      |  0.002% | 
 | 822  | Cherubi            |  0.00000% | 3      |  0.003% | 2      |  0.003% | 
 | 823  | Graveler-Alola     |  0.00000% | 3      |  0.003% | 2      |  0.003% | 
 | 824  | Corphish           |  0.00000% | 2      |  0.002% | 2      |  0.003% | 
 | 825  | Boldore            |  0.00000% | 5      |  0.004% | 4      |  0.006% | 
 | 826  | Venipede           |  0.00000% | 3      |  0.003% | 3      |  0.005% | 
 | 827  | Vulpix             |  0.00000% | 15     |  0.013% | 11     |  0.017% | 
 | 828  | Bellsprout         |  0.00000% | 25     |  0.022% | 13     |  0.020% | 
 | 829  | Lileep             |  0.00000% | 1      |  0.001% | 1      |  0.002% | 
 | 830  | Sewaddle           |  0.00000% | 3      |  0.003% | 3      |  0.005% | 
 | 831  | Duskull            |  0.00000% | 15     |  0.013% | 8      |  0.012% | 
 | 832  | Phantump           |  0.00000% | 11     |  0.010% | 7      |  0.011% | 
 | 833  | Spheal             |  0.00000% | 6      |  0.005% | 5      |  0.008% | 
 | 834  | Bayleef            |  0.00000% | 11     |  0.010% | 9      |  0.014% | 
 | 835  | Oricorio-Pa'u      |  0.00000% | 1      |  0.001% | 1      |  0.002% | 
 | 836  | Slowking           |  0.00000% | 23     |  0.020% | 17     |  0.026% | 
 | 837  | Charjabug          |  0.00000% | 5      |  0.004% | 2      |  0.003% | 
 | 838  | Beldum             |  0.00000% | 1      |  0.001% | 1      |  0.002% | 
 | 839  | Sandshrew          |  0.00000% | 8      |  0.007% | 7      |  0.011% | 
 | 840  | Larvitar           |  0.00000% | 4      |  0.004% | 3      |  0.005% | 
 | 841  | Silvally-Psychic   |  0.00000% | 2      |  0.002% | 1      |  0.002% | 
 | 842  | Spoink             |  0.00000% | 4      |  0.004% | 3      |  0.005% | 
 | 843  | Elgyem             |  0.00000% | 2      |  0.002% | 2      |  0.003% | 
 | 844  | Illumise           |  0.00000% | 1      |  0.001% | 0      |  0.000% | 
 | 845  | Floette            |  0.00000% | 3      |  0.003% | 0      |  0.000% | 
 | 846  | Electrike          |  0.00000% | 6      |  0.005% | 6      |  0.009% | 
 | 847  | Bounsweet          |  0.00000% | 2      |  0.002% | 1      |  0.002% | 
 | 848  | Drowzee            |  0.00000% | 2      |  0.002% | 2      |  0.003% | 
 | 849  | Spewpa             |  0.00000% | 2      |  0.002% | 2      |  0.003% | 
 | 850  | Silvally-Bug       |  0.00000% | 9      |  0.008% | 5      |  0.008% | 
 | 851  | Gourgeist          |  0.00000% | 4      |  0.004% | 2      |  0.003% | 
 | 852  | Oricorio           |  0.00000% | 4      |  0.004% | 3      |  0.005% | 
 | 853  | Poliwhirl          |  0.00000% | 16     |  0.014% | 15     |  0.023% | 
 | 854  | Woobat             |  0.00000% | 1      |  0.001% | 1      |  0.002% | 
 | 855  | Shellder           |  0.00000% | 5      |  0.004% | 3      |  0.005% | 
 | 856  | Jangmo-o           |  0.00000% | 1      |  0.001% | 0      |  0.000% | 
 | 857  | Pumpkaboo-Super    |  0.00000% | 4      |  0.004% | 4      |  0.006% | 
 | 858  | Marshtomp          |  0.00000% | 4      |  0.004% | 2      |  0.003% | 
 | 859  | Chingling          |  0.00000% | 11     |  0.010% | 7      |  0.011% | 
 | 860  | Noibat             |  0.00000% | 2      |  0.002% | 0      |  0.000% | 
 | 861  | Croagunk           |  0.00000% | 3      |  0.003% | 2      |  0.003% | 
 | 862  | Hoothoot           |  0.00000% | 3      |  0.003% | 1      |  0.002% | 
 | 863  | Relicanth          |  0.00000% | 5      |  0.004% | 5      |  0.008% | 
 | 864  | Stufful            |  0.00000% | 12     |  0.011% | 8      |  0.012% | 
 | 865  | Meowth-Alola       |  0.00000% | 3      |  0.003% | 1      |  0.002% | 
 | 866  | Kricketot          |  0.00000% | 1      |  0.001% | 0      |  0.000% | 
 | 867  | Sandile            |  0.00000% | 24     |  0.021% | 8      |  0.012% | 
 | 868  | Gible              |  0.00000% | 10     |  0.009% | 10     |  0.015% | 
 | 869  | Pinsir             |  0.00000% | 9      |  0.008% | 4      |  0.006% | 
 | 870  | Flaaffy            |  0.00000% | 47     |  0.041% | 31     |  0.047% | 
 | 871  | Voltorb            |  0.00000% | 5      |  0.004% | 4      |  0.006% | 
 | 872  | Bergmite           |  0.00000% | 1      |  0.001% | 1      |  0.002% | 
 | 873  | Swablu             |  0.00000% | 5      |  0.004% | 2      |  0.003% | 
 | 874  | Mothim             |  0.00000% | 5      |  0.004% | 5      |  0.008% | 
 | 875  | Silvally-Rock      |  0.00000% | 9      |  0.008% | 5      |  0.008% | 
 | 876  | Solosis            |  0.00000% | 8      |  0.007% | 7      |  0.011% | 
 | 877  | Timburr            |  0.00000% | 1      |  0.001% | 1      |  0.002% | 
 | 878  | Natu               |  0.00000% | 7      |  0.006% | 6      |  0.009% | 
 | 879  | Stunky             |  0.00000% | 6      |  0.005% | 4      |  0.006% | 
 | 880  | Spritzee           |  0.00000% | 1      |  0.001% | 0      |  0.000% | 
 | 881  | Swinub             |  0.00000% | 9      |  0.008% | 5      |  0.008% | 
 | 882  | Luxio              |  0.00000% | 4      |  0.004% | 4      |  0.006% | 
 | 883  | Grumpig            |  0.00000% | 6      |  0.005% | 3      |  0.005% | 
 | 884  | Crabrawler         |  0.00000% | 51     |  0.045% | 9      |  0.014% | 
 | 885  | Turtwig            |  0.00000% | 9      |  0.008% | 6      |  0.009% | 
 | 886  | Fraxure            |  0.00000% | 18     |  0.016% | 4      |  0.006% | 
 | 887  | Morelull           |  0.00000% | 3      |  0.003% | 0      |  0.000% | 
 | 888  | Glameow            |  0.00000% | 1      |  0.001% | 1      |  0.002% | 
 | 889  | Horsea             |  0.00000% | 4      |  0.004% | 4      |  0.006% | 
 | 890  | Petilil            |  0.00000% | 20     |  0.018% | 14     |  0.021% | 
 | 891  | Shinx              |  0.00000% | 1      |  0.001% | 1      |  0.002% | 
 | 892  | Grimer             |  0.00000% | 3      |  0.003% | 3      |  0.005% | 
 | 893  | Volbeat            |  0.00000% | 3      |  0.003% | 3      |  0.005% | 
 | 894  | Loudred            |  0.00000% | 3      |  0.003% | 2      |  0.003% | 
 | 895  | Growlithe          |  0.00000% | 5      |  0.004% | 4      |  0.006% | 
 | 896  | Cacnea             |  0.00000% | 7      |  0.006% | 7      |  0.011% | 
 | 897  | Purrloin           |  0.00000% | 4      |  0.004% | 0      |  0.000% | 
 | 898  | Magmar             |  0.00000% | 5      |  0.004% | 2      |  0.003% | 
 | 899  | Whirlipede         |  0.00000% | 2      |  0.002% | 2      |  0.003% | 
 | 900  | Graveler           |  0.00000% | 2      |  0.002% | 2      |  0.003% | 
 | 901  | Darumaka           |  0.00000% | 12     |  0.011% | 8      |  0.012% | 
 | 902  | Staravia           |  0.00000% | 5      |  0.004% | 4      |  0.006% | 
 | 903  | Quilladin          |  0.00000% | 4      |  0.004% | 3      |  0.005% | 
 | 904  | Makuhita           |  0.00000% | 30     |  0.026% | 5      |  0.008% | 
 | 905  | Phione             |  0.00000% | 33     |  0.029% | 31     |  0.047% | 
 | 906  | Inkay              |  0.00000% | 3      |  0.003% | 2      |  0.003% | 
 | 907  | Monferno           |  0.00000% | 3      |  0.003% | 0      |  0.000% | 
 | 908  | Joltik             |  0.00000% | 3      |  0.003% | 1      |  0.002% | 
 | 909  | Mienfoo            |  0.00000% | 39     |  0.034% | 6      |  0.009% | 
 | 910  | Anorith            |  0.00000% | 2      |  0.002% | 0      |  0.000% | 
 | 911  | Tranquill          |  0.00000% | 2      |  0.002% | 1      |  0.002% | 
 | 912  | Scatterbug         |  0.00000% | 5      |  0.004% | 5      |  0.008% | 
 | 913  | Trumbeak           |  0.00000% | 1      |  0.001% | 1      |  0.002% | 
 | 914  | Lurantis-Totem     |  0.00000% | 22     |  0.019% | 11     |  0.017% | 
 | 915  | Darmanitan-Galar-Zen |  0.00000% | 1      |  0.001% | 1      |  0.002% | 
 | 916  | Vanillite          |  0.00000% | 202    |  0.178% | 6      |  0.009% | 
 | 917  | Mimikyu-Busted-Totem |  0.00000% | 14     |  0.012% | 9      |  0.014% | 
 | 918  | Golett             |  0.00000% | 11     |  0.010% | 9      |  0.014% | 
 | 919  | Seadra             |  0.00000% | 1      |  0.001% | 1      |  0.002% | 
 | 920  | Tirtouga           |  0.00000% | 4      |  0.004% | 4      |  0.006% | 
 | 921  | Slugma             |  0.00000% | 4      |  0.004% | 3      |  0.005% | 
 | 922  | Whismur            |  0.00000% | 5      |  0.004% | 3      |  0.005% | 
 | 923  | Gloom              |  0.00000% | 19     |  0.017% | 7      |  0.011% | 
 | 924  | Patrat             |  0.00000% | 1      |  0.001% | 1      |  0.002% | 
 | 925  | Silvally-Ground    |  0.00000% | 3      |  0.003% | 1      |  0.002% | 
 | 926  | Passimian          |  0.00000% | 12     |  0.011% | 8      |  0.012% | 
 | 927  | Nidorino           |  0.00000% | 2      |  0.002% | 1      |  0.002% | 
 | 928  | Spinarak           |  0.00000% | 9      |  0.008% | 6      |  0.009% | 
 | 929  | Flabebe            |  0.00000% | 3      |  0.003% | 3      |  0.005% | 
 | 930  | Silvally-Grass     |  0.00000% | 3      |  0.003% | 2      |  0.003% | 
 + ---- + ------------------ + --------- + ------ + ------- + ------ + ------- + 
