 Total battles: 283096
 Avg. weight/team: 1.0
 + ---- + ------------------ + --------- + ------ + ------- + ------ + ------- + 
 | Rank | Pokemon            | Usage %   | Raw    | %       | Real   | %       | 
 + ---- + ------------------ + --------- + ------ + ------- + ------ + ------- + 
 | 1    | Rayquaza-Mega      | 14.79339% | 83759  | 14.793% | 52430  | 14.676% | 
 | 2    | Groudon-Primal     | 12.99647% | 73585  | 12.996% | 50739  | 14.203% | 
 | 3    | Smeargle           | 11.31860% | 64085  | 11.319% | 40016  | 11.201% | 
 | 4    | Kyogre-Primal      |  9.45510% | 53534  |  9.455% | 32969  |  9.229% | 
 | 5    | Marshadow          |  9.43426% | 53416  |  9.434% | 34628  |  9.693% | 
 | 6    | Xerneas            |  9.17427% | 51944  |  9.174% | 31733  |  8.883% | 
 | 7    | Aegislash          |  7.40526% | 41928  |  7.405% | 27130  |  7.594% | 
 | 8    | Greninja-Ash       |  7.37188% | 41739  |  7.372% | 27845  |  7.794% | 
 | 9    | Ferrothorn         |  6.29327% | 35632  |  6.293% | 27003  |  7.559% | 
 | 10   | Ditto              |  5.87115% | 33242  |  5.871% | 12577  |  3.521% | 
 | 11   | Gliscor            |  5.48860% | 31076  |  5.489% | 20651  |  5.781% | 
 | 12   | Darkrai            |  5.37768% | 30448  |  5.378% | 19089  |  5.343% | 
 | 13   | Garchomp           |  5.00007% | 28310  |  5.000% | 19001  |  5.319% | 
 | 14   | Blaziken-Mega      |  4.97676% | 28178  |  4.977% | 19047  |  5.332% | 
 | 15   | Necrozma-Dusk-Mane |  4.81356% | 27254  |  4.814% | 17586  |  4.923% | 
 | 16   | Mimikyu            |  4.66714% | 26425  |  4.667% | 17717  |  4.959% | 
 | 17   | Shuckle            |  4.37484% | 24770  |  4.375% | 15952  |  4.465% | 
 | 18   | Snorlax            |  4.17420% | 23634  |  4.174% | 14332  |  4.012% | 
 | 19   | Toxapex            |  4.11062% | 23274  |  4.111% | 16299  |  4.562% | 
 | 20   | Cloyster           |  4.06505% | 23016  |  4.065% | 15306  |  4.284% | 
 | 21   | Charizard-Mega-X   |  4.05216% | 22943  |  4.052% | 15620  |  4.372% | 
 | 22   | Mewtwo-Mega-Y      |  4.02620% | 22796  |  4.026% | 14423  |  4.037% | 
 | 23   | Gengar-Mega        |  3.94990% | 22364  |  3.950% | 14351  |  4.017% | 
 | 24   | Arceus             |  3.93047% | 22254  |  3.930% | 13424  |  3.758% | 
 | 25   | Eevee              |  3.90274% | 22097  |  3.903% | 17461  |  4.888% | 
 | 26   | Yveltal            |  3.81337% | 21591  |  3.813% | 14013  |  3.923% | 
 | 27   | Espeon             |  3.79359% | 21479  |  3.794% | 13498  |  3.778% | 
 | 28   | Dragonite          |  3.72135% | 21070  |  3.721% | 13441  |  3.762% | 
 | 29   | Greninja           |  3.57335% | 20232  |  3.573% | 13532  |  3.788% | 
 | 30   | Zygarde            |  3.53767% | 20030  |  3.538% | 12471  |  3.491% | 
 | 31   | Gengar             |  3.49069% | 19764  |  3.491% | 12841  |  3.594% | 
 | 32   | Serperior          |  3.48574% | 19736  |  3.486% | 12254  |  3.430% | 
 | 33   | Volcarona          |  3.44194% | 19488  |  3.442% | 12196  |  3.414% | 
 | 34   | Kartana            |  3.42693% | 19403  |  3.427% | 12602  |  3.528% | 
 | 35   | Togekiss           |  3.41669% | 19345  |  3.417% | 12089  |  3.384% | 
 | 36   | Lucario-Mega       |  3.39673% | 19232  |  3.397% | 12981  |  3.634% | 
 | 37   | Drifblim           |  3.37094% | 19086  |  3.371% | 15485  |  4.335% | 
 | 38   | Breloom            |  3.25013% | 18402  |  3.250% | 11646  |  3.260% | 
 | 39   | Lugia              |  3.22311% | 18249  |  3.223% | 11471  |  3.211% | 
 | 40   | Clefable           |  3.15511% | 17864  |  3.155% | 10347  |  2.896% | 
 | 41   | Blaziken           |  3.08818% | 17485  |  3.088% | 11799  |  3.303% | 
 | 42   | Skarmory           |  3.07051% | 17385  |  3.071% | 13613  |  3.811% | 
 | 43   | Chansey            |  3.04950% | 17266  |  3.049% | 10096  |  2.826% | 
 | 44   | Tyranitar          |  3.00499% | 17014  |  3.005% | 11562  |  3.236% | 
 | 45   | Scolipede          |  2.86157% | 16202  |  2.862% | 11976  |  3.352% | 
 | 46   | Krookodile         |  2.83402% | 16046  |  2.834% | 9551   |  2.674% | 
 | 47   | Ninjask            |  2.79728% | 15838  |  2.797% | 11837  |  3.313% | 
 | 48   | Mew                |  2.72469% | 15427  |  2.725% | 9091   |  2.545% | 
 | 49   | Metagross-Mega     |  2.63427% | 14915  |  2.634% | 9725   |  2.722% | 
 | 50   | Charizard-Mega-Y   |  2.57316% | 14569  |  2.573% | 9783   |  2.738% | 
 | 51   | Azumarill          |  2.52459% | 14294  |  2.525% | 9335   |  2.613% | 
 | 52   | Excadrill          |  2.50710% | 14195  |  2.507% | 9496   |  2.658% | 
 | 53   | Rattata            |  2.50304% | 14172  |  2.503% | 4389   |  1.229% | 
 | 54   | Arceus-Fairy       |  2.45818% | 13918  |  2.458% | 9063   |  2.537% | 
 | 55   | Umbreon            |  2.43398% | 13781  |  2.434% | 8934   |  2.501% | 
 | 56   | Forretress         |  2.39265% | 13547  |  2.393% | 11542  |  3.231% | 
 | 57   | Salamence-Mega     |  2.33702% | 13232  |  2.337% | 8642   |  2.419% | 
 | 58   | Infernape          |  2.32677% | 13174  |  2.327% | 9239   |  2.586% | 
 | 59   | Deoxys-Attack      |  2.29339% | 12985  |  2.293% | 7143   |  1.999% | 
 | 60   | Gardevoir          |  2.27043% | 12855  |  2.270% | 8223   |  2.302% | 
 | 61   | Tapu Koko          |  2.26089% | 12801  |  2.261% | 8741   |  2.447% | 
 | 62   | Shaymin-Sky        |  2.24853% | 12731  |  2.249% | 7540   |  2.111% | 
 | 63   | Zeraora            |  2.23740% | 12668  |  2.237% | 8544   |  2.392% | 
 | 64   | Naganadel          |  2.23175% | 12636  |  2.232% | 8107   |  2.269% | 
 | 65   | Necrozma-Dawn-Wings |  2.20385% | 12478  |  2.204% | 7496   |  2.098% | 
 | 66   | Weavile            |  2.18866% | 12392  |  2.189% | 8779   |  2.457% | 
 | 67   | Giratina-Origin    |  2.17311% | 12304  |  2.173% | 7812   |  2.187% | 
 | 68   | Dialga             |  2.16676% | 12268  |  2.167% | 7914   |  2.215% | 
 | 69   | Shedinja           |  2.05655% | 11644  |  2.057% | 6726   |  1.883% | 
 | 70   | Mewtwo             |  2.04913% | 11602  |  2.049% | 6971   |  1.951% | 
 | 71   | Chandelure         |  2.03253% | 11508  |  2.033% | 7453   |  2.086% | 
 | 72   | Mewtwo-Mega-X      |  2.01310% | 11398  |  2.013% | 7165   |  2.006% | 
 | 73   | Blissey            |  1.99031% | 11269  |  1.990% | 6433   |  1.801% | 
 | 74   | Gardevoir-Mega     |  1.98378% | 11232  |  1.984% | 6957   |  1.947% | 
 | 75   | Galvantula         |  1.97106% | 11160  |  1.971% | 9277   |  2.597% | 
 | 76   | Ho-Oh              |  1.95075% | 11045  |  1.951% | 7555   |  2.115% | 
 | 77   | Jolteon            |  1.94033% | 10986  |  1.940% | 7574   |  2.120% | 
 | 78   | Milotic            |  1.91649% | 10851  |  1.916% | 6879   |  1.926% | 
 | 79   | Sylveon            |  1.91596% | 10848  |  1.916% | 6576   |  1.841% | 
 | 80   | Crobat             |  1.91437% | 10839  |  1.914% | 7348   |  2.057% | 
 | 81   | Ninetales-Alola    |  1.89671% | 10739  |  1.897% | 7444   |  2.084% | 
 | 82   | Sableye-Mega       |  1.88894% | 10695  |  1.889% | 8234   |  2.305% | 
 | 83   | Kommo-o            |  1.86862% | 10580  |  1.869% | 6840   |  1.915% | 
 | 84   | Landorus-Therian   |  1.85432% | 10499  |  1.854% | 7498   |  2.099% | 
 | 85   | Metagross          |  1.82553% | 10336  |  1.826% | 7039   |  1.970% | 
 | 86   | Hydreigon          |  1.79833% | 10182  |  1.798% | 6541   |  1.831% | 
 | 87   | Gyarados           |  1.78402% | 10101  |  1.784% | 6750   |  1.889% | 
 | 88   | Lucario            |  1.77201% | 10033  |  1.772% | 6587   |  1.844% | 
 | 89   | Jirachi            |  1.76301% | 9982   |  1.763% | 5582   |  1.563% | 
 | 90   | Arcanine           |  1.73033% | 9797   |  1.730% | 6710   |  1.878% | 
 | 91   | Swampert-Mega      |  1.70031% | 9627   |  1.700% | 6565   |  1.838% | 
 | 92   | Deoxys-Speed       |  1.69289% | 9585   |  1.693% | 7423   |  2.078% | 
 | 93   | Kangaskhan-Mega    |  1.68600% | 9546   |  1.686% | 6425   |  1.799% | 
 | 94   | Heatran            |  1.66905% | 9450   |  1.669% | 6614   |  1.851% | 
 | 95   | Alakazam-Mega      |  1.65492% | 9370   |  1.655% | 5811   |  1.627% | 
 | 96   | Vaporeon           |  1.65474% | 9369   |  1.655% | 5850   |  1.638% | 
 | 97   | Venusaur           |  1.64326% | 9304   |  1.643% | 6078   |  1.701% | 
 | 98   | Rotom-Wash         |  1.62807% | 9218   |  1.628% | 6221   |  1.741% | 
 | 99   | Tyranitar-Mega     |  1.62030% | 9174   |  1.620% | 6130   |  1.716% | 
 | 100  | Scizor-Mega        |  1.61129% | 9123   |  1.611% | 5993   |  1.678% | 
 | 101  | Venusaur-Mega      |  1.60511% | 9088   |  1.605% | 5970   |  1.671% | 
 | 102  | Sceptile-Mega      |  1.60034% | 9061   |  1.600% | 5594   |  1.566% | 
 | 103  | Staraptor          |  1.58586% | 8979   |  1.586% | 6003   |  1.680% | 
 | 104  | Magnezone          |  1.58215% | 8958   |  1.582% | 6038   |  1.690% | 
 | 105  | Lopunny-Mega       |  1.55195% | 8787   |  1.552% | 6135   |  1.717% | 
 | 106  | Arceus-Steel       |  1.54806% | 8765   |  1.548% | 5624   |  1.574% | 
 | 107  | Incineroar         |  1.54312% | 8737   |  1.543% | 5880   |  1.646% | 
 | 108  | Porygon-Z          |  1.51574% | 8582   |  1.516% | 5362   |  1.501% | 
 | 109  | Zapdos             |  1.51185% | 8560   |  1.512% | 5608   |  1.570% | 
 | 110  | Hawlucha           |  1.50603% | 8527   |  1.506% | 5578   |  1.561% | 
 | 111  | Garchomp-Mega      |  1.49349% | 8456   |  1.493% | 5725   |  1.603% | 
 | 112  | Kyogre             |  1.48536% | 8410   |  1.485% | 5165   |  1.446% | 
 | 113  | Malamar            |  1.48218% | 8392   |  1.482% | 5564   |  1.557% | 
 | 114  | Beedrill-Mega      |  1.47547% | 8354   |  1.475% | 5306   |  1.485% | 
 | 115  | Celesteela         |  1.46911% | 8318   |  1.469% | 5616   |  1.572% | 
 | 116  | Salamence          |  1.46187% | 8277   |  1.462% | 5216   |  1.460% | 
 | 117  | Kyurem-White       |  1.44951% | 8207   |  1.450% | 4934   |  1.381% | 
 | 118  | Salazzle           |  1.44739% | 8195   |  1.447% | 5379   |  1.506% | 
 | 119  | Talonflame         |  1.42249% | 8054   |  1.422% | 5542   |  1.551% | 
 | 120  | Bisharp            |  1.41754% | 8026   |  1.418% | 5368   |  1.503% | 
 | 121  | Mawile-Mega        |  1.41242% | 7997   |  1.412% | 5415   |  1.516% | 
 | 122  | Zoroark            |  1.41118% | 7990   |  1.411% | 3451   |  0.966% | 
 | 123  | Lunala             |  1.40429% | 7951   |  1.404% | 4582   |  1.283% | 
 | 124  | Wobbuffet          |  1.39281% | 7886   |  1.393% | 4133   |  1.157% | 
 | 125  | Scizor             |  1.38186% | 7824   |  1.382% | 5224   |  1.462% | 
 | 126  | Gallade-Mega       |  1.37674% | 7795   |  1.377% | 5158   |  1.444% | 
 | 127  | Whimsicott         |  1.36332% | 7719   |  1.363% | 5040   |  1.411% | 
 | 128  | Lapras             |  1.35996% | 7700   |  1.360% | 5144   |  1.440% | 
 | 129  | Pikachu            |  1.34707% | 7627   |  1.347% | 5006   |  1.401% | 
 | 130  | Nidoking           |  1.34689% | 7626   |  1.347% | 5381   |  1.506% | 
 | 131  | Victini            |  1.34071% | 7591   |  1.341% | 4482   |  1.255% | 
 | 132  | Genesect           |  1.34000% | 7587   |  1.340% | 4537   |  1.270% | 
 | 133  | Haxorus            |  1.33541% | 7561   |  1.335% | 4624   |  1.294% | 
 | 134  | Zekrom             |  1.32181% | 7484   |  1.322% | 4728   |  1.323% | 
 | 135  | Pheromosa          |  1.31263% | 7432   |  1.313% | 4644   |  1.300% | 
 | 136  | Diancie-Mega       |  1.30027% | 7362   |  1.300% | 5360   |  1.500% | 
 | 137  | Alakazam           |  1.29002% | 7304   |  1.290% | 4554   |  1.275% | 
 | 138  | Decidueye          |  1.28331% | 7266   |  1.283% | 4716   |  1.320% | 
 | 139  | Heracross-Mega     |  1.26759% | 7177   |  1.268% | 4505   |  1.261% | 
 | 140  | Blacephalon        |  1.25947% | 7131   |  1.259% | 4521   |  1.266% | 
 | 141  | Kyurem-Black       |  1.25028% | 7079   |  1.250% | 4428   |  1.239% | 
 | 142  | Magearna           |  1.24940% | 7074   |  1.249% | 4559   |  1.276% | 
 | 143  | Electivire         |  1.23227% | 6977   |  1.232% | 4823   |  1.350% | 
 | 144  | Flygon             |  1.21778% | 6895   |  1.218% | 4735   |  1.325% | 
 | 145  | Charizard          |  1.21778% | 6895   |  1.218% | 4523   |  1.266% | 
 | 146  | Palkia             |  1.21196% | 6862   |  1.212% | 4347   |  1.217% | 
 | 147  | Gyarados-Mega      |  1.21037% | 6853   |  1.210% | 4645   |  1.300% | 
 | 148  | Durant             |  1.20207% | 6806   |  1.202% | 4584   |  1.283% | 
 | 149  | Empoleon           |  1.18264% | 6696   |  1.183% | 4674   |  1.308% | 
 | 150  | Roserade           |  1.16215% | 6580   |  1.162% | 4649   |  1.301% | 
 | 151  | Goodra             |  1.15244% | 6525   |  1.152% | 4193   |  1.174% | 
 | 152  | Sceptile           |  1.13778% | 6442   |  1.138% | 4055   |  1.135% | 
 | 153  | Dugtrio            |  1.08885% | 6165   |  1.089% | 3950   |  1.106% | 
 | 154  | Deoxys-Defense     |  1.07649% | 6095   |  1.076% | 4213   |  1.179% | 
 | 155  | Tapu Lele          |  1.06377% | 6023   |  1.064% | 3763   |  1.053% | 
 | 156  | Noivern            |  1.05883% | 5995   |  1.059% | 3982   |  1.115% | 
 | 157  | Muk-Alola          |  1.05088% | 5950   |  1.051% | 3975   |  1.113% | 
 | 158  | Swampert           |  1.04382% | 5910   |  1.044% | 4243   |  1.188% | 
 | 159  | Aggron             |  1.03781% | 5876   |  1.038% | 3977   |  1.113% | 
 | 160  | Froslass           |  1.03463% | 5858   |  1.035% | 4496   |  1.259% | 
 | 161  | Machamp            |  1.02704% | 5815   |  1.027% | 3922   |  1.098% | 
 | 162  | Pyukumuku          |  1.02068% | 5779   |  1.021% | 3367   |  0.942% | 
 | 163  | Golisopod          |  1.01750% | 5761   |  1.017% | 3733   |  1.045% | 
 | 164  | Typhlosion         |  0.98677% | 5587   |  0.987% | 3750   |  1.050% | 
 | 165  | Linoone            |  0.96381% | 5457   |  0.964% | 3435   |  0.962% | 
 | 166  | Xurkitree          |  0.95286% | 5395   |  0.953% | 3319   |  0.929% | 
 | 167  | Absol-Mega         |  0.95038% | 5381   |  0.950% | 3841   |  1.075% | 
 | 168  | Articuno           |  0.94632% | 5358   |  0.946% | 3075   |  0.861% | 
 | 169  | Ambipom            |  0.93378% | 5287   |  0.934% | 3657   |  1.024% | 
 | 170  | Drapion            |  0.91524% | 5182   |  0.915% | 3658   |  1.024% | 
 | 171  | Altaria-Mega       |  0.90605% | 5130   |  0.906% | 3215   |  0.900% | 
 | 172  | Reshiram           |  0.90323% | 5114   |  0.903% | 3230   |  0.904% | 
 | 173  | Tentacruel         |  0.90005% | 5096   |  0.900% | 3629   |  1.016% | 
 | 174  | Ludicolo           |  0.89916% | 5091   |  0.899% | 2796   |  0.783% | 
 | 175  | Klefki             |  0.89828% | 5086   |  0.898% | 3517   |  0.984% | 
 | 176  | Mamoswine          |  0.89599% | 5073   |  0.896% | 3519   |  0.985% | 
 | 177  | Solgaleo           |  0.88963% | 5037   |  0.890% | 3261   |  0.913% | 
 | 178  | Blastoise          |  0.88663% | 5020   |  0.887% | 3371   |  0.944% | 
 | 179  | Luxray             |  0.88062% | 4986   |  0.881% | 3422   |  0.958% | 
 | 180  | Rayquaza           |  0.87815% | 4972   |  0.878% | 3079   |  0.862% | 
 | 181  | Primarina          |  0.86313% | 4887   |  0.863% | 3237   |  0.906% | 
 | 182  | Quagsire           |  0.85360% | 4833   |  0.854% | 3150   |  0.882% | 
 | 183  | Lycanroc-Dusk      |  0.85024% | 4814   |  0.850% | 3327   |  0.931% | 
 | 184  | Volcanion          |  0.84477% | 4783   |  0.845% | 3249   |  0.909% | 
 | 185  | Torterra           |  0.84388% | 4778   |  0.844% | 3308   |  0.926% | 
 | 186  | Tapu Bulu          |  0.84017% | 4757   |  0.840% | 2878   |  0.806% | 
 | 187  | Mr. Mime           |  0.83329% | 4718   |  0.833% | 2642   |  0.740% | 
 | 188  | Feraligatr         |  0.82746% | 4685   |  0.827% | 3053   |  0.855% | 
 | 189  | Eelektross         |  0.81350% | 4606   |  0.814% | 3077   |  0.861% | 
 | 190  | Marowak-Alola      |  0.81086% | 4591   |  0.811% | 3300   |  0.924% | 
 | 191  | Arceus-Ghost       |  0.80626% | 4565   |  0.806% | 2713   |  0.759% | 
 | 192  | Giratina           |  0.80556% | 4561   |  0.806% | 2876   |  0.805% | 
 | 193  | Pelipper           |  0.80326% | 4548   |  0.803% | 3465   |  0.970% | 
 | 194  | Darmanitan         |  0.80220% | 4542   |  0.802% | 2841   |  0.795% | 
 | 195  | Kingdra            |  0.79514% | 4502   |  0.795% | 2879   |  0.806% | 
 | 196  | Conkeldurr         |  0.78807% | 4462   |  0.788% | 2916   |  0.816% | 
 | 197  | Toxicroak          |  0.78737% | 4458   |  0.787% | 2974   |  0.832% | 
 | 198  | Cinccino           |  0.78666% | 4454   |  0.787% | 2715   |  0.760% | 
 | 199  | Ninetales          |  0.78595% | 4450   |  0.786% | 2991   |  0.837% | 
 | 200  | Hoopa-Unbound      |  0.76776% | 4347   |  0.768% | 2656   |  0.743% | 
 | 201  | Vivillon           |  0.74674% | 4228   |  0.747% | 2566   |  0.718% | 
 | 202  | Magnemite          |  0.74356% | 4210   |  0.744% | 1747   |  0.489% | 
 | 203  | Butterfree         |  0.74250% | 4204   |  0.743% | 2719   |  0.761% | 
 | 204  | Blastoise-Mega     |  0.74091% | 4195   |  0.741% | 2829   |  0.792% | 
 | 205  | Buzzwole           |  0.73438% | 4158   |  0.734% | 2628   |  0.736% | 
 | 206  | Hippowdon          |  0.73085% | 4138   |  0.731% | 3040   |  0.851% | 
 | 207  | Raichu-Alola       |  0.72767% | 4120   |  0.728% | 2685   |  0.752% | 
 | 208  | Medicham-Mega      |  0.72626% | 4112   |  0.726% | 2682   |  0.751% | 
 | 209  | Slurpuff           |  0.72343% | 4096   |  0.723% | 2605   |  0.729% | 
 | 210  | Starmie            |  0.71213% | 4032   |  0.712% | 2549   |  0.714% | 
 | 211  | Gallade            |  0.71160% | 4029   |  0.712% | 2576   |  0.721% | 
 | 212  | Aggron-Mega        |  0.71054% | 4023   |  0.711% | 2722   |  0.762% | 
 | 213  | Arceus-Ground      |  0.70471% | 3990   |  0.705% | 2873   |  0.804% | 
 | 214  | Ribombee           |  0.69817% | 3953   |  0.698% | 2914   |  0.816% | 
 | 215  | Minior             |  0.69800% | 3952   |  0.698% | 2340   |  0.655% | 
 | 216  | Dusknoir           |  0.69782% | 3951   |  0.698% | 2793   |  0.782% | 
 | 217  | Arceus-Water       |  0.69676% | 3945   |  0.697% | 2507   |  0.702% | 
 | 218  | Tangrowth          |  0.69323% | 3925   |  0.693% | 2477   |  0.693% | 
 | 219  | Raichu             |  0.69234% | 3920   |  0.692% | 2717   |  0.761% | 
 | 220  | Tyrantrum          |  0.69234% | 3920   |  0.692% | 2434   |  0.681% | 
 | 221  | Vikavolt           |  0.68263% | 3865   |  0.683% | 2355   |  0.659% | 
 | 222  | Weezing            |  0.67945% | 3847   |  0.679% | 3081   |  0.862% | 
 | 223  | Heracross          |  0.67857% | 3842   |  0.679% | 2583   |  0.723% | 
 | 224  | Celebi             |  0.67398% | 3816   |  0.674% | 2477   |  0.693% | 
 | 225  | Reuniclus          |  0.66956% | 3791   |  0.670% | 2313   |  0.647% | 
 | 226  | Pidgeot-Mega       |  0.66779% | 3781   |  0.668% | 2625   |  0.735% | 
 | 227  | Glaceon            |  0.66055% | 3740   |  0.661% | 2395   |  0.670% | 
 | 228  | Rhyperior          |  0.65649% | 3717   |  0.656% | 2496   |  0.699% | 
 | 229  | Aerodactyl-Mega    |  0.65437% | 3705   |  0.654% | 2522   |  0.706% | 
 | 230  | Tapu Fini          |  0.65402% | 3703   |  0.654% | 2507   |  0.702% | 
 | 231  | Rotom-Heat         |  0.65155% | 3689   |  0.652% | 2402   |  0.672% | 
 | 232  | Slaking            |  0.64377% | 3645   |  0.644% | 2136   |  0.598% | 
 | 233  | Spiritomb          |  0.64324% | 3642   |  0.643% | 2405   |  0.673% | 
 | 234  | Honchkrow          |  0.63918% | 3619   |  0.639% | 2414   |  0.676% | 
 | 235  | Cofagrigus         |  0.63918% | 3619   |  0.639% | 2765   |  0.774% | 
 | 236  | Porygon2           |  0.63530% | 3597   |  0.635% | 2227   |  0.623% | 
 | 237  | Stakataka          |  0.63335% | 3586   |  0.633% | 2451   |  0.686% | 
 | 238  | Steelix-Mega       |  0.61993% | 3510   |  0.620% | 2470   |  0.691% | 
 | 239  | Leafeon            |  0.61004% | 3454   |  0.610% | 2096   |  0.587% | 
 | 240  | Aron               |  0.60933% | 3450   |  0.609% | 1845   |  0.516% | 
 | 241  | Sableye            |  0.60492% | 3425   |  0.605% | 2351   |  0.658% | 
 | 242  | Scrafty            |  0.59573% | 3373   |  0.596% | 2132   |  0.597% | 
 | 243  | Amoonguss          |  0.59379% | 3362   |  0.594% | 2256   |  0.632% | 
 | 244  | Houndoom-Mega      |  0.59256% | 3355   |  0.593% | 2228   |  0.624% | 
 | 245  | Cottonee           |  0.58938% | 3337   |  0.589% | 1784   |  0.499% | 
 | 246  | Swellow            |  0.58690% | 3323   |  0.587% | 2309   |  0.646% | 
 | 247  | Araquanid          |  0.58655% | 3321   |  0.587% | 2386   |  0.668% | 
 | 248  | Trevenant          |  0.58531% | 3314   |  0.585% | 2141   |  0.599% | 
 | 249  | Manectric-Mega     |  0.56730% | 3212   |  0.567% | 2240   |  0.627% | 
 | 250  | Walrein            |  0.56306% | 3188   |  0.563% | 2164   |  0.606% | 
 | 251  | Delphox            |  0.56288% | 3187   |  0.563% | 2122   |  0.594% | 
 | 252  | Gastrodon          |  0.56023% | 3172   |  0.560% | 2082   |  0.583% | 
 | 253  | Samurott           |  0.56006% | 3171   |  0.560% | 2107   |  0.590% | 
 | 254  | Arceus-Poison      |  0.55988% | 3170   |  0.560% | 2022   |  0.566% | 
 | 255  | Keldeo             |  0.55935% | 3167   |  0.559% | 2057   |  0.576% | 
 | 256  | Manaphy            |  0.55017% | 3115   |  0.550% | 1955   |  0.547% | 
 | 257  | Pinsir-Mega        |  0.54875% | 3107   |  0.549% | 1994   |  0.558% | 
 | 258  | Lycanroc-Midnight  |  0.54734% | 3099   |  0.547% | 2198   |  0.615% | 
 | 259  | Cresselia          |  0.54434% | 3082   |  0.544% | 1824   |  0.511% | 
 | 260  | Arceus-Dark        |  0.54240% | 3071   |  0.542% | 1994   |  0.558% | 
 | 261  | Liepard            |  0.53586% | 3034   |  0.536% | 2026   |  0.567% | 
 | 262  | Bibarel            |  0.53180% | 3011   |  0.532% | 1400   |  0.392% | 
 | 263  | Gothitelle         |  0.52774% | 2988   |  0.528% | 1683   |  0.471% | 
 | 264  | Crawdaunt          |  0.52332% | 2963   |  0.523% | 2011   |  0.563% | 
 | 265  | Komala             |  0.52297% | 2961   |  0.523% | 1772   |  0.496% | 
 | 266  | Sigilyph           |  0.52173% | 2954   |  0.522% | 1849   |  0.518% | 
 | 267  | Vileplume          |  0.51996% | 2944   |  0.520% | 1938   |  0.542% | 
 | 268  | Miltank            |  0.50707% | 2871   |  0.507% | 1744   |  0.488% | 
 | 269  | Ampharos-Mega      |  0.50672% | 2869   |  0.507% | 1881   |  0.527% | 
 | 270  | Sawk               |  0.50071% | 2835   |  0.501% | 1352   |  0.378% | 
 | 271  | Golurk             |  0.49912% | 2826   |  0.499% | 1933   |  0.541% | 
 | 272  | Flareon            |  0.49789% | 2819   |  0.498% | 1906   |  0.534% | 
 | 273  | Torkoal            |  0.49188% | 2785   |  0.492% | 2170   |  0.607% | 
 | 274  | Cradily            |  0.48888% | 2768   |  0.489% | 1952   |  0.546% | 
 | 275  | Xatu               |  0.48870% | 2767   |  0.489% | 1905   |  0.533% | 
 | 276  | Arceus-Electric    |  0.48729% | 2759   |  0.487% | 1782   |  0.499% | 
 | 277  | Hitmonlee          |  0.48729% | 2759   |  0.487% | 1805   |  0.505% | 
 | 278  | Magikarp           |  0.47934% | 2714   |  0.479% | 1172   |  0.328% | 
 | 279  | Zangoose           |  0.47722% | 2702   |  0.477% | 1510   |  0.423% | 
 | 280  | Steelix            |  0.47687% | 2700   |  0.477% | 1981   |  0.555% | 
 | 281  | Chesnaught         |  0.47634% | 2697   |  0.476% | 1803   |  0.505% | 
 | 282  | Heliolisk          |  0.47510% | 2690   |  0.475% | 1802   |  0.504% | 
 | 283  | Groudon            |  0.47510% | 2690   |  0.475% | 1794   |  0.502% | 
 | 284  | Meloetta           |  0.47440% | 2686   |  0.474% | 1694   |  0.474% | 
 | 285  | Riolu              |  0.46663% | 2642   |  0.467% | 1344   |  0.376% | 
 | 286  | Braviary           |  0.46504% | 2633   |  0.465% | 1714   |  0.480% | 
 | 287  | Nihilego           |  0.46504% | 2633   |  0.465% | 1893   |  0.530% | 
 | 288  | Pineco             |  0.46486% | 2632   |  0.465% | 2020   |  0.565% | 
 | 289  | Aerodactyl         |  0.46468% | 2631   |  0.465% | 2021   |  0.566% | 
 | 290  | Tsareena           |  0.46380% | 2626   |  0.464% | 1658   |  0.464% | 
 | 291  | Dusclops           |  0.45762% | 2591   |  0.458% | 1679   |  0.470% | 
 | 292  | Mismagius          |  0.45762% | 2591   |  0.458% | 1748   |  0.489% | 
 | 293  | Banette-Mega       |  0.45197% | 2559   |  0.452% | 1674   |  0.469% | 
 | 294  | Yanmega            |  0.45179% | 2558   |  0.452% | 1730   |  0.484% | 
 | 295  | Florges            |  0.44720% | 2532   |  0.447% | 1494   |  0.418% | 
 | 296  | Emboar             |  0.44367% | 2512   |  0.444% | 1710   |  0.479% | 
 | 297  | Bewear             |  0.43854% | 2483   |  0.439% | 1508   |  0.422% | 
 | 298  | Absol              |  0.43378% | 2456   |  0.434% | 1554   |  0.435% | 
 | 299  | Sharpedo           |  0.43077% | 2439   |  0.431% | 1553   |  0.435% | 
 | 300  | Thundurus-Therian  |  0.42883% | 2428   |  0.429% | 1609   |  0.450% | 
 | 301  | Latios             |  0.42265% | 2393   |  0.423% | 1480   |  0.414% | 
 | 302  | Dragalge           |  0.41753% | 2364   |  0.418% | 1613   |  0.452% | 
 | 303  | Magmortar          |  0.41753% | 2364   |  0.418% | 1567   |  0.439% | 
 | 304  | Ariados            |  0.41664% | 2359   |  0.417% | 1899   |  0.532% | 
 | 305  | Pangoro            |  0.41541% | 2352   |  0.415% | 1496   |  0.419% | 
 | 306  | Suicune            |  0.41170% | 2331   |  0.412% | 1482   |  0.415% | 
 | 307  | Seismitoad         |  0.40004% | 2265   |  0.400% | 1637   |  0.458% | 
 | 308  | Sandslash-Alola    |  0.39880% | 2258   |  0.399% | 1575   |  0.441% | 
 | 309  | Diggersby          |  0.39686% | 2247   |  0.397% | 1430   |  0.400% | 
 | 310  | Golem              |  0.39280% | 2224   |  0.393% | 1654   |  0.463% | 
 | 311  | Poliwrath          |  0.39174% | 2218   |  0.392% | 1472   |  0.412% | 
 | 312  | Electrode          |  0.38874% | 2201   |  0.389% | 1514   |  0.424% | 
 | 313  | Accelgor           |  0.38768% | 2195   |  0.388% | 1515   |  0.424% | 
 | 314  | Omastar            |  0.38644% | 2188   |  0.386% | 1604   |  0.449% | 
 | 315  | Archeops           |  0.37938% | 2148   |  0.379% | 1457   |  0.408% | 
 | 316  | Toucannon          |  0.37867% | 2144   |  0.379% | 1090   |  0.305% | 
 | 317  | Abomasnow-Mega     |  0.37867% | 2144   |  0.379% | 1513   |  0.424% | 
 | 318  | Gigalith           |  0.37814% | 2141   |  0.378% | 1488   |  0.417% | 
 | 319  | Slowbro            |  0.37743% | 2137   |  0.377% | 1283   |  0.359% | 
 | 320  | Arceus-Fire        |  0.37496% | 2123   |  0.375% | 1291   |  0.361% | 
 | 321  | Garbodor           |  0.37461% | 2121   |  0.375% | 1459   |  0.408% | 
 | 322  | Mandibuzz          |  0.37214% | 2107   |  0.372% | 1400   |  0.392% | 
 | 323  | Donphan            |  0.36878% | 2088   |  0.369% | 1597   |  0.447% | 
 | 324  | Latias-Mega        |  0.36701% | 2078   |  0.367% | 1296   |  0.363% | 
 | 325  | Bronzong           |  0.36613% | 2073   |  0.366% | 1644   |  0.460% | 
 | 326  | Starly             |  0.36578% | 2071   |  0.366% | 616    |  0.172% | 
 | 327  | Arceus-Dragon      |  0.36525% | 2068   |  0.365% | 1272   |  0.356% | 
 | 328  | Raikou             |  0.36454% | 2064   |  0.365% | 1295   |  0.362% | 
 | 329  | Ampharos           |  0.35995% | 2038   |  0.360% | 1359   |  0.380% | 
 | 330  | Dhelmise           |  0.35889% | 2032   |  0.359% | 1333   |  0.373% | 
 | 331  | Golduck            |  0.35748% | 2024   |  0.357% | 1186   |  0.332% | 
 | 332  | Jellicent          |  0.35571% | 2014   |  0.356% | 1370   |  0.383% | 
 | 333  | Hitmonchan         |  0.35377% | 2003   |  0.354% | 1409   |  0.394% | 
 | 334  | Lilligant          |  0.35359% | 2002   |  0.354% | 1242   |  0.348% | 
 | 335  | Floatzel           |  0.35271% | 1997   |  0.353% | 1451   |  0.406% | 
 | 336  | Scyther            |  0.35253% | 1996   |  0.353% | 1289   |  0.361% | 
 | 337  | Aurorus            |  0.35006% | 1982   |  0.350% | 1319   |  0.369% | 
 | 338  | Medicham           |  0.34988% | 1981   |  0.350% | 939    |  0.263% | 
 | 339  | Lanturn            |  0.34829% | 1972   |  0.348% | 1296   |  0.363% | 
 | 340  | Shiinotic          |  0.34723% | 1966   |  0.347% | 1228   |  0.344% | 
 | 341  | Politoed           |  0.34388% | 1947   |  0.344% | 1340   |  0.375% | 
 | 342  | Turtonator         |  0.34158% | 1934   |  0.342% | 1363   |  0.382% | 
 | 343  | Latias             |  0.34158% | 1934   |  0.342% | 1204   |  0.337% | 
 | 344  | Carbink            |  0.34140% | 1933   |  0.341% | 1403   |  0.393% | 
 | 345  | Taillow            |  0.33999% | 1925   |  0.340% | 709    |  0.198% | 
 | 346  | Togedemaru         |  0.33787% | 1913   |  0.338% | 1312   |  0.367% | 
 | 347  | Kabutops           |  0.33716% | 1909   |  0.337% | 1288   |  0.361% | 
 | 348  | Sharpedo-Mega      |  0.33681% | 1907   |  0.337% | 1246   |  0.349% | 
 | 349  | Arbok              |  0.33611% | 1903   |  0.336% | 1220   |  0.342% | 
 | 350  | Meowstic           |  0.33399% | 1891   |  0.334% | 1200   |  0.336% | 
 | 351  | Houndoom           |  0.33151% | 1877   |  0.332% | 1284   |  0.359% | 
 | 352  | Mudsdale           |  0.32869% | 1861   |  0.329% | 1231   |  0.345% | 
 | 353  | Lurantis           |  0.32798% | 1857   |  0.328% | 1145   |  0.321% | 
 | 354  | Furret             |  0.32568% | 1844   |  0.326% | 1110   |  0.311% | 
 | 355  | Jynx               |  0.32515% | 1841   |  0.325% | 1130   |  0.316% | 
 | 356  | Altaria            |  0.32427% | 1836   |  0.324% | 1246   |  0.349% | 
 | 357  | Muk                |  0.32410% | 1835   |  0.324% | 1190   |  0.333% | 
 | 358  | Escavalier         |  0.32056% | 1815   |  0.321% | 1172   |  0.328% | 
 | 359  | Tornadus-Therian   |  0.32021% | 1813   |  0.320% | 1087   |  0.304% | 
 | 360  | Clawitzer          |  0.31844% | 1803   |  0.318% | 1138   |  0.319% | 
 | 361  | Landorus           |  0.31791% | 1800   |  0.318% | 1154   |  0.323% | 
 | 362  | Ursaring           |  0.31403% | 1778   |  0.314% | 1174   |  0.329% | 
 | 363  | Moltres            |  0.31367% | 1776   |  0.314% | 1242   |  0.348% | 
 | 364  | Mienshao           |  0.31367% | 1776   |  0.314% | 1260   |  0.353% | 
 | 365  | Doublade           |  0.30997% | 1755   |  0.310% | 1122   |  0.314% | 
 | 366  | Nidoqueen          |  0.30802% | 1744   |  0.308% | 1361   |  0.381% | 
 | 367  | Avalugg            |  0.30449% | 1724   |  0.304% | 1023   |  0.286% | 
 | 368  | Slowbro-Mega       |  0.30343% | 1718   |  0.303% | 998    |  0.279% | 
 | 369  | Glalie             |  0.30202% | 1710   |  0.302% | 1086   |  0.304% | 
 | 370  | Exeggutor          |  0.30078% | 1703   |  0.301% | 1094   |  0.306% | 
 | 371  | Wailord            |  0.29619% | 1677   |  0.296% | 1078   |  0.302% | 
 | 372  | Nosepass           |  0.29495% | 1670   |  0.295% | 927    |  0.259% | 
 | 373  | Venomoth           |  0.29283% | 1658   |  0.293% | 1206   |  0.338% | 
 | 374  | Comfey             |  0.29195% | 1653   |  0.292% | 1033   |  0.289% | 
 | 375  | Claydol            |  0.29177% | 1652   |  0.292% | 1110   |  0.311% | 
 | 376  | Tauros             |  0.29036% | 1644   |  0.290% | 1096   |  0.307% | 
 | 377  | Rampardos          |  0.28930% | 1638   |  0.289% | 1023   |  0.286% | 
 | 378  | Crustle            |  0.28718% | 1626   |  0.287% | 1103   |  0.309% | 
 | 379  | Rotom-Mow          |  0.28259% | 1600   |  0.283% | 1107   |  0.310% | 
 | 380  | Manectric          |  0.28082% | 1590   |  0.281% | 1095   |  0.307% | 
 | 381  | Carracosta         |  0.27835% | 1576   |  0.278% | 1072   |  0.300% | 
 | 382  | Klinklang          |  0.27782% | 1573   |  0.278% | 1093   |  0.306% | 
 | 383  | Abomasnow          |  0.27764% | 1572   |  0.278% | 1166   |  0.326% | 
 | 384  | Lycanroc           |  0.27747% | 1571   |  0.277% | 1131   |  0.317% | 
 | 385  | Terrakion          |  0.27252% | 1543   |  0.273% | 863    |  0.242% | 
 | 386  | Golem-Alola        |  0.27235% | 1542   |  0.272% | 1057   |  0.296% | 
 | 387  | Hypno              |  0.27129% | 1536   |  0.271% | 951    |  0.266% | 
 | 388  | Vanilluxe          |  0.27093% | 1534   |  0.271% | 1060   |  0.297% | 
 | 389  | Necrozma           |  0.26917% | 1524   |  0.269% | 1014   |  0.284% | 
 | 390  | Regirock           |  0.26775% | 1516   |  0.268% | 1013   |  0.284% | 
 | 391  | Barbaracle         |  0.26740% | 1514   |  0.267% | 922    |  0.258% | 
 | 392  | Entei              |  0.26687% | 1511   |  0.267% | 1002   |  0.280% | 
 | 393  | Regigigas          |  0.26599% | 1506   |  0.266% | 1053   |  0.295% | 
 | 394  | Persian-Alola      |  0.26599% | 1506   |  0.266% | 1054   |  0.295% | 
 | 395  | Arceus-Grass       |  0.26493% | 1500   |  0.265% | 958    |  0.268% | 
 | 396  | Lopunny            |  0.26263% | 1487   |  0.263% | 1056   |  0.296% | 
 | 397  | Regice             |  0.25998% | 1472   |  0.260% | 1009   |  0.282% | 
 | 398  | Glalie-Mega        |  0.25716% | 1456   |  0.257% | 1009   |  0.282% | 
 | 399  | Octillery          |  0.25398% | 1438   |  0.254% | 914    |  0.256% | 
 | 400  | Primeape           |  0.25345% | 1435   |  0.253% | 1011   |  0.283% | 
 | 401  | Rotom              |  0.25186% | 1426   |  0.252% | 1024   |  0.287% | 
 | 402  | Volbeat            |  0.25097% | 1421   |  0.251% | 755    |  0.211% | 
 | 403  | Hariyama           |  0.25062% | 1419   |  0.251% | 1018   |  0.285% | 
 | 404  | Latios-Mega        |  0.24868% | 1408   |  0.249% | 890    |  0.249% | 
 | 405  | Ralts              |  0.24868% | 1408   |  0.249% | 911    |  0.255% | 
 | 406  | Armaldo            |  0.24815% | 1405   |  0.248% | 939    |  0.263% | 
 | 407  | Swalot             |  0.24603% | 1393   |  0.246% | 911    |  0.255% | 
 | 408  | Guzzlord           |  0.24585% | 1392   |  0.246% | 912    |  0.255% | 
 | 409  | Thundurus          |  0.24550% | 1390   |  0.245% | 924    |  0.259% | 
 | 410  | Jumpluff           |  0.24444% | 1384   |  0.244% | 826    |  0.231% | 
 | 411  | Exeggutor-Alola    |  0.24356% | 1379   |  0.244% | 875    |  0.245% | 
 | 412  | Leavanny           |  0.24338% | 1378   |  0.243% | 1016   |  0.284% | 
 | 413  | Swoobat            |  0.24338% | 1378   |  0.243% | 879    |  0.246% | 
 | 414  | Uxie               |  0.24232% | 1372   |  0.242% | 1111   |  0.311% | 
 | 415  | Kingler            |  0.24055% | 1362   |  0.241% | 920    |  0.258% | 
 | 416  | Chatot             |  0.24038% | 1361   |  0.240% | 874    |  0.245% | 
 | 417  | Delibird           |  0.23773% | 1346   |  0.238% | 640    |  0.179% | 
 | 418  | Victreebel         |  0.23649% | 1339   |  0.236% | 849    |  0.238% | 
 | 419  | Rhydon             |  0.23455% | 1328   |  0.235% | 941    |  0.263% | 
 | 420  | Druddigon          |  0.23102% | 1308   |  0.231% | 948    |  0.265% | 
 | 421  | Rapidash           |  0.22978% | 1301   |  0.230% | 908    |  0.254% | 
 | 422  | Palossand          |  0.22572% | 1278   |  0.226% | 868    |  0.243% | 
 | 423  | Azelf              |  0.22537% | 1276   |  0.225% | 1043   |  0.292% | 
 | 424  | Dodrio             |  0.22289% | 1262   |  0.223% | 777    |  0.217% | 
 | 425  | Exploud            |  0.22095% | 1251   |  0.221% | 824    |  0.231% | 
 | 426  | Bastiodon          |  0.22077% | 1250   |  0.221% | 930    |  0.260% | 
 | 427  | Registeel          |  0.22042% | 1248   |  0.220% | 854    |  0.239% | 
 | 428  | Hitmontop          |  0.22007% | 1246   |  0.220% | 754    |  0.211% | 
 | 429  | Deoxys             |  0.21901% | 1240   |  0.219% | 824    |  0.231% | 
 | 430  | Rotom-Frost        |  0.21865% | 1238   |  0.219% | 792    |  0.222% | 
 | 431  | Dunsparce          |  0.21777% | 1233   |  0.218% | 624    |  0.175% | 
 | 432  | Rattata-Alola      |  0.21671% | 1227   |  0.217% | 519    |  0.145% | 
 | 433  | Cacturne           |  0.21494% | 1217   |  0.215% | 888    |  0.249% | 
 | 434  | Masquerain         |  0.21283% | 1205   |  0.213% | 936    |  0.262% | 
 | 435  | Cobalion           |  0.21106% | 1195   |  0.211% | 778    |  0.218% | 
 | 436  | Alomomola          |  0.21088% | 1194   |  0.211% | 764    |  0.214% | 
 | 437  | Cryogonal          |  0.20965% | 1187   |  0.210% | 799    |  0.224% | 
 | 438  | Unfezant           |  0.20947% | 1186   |  0.209% | 834    |  0.233% | 
 | 439  | Virizion           |  0.20912% | 1184   |  0.209% | 799    |  0.224% | 
 | 440  | Pidgeot            |  0.20770% | 1176   |  0.208% | 724    |  0.203% | 
 | 441  | Tropius            |  0.20594% | 1166   |  0.206% | 704    |  0.197% | 
 | 442  | Meganium           |  0.20488% | 1160   |  0.205% | 795    |  0.223% | 
 | 443  | Shiftry            |  0.20470% | 1159   |  0.205% | 765    |  0.214% | 
 | 444  | Delcatty           |  0.20346% | 1152   |  0.203% | 779    |  0.218% | 
 | 445  | Diancie            |  0.20293% | 1149   |  0.203% | 812    |  0.227% | 
 | 446  | Gogoat             |  0.20099% | 1138   |  0.201% | 726    |  0.203% | 
 | 447  | Audino-Mega        |  0.20011% | 1133   |  0.200% | 671    |  0.188% | 
 | 448  | Marowak            |  0.19569% | 1108   |  0.196% | 794    |  0.222% | 
 | 449  | Zebstrika          |  0.19534% | 1106   |  0.195% | 761    |  0.213% | 
 | 450  | Musharna           |  0.19393% | 1098   |  0.194% | 688    |  0.193% | 
 | 451  | Persian            |  0.18969% | 1074   |  0.190% | 823    |  0.230% | 
 | 452  | Sawsbuck           |  0.18951% | 1073   |  0.190% | 650    |  0.182% | 
 | 453  | Parasect           |  0.18845% | 1067   |  0.188% | 740    |  0.207% | 
 | 454  | Wishiwashi         |  0.18792% | 1064   |  0.188% | 646    |  0.181% | 
 | 455  | Slowking           |  0.18545% | 1050   |  0.185% | 717    |  0.201% | 
 | 456  | Bellossom          |  0.18386% | 1041   |  0.184% | 703    |  0.197% | 
 | 457  | Kecleon            |  0.18262% | 1034   |  0.183% | 697    |  0.195% | 
 | 458  | Mightyena          |  0.18033% | 1021   |  0.180% | 686    |  0.192% | 
 | 459  | Stoutland          |  0.18015% | 1020   |  0.180% | 701    |  0.196% | 
 | 460  | Furfrou            |  0.18015% | 1020   |  0.180% | 484    |  0.135% | 
 | 461  | Maractus           |  0.17891% | 1013   |  0.179% | 683    |  0.191% | 
 | 462  | Raticate           |  0.17750% | 1005   |  0.178% | 548    |  0.153% | 
 | 463  | Arceus-Fighting    |  0.17644% | 999    |  0.176% | 588    |  0.165% | 
 | 464  | Magneton           |  0.17503% | 991    |  0.175% | 688    |  0.193% | 
 | 465  | Pyroar             |  0.17450% | 988    |  0.174% | 632    |  0.177% | 
 | 466  | Haunter            |  0.17432% | 987    |  0.174% | 738    |  0.207% | 
 | 467  | Geodude            |  0.17397% | 985    |  0.174% | 774    |  0.217% | 
 | 468  | Arceus-Flying      |  0.17379% | 984    |  0.174% | 588    |  0.165% | 
 | 469  | Spinda             |  0.17203% | 974    |  0.172% | 439    |  0.123% | 
 | 470  | Dedenne            |  0.17185% | 973    |  0.172% | 611    |  0.171% | 
 | 471  | Arceus-Ice         |  0.17167% | 972    |  0.172% | 641    |  0.179% | 
 | 472  | Emolga             |  0.17026% | 964    |  0.170% | 689    |  0.193% | 
 | 473  | Mantine            |  0.16938% | 959    |  0.169% | 658    |  0.184% | 
 | 474  | Camerupt-Mega      |  0.16885% | 956    |  0.169% | 638    |  0.179% | 
 | 475  | Granbull           |  0.16832% | 953    |  0.168% | 644    |  0.180% | 
 | 476  | Gastly             |  0.16779% | 950    |  0.168% | 327    |  0.092% | 
 | 477  | Murkrow            |  0.16673% | 944    |  0.167% | 640    |  0.179% | 
 | 478  | Gorebyss           |  0.16567% | 938    |  0.166% | 650    |  0.182% | 
 | 479  | Beedrill           |  0.16531% | 936    |  0.165% | 564    |  0.158% | 
 | 480  | Beartic            |  0.16426% | 930    |  0.164% | 554    |  0.155% | 
 | 481  | Qwilfish           |  0.16373% | 927    |  0.164% | 682    |  0.191% | 
 | 482  | Zygarde-10%        |  0.16355% | 926    |  0.164% | 649    |  0.182% | 
 | 483  | Beautifly          |  0.16143% | 914    |  0.161% | 603    |  0.169% | 
 | 484  | Lickilicky         |  0.15825% | 896    |  0.158% | 569    |  0.159% | 
 | 485  | Bouffalant         |  0.15772% | 893    |  0.158% | 614    |  0.172% | 
 | 486  | Rotom-Fan          |  0.15648% | 886    |  0.156% | 654    |  0.183% | 
 | 487  | Gourgeist-Super    |  0.15419% | 873    |  0.154% | 653    |  0.183% | 
 | 488  | Crabominable       |  0.15366% | 870    |  0.154% | 585    |  0.164% | 
 | 489  | Probopass          |  0.15366% | 870    |  0.154% | 595    |  0.167% | 
 | 490  | Stunfisk           |  0.15225% | 862    |  0.152% | 600    |  0.168% | 
 | 491  | Bidoof             |  0.14871% | 842    |  0.149% | 372    |  0.104% | 
 | 492  | Banette            |  0.14836% | 840    |  0.148% | 542    |  0.152% | 
 | 493  | Hoopa              |  0.14748% | 835    |  0.147% | 599    |  0.168% | 
 | 494  | Pachirisu          |  0.14677% | 831    |  0.147% | 575    |  0.161% | 
 | 495  | Sunflora           |  0.14589% | 826    |  0.146% | 557    |  0.156% | 
 | 496  | Vespiquen          |  0.14465% | 819    |  0.145% | 479    |  0.134% | 
 | 497  | Magcargo           |  0.14094% | 798    |  0.141% | 597    |  0.167% | 
 | 498  | Machoke            |  0.13918% | 788    |  0.139% | 514    |  0.144% | 
 | 499  | Wigglytuff         |  0.13600% | 770    |  0.136% | 499    |  0.140% | 
 | 500  | Noctowl            |  0.13494% | 764    |  0.135% | 514    |  0.144% | 
 | 501  | Sandslash          |  0.13476% | 763    |  0.135% | 562    |  0.157% | 
 | 502  | Dugtrio-Alola      |  0.13405% | 759    |  0.134% | 520    |  0.146% | 
 | 503  | Mawile             |  0.13282% | 752    |  0.133% | 530    |  0.148% | 
 | 504  | Togetic            |  0.13264% | 751    |  0.133% | 505    |  0.141% | 
 | 505  | Whiscash           |  0.13246% | 750    |  0.132% | 496    |  0.139% | 
 | 506  | Kyurem             |  0.13105% | 742    |  0.131% | 469    |  0.131% | 
 | 507  | Meditite           |  0.12363% | 700    |  0.124% | 371    |  0.104% | 
 | 508  | Arceus-Psychic     |  0.12257% | 694    |  0.123% | 405    |  0.113% | 
 | 509  | Seviper            |  0.12098% | 685    |  0.121% | 433    |  0.121% | 
 | 510  | Huntail            |  0.12063% | 683    |  0.121% | 499    |  0.140% | 
 | 511  | Camerupt           |  0.12028% | 681    |  0.120% | 472    |  0.132% | 
 | 512  | Stantler           |  0.11657% | 660    |  0.117% | 280    |  0.078% | 
 | 513  | Gligar             |  0.11621% | 658    |  0.116% | 456    |  0.128% | 
 | 514  | Girafarig          |  0.11586% | 656    |  0.116% | 458    |  0.128% | 
 | 515  | Skuntank           |  0.11551% | 654    |  0.116% | 466    |  0.130% | 
 | 516  | Oranguru           |  0.11516% | 652    |  0.115% | 361    |  0.101% | 
 | 517  | Audino             |  0.11516% | 652    |  0.115% | 430    |  0.120% | 
 | 518  | Aromatisse         |  0.11392% | 645    |  0.114% | 322    |  0.090% | 
 | 519  | Passimian          |  0.11357% | 643    |  0.114% | 411    |  0.115% | 
 | 520  | Sudowoodo          |  0.11039% | 625    |  0.110% | 456    |  0.128% | 
 | 521  | Illumise           |  0.11039% | 625    |  0.110% | 430    |  0.120% | 
 | 522  | Dragonair          |  0.10950% | 620    |  0.110% | 429    |  0.120% | 
 | 523  | Kangaskhan         |  0.10562% | 598    |  0.106% | 370    |  0.104% | 
 | 524  | Tornadus           |  0.10473% | 593    |  0.105% | 442    |  0.124% | 
 | 525  | Clefairy           |  0.10297% | 583    |  0.103% | 344    |  0.096% | 
 | 526  | Electabuzz         |  0.10262% | 581    |  0.103% | 374    |  0.105% | 
 | 527  | Drampa             |  0.10244% | 580    |  0.102% | 356    |  0.100% | 
 | 528  | Gumshoos           |  0.10156% | 575    |  0.102% | 370    |  0.104% | 
 | 529  | Silvally           |  0.10014% | 567    |  0.100% | 385    |  0.108% | 
 | 530  | Beheeyem           |  0.09926% | 562    |  0.099% | 349    |  0.098% | 
 | 531  | Pikachu-Alola      |  0.09785% | 554    |  0.098% | 383    |  0.107% | 
 | 532  | Farfetch'd         |  0.09696% | 549    |  0.097% | 358    |  0.100% | 
 | 533  | Misdreavus         |  0.09661% | 547    |  0.097% | 440    |  0.123% | 
 | 534  | Ledian             |  0.09608% | 544    |  0.096% | 374    |  0.105% | 
 | 535  | Dewgong            |  0.09555% | 541    |  0.096% | 385    |  0.108% | 
 | 536  | Hippopotas         |  0.09414% | 533    |  0.094% | 285    |  0.080% | 
 | 537  | Solrock            |  0.09361% | 530    |  0.094% | 371    |  0.104% | 
 | 538  | Raticate-Alola     |  0.09325% | 528    |  0.093% | 353    |  0.099% | 
 | 539  | Arceus-Bug         |  0.09114% | 516    |  0.091% | 278    |  0.078% | 
 | 540  | Tangela            |  0.09061% | 513    |  0.091% | 285    |  0.080% | 
 | 541  | Metapod            |  0.08972% | 508    |  0.090% | 260    |  0.073% | 
 | 542  | Bulbasaur          |  0.08831% | 500    |  0.088% | 364    |  0.102% | 
 | 543  | Unown              |  0.08743% | 495    |  0.087% | 166    |  0.046% | 
 | 544  | Lunatone           |  0.08725% | 494    |  0.087% | 311    |  0.087% | 
 | 545  | Mesprit            |  0.08531% | 483    |  0.085% | 347    |  0.097% | 
 | 546  | Shaymin            |  0.08407% | 476    |  0.084% | 284    |  0.079% | 
 | 547  | Type: Null         |  0.08354% | 473    |  0.084% | 273    |  0.076% | 
 | 548  | Onix               |  0.08266% | 468    |  0.083% | 362    |  0.101% | 
 | 549  | Corsola            |  0.08160% | 462    |  0.082% | 312    |  0.087% | 
 | 550  | Ponyta             |  0.08071% | 457    |  0.081% | 280    |  0.078% | 
 | 551  | Squirtle           |  0.08054% | 456    |  0.081% | 272    |  0.076% | 
 | 552  | Jigglypuff         |  0.07983% | 452    |  0.080% | 266    |  0.074% | 
 | 553  | Bruxish            |  0.07877% | 446    |  0.079% | 281    |  0.079% | 
 | 554  | Heatmor            |  0.07877% | 446    |  0.079% | 309    |  0.086% | 
 | 555  | Buneary            |  0.07842% | 444    |  0.078% | 281    |  0.079% | 
 | 556  | Swanna             |  0.07807% | 442    |  0.078% | 315    |  0.088% | 
 | 557  | Rowlet             |  0.07754% | 439    |  0.078% | 311    |  0.087% | 
 | 558  | Seaking            |  0.07612% | 431    |  0.076% | 279    |  0.078% | 
 | 559  | Kricketune         |  0.07559% | 428    |  0.076% | 339    |  0.095% | 
 | 560  | Throh              |  0.07524% | 426    |  0.075% | 282    |  0.079% | 
 | 561  | Fearow             |  0.07418% | 420    |  0.074% | 298    |  0.083% | 
 | 562  | Pinsir             |  0.07047% | 399    |  0.070% | 272    |  0.076% | 
 | 563  | Relicanth          |  0.06959% | 394    |  0.070% | 278    |  0.078% | 
 | 564  | Diglett            |  0.06941% | 393    |  0.069% | 287    |  0.080% | 
 | 565  | Castform           |  0.06888% | 390    |  0.069% | 247    |  0.069% | 
 | 566  | Caterpie           |  0.06764% | 383    |  0.068% | 182    |  0.051% | 
 | 567  | Oricorio-Sensu     |  0.06676% | 378    |  0.067% | 247    |  0.069% | 
 | 568  | Simisage           |  0.06570% | 372    |  0.066% | 236    |  0.066% | 
 | 569  | Oricorio-Pom-Pom   |  0.06553% | 371    |  0.066% | 262    |  0.073% | 
 | 570  | Charmander         |  0.06500% | 368    |  0.065% | 228    |  0.064% | 
 | 571  | Basculin           |  0.06411% | 363    |  0.064% | 233    |  0.065% | 
 | 572  | Simisear           |  0.06394% | 362    |  0.064% | 261    |  0.073% | 
 | 573  | Silvally-Fairy     |  0.06358% | 360    |  0.064% | 243    |  0.068% | 
 | 574  | Chimecho           |  0.06323% | 358    |  0.063% | 202    |  0.057% | 
 | 575  | Abra               |  0.06288% | 356    |  0.063% | 260    |  0.073% | 
 | 576  | Mienfoo            |  0.06235% | 353    |  0.062% | 113    |  0.032% | 
 | 577  | Pikachu-Kalos      |  0.06146% | 348    |  0.061% | 242    |  0.068% | 
 | 578  | Munchlax           |  0.06111% | 346    |  0.061% | 233    |  0.065% | 
 | 579  | Minun              |  0.06093% | 345    |  0.061% | 262    |  0.073% | 
 | 580  | Pichu              |  0.06076% | 344    |  0.061% | 265    |  0.074% | 
 | 581  | Simipour           |  0.06040% | 342    |  0.060% | 212    |  0.059% | 
 | 582  | Watchog            |  0.06040% | 342    |  0.060% | 248    |  0.069% | 
 | 583  | Gourgeist          |  0.05934% | 336    |  0.059% | 218    |  0.061% | 
 | 584  | Tirtouga           |  0.05881% | 333    |  0.059% | 206    |  0.058% | 
 | 585  | Arceus-Rock        |  0.05864% | 332    |  0.059% | 234    |  0.066% | 
 | 586  | Skitty             |  0.05864% | 332    |  0.059% | 159    |  0.045% | 
 | 587  | Braixen            |  0.05828% | 330    |  0.058% | 224    |  0.063% | 
 | 588  | Carnivine          |  0.05793% | 328    |  0.058% | 224    |  0.063% | 
 | 589  | Plusle             |  0.05775% | 327    |  0.058% | 234    |  0.066% | 
 | 590  | Grumpig            |  0.05775% | 327    |  0.058% | 218    |  0.061% | 
 | 591  | Porygon            |  0.05687% | 322    |  0.057% | 223    |  0.062% | 
 | 592  | Purugly            |  0.05669% | 321    |  0.057% | 239    |  0.067% | 
 | 593  | Lumineon           |  0.05634% | 319    |  0.056% | 206    |  0.058% | 
 | 594  | Roselia            |  0.05581% | 316    |  0.056% | 278    |  0.078% | 
 | 595  | Combusken          |  0.05581% | 316    |  0.056% | 220    |  0.062% | 
 | 596  | Krokorok           |  0.05546% | 314    |  0.055% | 163    |  0.046% | 
 | 597  | Magmar             |  0.05405% | 306    |  0.054% | 218    |  0.061% | 
 | 598  | Torracat           |  0.05316% | 301    |  0.053% | 232    |  0.065% | 
 | 599  | Sunkern            |  0.05263% | 298    |  0.053% | 145    |  0.041% | 
 | 600  | Wynaut             |  0.05263% | 298    |  0.053% | 178    |  0.050% | 
 | 601  | Silvally-Dragon    |  0.05175% | 293    |  0.052% | 199    |  0.056% | 
 | 602  | Buizel             |  0.05157% | 292    |  0.052% | 201    |  0.056% | 
 | 603  | Piloswine          |  0.05016% | 284    |  0.050% | 224    |  0.063% | 
 | 604  | Drifloon           |  0.05016% | 284    |  0.050% | 215    |  0.060% | 
 | 605  | Gothorita          |  0.04998% | 283    |  0.050% | 140    |  0.039% | 
 | 606  | Trubbish           |  0.04998% | 283    |  0.050% | 216    |  0.060% | 
 | 607  | Wartortle          |  0.04928% | 279    |  0.049% | 175    |  0.049% | 
 | 608  | Ferroseed          |  0.04910% | 278    |  0.049% | 217    |  0.061% | 
 | 609  | Corphish           |  0.04892% | 277    |  0.049% | 139    |  0.039% | 
 | 610  | Sneasel            |  0.04839% | 274    |  0.048% | 202    |  0.057% | 
 | 611  | Bunnelby           |  0.04751% | 269    |  0.048% | 146    |  0.041% | 
 | 612  | Charmeleon         |  0.04733% | 268    |  0.047% | 196    |  0.055% | 
 | 613  | Solosis            |  0.04680% | 265    |  0.047% | 156    |  0.044% | 
 | 614  | Scraggy            |  0.04645% | 263    |  0.046% | 130    |  0.036% | 
 | 615  | Dustox             |  0.04627% | 262    |  0.046% | 167    |  0.047% | 
 | 616  | Clamperl           |  0.04592% | 260    |  0.046% | 174    |  0.049% | 
 | 617  | Trapinch           |  0.04504% | 255    |  0.045% | 180    |  0.050% | 
 | 618  | Ivysaur            |  0.04433% | 251    |  0.044% | 160    |  0.045% | 
 | 619  | Wormadam-Trash     |  0.04415% | 250    |  0.044% | 198    |  0.055% | 
 | 620  | Silvally-Steel     |  0.04309% | 244    |  0.043% | 157    |  0.044% | 
 | 621  | Graveler           |  0.04239% | 240    |  0.042% | 181    |  0.051% | 
 | 622  | Litten             |  0.04204% | 238    |  0.042% | 137    |  0.038% | 
 | 623  | Gurdurr            |  0.04204% | 238    |  0.042% | 186    |  0.052% | 
 | 624  | Silvally-Water     |  0.04168% | 236    |  0.042% | 169    |  0.047% | 
 | 625  | Voltorb            |  0.04133% | 234    |  0.041% | 118    |  0.033% | 
 | 626  | Cubone             |  0.04133% | 234    |  0.041% | 160    |  0.045% | 
 | 627  | Gloom              |  0.04098% | 232    |  0.041% | 160    |  0.045% | 
 | 628  | Pikachu-Original   |  0.04080% | 231    |  0.041% | 168    |  0.047% | 
 | 629  | Graveler-Alola     |  0.04009% | 227    |  0.040% | 144    |  0.040% | 
 | 630  | Oricorio           |  0.03992% | 226    |  0.040% | 163    |  0.046% | 
 | 631  | Igglybuff          |  0.03956% | 224    |  0.040% | 152    |  0.043% | 
 | 632  | Mudkip             |  0.03939% | 223    |  0.039% | 124    |  0.035% | 
 | 633  | Vigoroth           |  0.03921% | 222    |  0.039% | 110    |  0.031% | 
 | 634  | Chikorita          |  0.03886% | 220    |  0.039% | 131    |  0.037% | 
 | 635  | Zigzagoon          |  0.03886% | 220    |  0.039% | 174    |  0.049% | 
 | 636  | Dartrix            |  0.03868% | 219    |  0.039% | 144    |  0.040% | 
 | 637  | Zubat              |  0.03868% | 219    |  0.039% | 148    |  0.041% | 
 | 638  | Dewott             |  0.03850% | 218    |  0.039% | 165    |  0.046% | 
 | 639  | Snivy              |  0.03833% | 217    |  0.038% | 164    |  0.046% | 
 | 640  | Silvally-Ghost     |  0.03780% | 214    |  0.038% | 150    |  0.042% | 
 | 641  | Cherrim            |  0.03762% | 213    |  0.038% | 147    |  0.041% | 
 | 642  | Bayleef            |  0.03674% | 208    |  0.037% | 137    |  0.038% | 
 | 643  | Psyduck            |  0.03638% | 206    |  0.036% | 121    |  0.034% | 
 | 644  | Purrloin           |  0.03638% | 206    |  0.036% | 104    |  0.029% | 
 | 645  | Silvally-Fire      |  0.03621% | 205    |  0.036% | 147    |  0.041% | 
 | 646  | Aipom              |  0.03621% | 205    |  0.036% | 130    |  0.036% | 
 | 647  | Mothim             |  0.03585% | 203    |  0.036% | 160    |  0.045% | 
 | 648  | Pikachu-Partner    |  0.03568% | 202    |  0.036% | 149    |  0.042% | 
 | 649  | Golbat             |  0.03532% | 200    |  0.035% | 140    |  0.039% | 
 | 650  | Fletchinder        |  0.03479% | 197    |  0.035% | 142    |  0.040% | 
 | 651  | Bagon              |  0.03462% | 196    |  0.035% | 115    |  0.032% | 
 | 652  | Togepi             |  0.03444% | 195    |  0.034% | 122    |  0.034% | 
 | 653  | Oshawott           |  0.03426% | 194    |  0.034% | 143    |  0.040% | 
 | 654  | Lampent            |  0.03409% | 193    |  0.034% | 143    |  0.040% | 
 | 655  | Gabite             |  0.03391% | 192    |  0.034% | 120    |  0.034% | 
 | 656  | Yamask             |  0.03373% | 191    |  0.034% | 129    |  0.036% | 
 | 657  | Mime Jr.           |  0.03338% | 189    |  0.033% | 148    |  0.041% | 
 | 658  | Dewpider           |  0.03320% | 188    |  0.033% | 150    |  0.042% | 
 | 659  | Meowth             |  0.03303% | 187    |  0.033% | 140    |  0.039% | 
 | 660  | Wooper             |  0.03267% | 185    |  0.033% | 89     |  0.025% | 
 | 661  | Silvally-Electric  |  0.03267% | 185    |  0.033% | 119    |  0.033% | 
 | 662  | Pignite            |  0.03250% | 184    |  0.032% | 133    |  0.037% | 
 | 663  | Frillish           |  0.03250% | 184    |  0.032% | 99     |  0.028% | 
 | 664  | Swirlix            |  0.03232% | 183    |  0.032% | 130    |  0.036% | 
 | 665  | Rockruff           |  0.03232% | 183    |  0.032% | 134    |  0.038% | 
 | 666  | Charjabug          |  0.03197% | 181    |  0.032% | 99     |  0.028% | 
 | 667  | Weedle             |  0.03197% | 181    |  0.032% | 116    |  0.032% | 
 | 668  | Ducklett           |  0.03179% | 180    |  0.032% | 87     |  0.024% | 
 | 669  | Monferno           |  0.03179% | 180    |  0.032% | 127    |  0.036% | 
 | 670  | Boldore            |  0.03108% | 176    |  0.031% | 129    |  0.036% | 
 | 671  | Kadabra            |  0.03091% | 175    |  0.031% | 122    |  0.034% | 
 | 672  | Lickitung          |  0.03073% | 174    |  0.031% | 113    |  0.032% | 
 | 673  | Krabby             |  0.03020% | 171    |  0.030% | 82     |  0.023% | 
 | 674  | Cleffa             |  0.02950% | 167    |  0.029% | 87     |  0.024% | 
 | 675  | Poipole            |  0.02861% | 162    |  0.029% | 112    |  0.031% | 
 | 676  | Luvdisc            |  0.02844% | 161    |  0.028% | 103    |  0.029% | 
 | 677  | Pidgey             |  0.02808% | 159    |  0.028% | 94     |  0.026% | 
 | 678  | Venonat            |  0.02791% | 158    |  0.028% | 65     |  0.018% | 
 | 679  | Gourgeist-Small    |  0.02773% | 157    |  0.028% | 94     |  0.026% | 
 | 680  | Palpitoad          |  0.02738% | 155    |  0.027% | 121    |  0.034% | 
 | 681  | Silvally-Ground    |  0.02738% | 155    |  0.027% | 100    |  0.028% | 
 | 682  | Duskull            |  0.02720% | 154    |  0.027% | 95     |  0.027% | 
 | 683  | Lairon             |  0.02702% | 153    |  0.027% | 115    |  0.032% | 
 | 684  | Shieldon           |  0.02702% | 153    |  0.027% | 111    |  0.031% | 
 | 685  | Zorua              |  0.02667% | 151    |  0.027% | 70     |  0.020% | 
 | 686  | Mimikyu-Totem      |  0.02649% | 150    |  0.026% | 107    |  0.030% | 
 | 687  | Natu               |  0.02632% | 149    |  0.026% | 116    |  0.032% | 
 | 688  | Inkay              |  0.02596% | 147    |  0.026% | 80     |  0.022% | 
 | 689  | Lotad              |  0.02579% | 146    |  0.026% | 71     |  0.020% | 
 | 690  | Cutiefly           |  0.02561% | 145    |  0.026% | 96     |  0.027% | 
 | 691  | Treecko            |  0.02561% | 145    |  0.026% | 96     |  0.027% | 
 | 692  | Popplio            |  0.02561% | 145    |  0.026% | 97     |  0.027% | 
 | 693  | Quilava            |  0.02543% | 144    |  0.025% | 116    |  0.032% | 
 | 694  | Silvally-Poison    |  0.02543% | 144    |  0.025% | 83     |  0.023% | 
 | 695  | Honedge            |  0.02508% | 142    |  0.025% | 96     |  0.027% | 
 | 696  | Cyndaquil          |  0.02508% | 142    |  0.025% | 90     |  0.025% | 
 | 697  | Frogadier          |  0.02455% | 139    |  0.025% | 97     |  0.027% | 
 | 698  | Phantump           |  0.02455% | 139    |  0.025% | 99     |  0.028% | 
 | 699  | Mareanie           |  0.02420% | 137    |  0.024% | 89     |  0.025% | 
 | 700  | Silvally-Grass     |  0.02384% | 135    |  0.024% | 85     |  0.024% | 
 | 701  | Silvally-Dark      |  0.02367% | 134    |  0.024% | 85     |  0.024% | 
 | 702  | Zweilous           |  0.02349% | 133    |  0.023% | 87     |  0.024% | 
 | 703  | Torchic            |  0.02349% | 133    |  0.023% | 86     |  0.024% | 
 | 704  | Shelgon            |  0.02331% | 132    |  0.023% | 61     |  0.017% | 
 | 705  | Croagunk           |  0.02331% | 132    |  0.023% | 93     |  0.026% | 
 | 706  | Phione             |  0.02331% | 132    |  0.023% | 81     |  0.023% | 
 | 707  | Silvally-Ice       |  0.02314% | 131    |  0.023% | 82     |  0.023% | 
 | 708  | Salandit           |  0.02296% | 130    |  0.023% | 70     |  0.020% | 
 | 709  | Pumpkaboo          |  0.02296% | 130    |  0.023% | 68     |  0.019% | 
 | 710  | Cosmoem            |  0.02278% | 129    |  0.023% | 51     |  0.014% | 
 | 711  | Doduo              |  0.02225% | 126    |  0.022% | 66     |  0.018% | 
 | 712  | Feebas             |  0.02225% | 126    |  0.022% | 66     |  0.018% | 
 | 713  | Swinub             |  0.02208% | 125    |  0.022% | 38     |  0.011% | 
 | 714  | Servine            |  0.02208% | 125    |  0.022% | 84     |  0.024% | 
 | 715  | Sliggoo            |  0.02190% | 124    |  0.022% | 75     |  0.021% | 
 | 716  | Spheal             |  0.02172% | 123    |  0.022% | 36     |  0.010% | 
 | 717  | Pikachu-Sinnoh     |  0.02155% | 122    |  0.022% | 80     |  0.022% | 
 | 718  | Seadra             |  0.02119% | 120    |  0.021% | 83     |  0.023% | 
 | 719  | Totodile           |  0.02119% | 120    |  0.021% | 87     |  0.024% | 
 | 720  | Pancham            |  0.02102% | 119    |  0.021% | 66     |  0.018% | 
 | 721  | Woobat             |  0.02066% | 117    |  0.021% | 63     |  0.018% | 
 | 722  | Teddiursa          |  0.02066% | 117    |  0.021% | 45     |  0.013% | 
 | 723  | Croconaw           |  0.02066% | 117    |  0.021% | 82     |  0.023% | 
 | 724  | Grovyle            |  0.02049% | 116    |  0.020% | 77     |  0.022% | 
 | 725  | Piplup             |  0.02049% | 116    |  0.020% | 91     |  0.025% | 
 | 726  | Spinarak           |  0.02049% | 116    |  0.020% | 98     |  0.027% | 
 | 727  | Yungoos            |  0.02031% | 115    |  0.020% | 64     |  0.018% | 
 | 728  | Gible              |  0.02013% | 114    |  0.020% | 71     |  0.020% | 
 | 729  | Slugma             |  0.02013% | 114    |  0.020% | 73     |  0.020% | 
 | 730  | Wormadam-Sandy     |  0.01996% | 113    |  0.020% | 95     |  0.027% | 
 | 731  | Poliwhirl          |  0.01996% | 113    |  0.020% | 69     |  0.019% | 
 | 732  | Metang             |  0.01978% | 112    |  0.020% | 76     |  0.021% | 
 | 733  | Grimer-Alola       |  0.01978% | 112    |  0.020% | 42     |  0.012% | 
 | 734  | Oricorio-Pa'u      |  0.01943% | 110    |  0.019% | 77     |  0.022% | 
 | 735  | Koffing            |  0.01925% | 109    |  0.019% | 77     |  0.022% | 
 | 736  | Crabrawler         |  0.01907% | 108    |  0.019% | 59     |  0.017% | 
 | 737  | Drowzee            |  0.01872% | 106    |  0.019% | 75     |  0.021% | 
 | 738  | Helioptile         |  0.01872% | 106    |  0.019% | 58     |  0.016% | 
 | 739  | Binacle            |  0.01872% | 106    |  0.019% | 63     |  0.018% | 
 | 740  | Tyrunt             |  0.01837% | 104    |  0.018% | 67     |  0.019% | 
 | 741  | Omanyte            |  0.01802% | 102    |  0.018% | 64     |  0.018% | 
 | 742  | Deerling           |  0.01784% | 101    |  0.018% | 67     |  0.019% | 
 | 743  | Kirlia             |  0.01766% | 100    |  0.018% | 62     |  0.017% | 
 | 744  | Sealeo             |  0.01766% | 100    |  0.018% | 63     |  0.018% | 
 | 745  | Hoppip             |  0.01766% | 100    |  0.018% | 83     |  0.023% | 
 | 746  | Remoraid           |  0.01749% | 99     |  0.017% | 36     |  0.010% | 
 | 747  | Pansage            |  0.01731% | 98     |  0.017% | 63     |  0.018% | 
 | 748  | Vulpix-Alola       |  0.01713% | 97     |  0.017% | 70     |  0.020% | 
 | 749  | Spoink             |  0.01713% | 97     |  0.017% | 44     |  0.012% | 
 | 750  | Cubchoo            |  0.01696% | 96     |  0.017% | 67     |  0.019% | 
 | 751  | Shelmet            |  0.01678% | 95     |  0.017% | 56     |  0.016% | 
 | 752  | Amaura             |  0.01678% | 95     |  0.017% | 62     |  0.017% | 
 | 753  | Fraxure            |  0.01660% | 94     |  0.017% | 73     |  0.020% | 
 | 754  | Staryu             |  0.01643% | 93     |  0.016% | 76     |  0.021% | 
 | 755  | Bonsly             |  0.01643% | 93     |  0.016% | 54     |  0.015% | 
 | 756  | Exeggcute          |  0.01643% | 93     |  0.016% | 66     |  0.018% | 
 | 757  | Phanpy             |  0.01625% | 92     |  0.016% | 41     |  0.011% | 
 | 758  | Pidove             |  0.01607% | 91     |  0.016% | 60     |  0.017% | 
 | 759  | Sandile            |  0.01607% | 91     |  0.016% | 47     |  0.013% | 
 | 760  | Slowpoke           |  0.01590% | 90     |  0.016% | 52     |  0.015% | 
 | 761  | Pikachu-Unova      |  0.01590% | 90     |  0.016% | 55     |  0.015% | 
 | 762  | Tentacool          |  0.01590% | 90     |  0.016% | 52     |  0.015% | 
 | 763  | Froakie            |  0.01572% | 89     |  0.016% | 64     |  0.018% | 
 | 764  | Marill             |  0.01554% | 88     |  0.016% | 54     |  0.015% | 
 | 765  | Floette            |  0.01554% | 88     |  0.016% | 46     |  0.013% | 
 | 766  | Morelull           |  0.01554% | 88     |  0.016% | 51     |  0.014% | 
 | 767  | Kakuna             |  0.01537% | 87     |  0.015% | 62     |  0.017% | 
 | 768  | Kommo-o-Totem      |  0.01537% | 87     |  0.015% | 58     |  0.016% | 
 | 769  | Pikachu-Hoenn      |  0.01501% | 85     |  0.015% | 62     |  0.017% | 
 | 770  | Fennekin           |  0.01501% | 85     |  0.015% | 54     |  0.015% | 
 | 771  | Wormadam           |  0.01484% | 84     |  0.015% | 66     |  0.018% | 
 | 772  | Elekid             |  0.01484% | 84     |  0.015% | 60     |  0.017% | 
 | 773  | Azurill            |  0.01448% | 82     |  0.014% | 66     |  0.018% | 
 | 774  | Venipede           |  0.01431% | 81     |  0.014% | 72     |  0.020% | 
 | 775  | Bronzor            |  0.01431% | 81     |  0.014% | 59     |  0.017% | 
 | 776  | Silvally-Fighting  |  0.01431% | 81     |  0.014% | 53     |  0.015% | 
 | 777  | Mankey             |  0.01413% | 80     |  0.014% | 59     |  0.017% | 
 | 778  | Wailmer            |  0.01413% | 80     |  0.014% | 52     |  0.015% | 
 | 779  | Snorunt            |  0.01413% | 80     |  0.014% | 40     |  0.011% | 
 | 780  | Klang              |  0.01395% | 79     |  0.014% | 64     |  0.018% | 
 | 781  | Litwick            |  0.01395% | 79     |  0.014% | 67     |  0.019% | 
 | 782  | Bellsprout         |  0.01378% | 78     |  0.014% | 43     |  0.012% | 
 | 783  | Silvally-Flying    |  0.01378% | 78     |  0.014% | 56     |  0.016% | 
 | 784  | Meowth-Alola       |  0.01378% | 78     |  0.014% | 67     |  0.019% | 
 | 785  | Baltoy             |  0.01360% | 77     |  0.014% | 57     |  0.016% | 
 | 786  | Chimchar           |  0.01360% | 77     |  0.014% | 60     |  0.017% | 
 | 787  | Duosion            |  0.01342% | 76     |  0.013% | 45     |  0.013% | 
 | 788  | Seedot             |  0.01342% | 76     |  0.013% | 26     |  0.007% | 
 | 789  | Eelektrik          |  0.01342% | 76     |  0.013% | 52     |  0.015% | 
 | 790  | Paras              |  0.01325% | 75     |  0.013% | 41     |  0.011% | 
 | 791  | Silvally-Psychic   |  0.01325% | 75     |  0.013% | 58     |  0.016% | 
 | 792  | Quilladin          |  0.01325% | 75     |  0.013% | 54     |  0.015% | 
 | 793  | Growlithe          |  0.01307% | 74     |  0.013% | 52     |  0.015% | 
 | 794  | Espurr             |  0.01307% | 74     |  0.013% | 35     |  0.010% | 
 | 795  | Wimpod             |  0.01289% | 73     |  0.013% | 42     |  0.012% | 
 | 796  | Larvitar           |  0.01289% | 73     |  0.013% | 46     |  0.013% | 
 | 797  | Archen             |  0.01254% | 71     |  0.013% | 43     |  0.012% | 
 | 798  | Vulpix             |  0.01254% | 71     |  0.013% | 49     |  0.014% | 
 | 799  | Tyrogue            |  0.01254% | 71     |  0.013% | 52     |  0.015% | 
 | 800  | Mudbray            |  0.01236% | 70     |  0.012% | 37     |  0.010% | 
 | 801  | Clauncher          |  0.01236% | 70     |  0.012% | 42     |  0.012% | 
 | 802  | Elgyem             |  0.01219% | 69     |  0.012% | 55     |  0.015% | 
 | 803  | Noibat             |  0.01219% | 69     |  0.012% | 42     |  0.012% | 
 | 804  | Happiny            |  0.01219% | 69     |  0.012% | 47     |  0.013% | 
 | 805  | Salazzle-Totem     |  0.01219% | 69     |  0.012% | 57     |  0.016% | 
 | 806  | Combee             |  0.01201% | 68     |  0.012% | 48     |  0.013% | 
 | 807  | Rhyhorn            |  0.01201% | 68     |  0.012% | 54     |  0.015% | 
 | 808  | Hakamo-o           |  0.01183% | 67     |  0.012% | 37     |  0.010% | 
 | 809  | Weepinbell         |  0.01166% | 66     |  0.012% | 46     |  0.013% | 
 | 810  | Silvally-Bug       |  0.01148% | 65     |  0.011% | 28     |  0.008% | 
 | 811  | Goomy              |  0.01113% | 63     |  0.011% | 29     |  0.008% | 
 | 812  | Oddish             |  0.01113% | 63     |  0.011% | 41     |  0.011% | 
 | 813  | Lillipup           |  0.01095% | 62     |  0.011% | 48     |  0.013% | 
 | 814  | Vanillish          |  0.01095% | 62     |  0.011% | 41     |  0.011% | 
 | 815  | Steenee            |  0.01095% | 62     |  0.011% | 48     |  0.013% | 
 | 816  | Marshtomp          |  0.01095% | 62     |  0.011% | 47     |  0.013% | 
 | 817  | Turtwig            |  0.01095% | 62     |  0.011% | 52     |  0.015% | 
 | 818  | Silvally-Rock      |  0.01077% | 61     |  0.011% | 43     |  0.012% | 
 | 819  | Carvanha           |  0.01060% | 60     |  0.011% | 41     |  0.011% | 
 | 820  | Patrat             |  0.01060% | 60     |  0.011% | 32     |  0.009% | 
 | 821  | Ekans              |  0.01042% | 59     |  0.010% | 44     |  0.012% | 
 | 822  | Yanma              |  0.01024% | 58     |  0.010% | 42     |  0.012% | 
 | 823  | Larvesta           |  0.01007% | 57     |  0.010% | 48     |  0.013% | 
 | 824  | Sandshrew-Alola    |  0.01007% | 57     |  0.010% | 49     |  0.014% | 
 | 825  | Staravia           |  0.00989% | 56     |  0.010% | 30     |  0.008% | 
 | 826  | Marowak-Alola-Totem |  0.00989% | 56     |  0.010% | 42     |  0.012% | 
 | 827  | Pumpkaboo-Super    |  0.00971% | 55     |  0.010% | 34     |  0.010% | 
 | 828  | Mareep             |  0.00954% | 54     |  0.010% | 28     |  0.008% | 
 | 829  | Magby              |  0.00954% | 54     |  0.010% | 40     |  0.011% | 
 | 830  | Snover             |  0.00954% | 54     |  0.010% | 37     |  0.010% | 
 | 831  | Houndour           |  0.00954% | 54     |  0.010% | 42     |  0.012% | 
 | 832  | Chespin            |  0.00936% | 53     |  0.009% | 35     |  0.010% | 
 | 833  | Axew               |  0.00936% | 53     |  0.009% | 39     |  0.011% | 
 | 834  | Poliwag            |  0.00918% | 52     |  0.009% | 23     |  0.006% | 
 | 835  | Rufflet            |  0.00901% | 51     |  0.009% | 35     |  0.010% | 
 | 836  | Jangmo-o           |  0.00901% | 51     |  0.009% | 25     |  0.007% | 
 | 837  | Spritzee           |  0.00901% | 51     |  0.009% | 20     |  0.006% | 
 | 838  | Kabuto             |  0.00901% | 51     |  0.009% | 34     |  0.010% | 
 | 839  | Fletchling         |  0.00883% | 50     |  0.009% | 28     |  0.008% | 
 | 840  | Sandshrew          |  0.00883% | 50     |  0.009% | 32     |  0.009% | 
 | 841  | Shroomish          |  0.00883% | 50     |  0.009% | 27     |  0.008% | 
 | 842  | Litleo             |  0.00883% | 50     |  0.009% | 23     |  0.006% | 
 | 843  | Karrablast         |  0.00865% | 49     |  0.009% | 22     |  0.006% | 
 | 844  | Machop             |  0.00865% | 49     |  0.009% | 32     |  0.009% | 
 | 845  | Trumbeak           |  0.00848% | 48     |  0.008% | 38     |  0.011% | 
 | 846  | Tepig              |  0.00830% | 47     |  0.008% | 38     |  0.011% | 
 | 847  | Skorupi            |  0.00830% | 47     |  0.008% | 30     |  0.008% | 
 | 848  | Stufful            |  0.00830% | 47     |  0.008% | 27     |  0.008% | 
 | 849  | Nuzleaf            |  0.00830% | 47     |  0.008% | 37     |  0.010% | 
 | 850  | Whirlipede         |  0.00812% | 46     |  0.008% | 39     |  0.011% | 
 | 851  | Dratini            |  0.00812% | 46     |  0.008% | 34     |  0.010% | 
 | 852  | Mantyke            |  0.00795% | 45     |  0.008% | 31     |  0.009% | 
 | 853  | Swadloon           |  0.00795% | 45     |  0.008% | 36     |  0.010% | 
 | 854  | Scatterbug         |  0.00795% | 45     |  0.008% | 30     |  0.008% | 
 | 855  | Pupitar            |  0.00795% | 45     |  0.008% | 28     |  0.008% | 
 | 856  | Cacnea             |  0.00795% | 45     |  0.008% | 35     |  0.010% | 
 | 857  | Skiddo             |  0.00777% | 44     |  0.008% | 26     |  0.007% | 
 | 858  | Grotle             |  0.00777% | 44     |  0.008% | 32     |  0.009% | 
 | 859  | Makuhita           |  0.00759% | 43     |  0.008% | 29     |  0.008% | 
 | 860  | Goldeen            |  0.00759% | 43     |  0.008% | 28     |  0.008% | 
 | 861  | Brionne            |  0.00759% | 43     |  0.008% | 27     |  0.008% | 
 | 862  | Sandygast          |  0.00742% | 42     |  0.007% | 20     |  0.006% | 
 | 863  | Grubbin            |  0.00742% | 42     |  0.007% | 22     |  0.006% | 
 | 864  | Gothita            |  0.00742% | 42     |  0.007% | 37     |  0.010% | 
 | 865  | Flabebe            |  0.00742% | 42     |  0.007% | 23     |  0.006% | 
 | 866  | Klink              |  0.00724% | 41     |  0.007% | 9      |  0.003% | 
 | 867  | Flaaffy            |  0.00724% | 41     |  0.007% | 24     |  0.007% | 
 | 868  | Luxio              |  0.00724% | 41     |  0.007% | 27     |  0.008% | 
 | 869  | Herdier            |  0.00724% | 41     |  0.007% | 33     |  0.009% | 
 | 870  | Slakoth            |  0.00706% | 40     |  0.007% | 30     |  0.008% | 
 | 871  | Pidgeotto          |  0.00706% | 40     |  0.007% | 26     |  0.007% | 
 | 872  | Gulpin             |  0.00689% | 39     |  0.007% | 26     |  0.007% | 
 | 873  | Dwebble            |  0.00689% | 39     |  0.007% | 24     |  0.007% | 
 | 874  | Fomantis           |  0.00689% | 39     |  0.007% | 20     |  0.006% | 
 | 875  | Bergmite           |  0.00671% | 38     |  0.007% | 25     |  0.007% | 
 | 876  | Glameow            |  0.00671% | 38     |  0.007% | 26     |  0.007% | 
 | 877  | Pawniard           |  0.00653% | 37     |  0.007% | 30     |  0.008% | 
 | 878  | Lileep             |  0.00653% | 37     |  0.007% | 27     |  0.008% | 
 | 879  | Joltik             |  0.00653% | 37     |  0.007% | 26     |  0.007% | 
 | 880  | Pikipek            |  0.00653% | 37     |  0.007% | 15     |  0.004% | 
 | 881  | Budew              |  0.00636% | 36     |  0.006% | 20     |  0.006% | 
 | 882  | Anorith            |  0.00636% | 36     |  0.006% | 31     |  0.009% | 
 | 883  | Bounsweet          |  0.00636% | 36     |  0.006% | 23     |  0.006% | 
 | 884  | Smoochum           |  0.00636% | 36     |  0.006% | 29     |  0.008% | 
 | 885  | Gourgeist-Large    |  0.00636% | 36     |  0.006% | 31     |  0.009% | 
 | 886  | Numel              |  0.00636% | 36     |  0.006% | 29     |  0.008% | 
 | 887  | Roggenrola         |  0.00618% | 35     |  0.006% | 33     |  0.009% | 
 | 888  | Shuppet            |  0.00601% | 34     |  0.006% | 20     |  0.006% | 
 | 889  | Prinplup           |  0.00601% | 34     |  0.006% | 28     |  0.008% | 
 | 890  | Spearow            |  0.00601% | 34     |  0.006% | 22     |  0.006% | 
 | 891  | Munna              |  0.00601% | 34     |  0.006% | 24     |  0.007% | 
 | 892  | Darumaka           |  0.00601% | 34     |  0.006% | 24     |  0.007% | 
 | 893  | Cranidos           |  0.00601% | 34     |  0.006% | 22     |  0.006% | 
 | 894  | Poochyena          |  0.00583% | 33     |  0.006% | 24     |  0.007% | 
 | 895  | Kricketot          |  0.00583% | 33     |  0.006% | 30     |  0.008% | 
 | 896  | Nincada            |  0.00583% | 33     |  0.006% | 24     |  0.007% | 
 | 897  | Minccino           |  0.00583% | 33     |  0.006% | 22     |  0.006% | 
 | 898  | Drilbur            |  0.00583% | 33     |  0.006% | 23     |  0.006% | 
 | 899  | Shinx              |  0.00583% | 33     |  0.006% | 20     |  0.006% | 
 | 900  | Diglett-Alola      |  0.00565% | 32     |  0.006% | 20     |  0.006% | 
 | 901  | Panpour            |  0.00565% | 32     |  0.006% | 25     |  0.007% | 
 | 902  | Vibrava            |  0.00565% | 32     |  0.006% | 19     |  0.005% | 
 | 903  | Skrelp             |  0.00548% | 31     |  0.005% | 12     |  0.003% | 
 | 904  | Wingull            |  0.00548% | 31     |  0.005% | 16     |  0.004% | 
 | 905  | Raticate-Alola-Totem |  0.00548% | 31     |  0.005% | 29     |  0.008% | 
 | 906  | Lombre             |  0.00548% | 31     |  0.005% | 26     |  0.007% | 
 | 907  | Cosmog             |  0.00548% | 31     |  0.005% | 20     |  0.006% | 
 | 908  | Grimer             |  0.00548% | 31     |  0.005% | 20     |  0.006% | 
 | 909  | Foongus            |  0.00530% | 30     |  0.005% | 20     |  0.006% | 
 | 910  | Shellder           |  0.00530% | 30     |  0.005% | 20     |  0.006% | 
 | 911  | Chingling          |  0.00530% | 30     |  0.005% | 18     |  0.005% | 
 | 912  | Horsea             |  0.00530% | 30     |  0.005% | 22     |  0.006% | 
 | 913  | Wurmple            |  0.00530% | 30     |  0.005% | 27     |  0.008% | 
 | 914  | Whismur            |  0.00530% | 30     |  0.005% | 20     |  0.006% | 
 | 915  | Nidorino           |  0.00530% | 30     |  0.005% | 23     |  0.006% | 
 | 916  | Beldum             |  0.00512% | 29     |  0.005% | 19     |  0.005% | 
 | 917  | Spewpa             |  0.00512% | 29     |  0.005% | 20     |  0.006% | 
 | 918  | NidoranM           |  0.00495% | 28     |  0.005% | 21     |  0.006% | 
 | 919  | Surskit            |  0.00477% | 27     |  0.005% | 20     |  0.006% | 
 | 920  | Pumpkaboo-Small    |  0.00477% | 27     |  0.005% | 20     |  0.006% | 
 | 921  | Sentret            |  0.00477% | 27     |  0.005% | 18     |  0.005% | 
 | 922  | Tynamo             |  0.00477% | 27     |  0.005% | 11     |  0.003% | 
 | 923  | Golett             |  0.00477% | 27     |  0.005% | 16     |  0.004% | 
 | 924  | Snubbull           |  0.00459% | 26     |  0.005% | 16     |  0.004% | 
 | 925  | Seel               |  0.00459% | 26     |  0.005% | 15     |  0.004% | 
 | 926  | Vullaby            |  0.00459% | 26     |  0.005% | 19     |  0.005% | 
 | 927  | Loudred            |  0.00442% | 25     |  0.004% | 19     |  0.005% | 
 | 928  | Pumpkaboo-Large    |  0.00424% | 24     |  0.004% | 15     |  0.004% | 
 | 929  | Vanillite          |  0.00424% | 24     |  0.004% | 15     |  0.004% | 
 | 930  | Chinchou           |  0.00406% | 23     |  0.004% | 12     |  0.003% | 
 | 931  | Araquanid-Totem    |  0.00406% | 23     |  0.004% | 20     |  0.006% | 
 | 932  | Ledyba             |  0.00406% | 23     |  0.004% | 16     |  0.004% | 
 | 933  | Cascoon            |  0.00389% | 22     |  0.004% | 14     |  0.004% | 
 | 934  | Timburr            |  0.00389% | 22     |  0.004% | 17     |  0.005% | 
 | 935  | Geodude-Alola      |  0.00371% | 21     |  0.004% | 16     |  0.004% | 
 | 936  | Shellos            |  0.00371% | 21     |  0.004% | 15     |  0.004% | 
 | 937  | Electrike          |  0.00371% | 21     |  0.004% | 14     |  0.004% | 
 | 938  | Finneon            |  0.00371% | 21     |  0.004% | 15     |  0.004% | 
 | 939  | Pansear            |  0.00353% | 20     |  0.004% | 14     |  0.004% | 
 | 940  | NidoranF           |  0.00353% | 20     |  0.004% | 10     |  0.003% | 
 | 941  | Sewaddle           |  0.00353% | 20     |  0.004% | 16     |  0.004% | 
 | 942  | Petilil            |  0.00353% | 20     |  0.004% | 13     |  0.004% | 
 | 943  | Nidorina           |  0.00353% | 20     |  0.004% | 17     |  0.005% | 
 | 944  | Hoothoot           |  0.00336% | 19     |  0.003% | 13     |  0.004% | 
 | 945  | Tympole            |  0.00336% | 19     |  0.003% | 11     |  0.003% | 
 | 946  | Barboach           |  0.00300% | 17     |  0.003% | 15     |  0.004% | 
 | 947  | Vikavolt-Totem     |  0.00283% | 16     |  0.003% | 13     |  0.004% | 
 | 948  | Skiploom           |  0.00265% | 15     |  0.003% | 10     |  0.003% | 
 | 949  | Silcoon            |  0.00265% | 15     |  0.003% | 9      |  0.003% | 
 | 950  | Tranquill          |  0.00265% | 15     |  0.003% | 14     |  0.004% | 
 | 951  | Deino              |  0.00247% | 14     |  0.002% | 10     |  0.003% | 
 | 952  | Lurantis-Totem     |  0.00247% | 14     |  0.002% | 5      |  0.001% | 
 | 953  | Burmy              |  0.00247% | 14     |  0.002% | 11     |  0.003% | 
 | 954  | Swablu             |  0.00230% | 13     |  0.002% | 7      |  0.002% | 
 | 955  | Stunky             |  0.00194% | 11     |  0.002% | 5      |  0.001% | 
 | 956  | Cherubi            |  0.00177% | 10     |  0.002% | 9      |  0.003% | 
 | 957  | Blitzle            |  0.00177% | 10     |  0.002% | 7      |  0.002% | 
 | 958  | Gumshoos-Totem     |  0.00124% | 7      |  0.001% | 6      |  0.002% | 
 | 959  | Togedemaru-Totem   |  0.00124% | 7      |  0.001% | 7      |  0.002% | 
 | 960  | Ribombee-Totem     |  0.00018% | 1      |  0.000% | 0      |  0.000% | 
 + ---- + ------------------ + --------- + ------ + ------- + ------ + ------- + 
