 Total battles: 160311
 Avg. weight/team: 0.51
 + ---- + ------------------ + --------- + ------ + ------- + ------ + ------- + 
 | Rank | Pokemon            | Usage %   | Raw    | %       | Real   | %       | 
 + ---- + ------------------ + --------- + ------ + ------- + ------ + ------- + 
 | 1    | Groudon-Primal     | 39.59609% | 103036 | 32.136% | 78517  | 34.850% | 
 | 2    | Xerneas            | 30.79450% | 78967  | 24.629% | 53856  | 23.904% | 
 | 3    | Kyogre-Primal      | 23.19220% | 65726  | 20.500% | 45041  | 19.992% | 
 | 4    | Yveltal            | 20.09241% | 47620  | 14.852% | 35317  | 15.676% | 
 | 5    | Marshadow          | 19.56489% | 50751  | 15.829% | 34414  | 15.275% | 
 | 6    | Necrozma-Dusk-Mane | 17.77644% | 42825  | 13.357% | 29618  | 13.146% | 
 | 7    | Arceus             | 13.70658% | 33260  | 10.374% | 22612  | 10.037% | 
 | 8    | Aegislash          | 10.10990% | 33655  | 10.497% | 23144  | 10.273% | 
 | 9    | Rayquaza           |  9.72238% | 29021  |  9.051% | 19665  |  8.728% | 
 | 10   | Lugia              |  9.64397% | 25410  |  7.925% | 17532  |  7.782% | 
 | 11   | Mewtwo-Mega-Y      |  9.14451% | 26200  |  8.172% | 17255  |  7.659% | 
 | 12   | Salamence-Mega     |  8.53246% | 23138  |  7.217% | 15541  |  6.898% | 
 | 13   | Darkrai            |  8.16785% | 26583  |  8.291% | 18632  |  8.270% | 
 | 14   | Blaziken-Mega      |  7.84388% | 25591  |  7.982% | 17937  |  7.961% | 
 | 15   | Ferrothorn         |  7.57067% | 22585  |  7.044% | 18514  |  8.218% | 
 | 16   | Zygarde            |  6.83662% | 19927  |  6.215% | 13542  |  6.011% | 
 | 17   | Ho-Oh              |  6.26415% | 16122  |  5.028% | 11691  |  5.189% | 
 | 18   | Lucario-Mega       |  6.19382% | 20031  |  6.248% | 13849  |  6.147% | 
 | 19   | Deoxys-Speed       |  6.07136% | 15921  |  4.966% | 14426  |  6.403% | 
 | 20   | Giratina-Origin    |  5.82794% | 16535  |  5.157% | 11557  |  5.130% | 
 | 21   | Gengar-Mega        |  5.63943% | 17564  |  5.478% | 11956  |  5.307% | 
 | 22   | Greninja-Ash       |  5.42382% | 21568  |  6.727% | 15693  |  6.965% | 
 | 23   | Deoxys-Attack      |  5.31394% | 13846  |  4.318% | 9775   |  4.339% | 
 | 24   | Kartana            |  4.29346% | 14581  |  4.548% | 9925   |  4.405% | 
 | 25   | Naganadel          |  4.17500% | 13063  |  4.074% | 8539   |  3.790% | 
 | 26   | Kyogre             |  4.14932% | 10208  |  3.184% | 7001   |  3.107% | 
 | 27   | Arceus-Fairy       |  4.12102% | 10005  |  3.120% | 7218   |  3.204% | 
 | 28   | Arceus-Ground      |  4.09585% | 9082   |  2.833% | 6850   |  3.040% | 
 | 29   | Garchomp           |  3.99492% | 14492  |  4.520% | 10388  |  4.611% | 
 | 30   | Greninja           |  3.96003% | 13443  |  4.193% | 9589   |  4.256% | 
 | 31   | Dialga             |  3.95209% | 12057  |  3.761% | 8337   |  3.700% | 
 | 32   | Metagross-Mega     |  3.89452% | 12635  |  3.941% | 8762   |  3.889% | 
 | 33   | Mimikyu            |  3.84872% | 14052  |  4.383% | 10362  |  4.599% | 
 | 34   | Blaziken           |  3.66314% | 11955  |  3.729% | 8323   |  3.694% | 
 | 35   | Toxapex            |  3.55620% | 11170  |  3.484% | 8745   |  3.882% | 
 | 36   | Kangaskhan-Mega    |  3.43267% | 10407  |  3.246% | 7579   |  3.364% | 
 | 37   | Chansey            |  3.42647% | 9777   |  3.049% | 7014   |  3.113% | 
 | 38   | Shaymin-Sky        |  3.36507% | 9100   |  2.838% | 6194   |  2.749% | 
 | 39   | Mewtwo-Mega-X      |  3.34906% | 10472  |  3.266% | 6993   |  3.104% | 
 | 40   | Shuckle            |  3.34160% | 11291  |  3.522% | 10053  |  4.462% | 
 | 41   | Gliscor            |  3.27147% | 12835  |  4.003% | 9567   |  4.246% | 
 | 42   | Kyurem-White       |  3.25824% | 9020   |  2.813% | 5950   |  2.641% | 
 | 43   | Lunala             |  3.24321% | 9441   |  2.945% | 6249   |  2.774% | 
 | 44   | Landorus-Therian   |  3.17072% | 9746   |  3.040% | 7756   |  3.443% | 
 | 45   | Pheromosa          |  3.15176% | 8848   |  2.760% | 6063   |  2.691% | 
 | 46   | Ditto              |  3.09728% | 9112   |  2.842% | 6480   |  2.876% | 
 | 47   | Necrozma-Dawn-Wings |  2.99012% | 9482   |  2.957% | 6226   |  2.763% | 
 | 48   | Palkia             |  2.94974% | 8661   |  2.701% | 5965   |  2.648% | 
 | 49   | Arceus-Water       |  2.88991% | 7114   |  2.219% | 4843   |  2.150% | 
 | 50   | Mewtwo             |  2.85066% | 8678   |  2.707% | 5999   |  2.663% | 
 | 51   | Smeargle           |  2.82059% | 7330   |  2.286% | 6675   |  2.963% | 
 | 52   | Cloyster           |  2.80899% | 9929   |  3.097% | 7257   |  3.221% | 
 | 53   | Magearna           |  2.76501% | 7377   |  2.301% | 5252   |  2.331% | 
 | 54   | Tapu Koko          |  2.63368% | 8951   |  2.792% | 6255   |  2.776% | 
 | 55   | Serperior          |  2.59596% | 10110  |  3.153% | 6542   |  2.904% | 
 | 56   | Excadrill          |  2.54339% | 7996   |  2.494% | 6293   |  2.793% | 
 | 57   | Charizard-Mega-X   |  2.51136% | 10838  |  3.380% | 7898   |  3.506% | 
 | 58   | Tyranitar          |  2.48660% | 8993   |  2.805% | 6644   |  2.949% | 
 | 59   | Giratina           |  2.42681% | 6238   |  1.946% | 4319   |  1.917% | 
 | 60   | Dragonite          |  2.27784% | 9052   |  2.823% | 6238   |  2.769% | 
 | 61   | Zekrom             |  2.24993% | 7012   |  2.187% | 4683   |  2.079% | 
 | 62   | Volcarona          |  2.21982% | 8409   |  2.623% | 5643   |  2.505% | 
 | 63   | Breloom            |  2.02342% | 7130   |  2.224% | 5238   |  2.325% | 
 | 64   | Sableye-Mega       |  1.98429% | 5712   |  1.782% | 4676   |  2.075% | 
 | 65   | Genesect           |  1.97435% | 6130   |  1.912% | 4299   |  1.908% | 
 | 66   | Scizor-Mega        |  1.97352% | 5671   |  1.769% | 4033   |  1.790% | 
 | 67   | Deoxys-Defense     |  1.97122% | 6432   |  2.006% | 5020   |  2.228% | 
 | 68   | Tapu Lele          |  1.92183% | 5636   |  1.758% | 3949   |  1.753% | 
 | 69   | Skarmory           |  1.85167% | 6476   |  2.020% | 5352   |  2.376% | 
 | 70   | Landorus           |  1.83637% | 4665   |  1.455% | 3404   |  1.511% | 
 | 71   | Solgaleo           |  1.81457% | 5889   |  1.837% | 3865   |  1.716% | 
 | 72   | Zeraora            |  1.79217% | 7197   |  2.245% | 5139   |  2.281% | 
 | 73   | Arceus-Steel       |  1.76335% | 4768   |  1.487% | 3234   |  1.435% | 
 | 74   | Azumarill          |  1.74865% | 6499   |  2.027% | 4539   |  2.015% | 
 | 75   | Celesteela         |  1.73396% | 5400   |  1.684% | 3985   |  1.769% | 
 | 76   | Beedrill-Mega      |  1.71644% | 5344   |  1.667% | 3710   |  1.647% | 
 | 77   | Gengar             |  1.70390% | 7193   |  2.243% | 5101   |  2.264% | 
 | 78   | Snorlax            |  1.67356% | 7347   |  2.291% | 5325   |  2.364% | 
 | 79   | Charizard-Mega-Y   |  1.62965% | 6830   |  2.130% | 4877   |  2.165% | 
 | 80   | Togekiss           |  1.54126% | 5987   |  1.867% | 4229   |  1.877% | 
 | 81   | Swampert-Mega      |  1.52825% | 5662   |  1.766% | 4281   |  1.900% | 
 | 82   | Venusaur-Mega      |  1.51956% | 5533   |  1.726% | 3683   |  1.635% | 
 | 83   | Blissey            |  1.50274% | 4902   |  1.529% | 3434   |  1.524% | 
 | 84   | Kommo-o            |  1.47903% | 5776   |  1.801% | 4014   |  1.782% | 
 | 85   | Diancie-Mega       |  1.44034% | 4205   |  1.312% | 3316   |  1.472% | 
 | 86   | Rotom-Wash         |  1.41547% | 4939   |  1.540% | 3504   |  1.555% | 
 | 87   | Tyranitar-Mega     |  1.41383% | 5536   |  1.727% | 4013   |  1.781% | 
 | 88   | Forretress         |  1.39823% | 4859   |  1.515% | 4276   |  1.898% | 
 | 89   | Weavile            |  1.37710% | 5316   |  1.658% | 3874   |  1.720% | 
 | 90   | Infernape          |  1.37351% | 5775   |  1.801% | 4168   |  1.850% | 
 | 91   | Heatran            |  1.33110% | 4586   |  1.430% | 3454   |  1.533% | 
 | 92   | Clefable           |  1.31007% | 4834   |  1.508% | 3370   |  1.496% | 
 | 93   | Blacephalon        |  1.23462% | 4210   |  1.313% | 2885   |  1.281% | 
 | 94   | Hydreigon          |  1.23338% | 4861   |  1.516% | 3272   |  1.452% | 
 | 95   | Gardevoir-Mega     |  1.20898% | 5060   |  1.578% | 3356   |  1.490% | 
 | 96   | Reshiram           |  1.20504% | 4035   |  1.258% | 2567   |  1.139% | 
 | 97   | Espeon             |  1.20418% | 4544   |  1.417% | 3433   |  1.524% | 
 | 98   | Gardevoir          |  1.18848% | 4876   |  1.521% | 3396   |  1.507% | 
 | 99   | Garchomp-Mega      |  1.15760% | 5045   |  1.574% | 3562   |  1.581% | 
 | 100  | Galvantula         |  1.15659% | 3947   |  1.231% | 3452   |  1.532% | 
 | 101  | Gyarados           |  1.11216% | 4435   |  1.383% | 3229   |  1.433% | 
 | 102  | Arceus-Ghost       |  1.09392% | 2695   |  0.841% | 1876   |  0.833% | 
 | 103  | Kyurem-Black       |  1.08937% | 4005   |  1.249% | 2570   |  1.141% | 
 | 104  | Arceus-Poison      |  1.07830% | 2573   |  0.803% | 1681   |  0.746% | 
 | 105  | Sceptile-Mega      |  1.05770% | 5091   |  1.588% | 3408   |  1.513% | 
 | 106  | Umbreon            |  1.04704% | 3951   |  1.232% | 2766   |  1.228% | 
 | 107  | Xurkitree          |  1.03444% | 3397   |  1.060% | 2299   |  1.020% | 
 | 108  | Alakazam-Mega      |  1.03408% | 4217   |  1.315% | 2808   |  1.246% | 
 | 109  | Krookodile         |  1.02636% | 4010   |  1.251% | 3061   |  1.359% | 
 | 110  | Magnezone          |  1.01438% | 3755   |  1.171% | 2648   |  1.175% | 
 | 111  | Talonflame         |  0.99761% | 3933   |  1.227% | 2897   |  1.286% | 
 | 112  | Metagross          |  0.98189% | 3999   |  1.247% | 2803   |  1.244% | 
 | 113  | Salamence          |  0.98061% | 3926   |  1.224% | 2785   |  1.236% | 
 | 114  | Zapdos             |  0.98044% | 3778   |  1.178% | 2696   |  1.197% | 
 | 115  | Lopunny-Mega       |  0.97731% | 3269   |  1.020% | 2438   |  1.082% | 
 | 116  | Arceus-Dark        |  0.97700% | 2620   |  0.817% | 1851   |  0.822% | 
 | 117  | Staraptor          |  0.96324% | 3875   |  1.209% | 2857   |  1.268% | 
 | 118  | Mew                |  0.94612% | 3834   |  1.196% | 2668   |  1.184% | 
 | 119  | Crobat             |  0.92314% | 3758   |  1.172% | 2729   |  1.211% | 
 | 120  | Incineroar         |  0.92109% | 4091   |  1.276% | 2890   |  1.283% | 
 | 121  | Dugtrio            |  0.91620% | 2651   |  0.827% | 1892   |  0.840% | 
 | 122  | Shedinja           |  0.91149% | 3771   |  1.176% | 2603   |  1.155% | 
 | 123  | Groudon            |  0.90704% | 3054   |  0.953% | 2196   |  0.975% | 
 | 124  | Gyarados-Mega      |  0.88433% | 3296   |  1.028% | 2417   |  1.073% | 
 | 125  | Mawile-Mega        |  0.88242% | 3146   |  0.981% | 2218   |  0.984% | 
 | 126  | Tapu Fini          |  0.87458% | 2881   |  0.899% | 2110   |  0.937% | 
 | 127  | Arceus-Flying      |  0.86516% | 1981   |  0.618% | 1251   |  0.555% | 
 | 128  | Jirachi            |  0.84944% | 3051   |  0.952% | 2185   |  0.970% | 
 | 129  | Lucario            |  0.84359% | 3807   |  1.187% | 2757   |  1.224% | 
 | 130  | Ninetales-Alola    |  0.84341% | 3353   |  1.046% | 2421   |  1.075% | 
 | 131  | Scizor             |  0.80050% | 3080   |  0.961% | 2167   |  0.962% | 
 | 132  | Swampert           |  0.79795% | 3130   |  0.976% | 2326   |  1.032% | 
 | 133  | Haxorus            |  0.78772% | 3100   |  0.967% | 2123   |  0.942% | 
 | 134  | Hawlucha           |  0.78285% | 3014   |  0.940% | 2108   |  0.936% | 
 | 135  | Victini            |  0.77845% | 2967   |  0.925% | 2066   |  0.917% | 
 | 136  | Jolteon            |  0.77701% | 3216   |  1.003% | 2360   |  1.048% | 
 | 137  | Sylveon            |  0.76482% | 3121   |  0.973% | 2143   |  0.951% | 
 | 138  | Chandelure         |  0.75625% | 3255   |  1.015% | 2311   |  1.026% | 
 | 139  | Wobbuffet          |  0.73090% | 2953   |  0.921% | 2169   |  0.963% | 
 | 140  | Durant             |  0.72597% | 2108   |  0.657% | 1679   |  0.745% | 
 | 141  | Arcanine           |  0.72493% | 3153   |  0.983% | 2314   |  1.027% | 
 | 142  | Muk-Alola          |  0.71376% | 2387   |  0.744% | 1683   |  0.747% | 
 | 143  | Milotic            |  0.70989% | 2892   |  0.902% | 2094   |  0.929% | 
 | 144  | Arceus-Electric    |  0.70265% | 2044   |  0.638% | 1400   |  0.621% | 
 | 145  | Porygon-Z          |  0.69232% | 2797   |  0.872% | 2000   |  0.888% | 
 | 146  | Golduck            |  0.69042% | 2539   |  0.792% | 1725   |  0.766% | 
 | 147  | Klefki             |  0.68716% | 2001   |  0.624% | 1669   |  0.741% | 
 | 148  | Gallade-Mega       |  0.68515% | 3101   |  0.967% | 2078   |  0.922% | 
 | 149  | Decidueye          |  0.67665% | 3389   |  1.057% | 2311   |  1.026% | 
 | 150  | Venusaur           |  0.67001% | 3114   |  0.971% | 2117   |  0.940% | 
 | 151  | Sceptile           |  0.66478% | 2678   |  0.835% | 1868   |  0.829% | 
 | 152  | Bisharp            |  0.66327% | 2841   |  0.886% | 1987   |  0.882% | 
 | 153  | Pyukumuku          |  0.66037% | 1998   |  0.623% | 1509   |  0.670% | 
 | 154  | Zoroark            |  0.65182% | 2757   |  0.860% | 1277   |  0.567% | 
 | 155  | Latios             |  0.63586% | 1965   |  0.613% | 1325   |  0.588% | 
 | 156  | Alakazam           |  0.63335% | 2814   |  0.878% | 1910   |  0.848% | 
 | 157  | Roserade           |  0.62201% | 2556   |  0.797% | 1905   |  0.846% | 
 | 158  | Tapu Bulu          |  0.60908% | 2212   |  0.690% | 1448   |  0.643% | 
 | 159  | Charizard          |  0.60905% | 2968   |  0.926% | 2166   |  0.961% | 
 | 160  | Arceus-Dragon      |  0.59533% | 1994   |  0.622% | 1334   |  0.592% | 
 | 161  | Salazzle           |  0.59254% | 2349   |  0.733% | 1640   |  0.728% | 
 | 162  | Whimsicott         |  0.58215% | 1895   |  0.591% | 1389   |  0.617% | 
 | 163  | Hoopa-Unbound      |  0.57574% | 2146   |  0.669% | 1436   |  0.637% | 
 | 164  | Lapras             |  0.56106% | 2675   |  0.834% | 1814   |  0.805% | 
 | 165  | Stakataka          |  0.55590% | 1889   |  0.589% | 1414   |  0.628% | 
 | 166  | Scolipede          |  0.55297% | 2117   |  0.660% | 1601   |  0.711% | 
 | 167  | Buzzwole           |  0.54325% | 2102   |  0.656% | 1410   |  0.626% | 
 | 168  | Ninjask            |  0.53817% | 2352   |  0.734% | 1632   |  0.724% | 
 | 169  | Empoleon           |  0.53081% | 2322   |  0.724% | 1702   |  0.755% | 
 | 170  | Conkeldurr         |  0.52895% | 1990   |  0.621% | 1338   |  0.594% | 
 | 171  | Pikachu            |  0.52737% | 2673   |  0.834% | 2041   |  0.906% | 
 | 172  | Goodra             |  0.52357% | 2199   |  0.686% | 1533   |  0.680% | 
 | 173  | Flygon             |  0.51351% | 2339   |  0.730% | 1785   |  0.792% | 
 | 174  | Hippowdon          |  0.51295% | 1713   |  0.534% | 1359   |  0.603% | 
 | 175  | Nihilego           |  0.50775% | 1870   |  0.583% | 1505   |  0.668% | 
 | 176  | Pineco             |  0.50266% | 2166   |  0.676% | 1817   |  0.806% | 
 | 177  | Electivire         |  0.50183% | 2587   |  0.807% | 1953   |  0.867% | 
 | 178  | Hitmonlee          |  0.49484% | 2085   |  0.650% | 1557   |  0.691% | 
 | 179  | Medicham-Mega      |  0.48638% | 1835   |  0.572% | 1301   |  0.577% | 
 | 180  | Nidoking           |  0.48161% | 2124   |  0.662% | 1668   |  0.740% | 
 | 181  | Dusknoir           |  0.48109% | 2090   |  0.652% | 1556   |  0.691% | 
 | 182  | Arceus-Grass       |  0.48039% | 1406   |  0.439% | 942    |  0.418% | 
 | 183  | Machamp            |  0.47779% | 2236   |  0.697% | 1661   |  0.737% | 
 | 184  | Heracross-Mega     |  0.47706% | 2035   |  0.635% | 1384   |  0.614% | 
 | 185  | Linoone            |  0.47685% | 1848   |  0.576% | 1360   |  0.604% | 
 | 186  | Golisopod          |  0.47365% | 1954   |  0.609% | 1428   |  0.634% | 
 | 187  | Aron               |  0.47080% | 2201   |  0.686% | 1467   |  0.651% | 
 | 188  | Mamoswine          |  0.47040% | 1851   |  0.577% | 1422   |  0.631% | 
 | 189  | Quagsire           |  0.47016% | 1563   |  0.487% | 1127   |  0.500% | 
 | 190  | Darmanitan         |  0.46566% | 1955   |  0.610% | 1353   |  0.601% | 
 | 191  | Cresselia          |  0.46365% | 1417   |  0.442% | 965    |  0.428% | 
 | 192  | Typhlosion         |  0.46329% | 2161   |  0.674% | 1413   |  0.627% | 
 | 193  | Togedemaru         |  0.45884% | 1524   |  0.475% | 1162   |  0.516% | 
 | 194  | Altaria-Mega       |  0.45613% | 1905   |  0.594% | 1329   |  0.590% | 
 | 195  | Eelektross         |  0.45479% | 1878   |  0.586% | 1345   |  0.597% | 
 | 196  | Arceus-Fire        |  0.45285% | 1445   |  0.451% | 980    |  0.435% | 
 | 197  | Lycanroc-Dusk      |  0.44989% | 2001   |  0.624% | 1527   |  0.678% | 
 | 198  | Pelipper           |  0.44487% | 1737   |  0.542% | 1411   |  0.626% | 
 | 199  | Noivern            |  0.43861% | 2138   |  0.667% | 1496   |  0.664% | 
 | 200  | Ribombee           |  0.43785% | 1452   |  0.453% | 1264   |  0.561% | 
 | 201  | Primarina          |  0.43746% | 2219   |  0.692% | 1669   |  0.741% | 
 | 202  | Keldeo             |  0.43196% | 1641   |  0.512% | 1147   |  0.509% | 
 | 203  | Feraligatr         |  0.43153% | 1979   |  0.617% | 1413   |  0.627% | 
 | 204  | Drapion            |  0.42859% | 1771   |  0.552% | 1354   |  0.601% | 
 | 205  | Gastrodon          |  0.42828% | 1718   |  0.536% | 1249   |  0.554% | 
 | 206  | Volcanion          |  0.42540% | 1679   |  0.524% | 1228   |  0.545% | 
 | 207  | Rattata            |  0.42211% | 1977   |  0.617% | 1519   |  0.674% | 
 | 208  | Absol-Mega         |  0.42198% | 1637   |  0.511% | 1183   |  0.525% | 
 | 209  | Vaporeon           |  0.42023% | 1766   |  0.551% | 1272   |  0.565% | 
 | 210  | Ninetales          |  0.40409% | 1823   |  0.569% | 1301   |  0.577% | 
 | 211  | Froslass           |  0.40096% | 1635   |  0.510% | 1291   |  0.573% | 
 | 212  | Cottonee           |  0.39070% | 1752   |  0.546% | 1132   |  0.502% | 
 | 213  | Thundurus-Therian  |  0.38302% | 1494   |  0.466% | 965    |  0.428% | 
 | 214  | Aggron             |  0.38148% | 1625   |  0.507% | 1234   |  0.548% | 
 | 215  | Yanmega            |  0.37797% | 2045   |  0.638% | 1562   |  0.693% | 
 | 216  | Latias             |  0.37490% | 1158   |  0.361% | 745    |  0.331% | 
 | 217  | Malamar            |  0.37217% | 1644   |  0.513% | 1175   |  0.522% | 
 | 218  | Porygon2           |  0.36883% | 1270   |  0.396% | 959    |  0.426% | 
 | 219  | Kingdra            |  0.36614% | 1614   |  0.503% | 1176   |  0.522% | 
 | 220  | Butterfree         |  0.36227% | 1571   |  0.490% | 1197   |  0.531% | 
 | 221  | Donphan            |  0.35824% | 1063   |  0.332% | 870    |  0.386% | 
 | 222  | Pinsir-Mega        |  0.35711% | 1372   |  0.428% | 928    |  0.412% | 
 | 223  | Aerodactyl-Mega    |  0.34893% | 1435   |  0.448% | 1017   |  0.451% | 
 | 224  | Aggron-Mega        |  0.34784% | 1500   |  0.468% | 1156   |  0.513% | 
 | 225  | Honchkrow          |  0.34776% | 1534   |  0.478% | 1095   |  0.486% | 
 | 226  | Liepard            |  0.34585% | 1285   |  0.401% | 1040   |  0.462% | 
 | 227  | Swellow            |  0.34513% | 1288   |  0.402% | 956    |  0.424% | 
 | 228  | Celebi             |  0.34411% | 1411   |  0.440% | 995    |  0.442% | 
 | 229  | Heracross          |  0.34324% | 1375   |  0.429% | 906    |  0.402% | 
 | 230  | Suicune            |  0.34111% | 1295   |  0.404% | 881    |  0.391% | 
 | 231  | Torterra           |  0.33797% | 1707   |  0.532% | 1267   |  0.562% | 
 | 232  | Blastoise-Mega     |  0.33574% | 1527   |  0.476% | 1071   |  0.475% | 
 | 233  | Araquanid          |  0.33435% | 1206   |  0.376% | 1013   |  0.450% | 
 | 234  | Gothitelle         |  0.33330% | 1101   |  0.343% | 709    |  0.315% | 
 | 235  | Aerodactyl         |  0.33312% | 1128   |  0.352% | 958    |  0.425% | 
 | 236  | Spiritomb          |  0.32972% | 1251   |  0.390% | 931    |  0.413% | 
 | 237  | Tyrantrum          |  0.32720% | 1367   |  0.426% | 936    |  0.415% | 
 | 238  | Amoonguss          |  0.31925% | 1163   |  0.363% | 824    |  0.366% | 
 | 239  | Ambipom            |  0.31822% | 1442   |  0.450% | 1125   |  0.499% | 
 | 240  | Manectric-Mega     |  0.31109% | 1287   |  0.401% | 922    |  0.409% | 
 | 241  | Mandibuzz          |  0.31086% | 986    |  0.308% | 703    |  0.312% | 
 | 242  | Marowak-Alola      |  0.30994% | 1380   |  0.430% | 973    |  0.432% | 
 | 243  | Cradily            |  0.30758% | 1246   |  0.389% | 962    |  0.427% | 
 | 244  | Latios-Mega        |  0.30742% | 1135   |  0.354% | 788    |  0.350% | 
 | 245  | Luxray             |  0.30550% | 1556   |  0.485% | 1125   |  0.499% | 
 | 246  | Blastoise          |  0.30456% | 1614   |  0.503% | 1164   |  0.517% | 
 | 247  | Nosepass           |  0.30165% | 1466   |  0.457% | 1050   |  0.466% | 
 | 248  | Tangrowth          |  0.29912% | 1351   |  0.421% | 935    |  0.415% | 
 | 249  | Latias-Mega        |  0.29378% | 1083   |  0.338% | 787    |  0.349% | 
 | 250  | Starmie            |  0.29301% | 1250   |  0.390% | 856    |  0.380% | 
 | 251  | Heliolisk          |  0.29280% | 1191   |  0.371% | 781    |  0.347% | 
 | 252  | Reuniclus          |  0.29200% | 1132   |  0.353% | 776    |  0.344% | 
 | 253  | Raichu-Alola       |  0.28771% | 1441   |  0.449% | 1077   |  0.478% | 
 | 254  | Rotom-Heat         |  0.28667% | 1030   |  0.321% | 783    |  0.348% | 
 | 255  | Tentacruel         |  0.28568% | 1186   |  0.370% | 952    |  0.423% | 
 | 256  | Minior             |  0.28565% | 1005   |  0.313% | 786    |  0.349% | 
 | 257  | Sableye            |  0.28053% | 1202   |  0.375% | 959    |  0.426% | 
 | 258  | Xatu               |  0.27532% | 921    |  0.287% | 709    |  0.315% | 
 | 259  | Slaking            |  0.26970% | 1160   |  0.362% | 873    |  0.387% | 
 | 260  | Manaphy            |  0.26964% | 914    |  0.285% | 636    |  0.282% | 
 | 261  | Toxicroak          |  0.26699% | 1221   |  0.381% | 856    |  0.380% | 
 | 262  | Vivillon           |  0.26618% | 897    |  0.280% | 636    |  0.282% | 
 | 263  | Slowbro            |  0.26147% | 930    |  0.290% | 639    |  0.284% | 
 | 264  | Deoxys             |  0.25813% | 887    |  0.277% | 650    |  0.289% | 
 | 265  | Steelix-Mega       |  0.25641% | 1162   |  0.362% | 871    |  0.387% | 
 | 266  | Chesnaught         |  0.25555% | 1145   |  0.357% | 751    |  0.333% | 
 | 267  | Crawdaunt          |  0.25419% | 933    |  0.291% | 628    |  0.279% | 
 | 268  | Rhyperior          |  0.25409% | 1156   |  0.361% | 865    |  0.384% | 
 | 269  | Gallade            |  0.25052% | 1160   |  0.362% | 822    |  0.365% | 
 | 270  | Scrafty            |  0.24989% | 1071   |  0.334% | 722    |  0.320% | 
 | 271  | Taillow            |  0.24325% | 1116   |  0.348% | 549    |  0.244% | 
 | 272  | Trevenant          |  0.24119% | 1101   |  0.343% | 744    |  0.330% | 
 | 273  | Vikavolt           |  0.24107% | 1145   |  0.357% | 810    |  0.360% | 
 | 274  | Pidgeot-Mega       |  0.24056% | 1037   |  0.323% | 764    |  0.339% | 
 | 275  | Raikou             |  0.23887% | 1022   |  0.319% | 681    |  0.302% | 
 | 276  | Muk                |  0.23761% | 912    |  0.284% | 681    |  0.302% | 
 | 277  | Arceus-Ice         |  0.23759% | 830    |  0.259% | 569    |  0.253% | 
 | 278  | Zangoose           |  0.23108% | 955    |  0.298% | 626    |  0.278% | 
 | 279  | Omastar            |  0.23001% | 929    |  0.290% | 755    |  0.335% | 
 | 280  | Politoed           |  0.22949% | 868    |  0.271% | 687    |  0.305% | 
 | 281  | Ludicolo           |  0.22799% | 1047   |  0.327% | 732    |  0.325% | 
 | 282  | Houndoom-Mega      |  0.22686% | 1025   |  0.320% | 696    |  0.309% | 
 | 283  | Electrode          |  0.22519% | 782    |  0.244% | 645    |  0.286% | 
 | 284  | Komala             |  0.22402% | 976    |  0.304% | 586    |  0.260% | 
 | 285  | Delphox            |  0.22328% | 1012   |  0.316% | 716    |  0.318% | 
 | 286  | Magnemite          |  0.22258% | 1002   |  0.313% | 606    |  0.269% | 
 | 287  | Probopass          |  0.22199% | 640    |  0.200% | 498    |  0.221% | 
 | 288  | Lycanroc-Midnight  |  0.22170% | 1276   |  0.398% | 919    |  0.408% | 
 | 289  | Avalugg            |  0.22044% | 738    |  0.230% | 506    |  0.225% | 
 | 290  | Vileplume          |  0.21903% | 958    |  0.299% | 714    |  0.317% | 
 | 291  | Nidoqueen          |  0.21770% | 960    |  0.299% | 784    |  0.348% | 
 | 292  | Articuno           |  0.21754% | 1107   |  0.345% | 777    |  0.345% | 
 | 293  | Sharpedo           |  0.21440% | 988    |  0.308% | 687    |  0.305% | 
 | 294  | Torkoal            |  0.21376% | 966    |  0.301% | 793    |  0.352% | 
 | 295  | Ampharos-Mega      |  0.21215% | 950    |  0.296% | 654    |  0.290% | 
 | 296  | Slurpuff           |  0.20808% | 732    |  0.228% | 500    |  0.222% | 
 | 297  | Cinccino           |  0.20770% | 940    |  0.293% | 681    |  0.302% | 
 | 298  | Raichu             |  0.20615% | 1120   |  0.349% | 768    |  0.341% | 
 | 299  | Garbodor           |  0.20152% | 829    |  0.259% | 638    |  0.283% | 
 | 300  | Arceus-Rock        |  0.20019% | 474    |  0.148% | 355    |  0.158% | 
 | 301  | Riolu              |  0.19857% | 1123   |  0.350% | 753    |  0.334% | 
 | 302  | Dragalge           |  0.19829% | 866    |  0.270% | 631    |  0.280% | 
 | 303  | Thundurus          |  0.19732% | 628    |  0.196% | 425    |  0.189% | 
 | 304  | Dusclops           |  0.19713% | 815    |  0.254% | 585    |  0.260% | 
 | 305  | Bronzong           |  0.19494% | 727    |  0.227% | 566    |  0.251% | 
 | 306  | Crustle            |  0.19425% | 880    |  0.274% | 676    |  0.300% | 
 | 307  | Comfey             |  0.19362% | 792    |  0.247% | 607    |  0.269% | 
 | 308  | Geodude            |  0.19268% | 1016   |  0.317% | 801    |  0.356% | 
 | 309  | Necrozma           |  0.19139% | 666    |  0.208% | 448    |  0.199% | 
 | 310  | Doublade           |  0.19137% | 744    |  0.232% | 517    |  0.229% | 
 | 311  | Braviary           |  0.18991% | 811    |  0.253% | 579    |  0.257% | 
 | 312  | Registeel          |  0.18916% | 778    |  0.243% | 591    |  0.262% | 
 | 313  | Turtonator         |  0.18914% | 915    |  0.285% | 681    |  0.302% | 
 | 314  | Golem              |  0.18904% | 806    |  0.251% | 648    |  0.288% | 
 | 315  | Cofagrigus         |  0.18806% | 952    |  0.297% | 737    |  0.327% | 
 | 316  | Flareon            |  0.18430% | 890    |  0.278% | 602    |  0.267% | 
 | 317  | Meloetta           |  0.18386% | 710    |  0.221% | 480    |  0.213% | 
 | 318  | Bellossom          |  0.18348% | 912    |  0.284% | 367    |  0.163% | 
 | 319  | Glaceon            |  0.17939% | 836    |  0.261% | 587    |  0.261% | 
 | 320  | Kabutops           |  0.17936% | 592    |  0.185% | 434    |  0.193% | 
 | 321  | Banette-Mega       |  0.17674% | 700    |  0.218% | 523    |  0.232% | 
 | 322  | Weezing            |  0.17616% | 803    |  0.250% | 644    |  0.286% | 
 | 323  | Claydol            |  0.17275% | 666    |  0.208% | 537    |  0.238% | 
 | 324  | Entei              |  0.17174% | 735    |  0.229% | 527    |  0.234% | 
 | 325  | Steelix            |  0.17170% | 750    |  0.234% | 601    |  0.267% | 
 | 326  | Tornadus-Therian   |  0.16902% | 657    |  0.205% | 454    |  0.202% | 
 | 327  | Manectric          |  0.16651% | 805    |  0.251% | 592    |  0.263% | 
 | 328  | Drifblim           |  0.16578% | 719    |  0.224% | 524    |  0.233% | 
 | 329  | Absol              |  0.16526% | 691    |  0.216% | 470    |  0.209% | 
 | 330  | Ursaring           |  0.16492% | 788    |  0.246% | 562    |  0.249% | 
 | 331  | Seismitoad         |  0.16472% | 768    |  0.240% | 602    |  0.267% | 
 | 332  | Alomomola          |  0.16186% | 559    |  0.174% | 400    |  0.178% | 
 | 333  | Bastiodon          |  0.16020% | 685    |  0.214% | 562    |  0.249% | 
 | 334  | Sharpedo-Mega      |  0.15914% | 765    |  0.239% | 491    |  0.218% | 
 | 335  | Regigigas          |  0.15860% | 650    |  0.203% | 493    |  0.219% | 
 | 336  | Samurott           |  0.15781% | 946    |  0.295% | 721    |  0.320% | 
 | 337  | Terrakion          |  0.15772% | 642    |  0.200% | 487    |  0.216% | 
 | 338  | Arceus-Fighting    |  0.15756% | 544    |  0.170% | 367    |  0.163% | 
 | 339  | Chatot             |  0.15708% | 559    |  0.174% | 390    |  0.173% | 
 | 340  | Mudsdale           |  0.15637% | 702    |  0.219% | 536    |  0.238% | 
 | 341  | Golurk             |  0.15348% | 791    |  0.247% | 603    |  0.268% | 
 | 342  | Jellicent          |  0.15346% | 609    |  0.190% | 482    |  0.214% | 
 | 343  | Ariados            |  0.15335% | 660    |  0.206% | 597    |  0.265% | 
 | 344  | Sandslash-Alola    |  0.15302% | 620    |  0.193% | 443    |  0.197% | 
 | 345  | Floatzel           |  0.15060% | 681    |  0.212% | 514    |  0.228% | 
 | 346  | Wailord            |  0.15051% | 714    |  0.223% | 548    |  0.243% | 
 | 347  | Exeggutor          |  0.14973% | 705    |  0.220% | 480    |  0.213% | 
 | 348  | Tsareena           |  0.14819% | 665    |  0.207% | 455    |  0.202% | 
 | 349  | Sawsbuck           |  0.14654% | 587    |  0.183% | 393    |  0.174% | 
 | 350  | Golem-Alola        |  0.14629% | 663    |  0.207% | 536    |  0.238% | 
 | 351  | Sunflora           |  0.14546% | 659    |  0.206% | 508    |  0.225% | 
 | 352  | Abomasnow          |  0.14536% | 610    |  0.190% | 453    |  0.201% | 
 | 353  | Guzzlord           |  0.14469% | 611    |  0.191% | 436    |  0.194% | 
 | 354  | Hitmontop          |  0.14431% | 634    |  0.198% | 458    |  0.203% | 
 | 355  | Diggersby          |  0.14350% | 633    |  0.197% | 452    |  0.201% | 
 | 356  | Clawitzer          |  0.14078% | 594    |  0.185% | 443    |  0.197% | 
 | 357  | Gigalith           |  0.13925% | 604    |  0.188% | 513    |  0.228% | 
 | 358  | Bewear             |  0.13892% | 621    |  0.194% | 435    |  0.193% | 
 | 359  | Persian-Alola      |  0.13874% | 525    |  0.164% | 434    |  0.193% | 
 | 360  | Altaria            |  0.13813% | 607    |  0.189% | 435    |  0.193% | 
 | 361  | Accelgor           |  0.13690% | 598    |  0.187% | 474    |  0.210% | 
 | 362  | Moltres            |  0.13674% | 638    |  0.199% | 430    |  0.191% | 
 | 363  | Meowstic           |  0.13360% | 569    |  0.177% | 441    |  0.196% | 
 | 364  | Lilligant          |  0.13321% | 563    |  0.176% | 387    |  0.172% | 
 | 365  | Regice             |  0.13207% | 572    |  0.178% | 405    |  0.180% | 
 | 366  | Murkrow            |  0.13189% | 620    |  0.193% | 456    |  0.202% | 
 | 367  | Camerupt-Mega      |  0.13178% | 598    |  0.187% | 472    |  0.210% | 
 | 368  | Carracosta         |  0.13036% | 550    |  0.172% | 425    |  0.189% | 
 | 369  | Walrein            |  0.12947% | 676    |  0.211% | 528    |  0.234% | 
 | 370  | Arceus-Psychic     |  0.12860% | 389    |  0.121% | 280    |  0.124% | 
 | 371  | Miltank            |  0.12843% | 591    |  0.184% | 449    |  0.199% | 
 | 372  | Mantine            |  0.12764% | 407    |  0.127% | 299    |  0.133% | 
 | 373  | Scyther            |  0.12579% | 554    |  0.173% | 404    |  0.179% | 
 | 374  | Escavalier         |  0.12515% | 527    |  0.164% | 387    |  0.172% | 
 | 375  | Azelf              |  0.12496% | 557    |  0.174% | 426    |  0.189% | 
 | 376  | Abomasnow-Mega     |  0.12371% | 632    |  0.197% | 430    |  0.191% | 
 | 377  | Florges            |  0.12361% | 513    |  0.160% | 380    |  0.169% | 
 | 378  | Zygarde-10%        |  0.12332% | 533    |  0.166% | 405    |  0.180% | 
 | 379  | Lanturn            |  0.12283% | 587    |  0.183% | 444    |  0.197% | 
 | 380  | Lycanroc           |  0.11640% | 539    |  0.168% | 390    |  0.173% | 
 | 381  | Archeops           |  0.11503% | 505    |  0.158% | 375    |  0.166% | 
 | 382  | Slowbro-Mega       |  0.11486% | 454    |  0.142% | 334    |  0.148% | 
 | 383  | Magmortar          |  0.11481% | 560    |  0.175% | 409    |  0.182% | 
 | 384  | Shiinotic          |  0.11366% | 551    |  0.172% | 357    |  0.158% | 
 | 385  | Emboar             |  0.11337% | 531    |  0.166% | 404    |  0.179% | 
 | 386  | Exeggutor-Alola    |  0.11212% | 427    |  0.133% | 294    |  0.130% | 
 | 387  | Armaldo            |  0.11196% | 610    |  0.190% | 469    |  0.208% | 
 | 388  | Mismagius          |  0.11005% | 615    |  0.192% | 466    |  0.207% | 
 | 389  | Audino-Mega        |  0.10882% | 511    |  0.159% | 350    |  0.155% | 
 | 390  | Hariyama           |  0.10872% | 491    |  0.153% | 359    |  0.159% | 
 | 391  | Drampa             |  0.10651% | 409    |  0.128% | 284    |  0.126% | 
 | 392  | Jynx               |  0.10523% | 443    |  0.138% | 309    |  0.137% | 
 | 393  | Sigilyph           |  0.10413% | 494    |  0.154% | 304    |  0.135% | 
 | 394  | Ampharos           |  0.10387% | 561    |  0.175% | 414    |  0.184% | 
 | 395  | Toucannon          |  0.10382% | 525    |  0.164% | 392    |  0.174% | 
 | 396  | Pangoro            |  0.10373% | 499    |  0.156% | 367    |  0.163% | 
 | 397  | Lurantis           |  0.10299% | 426    |  0.133% | 290    |  0.129% | 
 | 398  | Uxie               |  0.10272% | 376    |  0.117% | 303    |  0.134% | 
 | 399  | Rhydon             |  0.10265% | 388    |  0.121% | 324    |  0.144% | 
 | 400  | Cobalion           |  0.10235% | 424    |  0.132% | 300    |  0.133% | 
 | 401  | Poliwrath          |  0.10171% | 555    |  0.173% | 390    |  0.173% | 
 | 402  | Glalie-Mega        |  0.10117% | 422    |  0.132% | 318    |  0.141% | 
 | 403  | Hippopotas         |  0.10087% | 420    |  0.131% | 248    |  0.110% | 
 | 404  | Masquerain         |  0.09976% | 461    |  0.144% | 363    |  0.161% | 
 | 405  | Pyroar             |  0.09929% | 437    |  0.136% | 289    |  0.128% | 
 | 406  | Dhelmise           |  0.09912% | 437    |  0.136% | 308    |  0.137% | 
 | 407  | Crabominable       |  0.09689% | 448    |  0.140% | 315    |  0.140% | 
 | 408  | Regirock           |  0.09602% | 479    |  0.149% | 374    |  0.166% | 
 | 409  | Hitmonchan         |  0.09585% | 488    |  0.152% | 378    |  0.168% | 
 | 410  | Rampardos          |  0.09490% | 424    |  0.132% | 288    |  0.128% | 
 | 411  | Houndoom           |  0.09454% | 448    |  0.140% | 294    |  0.130% | 
 | 412  | Rapidash           |  0.09097% | 416    |  0.130% | 264    |  0.117% | 
 | 413  | Primeape           |  0.09018% | 298    |  0.093% | 236    |  0.105% | 
 | 414  | Leafeon            |  0.08867% | 462    |  0.144% | 333    |  0.148% | 
 | 415  | Venomoth           |  0.08847% | 321    |  0.100% | 218    |  0.097% | 
 | 416  | Diancie            |  0.08831% | 335    |  0.104% | 239    |  0.106% | 
 | 417  | Mienshao           |  0.08823% | 482    |  0.150% | 371    |  0.165% | 
 | 418  | Barbaracle         |  0.08758% | 395    |  0.123% | 264    |  0.117% | 
 | 419  | Magneton           |  0.08689% | 315    |  0.098% | 246    |  0.109% | 
 | 420  | Furfrou            |  0.08656% | 385    |  0.120% | 254    |  0.113% | 
 | 421  | Solosis            |  0.08590% | 452    |  0.141% | 264    |  0.117% | 
 | 422  | Audino             |  0.08415% | 285    |  0.089% | 206    |  0.091% | 
 | 423  | Shiftry            |  0.08317% | 380    |  0.119% | 247    |  0.110% | 
 | 424  | Kricketune         |  0.08245% | 430    |  0.134% | 331    |  0.147% | 
 | 425  | Aurorus            |  0.08208% | 435    |  0.136% | 304    |  0.135% | 
 | 426  | Tauros             |  0.08170% | 380    |  0.119% | 287    |  0.127% | 
 | 427  | Wishiwashi         |  0.08113% | 329    |  0.103% | 255    |  0.113% | 
 | 428  | Kyurem             |  0.08107% | 305    |  0.095% | 217    |  0.096% | 
 | 429  | Raticate           |  0.08084% | 398    |  0.124% | 277    |  0.123% | 
 | 430  | Rotom-Frost        |  0.08028% | 343    |  0.107% | 225    |  0.100% | 
 | 431  | Carbink            |  0.07964% | 367    |  0.114% | 305    |  0.135% | 
 | 432  | Medicham           |  0.07959% | 308    |  0.096% | 229    |  0.102% | 
 | 433  | Virizion           |  0.07902% | 393    |  0.123% | 264    |  0.117% | 
 | 434  | Mr. Mime           |  0.07862% | 437    |  0.136% | 335    |  0.149% | 
 | 435  | Ferroseed          |  0.07720% | 325    |  0.101% | 296    |  0.131% | 
 | 436  | Arbok              |  0.07681% | 305    |  0.095% | 210    |  0.093% | 
 | 437  | Slowking           |  0.07624% | 359    |  0.112% | 243    |  0.108% | 
 | 438  | Mesprit            |  0.07587% | 221    |  0.069% | 152    |  0.067% | 
 | 439  | Exploud            |  0.07499% | 356    |  0.111% | 290    |  0.129% | 
 | 440  | Meganium           |  0.07484% | 427    |  0.133% | 319    |  0.142% | 
 | 441  | Cryogonal          |  0.07349% | 325    |  0.101% | 213    |  0.095% | 
 | 442  | Dodrio             |  0.07214% | 349    |  0.109% | 245    |  0.109% | 
 | 443  | Gligar             |  0.07123% | 296    |  0.092% | 234    |  0.104% | 
 | 444  | Gothorita          |  0.07078% | 237    |  0.074% | 176    |  0.078% | 
 | 445  | Palossand          |  0.06978% | 326    |  0.102% | 257    |  0.114% | 
 | 446  | Shaymin            |  0.06908% | 248    |  0.077% | 169    |  0.075% | 
 | 447  | Bibarel            |  0.06858% | 281    |  0.088% | 211    |  0.094% | 
 | 448  | Kingler            |  0.06856% | 311    |  0.097% | 222    |  0.099% | 
 | 449  | Pidgeot            |  0.06823% | 395    |  0.123% | 288    |  0.128% | 
 | 450  | Sawk               |  0.06803% | 362    |  0.113% | 257    |  0.114% | 
 | 451  | Bulbasaur          |  0.06763% | 354    |  0.110% | 250    |  0.111% | 
 | 452  | Arceus-Bug         |  0.06646% | 212    |  0.066% | 120    |  0.053% | 
 | 453  | Jumpluff           |  0.06481% | 281    |  0.088% | 241    |  0.107% | 
 | 454  | Beautifly          |  0.06304% | 290    |  0.090% | 194    |  0.086% | 
 | 455  | Haunter            |  0.06275% | 290    |  0.090% | 225    |  0.100% | 
 | 456  | Beedrill           |  0.06219% | 400    |  0.125% | 299    |  0.133% | 
 | 457  | Eevee              |  0.06184% | 377    |  0.118% | 292    |  0.130% | 
 | 458  | Rotom-Mow          |  0.06103% | 340    |  0.106% | 240    |  0.107% | 
 | 459  | Mightyena          |  0.06067% | 280    |  0.087% | 220    |  0.098% | 
 | 460  | Cacturne           |  0.05960% | 296    |  0.092% | 217    |  0.096% | 
 | 461  | Victreebel         |  0.05958% | 297    |  0.093% | 194    |  0.086% | 
 | 462  | Stoutland          |  0.05745% | 340    |  0.106% | 251    |  0.111% | 
 | 463  | Beheeyem           |  0.05729% | 269    |  0.084% | 199    |  0.088% | 
 | 464  | Starly             |  0.05674% | 247    |  0.077% | 172    |  0.076% | 
 | 465  | Meditite           |  0.05668% | 309    |  0.096% | 217    |  0.096% | 
 | 466  | Illumise           |  0.05632% | 246    |  0.077% | 208    |  0.092% | 
 | 467  | Vanilluxe          |  0.05607% | 240    |  0.075% | 165    |  0.073% | 
 | 468  | Tropius            |  0.05503% | 272    |  0.085% | 204    |  0.091% | 
 | 469  | Oranguru           |  0.05408% | 193    |  0.060% | 143    |  0.063% | 
 | 470  | Marowak            |  0.05367% | 287    |  0.090% | 232    |  0.103% | 
 | 471  | Ralts              |  0.05309% | 242    |  0.075% | 183    |  0.081% | 
 | 472  | Vespiquen          |  0.05293% | 266    |  0.083% | 153    |  0.068% | 
 | 473  | Fearow             |  0.05231% | 371    |  0.116% | 272    |  0.121% | 
 | 474  | Gogoat             |  0.05213% | 238    |  0.074% | 158    |  0.070% | 
 | 475  | Unfezant           |  0.05199% | 306    |  0.095% | 209    |  0.093% | 
 | 476  | Swalot             |  0.05122% | 239    |  0.075% | 174    |  0.077% | 
 | 477  | Wigglytuff         |  0.05023% | 246    |  0.077% | 181    |  0.080% | 
 | 478  | Silvally           |  0.05007% | 206    |  0.064% | 140    |  0.062% | 
 | 479  | Furret             |  0.04997% | 221    |  0.069% | 171    |  0.076% | 
 | 480  | Raticate-Alola     |  0.04978% | 224    |  0.070% | 171    |  0.076% | 
 | 481  | Kecleon            |  0.04975% | 214    |  0.067% | 183    |  0.081% | 
 | 482  | Type: Null         |  0.04970% | 309    |  0.096% | 199    |  0.088% | 
 | 483  | Jigglypuff         |  0.04965% | 149    |  0.046% | 111    |  0.049% | 
 | 484  | Dugtrio-Alola      |  0.04948% | 264    |  0.082% | 214    |  0.095% | 
 | 485  | Dunsparce          |  0.04948% | 211    |  0.066% | 165    |  0.073% | 
 | 486  | Rattata-Alola      |  0.04933% | 215    |  0.067% | 163    |  0.072% | 
 | 487  | Banette            |  0.04923% | 216    |  0.067% | 177    |  0.079% | 
 | 488  | Persian            |  0.04913% | 258    |  0.080% | 207    |  0.092% | 
 | 489  | Emolga             |  0.04911% | 225    |  0.070% | 187    |  0.083% | 
 | 490  | Leavanny           |  0.04895% | 300    |  0.094% | 233    |  0.103% | 
 | 491  | Granbull           |  0.04849% | 300    |  0.094% | 222    |  0.099% | 
 | 492  | Rotom              |  0.04764% | 282    |  0.088% | 209    |  0.093% | 
 | 493  | Kangaskhan         |  0.04757% | 225    |  0.070% | 167    |  0.074% | 
 | 494  | Dedenne            |  0.04739% | 242    |  0.075% | 189    |  0.084% | 
 | 495  | Gurdurr            |  0.04733% | 182    |  0.057% | 140    |  0.062% | 
 | 496  | Rowlet             |  0.04668% | 244    |  0.076% | 197    |  0.087% | 
 | 497  | Camerupt           |  0.04550% | 235    |  0.073% | 165    |  0.073% | 
 | 498  | Hoopa              |  0.04527% | 203    |  0.063% | 128    |  0.057% | 
 | 499  | Silvally-Fairy     |  0.04511% | 227    |  0.071% | 168    |  0.075% | 
 | 500  | Druddigon          |  0.04472% | 245    |  0.076% | 187    |  0.083% | 
 | 501  | Graveler           |  0.04382% | 193    |  0.060% | 158    |  0.070% | 
 | 502  | Beartic            |  0.04382% | 226    |  0.070% | 173    |  0.077% | 
 | 503  | Clamperl           |  0.04350% | 217    |  0.068% | 147    |  0.065% | 
 | 504  | Shieldon           |  0.04301% | 208    |  0.065% | 140    |  0.062% | 
 | 505  | Klinklang          |  0.04237% | 223    |  0.070% | 164    |  0.073% | 
 | 506  | Onix               |  0.04214% | 175    |  0.055% | 144    |  0.064% | 
 | 507  | Delcatty           |  0.04167% | 193    |  0.060% | 120    |  0.053% | 
 | 508  | Swoobat            |  0.04157% | 201    |  0.063% | 121    |  0.054% | 
 | 509  | Volbeat            |  0.04132% | 167    |  0.052% | 142    |  0.063% | 
 | 510  | Sudowoodo          |  0.04011% | 216    |  0.067% | 176    |  0.078% | 
 | 511  | Glalie             |  0.03996% | 177    |  0.055% | 130    |  0.058% | 
 | 512  | Delibird           |  0.03944% | 183    |  0.057% | 130    |  0.058% | 
 | 513  | Whiscash           |  0.03923% | 185    |  0.058% | 135    |  0.060% | 
 | 514  | Stunfisk           |  0.03919% | 245    |  0.076% | 203    |  0.090% | 
 | 515  | Magikarp           |  0.03903% | 215    |  0.067% | 162    |  0.072% | 
 | 516  | Lickilicky         |  0.03897% | 208    |  0.065% | 152    |  0.067% | 
 | 517  | Gumshoos           |  0.03882% | 197    |  0.061% | 143    |  0.063% | 
 | 518  | Magcargo           |  0.03872% | 193    |  0.060% | 131    |  0.058% | 
 | 519  | Diglett            |  0.03836% | 184    |  0.057% | 140    |  0.062% | 
 | 520  | Gourgeist-Super    |  0.03798% | 185    |  0.058% | 134    |  0.059% | 
 | 521  | Zebstrika          |  0.03792% | 211    |  0.066% | 157    |  0.070% | 
 | 522  | Musharna           |  0.03733% | 183    |  0.057% | 131    |  0.058% | 
 | 523  | Pachirisu          |  0.03670% | 215    |  0.067% | 170    |  0.075% | 
 | 524  | Braixen            |  0.03635% | 199    |  0.062% | 165    |  0.073% | 
 | 525  | Bruxish            |  0.03578% | 136    |  0.042% | 97     |  0.043% | 
 | 526  | Mawile             |  0.03543% | 159    |  0.050% | 115    |  0.051% | 
 | 527  | Purrloin           |  0.03539% | 165    |  0.051% | 122    |  0.054% | 
 | 528  | Tangela            |  0.03501% | 149    |  0.046% | 114    |  0.051% | 
 | 529  | Treecko            |  0.03497% | 201    |  0.063% | 127    |  0.056% | 
 | 530  | Lopunny            |  0.03462% | 191    |  0.060% | 127    |  0.056% | 
 | 531  | Dewott             |  0.03429% | 210    |  0.065% | 158    |  0.070% | 
 | 532  | Chimecho           |  0.03384% | 273    |  0.085% | 184    |  0.082% | 
 | 533  | Wooper             |  0.03381% | 88     |  0.027% | 56     |  0.025% | 
 | 534  | Squirtle           |  0.03366% | 180    |  0.056% | 134    |  0.059% | 
 | 535  | Solrock            |  0.03359% | 144    |  0.045% | 94     |  0.042% | 
 | 536  | Zigzagoon          |  0.03333% | 201    |  0.063% | 162    |  0.072% | 
 | 537  | Pinsir             |  0.03303% | 165    |  0.051% | 108    |  0.048% | 
 | 538  | Magmar             |  0.03265% | 160    |  0.050% | 116    |  0.051% | 
 | 539  | Pikachu-Alola      |  0.03261% | 190    |  0.059% | 161    |  0.071% | 
 | 540  | Ivysaur            |  0.03192% | 202    |  0.063% | 137    |  0.061% | 
 | 541  | Silvally-Ghost     |  0.03171% | 165    |  0.051% | 123    |  0.055% | 
 | 542  | Electabuzz         |  0.03113% | 183    |  0.057% | 128    |  0.057% | 
 | 543  | Yamask             |  0.03072% | 180    |  0.056% | 128    |  0.057% | 
 | 544  | Octillery          |  0.03043% | 130    |  0.041% | 90     |  0.040% | 
 | 545  | Drifloon           |  0.03029% | 137    |  0.043% | 96     |  0.043% | 
 | 546  | Bouffalant         |  0.03028% | 148    |  0.046% | 94     |  0.042% | 
 | 547  | Natu               |  0.03003% | 155    |  0.048% | 118    |  0.052% | 
 | 548  | Silvally-Fire      |  0.02899% | 141    |  0.044% | 98     |  0.043% | 
 | 549  | Gloom              |  0.02871% | 80     |  0.025% | 60     |  0.027% | 
 | 550  | Togetic            |  0.02864% | 103    |  0.032% | 81     |  0.036% | 
 | 551  | Sandslash          |  0.02835% | 184    |  0.057% | 136    |  0.060% | 
 | 552  | Aromatisse         |  0.02813% | 106    |  0.033% | 79     |  0.035% | 
 | 553  | Rotom-Fan          |  0.02795% | 100    |  0.031% | 81     |  0.036% | 
 | 554  | Skuntank           |  0.02754% | 134    |  0.042% | 106    |  0.047% | 
 | 555  | Farfetch'd         |  0.02716% | 140    |  0.044% | 98     |  0.043% | 
 | 556  | Maractus           |  0.02691% | 130    |  0.041% | 95     |  0.042% | 
 | 557  | Castform           |  0.02688% | 154    |  0.048% | 114    |  0.051% | 
 | 558  | Doduo              |  0.02651% | 117    |  0.036% | 62     |  0.028% | 
 | 559  | Stantler           |  0.02613% | 147    |  0.046% | 115    |  0.051% | 
 | 560  | Heatmor            |  0.02600% | 165    |  0.051% | 113    |  0.050% | 
 | 561  | Plusle             |  0.02578% | 101    |  0.032% | 74     |  0.033% | 
 | 562  | Silvally-Dragon    |  0.02569% | 121    |  0.038% | 88     |  0.039% | 
 | 563  | Kadabra            |  0.02552% | 111    |  0.035% | 81     |  0.036% | 
 | 564  | Clefairy           |  0.02549% | 133    |  0.041% | 107    |  0.047% | 
 | 565  | Silvally-Steel     |  0.02518% | 125    |  0.039% | 87     |  0.039% | 
 | 566  | Vulpix-Alola       |  0.02510% | 101    |  0.032% | 72     |  0.032% | 
 | 567  | Swanna             |  0.02509% | 150    |  0.047% | 114    |  0.051% | 
 | 568  | Hypno              |  0.02509% | 129    |  0.040% | 103    |  0.046% | 
 | 569  | Watchog            |  0.02489% | 118    |  0.037% | 88     |  0.039% | 
 | 570  | Noctowl            |  0.02487% | 147    |  0.046% | 124    |  0.055% | 
 | 571  | Relicanth          |  0.02457% | 101    |  0.032% | 79     |  0.035% | 
 | 572  | Oricorio-Sensu     |  0.02402% | 122    |  0.038% | 74     |  0.033% | 
 | 573  | Silvally-Dark      |  0.02357% | 116    |  0.036% | 79     |  0.035% | 
 | 574  | Qwilfish           |  0.02338% | 96     |  0.030% | 87     |  0.039% | 
 | 575  | Trapinch           |  0.02254% | 137    |  0.043% | 109    |  0.048% | 
 | 576  | Wynaut             |  0.02240% | 87     |  0.027% | 55     |  0.024% | 
 | 577  | Combusken          |  0.02172% | 95     |  0.030% | 78     |  0.035% | 
 | 578  | Sunkern            |  0.02150% | 110    |  0.034% | 92     |  0.041% | 
 | 579  | Parasect           |  0.02104% | 164    |  0.051% | 133    |  0.059% | 
 | 580  | Dewgong            |  0.02056% | 118    |  0.037% | 88     |  0.039% | 
 | 581  | Gastly             |  0.02046% | 107    |  0.033% | 82     |  0.036% | 
 | 582  | Golbat             |  0.02040% | 94     |  0.029% | 63     |  0.028% | 
 | 583  | Bergmite           |  0.02019% | 85     |  0.027% | 49     |  0.022% | 
 | 584  | Spinda             |  0.02017% | 137    |  0.043% | 115    |  0.051% | 
 | 585  | Passimian          |  0.01993% | 90     |  0.028% | 67     |  0.030% | 
 | 586  | Corphish           |  0.01978% | 71     |  0.022% | 57     |  0.025% | 
 | 587  | Simisage           |  0.01964% | 146    |  0.046% | 77     |  0.034% | 
 | 588  | NidoranM           |  0.01948% | 59     |  0.018% | 55     |  0.024% | 
 | 589  | Buneary            |  0.01917% | 83     |  0.026% | 48     |  0.021% | 
 | 590  | Psyduck            |  0.01907% | 82     |  0.026% | 58     |  0.026% | 
 | 591  | Gothita            |  0.01886% | 61     |  0.019% | 45     |  0.020% | 
 | 592  | Torracat           |  0.01849% | 80     |  0.025% | 55     |  0.024% | 
 | 593  | Gourgeist          |  0.01783% | 86     |  0.027% | 52     |  0.023% | 
 | 594  | Tornadus           |  0.01727% | 69     |  0.022% | 55     |  0.024% | 
 | 595  | Dragonair          |  0.01692% | 97     |  0.030% | 79     |  0.035% | 
 | 596  | Munchlax           |  0.01685% | 85     |  0.027% | 74     |  0.033% | 
 | 597  | Zubat              |  0.01666% | 88     |  0.027% | 60     |  0.027% | 
 | 598  | Frogadier          |  0.01631% | 95     |  0.030% | 73     |  0.032% | 
 | 599  | Simisear           |  0.01605% | 74     |  0.023% | 58     |  0.026% | 
 | 600  | Seviper            |  0.01600% | 103    |  0.032% | 77     |  0.034% | 
 | 601  | Seaking            |  0.01560% | 74     |  0.023% | 54     |  0.024% | 
 | 602  | Simipour           |  0.01555% | 89     |  0.028% | 57     |  0.025% | 
 | 603  | Roselia            |  0.01534% | 82     |  0.026% | 61     |  0.027% | 
 | 604  | Pikachu-Partner    |  0.01515% | 104    |  0.032% | 68     |  0.030% | 
 | 605  | Abra               |  0.01514% | 79     |  0.025% | 53     |  0.024% | 
 | 606  | Huntail            |  0.01514% | 64     |  0.020% | 44     |  0.020% | 
 | 607  | Carnivine          |  0.01492% | 64     |  0.020% | 35     |  0.016% | 
 | 608  | Seadra             |  0.01441% | 62     |  0.019% | 42     |  0.019% | 
 | 609  | Bidoof             |  0.01437% | 83     |  0.026% | 72     |  0.032% | 
 | 610  | Ledian             |  0.01430% | 189    |  0.059% | 156    |  0.069% | 
 | 611  | Whirlipede         |  0.01415% | 76     |  0.024% | 67     |  0.030% | 
 | 612  | Unown              |  0.01412% | 56     |  0.017% | 39     |  0.017% | 
 | 613  | Grovyle            |  0.01403% | 52     |  0.016% | 46     |  0.020% | 
 | 614  | Yanma              |  0.01376% | 62     |  0.019% | 47     |  0.021% | 
 | 615  | Silvally-Water     |  0.01369% | 69     |  0.022% | 45     |  0.020% | 
 | 616  | Gorebyss           |  0.01364% | 57     |  0.018% | 40     |  0.018% | 
 | 617  | Mimikyu-Totem      |  0.01364% | 58     |  0.018% | 47     |  0.021% | 
 | 618  | Graveler-Alola     |  0.01355% | 58     |  0.018% | 56     |  0.025% | 
 | 619  | Pidgeotto          |  0.01352% | 57     |  0.018% | 41     |  0.018% | 
 | 620  | Lunatone           |  0.01339% | 54     |  0.017% | 44     |  0.020% | 
 | 621  | Wartortle          |  0.01336% | 64     |  0.020% | 52     |  0.023% | 
 | 622  | Litwick            |  0.01332% | 65     |  0.020% | 44     |  0.020% | 
 | 623  | Sneasel            |  0.01321% | 75     |  0.023% | 48     |  0.021% | 
 | 624  | Silvally-Electric  |  0.01317% | 88     |  0.027% | 50     |  0.022% | 
 | 625  | Corsola            |  0.01310% | 63     |  0.020% | 50     |  0.022% | 
 | 626  | Omanyte            |  0.01268% | 54     |  0.017% | 45     |  0.020% | 
 | 627  | Metapod            |  0.01258% | 78     |  0.024% | 63     |  0.028% | 
 | 628  | Machoke            |  0.01250% | 83     |  0.026% | 63     |  0.028% | 
 | 629  | Chikorita          |  0.01246% | 53     |  0.017% | 43     |  0.019% | 
 | 630  | Purugly            |  0.01232% | 49     |  0.015% | 37     |  0.016% | 
 | 631  | Frillish           |  0.01225% | 62     |  0.019% | 45     |  0.020% | 
 | 632  | Duskull            |  0.01217% | 68     |  0.021% | 55     |  0.024% | 
 | 633  | Charmeleon         |  0.01206% | 82     |  0.026% | 50     |  0.022% | 
 | 634  | Staryu             |  0.01204% | 51     |  0.016% | 30     |  0.013% | 
 | 635  | Wormadam-Trash     |  0.01181% | 58     |  0.018% | 43     |  0.019% | 
 | 636  | Archen             |  0.01168% | 63     |  0.020% | 35     |  0.016% | 
 | 637  | Chimchar           |  0.01157% | 62     |  0.019% | 50     |  0.022% | 
 | 638  | Basculin           |  0.01145% | 63     |  0.020% | 45     |  0.020% | 
 | 639  | Oricorio           |  0.01143% | 54     |  0.017% | 37     |  0.016% | 
 | 640  | Skitty             |  0.01132% | 54     |  0.017% | 45     |  0.020% | 
 | 641  | Aipom              |  0.01130% | 56     |  0.017% | 43     |  0.019% | 
 | 642  | Buizel             |  0.01127% | 79     |  0.025% | 67     |  0.030% | 
 | 643  | Voltorb            |  0.01084% | 60     |  0.019% | 54     |  0.024% | 
 | 644  | Throh              |  0.01081% | 64     |  0.020% | 44     |  0.020% | 
 | 645  | Pichu              |  0.01073% | 85     |  0.027% | 62     |  0.028% | 
 | 646  | Larvitar           |  0.01039% | 52     |  0.016% | 40     |  0.018% | 
 | 647  | Vulpix             |  0.01033% | 38     |  0.012% | 27     |  0.012% | 
 | 648  | Swirlix            |  0.01029% | 45     |  0.014% | 43     |  0.019% | 
 | 649  | Monferno           |  0.01023% | 46     |  0.014% | 34     |  0.015% | 
 | 650  | Totodile           |  0.01022% | 61     |  0.019% | 55     |  0.024% | 
 | 651  | Pidgey             |  0.01022% | 55     |  0.017% | 37     |  0.016% | 
 | 652  | Silvally-Fighting  |  0.01013% | 31     |  0.010% | 18     |  0.008% | 
 | 653  | Mudkip             |  0.00986% | 50     |  0.016% | 44     |  0.020% | 
 | 654  | Spinarak           |  0.00971% | 40     |  0.012% | 36     |  0.016% | 
 | 655  | Pikachu-Kalos      |  0.00967% | 62     |  0.019% | 49     |  0.022% | 
 | 656  | Mothim             |  0.00966% | 34     |  0.011% | 22     |  0.010% | 
 | 657  | Trubbish           |  0.00949% | 63     |  0.020% | 51     |  0.023% | 
 | 658  | Pikachu-Sinnoh     |  0.00947% | 79     |  0.025% | 51     |  0.023% | 
 | 659  | Lampent            |  0.00930% | 37     |  0.012% | 28     |  0.012% | 
 | 660  | Staravia           |  0.00930% | 34     |  0.011% | 21     |  0.009% | 
 | 661  | Meowth             |  0.00922% | 43     |  0.013% | 38     |  0.017% | 
 | 662  | Swinub             |  0.00919% | 39     |  0.012% | 27     |  0.012% | 
 | 663  | Silvally-Ice       |  0.00918% | 48     |  0.015% | 34     |  0.015% | 
 | 664  | Lickitung          |  0.00911% | 45     |  0.014% | 35     |  0.016% | 
 | 665  | Houndour           |  0.00909% | 23     |  0.007% | 15     |  0.007% | 
 | 666  | Tepig              |  0.00893% | 32     |  0.010% | 20     |  0.009% | 
 | 667  | Espurr             |  0.00892% | 30     |  0.009% | 14     |  0.006% | 
 | 668  | Silvally-Psychic   |  0.00876% | 29     |  0.009% | 21     |  0.009% | 
 | 669  | Poipole            |  0.00873% | 79     |  0.025% | 59     |  0.026% | 
 | 670  | Snivy              |  0.00860% | 52     |  0.016% | 41     |  0.018% | 
 | 671  | Honedge            |  0.00832% | 65     |  0.020% | 55     |  0.024% | 
 | 672  | Lairon             |  0.00829% | 35     |  0.011% | 29     |  0.013% | 
 | 673  | Marshtomp          |  0.00824% | 45     |  0.014% | 29     |  0.013% | 
 | 674  | Tirtouga           |  0.00819% | 45     |  0.014% | 32     |  0.014% | 
 | 675  | Caterpie           |  0.00818% | 45     |  0.014% | 34     |  0.015% | 
 | 676  | Sandile            |  0.00815% | 53     |  0.017% | 34     |  0.015% | 
 | 677  | Phione             |  0.00814% | 44     |  0.014% | 30     |  0.013% | 
 | 678  | Metang             |  0.00812% | 77     |  0.024% | 59     |  0.026% | 
 | 679  | Gible              |  0.00812% | 50     |  0.016% | 33     |  0.015% | 
 | 680  | Dratini            |  0.00802% | 47     |  0.015% | 41     |  0.018% | 
 | 681  | Croagunk           |  0.00798% | 38     |  0.012% | 29     |  0.013% | 
 | 682  | Piloswine          |  0.00789% | 60     |  0.019% | 36     |  0.016% | 
 | 683  | Exeggcute          |  0.00784% | 37     |  0.012% | 28     |  0.012% | 
 | 684  | Bronzor            |  0.00781% | 43     |  0.013% | 35     |  0.016% | 
 | 685  | Bayleef            |  0.00779% | 47     |  0.015% | 39     |  0.017% | 
 | 686  | Krokorok           |  0.00775% | 44     |  0.014% | 34     |  0.015% | 
 | 687  | Shuppet            |  0.00770% | 66     |  0.021% | 56     |  0.025% | 
 | 688  | Darumaka           |  0.00765% | 45     |  0.014% | 34     |  0.015% | 
 | 689  | Dewpider           |  0.00760% | 32     |  0.010% | 28     |  0.012% | 
 | 690  | Dwebble            |  0.00752% | 58     |  0.018% | 46     |  0.020% | 
 | 691  | Charmander         |  0.00752% | 68     |  0.021% | 56     |  0.025% | 
 | 692  | Misdreavus         |  0.00748% | 55     |  0.017% | 43     |  0.019% | 
 | 693  | Salandit           |  0.00748% | 41     |  0.013% | 27     |  0.012% | 
 | 694  | Minun              |  0.00745% | 42     |  0.013% | 30     |  0.013% | 
 | 695  | Zorua              |  0.00740% | 41     |  0.013% | 15     |  0.007% | 
 | 696  | Mienfoo            |  0.00738% | 30     |  0.009% | 21     |  0.009% | 
 | 697  | Venonat            |  0.00730% | 29     |  0.009% | 6      |  0.003% | 
 | 698  | Chespin            |  0.00726% | 30     |  0.009% | 12     |  0.005% | 
 | 699  | Silvally-Bug       |  0.00724% | 58     |  0.018% | 46     |  0.020% | 
 | 700  | Porygon            |  0.00716% | 66     |  0.021% | 46     |  0.020% | 
 | 701  | Eelektrik          |  0.00708% | 36     |  0.011% | 28     |  0.012% | 
 | 702  | Goldeen            |  0.00705% | 29     |  0.009% | 24     |  0.011% | 
 | 703  | Bunnelby           |  0.00703% | 49     |  0.015% | 33     |  0.015% | 
 | 704  | Swablu             |  0.00699% | 26     |  0.008% | 15     |  0.007% | 
 | 705  | Kommo-o-Totem      |  0.00691% | 47     |  0.015% | 36     |  0.016% | 
 | 706  | Magby              |  0.00685% | 36     |  0.011% | 33     |  0.015% | 
 | 707  | Mareanie           |  0.00683% | 35     |  0.011% | 27     |  0.012% | 
 | 708  | Kirlia             |  0.00678% | 32     |  0.010% | 26     |  0.012% | 
 | 709  | Sliggoo            |  0.00677% | 23     |  0.007% | 14     |  0.006% | 
 | 710  | Pikachu-Original   |  0.00668% | 30     |  0.009% | 23     |  0.010% | 
 | 711  | Silvally-Grass     |  0.00665% | 28     |  0.009% | 17     |  0.008% | 
 | 712  | Gabite             |  0.00665% | 35     |  0.011% | 28     |  0.012% | 
 | 713  | Cherrim            |  0.00661% | 37     |  0.012% | 29     |  0.013% | 
 | 714  | Cleffa             |  0.00661% | 38     |  0.012% | 15     |  0.007% | 
 | 715  | Fraxure            |  0.00656% | 35     |  0.011% | 28     |  0.012% | 
 | 716  | Sewaddle           |  0.00655% | 34     |  0.011% | 22     |  0.010% | 
 | 717  | Litten             |  0.00653% | 33     |  0.010% | 27     |  0.012% | 
 | 718  | Dustox             |  0.00642% | 32     |  0.010% | 25     |  0.011% | 
 | 719  | Vigoroth           |  0.00640% | 23     |  0.007% | 21     |  0.009% | 
 | 720  | Skrelp             |  0.00631% | 31     |  0.010% | 23     |  0.010% | 
 | 721  | Shelmet            |  0.00628% | 28     |  0.009% | 21     |  0.009% | 
 | 722  | Klang              |  0.00623% | 25     |  0.008% | 18     |  0.008% | 
 | 723  | Lileep             |  0.00617% | 44     |  0.014% | 36     |  0.016% | 
 | 724  | Cacnea             |  0.00603% | 28     |  0.009% | 14     |  0.006% | 
 | 725  | Boldore            |  0.00602% | 37     |  0.012% | 26     |  0.012% | 
 | 726  | Cosmoem            |  0.00602% | 26     |  0.008% | 20     |  0.009% | 
 | 727  | Tranquill          |  0.00600% | 27     |  0.008% | 14     |  0.006% | 
 | 728  | Makuhita           |  0.00599% | 21     |  0.007% | 18     |  0.008% | 
 | 729  | Quilava            |  0.00578% | 41     |  0.013% | 33     |  0.015% | 
 | 730  | Grumpig            |  0.00574% | 38     |  0.012% | 32     |  0.014% | 
 | 731  | Axew               |  0.00574% | 37     |  0.012% | 24     |  0.011% | 
 | 732  | Hakamo-o           |  0.00572% | 36     |  0.011% | 26     |  0.012% | 
 | 733  | Girafarig          |  0.00561% | 42     |  0.013% | 27     |  0.012% | 
 | 734  | Silvally-Poison    |  0.00559% | 46     |  0.014% | 35     |  0.016% | 
 | 735  | Bagon              |  0.00559% | 28     |  0.009% | 19     |  0.008% | 
 | 736  | Gourgeist-Small    |  0.00552% | 26     |  0.008% | 20     |  0.009% | 
 | 737  | Silvally-Flying    |  0.00548% | 31     |  0.010% | 22     |  0.010% | 
 | 738  | Herdier            |  0.00547% | 26     |  0.008% | 23     |  0.010% | 
 | 739  | Froakie            |  0.00543% | 32     |  0.010% | 27     |  0.012% | 
 | 740  | Kabuto             |  0.00539% | 28     |  0.009% | 18     |  0.008% | 
 | 741  | Sealeo             |  0.00534% | 30     |  0.009% | 24     |  0.011% | 
 | 742  | Pancham            |  0.00524% | 25     |  0.008% | 17     |  0.008% | 
 | 743  | Igglybuff          |  0.00515% | 43     |  0.013% | 27     |  0.012% | 
 | 744  | Lumineon           |  0.00513% | 40     |  0.012% | 32     |  0.014% | 
 | 745  | Larvesta           |  0.00513% | 39     |  0.012% | 33     |  0.015% | 
 | 746  | Golett             |  0.00511% | 23     |  0.007% | 19     |  0.008% | 
 | 747  | Elekid             |  0.00508% | 30     |  0.009% | 22     |  0.010% | 
 | 748  | Torchic            |  0.00505% | 33     |  0.010% | 27     |  0.012% | 
 | 749  | Wailmer            |  0.00502% | 25     |  0.008% | 19     |  0.008% | 
 | 750  | Oricorio-Pom-Pom   |  0.00496% | 56     |  0.017% | 43     |  0.019% | 
 | 751  | Patrat             |  0.00496% | 19     |  0.006% | 17     |  0.008% | 
 | 752  | Bonsly             |  0.00495% | 27     |  0.008% | 18     |  0.008% | 
 | 753  | Morelull           |  0.00492% | 35     |  0.011% | 19     |  0.008% | 
 | 754  | Oddish             |  0.00490% | 34     |  0.011% | 25     |  0.011% | 
 | 755  | Nidorina           |  0.00488% | 22     |  0.007% | 15     |  0.007% | 
 | 756  | Seel               |  0.00486% | 42     |  0.013% | 33     |  0.015% | 
 | 757  | Piplup             |  0.00484% | 30     |  0.009% | 25     |  0.011% | 
 | 758  | Duosion            |  0.00480% | 41     |  0.013% | 28     |  0.012% | 
 | 759  | Phantump           |  0.00478% | 24     |  0.007% | 19     |  0.008% | 
 | 760  | Inkay              |  0.00478% | 42     |  0.013% | 32     |  0.014% | 
 | 761  | Servine            |  0.00476% | 32     |  0.010% | 20     |  0.009% | 
 | 762  | Palpitoad          |  0.00473% | 41     |  0.013% | 35     |  0.016% | 
 | 763  | Bellsprout         |  0.00471% | 23     |  0.007% | 22     |  0.010% | 
 | 764  | Charjabug          |  0.00464% | 24     |  0.007% | 18     |  0.008% | 
 | 765  | Cutiefly           |  0.00462% | 22     |  0.007% | 20     |  0.009% | 
 | 766  | Zweilous           |  0.00457% | 35     |  0.011% | 24     |  0.011% | 
 | 767  | Venipede           |  0.00447% | 22     |  0.007% | 20     |  0.009% | 
 | 768  | Electrike          |  0.00446% | 19     |  0.006% | 15     |  0.007% | 
 | 769  | Pidove             |  0.00433% | 33     |  0.010% | 27     |  0.012% | 
 | 770  | Numel              |  0.00433% | 29     |  0.009% | 20     |  0.009% | 
 | 771  | Drowzee            |  0.00430% | 21     |  0.007% | 15     |  0.007% | 
 | 772  | Lotad              |  0.00421% | 18     |  0.006% | 14     |  0.006% | 
 | 773  | Cubchoo            |  0.00419% | 34     |  0.011% | 22     |  0.010% | 
 | 774  | Oshawott           |  0.00416% | 61     |  0.019% | 45     |  0.020% | 
 | 775  | Smoochum           |  0.00416% | 20     |  0.006% | 11     |  0.005% | 
 | 776  | Mime Jr.           |  0.00409% | 19     |  0.006% | 14     |  0.006% | 
 | 777  | Fennekin           |  0.00408% | 37     |  0.012% | 29     |  0.013% | 
 | 778  | Turtwig            |  0.00407% | 46     |  0.014% | 32     |  0.014% | 
 | 779  | Snover             |  0.00404% | 28     |  0.009% | 21     |  0.009% | 
 | 780  | Skorupi            |  0.00401% | 19     |  0.006% | 9      |  0.004% | 
 | 781  | Cosmog             |  0.00400% | 34     |  0.011% | 31     |  0.014% | 
 | 782  | Weepinbell         |  0.00387% | 25     |  0.008% | 20     |  0.009% | 
 | 783  | Vullaby            |  0.00387% | 14     |  0.004% | 9      |  0.004% | 
 | 784  | Togepi             |  0.00382% | 25     |  0.008% | 18     |  0.008% | 
 | 785  | Floette            |  0.00381% | 18     |  0.006% | 15     |  0.007% | 
 | 786  | Ponyta             |  0.00376% | 27     |  0.008% | 20     |  0.009% | 
 | 787  | Scatterbug         |  0.00375% | 18     |  0.006% | 17     |  0.008% | 
 | 788  | Pawniard           |  0.00375% | 24     |  0.007% | 17     |  0.008% | 
 | 789  | Roggenrola         |  0.00374% | 36     |  0.011% | 30     |  0.013% | 
 | 790  | Weedle             |  0.00372% | 71     |  0.022% | 49     |  0.022% | 
 | 791  | Shroomish          |  0.00372% | 19     |  0.006% | 14     |  0.006% | 
 | 792  | Silcoon            |  0.00369% | 19     |  0.006% | 11     |  0.005% | 
 | 793  | Silvally-Ground    |  0.00368% | 20     |  0.006% | 16     |  0.007% | 
 | 794  | Feebas             |  0.00364% | 31     |  0.010% | 28     |  0.012% | 
 | 795  | Flabebe            |  0.00357% | 19     |  0.006% | 11     |  0.005% | 
 | 796  | Nidorino           |  0.00355% | 12     |  0.004% | 10     |  0.004% | 
 | 797  | Popplio            |  0.00347% | 23     |  0.007% | 18     |  0.008% | 
 | 798  | Lillipup           |  0.00346% | 11     |  0.003% | 6      |  0.003% | 
 | 799  | Goomy              |  0.00345% | 15     |  0.005% | 11     |  0.005% | 
 | 800  | Surskit            |  0.00344% | 14     |  0.004% | 11     |  0.005% | 
 | 801  | Pikipek            |  0.00341% | 30     |  0.009% | 20     |  0.009% | 
 | 802  | Slowpoke           |  0.00340% | 26     |  0.008% | 13     |  0.006% | 
 | 803  | Mankey             |  0.00339% | 28     |  0.009% | 8      |  0.004% | 
 | 804  | Pikachu-Unova      |  0.00336% | 17     |  0.005% | 13     |  0.006% | 
 | 805  | Cubone             |  0.00334% | 24     |  0.007% | 19     |  0.008% | 
 | 806  | Dartrix            |  0.00334% | 16     |  0.005% | 12     |  0.005% | 
 | 807  | Nuzleaf            |  0.00333% | 22     |  0.007% | 19     |  0.008% | 
 | 808  | Shelgon            |  0.00333% | 34     |  0.011% | 24     |  0.011% | 
 | 809  | Rockruff           |  0.00327% | 19     |  0.006% | 16     |  0.007% | 
 | 810  | Vanillish          |  0.00324% | 29     |  0.009% | 20     |  0.009% | 
 | 811  | Mantyke            |  0.00323% | 14     |  0.004% | 11     |  0.005% | 
 | 812  | Poliwhirl          |  0.00321% | 13     |  0.004% | 10     |  0.004% | 
 | 813  | Seedot             |  0.00320% | 15     |  0.005% | 12     |  0.005% | 
 | 814  | Drilbur            |  0.00319% | 15     |  0.005% | 9      |  0.004% | 
 | 815  | Tyrogue            |  0.00312% | 17     |  0.005% | 12     |  0.005% | 
 | 816  | Trumbeak           |  0.00310% | 13     |  0.004% | 9      |  0.004% | 
 | 817  | Poliwag            |  0.00309% | 16     |  0.005% | 10     |  0.004% | 
 | 818  | Sandygast          |  0.00305% | 16     |  0.005% | 12     |  0.005% | 
 | 819  | Kakuna             |  0.00304% | 26     |  0.008% | 21     |  0.009% | 
 | 820  | Vibrava            |  0.00304% | 16     |  0.005% | 11     |  0.005% | 
 | 821  | NidoranF           |  0.00304% | 11     |  0.003% | 8      |  0.004% | 
 | 822  | Karrablast         |  0.00302% | 15     |  0.005% | 13     |  0.006% | 
 | 823  | Pupitar            |  0.00300% | 25     |  0.008% | 17     |  0.008% | 
 | 824  | Geodude-Alola      |  0.00300% | 15     |  0.005% | 10     |  0.004% | 
 | 825  | Stufful            |  0.00297% | 13     |  0.004% | 11     |  0.005% | 
 | 826  | Machop             |  0.00296% | 20     |  0.006% | 14     |  0.006% | 
 | 827  | Carvanha           |  0.00295% | 26     |  0.008% | 14     |  0.006% | 
 | 828  | Joltik             |  0.00294% | 24     |  0.007% | 18     |  0.008% | 
 | 829  | Pikachu-Hoenn      |  0.00292% | 15     |  0.005% | 12     |  0.005% | 
 | 830  | Tyrunt             |  0.00290% | 12     |  0.004% | 11     |  0.005% | 
 | 831  | Swadloon           |  0.00285% | 14     |  0.004% | 9      |  0.004% | 
 | 832  | Loudred            |  0.00283% | 12     |  0.004% | 10     |  0.004% | 
 | 833  | Cherubi            |  0.00278% | 17     |  0.005% | 15     |  0.007% | 
 | 834  | Teddiursa          |  0.00268% | 34     |  0.011% | 21     |  0.009% | 
 | 835  | Gulpin             |  0.00268% | 68     |  0.021% | 43     |  0.019% | 
 | 836  | Pignite            |  0.00267% | 21     |  0.007% | 18     |  0.008% | 
 | 837  | Paras              |  0.00267% | 20     |  0.006% | 15     |  0.007% | 
 | 838  | Azurill            |  0.00265% | 26     |  0.008% | 20     |  0.009% | 
 | 839  | Timburr            |  0.00265% | 11     |  0.003% | 7      |  0.003% | 
 | 840  | Vanillite          |  0.00264% | 14     |  0.004% | 13     |  0.006% | 
 | 841  | Combee             |  0.00256% | 13     |  0.004% | 12     |  0.005% | 
 | 842  | Kricketot          |  0.00255% | 26     |  0.008% | 20     |  0.009% | 
 | 843  | Phanpy             |  0.00252% | 16     |  0.005% | 11     |  0.005% | 
 | 844  | Jangmo-o           |  0.00249% | 12     |  0.004% | 10     |  0.004% | 
 | 845  | Grotle             |  0.00247% | 18     |  0.006% | 15     |  0.007% | 
 | 846  | Shinx              |  0.00244% | 15     |  0.005% | 12     |  0.005% | 
 | 847  | Deino              |  0.00243% | 19     |  0.006% | 17     |  0.008% | 
 | 848  | Mudbray            |  0.00242% | 10     |  0.003% | 9      |  0.004% | 
 | 849  | Fletchinder        |  0.00240% | 16     |  0.005% | 13     |  0.006% | 
 | 850  | Wimpod             |  0.00237% | 11     |  0.003% | 11     |  0.005% | 
 | 851  | Ducklett           |  0.00237% | 14     |  0.004% | 13     |  0.006% | 
 | 852  | Growlithe          |  0.00231% | 9      |  0.003% | 7      |  0.003% | 
 | 853  | Ekans              |  0.00230% | 8      |  0.002% | 7      |  0.003% | 
 | 854  | Croconaw           |  0.00226% | 25     |  0.008% | 22     |  0.010% | 
 | 855  | Elgyem             |  0.00226% | 15     |  0.005% | 9      |  0.004% | 
 | 856  | Prinplup           |  0.00225% | 10     |  0.003% | 8      |  0.004% | 
 | 857  | Crabrawler         |  0.00221% | 18     |  0.006% | 16     |  0.007% | 
 | 858  | Koffing            |  0.00220% | 14     |  0.004% | 11     |  0.005% | 
 | 859  | Foongus            |  0.00219% | 13     |  0.004% | 12     |  0.005% | 
 | 860  | Oricorio-Pa'u      |  0.00214% | 16     |  0.005% | 15     |  0.007% | 
 | 861  | Krabby             |  0.00214% | 9      |  0.003% | 9      |  0.004% | 
 | 862  | Amaura             |  0.00214% | 12     |  0.004% | 12     |  0.005% | 
 | 863  | Tympole            |  0.00213% | 8      |  0.002% | 8      |  0.004% | 
 | 864  | Ledyba             |  0.00213% | 8      |  0.002% | 7      |  0.003% | 
 | 865  | Spritzee           |  0.00212% | 11     |  0.003% | 8      |  0.004% | 
 | 866  | Litleo             |  0.00211% | 15     |  0.005% | 15     |  0.007% | 
 | 867  | Wingull            |  0.00206% | 9      |  0.003% | 8      |  0.004% | 
 | 868  | Scraggy            |  0.00205% | 13     |  0.004% | 12     |  0.005% | 
 | 869  | Brionne            |  0.00203% | 14     |  0.004% | 10     |  0.004% | 
 | 870  | Woobat             |  0.00198% | 9      |  0.003% | 8      |  0.004% | 
 | 871  | Cyndaquil          |  0.00198% | 19     |  0.006% | 16     |  0.007% | 
 | 872  | Helioptile         |  0.00197% | 12     |  0.004% | 12     |  0.005% | 
 | 873  | Nincada            |  0.00196% | 8      |  0.002% | 7      |  0.003% | 
 | 874  | Luxio              |  0.00195% | 19     |  0.006% | 14     |  0.006% | 
 | 875  | Sandshrew          |  0.00195% | 18     |  0.006% | 13     |  0.006% | 
 | 876  | Binacle            |  0.00194% | 8      |  0.002% | 4      |  0.002% | 
 | 877  | Sentret            |  0.00191% | 11     |  0.003% | 6      |  0.003% | 
 | 878  | Baltoy             |  0.00185% | 15     |  0.005% | 13     |  0.006% | 
 | 879  | Munna              |  0.00181% | 7      |  0.002% | 5      |  0.002% | 
 | 880  | Petilil            |  0.00179% | 8      |  0.002% | 7      |  0.003% | 
 | 881  | Tentacool          |  0.00178% | 11     |  0.003% | 10     |  0.004% | 
 | 882  | Grimer             |  0.00174% | 5      |  0.002% | 3      |  0.001% | 
 | 883  | Finneon            |  0.00170% | 14     |  0.004% | 10     |  0.004% | 
 | 884  | Hoothoot           |  0.00170% | 7      |  0.002% | 6      |  0.003% | 
 | 885  | Fletchling         |  0.00168% | 12     |  0.004% | 10     |  0.004% | 
 | 886  | Tynamo             |  0.00167% | 9      |  0.003% | 6      |  0.003% | 
 | 887  | Spheal             |  0.00167% | 5      |  0.002% | 4      |  0.002% | 
 | 888  | Hoppip             |  0.00164% | 26     |  0.008% | 12     |  0.005% | 
 | 889  | Noibat             |  0.00164% | 16     |  0.005% | 12     |  0.005% | 
 | 890  | Shellder           |  0.00163% | 12     |  0.004% | 9      |  0.004% | 
 | 891  | Mareep             |  0.00161% | 7      |  0.002% | 6      |  0.003% | 
 | 892  | Chingling          |  0.00159% | 10     |  0.003% | 8      |  0.004% | 
 | 893  | Beldum             |  0.00159% | 10     |  0.003% | 9      |  0.004% | 
 | 894  | Chinchou           |  0.00157% | 5      |  0.002% | 4      |  0.002% | 
 | 895  | Wormadam           |  0.00151% | 6      |  0.002% | 4      |  0.002% | 
 | 896  | Spearow            |  0.00146% | 9      |  0.003% | 6      |  0.003% | 
 | 897  | Fomantis           |  0.00145% | 4      |  0.001% | 3      |  0.001% | 
 | 898  | Rufflet            |  0.00145% | 8      |  0.002% | 7      |  0.003% | 
 | 899  | Silvally-Rock      |  0.00144% | 9      |  0.003% | 7      |  0.003% | 
 | 900  | Minccino           |  0.00144% | 22     |  0.007% | 15     |  0.007% | 
 | 901  | Gourgeist-Large    |  0.00141% | 7      |  0.002% | 5      |  0.002% | 
 | 902  | Lombre             |  0.00140% | 7      |  0.002% | 7      |  0.003% | 
 | 903  | Luvdisc            |  0.00136% | 6      |  0.002% | 5      |  0.002% | 
 | 904  | Sandshrew-Alola    |  0.00136% | 7      |  0.002% | 7      |  0.003% | 
 | 905  | Marill             |  0.00132% | 6      |  0.002% | 6      |  0.003% | 
 | 906  | Gumshoos-Totem     |  0.00129% | 5      |  0.002% | 5      |  0.002% | 
 | 907  | Spoink             |  0.00129% | 5      |  0.002% | 3      |  0.001% | 
 | 908  | Grimer-Alola       |  0.00128% | 10     |  0.003% | 6      |  0.003% | 
 | 909  | Panpour            |  0.00126% | 6      |  0.002% | 5      |  0.002% | 
 | 910  | Happiny            |  0.00126% | 7      |  0.002% | 6      |  0.003% | 
 | 911  | Klink              |  0.00122% | 4      |  0.001% | 3      |  0.001% | 
 | 912  | Burmy              |  0.00122% | 4      |  0.001% | 3      |  0.001% | 
 | 913  | Cranidos           |  0.00121% | 7      |  0.002% | 7      |  0.003% | 
 | 914  | Grubbin            |  0.00119% | 5      |  0.002% | 4      |  0.002% | 
 | 915  | Cascoon            |  0.00115% | 3      |  0.001% | 3      |  0.001% | 
 | 916  | Steenee            |  0.00114% | 5      |  0.002% | 4      |  0.002% | 
 | 917  | Quilladin          |  0.00110% | 15     |  0.005% | 14     |  0.006% | 
 | 918  | Shellos            |  0.00110% | 6      |  0.002% | 4      |  0.002% | 
 | 919  | Vikavolt-Totem     |  0.00107% | 4      |  0.001% | 4      |  0.002% | 
 | 920  | Rhyhorn            |  0.00104% | 12     |  0.004% | 10     |  0.004% | 
 | 921  | Slugma             |  0.00099% | 8      |  0.002% | 4      |  0.002% | 
 | 922  | Anorith            |  0.00095% | 17     |  0.005% | 12     |  0.005% | 
 | 923  | Bounsweet          |  0.00092% | 5      |  0.002% | 5      |  0.002% | 
 | 924  | Snorunt            |  0.00091% | 4      |  0.001% | 4      |  0.002% | 
 | 925  | Pansage            |  0.00087% | 5      |  0.002% | 4      |  0.002% | 
 | 926  | Snubbull           |  0.00086% | 7      |  0.002% | 6      |  0.003% | 
 | 927  | Wurmple            |  0.00085% | 18     |  0.006% | 14     |  0.006% | 
 | 928  | Horsea             |  0.00085% | 4      |  0.001% | 4      |  0.002% | 
 | 929  | Yungoos            |  0.00083% | 11     |  0.003% | 10     |  0.004% | 
 | 930  | Slakoth            |  0.00082% | 4      |  0.001% | 4      |  0.002% | 
 | 931  | Stunky             |  0.00074% | 5      |  0.002% | 4      |  0.002% | 
 | 932  | Marowak-Alola-Totem |  0.00071% | 7      |  0.002% | 4      |  0.002% | 
 | 933  | Wormadam-Sandy     |  0.00061% | 9      |  0.003% | 8      |  0.004% | 
 | 934  | Meowth-Alola       |  0.00061% | 2      |  0.001% | 2      |  0.001% | 
 | 935  | Whismur            |  0.00060% | 2      |  0.001% | 2      |  0.001% | 
 | 936  | Deerling           |  0.00059% | 3      |  0.001% | 2      |  0.001% | 
 | 937  | Pumpkaboo          |  0.00054% | 2      |  0.001% | 1      |  0.000% | 
 | 938  | Skiddo             |  0.00049% | 3      |  0.001% | 2      |  0.001% | 
 | 939  | Skiploom           |  0.00045% | 2      |  0.001% | 2      |  0.001% | 
 | 940  | Blitzle            |  0.00045% | 2      |  0.001% | 1      |  0.000% | 
 | 941  | Ribombee-Totem     |  0.00041% | 3      |  0.001% | 3      |  0.001% | 
 | 942  | Pumpkaboo-Large    |  0.00038% | 1      |  0.000% | 1      |  0.000% | 
 | 943  | Glameow            |  0.00038% | 5      |  0.002% | 4      |  0.002% | 
 | 944  | Remoraid           |  0.00037% | 5      |  0.002% | 4      |  0.002% | 
 | 945  | Barboach           |  0.00029% | 4      |  0.001% | 2      |  0.001% | 
 | 946  | Pumpkaboo-Super    |  0.00026% | 3      |  0.001% | 3      |  0.001% | 
 | 947  | Spewpa             |  0.00026% | 3      |  0.001% | 3      |  0.001% | 
 | 948  | Flaaffy            |  0.00023% | 6      |  0.002% | 5      |  0.002% | 
 | 949  | Diglett-Alola      |  0.00023% | 2      |  0.001% | 1      |  0.000% | 
 | 950  | Poochyena          |  0.00023% | 2      |  0.001% | 2      |  0.001% | 
 | 951  | Pansear            |  0.00023% | 1      |  0.000% | 1      |  0.000% | 
 | 952  | Budew              |  0.00014% | 10     |  0.003% | 9      |  0.004% | 
 | 953  | Salazzle-Totem     |  0.00008% | 10     |  0.003% | 10     |  0.004% | 
 | 954  | Clauncher          |  0.00003% | 8      |  0.002% | 3      |  0.001% | 
 | 955  | Lurantis-Totem     |  0.00001% | 1      |  0.000% | 1      |  0.000% | 
 + ---- + ------------------ + --------- + ------ + ------- + ------ + ------- + 
