 Total battles: 35456
 Avg. weight/team: 0.056
 + ---- + ------------------ + --------- + ------ + ------- + ------ + ------- + 
 | Rank | Pokemon            | Usage %   | Raw    | %       | Real   | %       | 
 + ---- + ------------------ + --------- + ------ + ------- + ------ + ------- + 
 | 1    | Scizor             | 34.02262% | 14841  | 20.929% | 11925  | 21.412% | 
 | 2    | Hydreigon          | 25.54497% | 11486  | 16.198% | 8947   | 16.065% | 
 | 3    | Latias             | 17.02188% | 7953   | 11.215% | 5958   | 10.698% | 
 | 4    | Rotom-Heat         | 15.92848% | 6433   |  9.072% | 5321   |  9.554% | 
 | 5    | Togekiss           | 13.97216% | 7281   | 10.268% | 5607   | 10.068% | 
 | 6    | Krookodile         | 13.66990% | 8087   | 11.404% | 6621   | 11.889% | 
 | 7    | Manectric-Mega     | 13.60357% | 5923   |  8.353% | 4575   |  8.215% | 
 | 8    | Aggron-Mega        | 13.35797% | 6040   |  8.518% | 4934   |  8.859% | 
 | 9    | Zeraora            | 12.17821% | 7973   | 11.244% | 6224   | 11.176% | 
 | 10   | Infernape          | 12.10519% | 10749  | 15.158% | 8220   | 14.760% | 
 | 11   | Blissey            | 11.90285% | 5913   |  8.339% | 4569   |  8.204% | 
 | 12   | Mimikyu            | 11.54736% | 6349   |  8.953% | 4718   |  8.472% | 
 | 13   | Gligar             | 11.29396% | 4238   |  5.976% | 3628   |  6.514% | 
 | 14   | Tentacruel         | 10.23779% | 4886   |  6.890% | 4073   |  7.313% | 
 | 15   | Beedrill-Mega      |  9.96414% | 9227   | 13.012% | 7148   | 12.835% | 
 | 16   | Primarina          |  9.57936% | 4820   |  6.797% | 3842   |  6.899% | 
 | 17   | Altaria-Mega       |  9.36798% | 5008   |  7.062% | 3671   |  6.592% | 
 | 18   | Mamoswine          |  9.29217% | 5425   |  7.650% | 4536   |  8.145% | 
 | 19   | Sharpedo-Mega      |  8.81947% | 3377   |  4.762% | 2423   |  4.351% | 
 | 20   | Hippowdon          |  8.47837% | 5252   |  7.406% | 4656   |  8.360% | 
 | 21   | Bisharp            |  8.44318% | 6032   |  8.506% | 4645   |  8.341% | 
 | 22   | Amoonguss          |  8.20904% | 4845   |  6.832% | 3852   |  6.917% | 
 | 23   | Crawdaunt          |  8.00488% | 4553   |  6.421% | 3627   |  6.513% | 
 | 24   | Empoleon           |  7.88500% | 5457   |  7.695% | 4494   |  8.069% | 
 | 25   | Chesnaught         |  7.81308% | 3898   |  5.497% | 3101   |  5.568% | 
 | 26   | Alomomola          |  7.58416% | 2624   |  3.700% | 2128   |  3.821% | 
 | 27   | Sylveon            |  7.41224% | 5049   |  7.120% | 3738   |  6.712% | 
 | 28   | Nidoking           |  7.39254% | 5368   |  7.570% | 4122   |  7.401% | 
 | 29   | Haxorus            |  6.61596% | 5112   |  7.209% | 3613   |  6.487% | 
 | 30   | Cobalion           |  6.45522% | 2840   |  4.005% | 2320   |  4.166% | 
 | 31   | Mew                |  6.42426% | 4046   |  5.706% | 3207   |  5.758% | 
 | 32   | Feraligatr         |  5.93028% | 4662   |  6.574% | 3652   |  6.557% | 
 | 33   | Swampert           |  5.92812% | 4556   |  6.425% | 3968   |  7.125% | 
 | 34   | Terrakion          |  5.55945% | 2214   |  3.122% | 1616   |  2.902% | 
 | 35   | Chandelure         |  5.51944% | 7930   | 11.183% | 5904   | 10.601% | 
 | 36   | Gengar             |  5.45172% | 5084   |  7.169% | 3758   |  6.748% | 
 | 37   | Aerodactyl-Mega    |  5.28400% | 5977   |  8.429% | 4549   |  8.168% | 
 | 38   | Crobat             |  5.27760% | 5719   |  8.065% | 4468   |  8.023% | 
 | 39   | Volcanion          |  5.09376% | 3577   |  5.044% | 2973   |  5.338% | 
 | 40   | Pidgeot-Mega       |  5.08102% | 3046   |  4.295% | 2320   |  4.166% | 
 | 41   | Muk-Alola          |  4.94718% | 4160   |  5.866% | 3398   |  6.101% | 
 | 42   | Celebi             |  4.89240% | 3537   |  4.988% | 2672   |  4.798% | 
 | 43   | Lucario            |  4.72999% | 3801   |  5.360% | 2854   |  5.125% | 
 | 44   | Umbreon            |  4.56302% | 2943   |  4.150% | 2275   |  4.085% | 
 | 45   | Darmanitan         |  4.52215% | 2364   |  3.334% | 1924   |  3.455% | 
 | 46   | Slowbro            |  4.47500% | 1535   |  2.165% | 1232   |  2.212% | 
 | 47   | Azelf              |  4.36970% | 3697   |  5.214% | 3262   |  5.857% | 
 | 48   | Steelix-Mega       |  4.29601% | 2552   |  3.599% | 2158   |  3.875% | 
 | 49   | Suicune            |  4.29181% | 4027   |  5.679% | 3111   |  5.586% | 
 | 50   | Linoone            |  4.27730% | 1585   |  2.235% | 1196   |  2.148% | 
 | 51   | Starmie            |  4.27102% | 4126   |  5.818% | 3170   |  5.692% | 
 | 52   | Quagsire           |  4.01911% | 2676   |  3.774% | 2159   |  3.877% | 
 | 53   | Nihilego           |  3.81973% | 2981   |  4.204% | 2374   |  4.263% | 
 | 54   | Magneton           |  3.54999% | 1970   |  2.778% | 1534   |  2.754% | 
 | 55   | Klefki             |  3.44061% | 3282   |  4.628% | 2825   |  5.073% | 
 | 56   | Jellicent          |  3.40100% | 696    |  0.981% | 575    |  1.032% | 
 | 57   | Froslass           |  3.33655% | 1954   |  2.756% | 1644   |  2.952% | 
 | 58   | Shaymin            |  3.26432% | 945    |  1.333% | 634    |  1.138% | 
 | 59   | Doublade           |  3.23412% | 2816   |  3.971% | 2283   |  4.099% | 
 | 60   | Florges            |  3.23287% | 1471   |  2.074% | 1132   |  2.033% | 
 | 61   | Moltres            |  3.01420% | 2042   |  2.880% | 1645   |  2.954% | 
 | 62   | Vaporeon           |  2.81273% | 1171   |  1.651% | 974    |  1.749% | 
 | 63   | Arcanine           |  2.80001% | 3150   |  4.442% | 2494   |  4.478% | 
 | 64   | Roserade           |  2.78797% | 2503   |  3.530% | 1981   |  3.557% | 
 | 65   | Espeon             |  2.73086% | 2854   |  4.025% | 2246   |  4.033% | 
 | 66   | Forretress         |  2.66621% | 1938   |  2.733% | 1768   |  3.175% | 
 | 67   | Rhyperior          |  2.47292% | 1348   |  1.901% | 1142   |  2.051% | 
 | 68   | Seismitoad         |  2.36935% | 654    |  0.922% | 578    |  1.038% | 
 | 69   | Galvantula         |  2.33747% | 2116   |  2.984% | 1891   |  3.395% | 
 | 70   | Honchkrow          |  2.33059% | 1169   |  1.649% | 895    |  1.607% | 
 | 71   | Accelgor           |  2.28436% | 511    |  0.721% | 431    |  0.774% | 
 | 72   | Necrozma           |  2.19003% | 410    |  0.578% | 325    |  0.584% | 
 | 73   | Mandibuzz          |  2.14792% | 765    |  1.079% | 631    |  1.133% | 
 | 74   | Machamp            |  2.14683% | 1163   |  1.640% | 940    |  1.688% | 
 | 75   | Toxicroak          |  2.11283% | 1354   |  1.909% | 1080   |  1.939% | 
 | 76   | Mienshao           |  2.09765% | 1236   |  1.743% | 1009   |  1.812% | 
 | 77   | Reuniclus          |  1.98680% | 1372   |  1.935% | 1005   |  1.805% | 
 | 78   | Donphan            |  1.98066% | 1131   |  1.595% | 1022   |  1.835% | 
 | 79   | Slowbro-Mega       |  1.96456% | 1089   |  1.536% | 878    |  1.577% | 
 | 80   | Sceptile-Mega      |  1.90244% | 1704   |  2.403% | 1285   |  2.307% | 
 | 81   | Heracross          |  1.87905% | 1386   |  1.955% | 1039   |  1.866% | 
 | 82   | Metagross          |  1.83399% | 1696   |  2.392% | 1322   |  2.374% | 
 | 83   | Ditto              |  1.81298% | 1365   |  1.925% | 1011   |  1.815% | 
 | 84   | Blastoise-Mega     |  1.79284% | 1689   |  2.382% | 1389   |  2.494% | 
 | 85   | Stoutland          |  1.73451% | 487    |  0.687% | 360    |  0.646% | 
 | 86   | Nidoqueen          |  1.64127% | 829    |  1.169% | 701    |  1.259% | 
 | 87   | Houndoom-Mega      |  1.45514% | 804    |  1.134% | 589    |  1.058% | 
 | 88   | Cloyster           |  1.43217% | 2547   |  3.592% | 1998   |  3.588% | 
 | 89   | Kyurem             |  1.42271% | 696    |  0.981% | 525    |  0.943% | 
 | 90   | Araquanid          |  1.42145% | 975    |  1.375% | 855    |  1.535% | 
 | 91   | Entei              |  1.26938% | 674    |  0.950% | 530    |  0.952% | 
 | 92   | Marowak-Alola      |  1.23235% | 837    |  1.180% | 642    |  1.153% | 
 | 93   | Milotic            |  1.17401% | 1945   |  2.743% | 1588   |  2.851% | 
 | 94   | Aurorus            |  1.16481% | 294    |  0.415% | 262    |  0.470% | 
 | 95   | Mantine            |  1.15786% | 1091   |  1.539% | 927    |  1.665% | 
 | 96   | Snorlax            |  1.13446% | 2272   |  3.204% | 1791   |  3.216% | 
 | 97   | Rotom-Mow          |  1.06649% | 1141   |  1.609% | 939    |  1.686% | 
 | 98   | Meloetta           |  1.05195% | 530    |  0.747% | 395    |  0.709% | 
 | 99   | Bronzong           |  0.95234% | 816    |  1.151% | 734    |  1.318% | 
 | 100  | Absol-Mega         |  0.94412% | 1537   |  2.167% | 1230   |  2.209% | 
 | 101  | Talonflame         |  0.92847% | 1235   |  1.742% | 947    |  1.700% | 
 | 102  | Stakataka          |  0.92381% | 885    |  1.248% | 717    |  1.287% | 
 | 103  | Flygon             |  0.91674% | 1324   |  1.867% | 1046   |  1.878% | 
 | 104  | Xatu               |  0.90135% | 607    |  0.856% | 507    |  0.910% | 
 | 105  | Raikou             |  0.88632% | 694    |  0.979% | 523    |  0.939% | 
 | 106  | Porygon2           |  0.87442% | 1731   |  2.441% | 1401   |  2.516% | 
 | 107  | Diancie            |  0.83346% | 413    |  0.582% | 358    |  0.643% | 
 | 108  | Vikavolt           |  0.79751% | 425    |  0.599% | 326    |  0.585% | 
 | 109  | Decidueye          |  0.73205% | 665    |  0.938% | 518    |  0.930% | 
 | 110  | Cresselia          |  0.72555% | 761    |  1.073% | 587    |  1.054% | 
 | 111  | Magmortar          |  0.68610% | 541    |  0.763% | 392    |  0.704% | 
 | 112  | Zoroark            |  0.67608% | 1803   |  2.543% | 882    |  1.584% | 
 | 113  | Tsareena           |  0.66174% | 585    |  0.825% | 459    |  0.824% | 
 | 114  | Gardevoir          |  0.63256% | 1295   |  1.826% | 946    |  1.699% | 
 | 115  | Ursaring           |  0.62769% | 462    |  0.652% | 351    |  0.630% | 
 | 116  | Uxie               |  0.62618% | 453    |  0.639% | 392    |  0.704% | 
 | 117  | Dusclops           |  0.61930% | 451    |  0.636% | 350    |  0.628% | 
 | 118  | Dhelmise           |  0.58219% | 280    |  0.395% | 229    |  0.411% | 
 | 119  | Lycanroc-Dusk      |  0.53049% | 601    |  0.848% | 472    |  0.848% | 
 | 120  | Scrafty            |  0.52895% | 509    |  0.718% | 384    |  0.690% | 
 | 121  | Malamar            |  0.49598% | 567    |  0.800% | 450    |  0.808% | 
 | 122  | Virizion           |  0.49072% | 301    |  0.424% | 236    |  0.424% | 
 | 123  | Sceptile           |  0.47069% | 720    |  1.015% | 505    |  0.907% | 
 | 124  | Hoopa              |  0.47054% | 182    |  0.257% | 132    |  0.237% | 
 | 125  | Shuckle            |  0.46489% | 1119   |  1.578% | 978    |  1.756% | 
 | 126  | Ambipom            |  0.46120% | 1153   |  1.626% | 988    |  1.774% | 
 | 127  | Ribombee           |  0.45738% | 398    |  0.561% | 301    |  0.540% | 
 | 128  | Chimecho           |  0.44271% | 277    |  0.391% | 151    |  0.271% | 
 | 129  | Goodra             |  0.43692% | 914    |  1.289% | 710    |  1.275% | 
 | 130  | Comfey             |  0.43315% | 585    |  0.825% | 411    |  0.738% | 
 | 131  | Kecleon            |  0.42884% | 195    |  0.275% | 170    |  0.305% | 
 | 132  | Sandslash-Alola    |  0.42726% | 429    |  0.605% | 357    |  0.641% | 
 | 133  | Noivern            |  0.42610% | 560    |  0.790% | 427    |  0.767% | 
 | 134  | Ampharos-Mega      |  0.42572% | 703    |  0.991% | 549    |  0.986% | 
 | 135  | Bewear             |  0.41091% | 526    |  0.742% | 397    |  0.713% | 
 | 136  | Golisopod          |  0.40811% | 542    |  0.764% | 440    |  0.790% | 
 | 137  | Heliolisk          |  0.36855% | 505    |  0.712% | 377    |  0.677% | 
 | 138  | Salazzle           |  0.35970% | 734    |  1.035% | 549    |  0.986% | 
 | 139  | Tornadus           |  0.35833% | 456    |  0.643% | 355    |  0.637% | 
 | 140  | Lumineon           |  0.35353% | 78     |  0.110% | 71     |  0.127% | 
 | 141  | Hitmonlee          |  0.34673% | 658    |  0.928% | 514    |  0.923% | 
 | 142  | Incineroar         |  0.34656% | 781    |  1.101% | 629    |  1.129% | 
 | 143  | Sharpedo           |  0.33754% | 533    |  0.752% | 425    |  0.763% | 
 | 144  | Aerodactyl         |  0.33240% | 357    |  0.503% | 312    |  0.560% | 
 | 145  | Drapion            |  0.33236% | 826    |  1.165% | 610    |  1.095% | 
 | 146  | Jolteon            |  0.32901% | 907    |  1.279% | 675    |  1.212% | 
 | 147  | Smeargle           |  0.30892% | 467    |  0.659% | 409    |  0.734% | 
 | 148  | Druddigon          |  0.30512% | 304    |  0.429% | 265    |  0.476% | 
 | 149  | Zygarde-10%        |  0.30300% | 509    |  0.718% | 359    |  0.645% | 
 | 150  | Yanmega            |  0.30288% | 774    |  1.091% | 615    |  1.104% | 
 | 151  | Kingdra            |  0.29043% | 801    |  1.130% | 635    |  1.140% | 
 | 152  | Venusaur           |  0.29007% | 1246   |  1.757% | 1011   |  1.815% | 
 | 153  | Steelix            |  0.28431% | 422    |  0.595% | 356    |  0.639% | 
 | 154  | Venomoth           |  0.28238% | 368    |  0.519% | 280    |  0.503% | 
 | 155  | Garbodor           |  0.27566% | 186    |  0.262% | 158    |  0.284% | 
 | 156  | Durant             |  0.26612% | 598    |  0.843% | 477    |  0.856% | 
 | 157  | Gastrodon          |  0.26366% | 343    |  0.484% | 277    |  0.497% | 
 | 158  | Blastoise          |  0.25575% | 320    |  0.451% | 268    |  0.481% | 
 | 159  | Banette-Mega       |  0.25409% | 600    |  0.846% | 489    |  0.878% | 
 | 160  | Eelektross         |  0.25405% | 544    |  0.767% | 425    |  0.763% | 
 | 161  | Gigalith           |  0.25347% | 382    |  0.539% | 330    |  0.593% | 
 | 162  | Kangaskhan         |  0.24972% | 132    |  0.186% | 102    |  0.183% | 
 | 163  | Komala             |  0.24090% | 211    |  0.298% | 145    |  0.260% | 
 | 164  | Articuno           |  0.22774% | 335    |  0.472% | 251    |  0.451% | 
 | 165  | Dragalge           |  0.22067% | 319    |  0.450% | 238    |  0.427% | 
 | 166  | Tyrantrum          |  0.21858% | 421    |  0.594% | 311    |  0.558% | 
 | 167  | Miltank            |  0.20954% | 322    |  0.454% | 245    |  0.440% | 
 | 168  | Swellow            |  0.20059% | 899    |  1.268% | 671    |  1.205% | 
 | 169  | Sableye            |  0.19841% | 337    |  0.475% | 277    |  0.497% | 
 | 170  | Torterra           |  0.19425% | 498    |  0.702% | 435    |  0.781% | 
 | 171  | Kabutops           |  0.19329% | 271    |  0.382% | 209    |  0.375% | 
 | 172  | Archeops           |  0.19009% | 271    |  0.382% | 217    |  0.390% | 
 | 173  | Hitmontop          |  0.18976% | 325    |  0.458% | 264    |  0.474% | 
 | 174  | Escavalier         |  0.18674% | 340    |  0.479% | 268    |  0.481% | 
 | 175  | Lycanroc           |  0.17495% | 119    |  0.168% | 98     |  0.176% | 
 | 176  | Cradily            |  0.17285% | 388    |  0.547% | 303    |  0.544% | 
 | 177  | Claydol            |  0.17184% | 297    |  0.419% | 256    |  0.460% | 
 | 178  | Aggron             |  0.16486% | 416    |  0.587% | 300    |  0.539% | 
 | 179  | Cofagrigus         |  0.15674% | 459    |  0.647% | 372    |  0.668% | 
 | 180  | Slowking           |  0.15609% | 380    |  0.536% | 299    |  0.537% | 
 | 181  | Clawitzer          |  0.15507% | 173    |  0.244% | 147    |  0.264% | 
 | 182  | Electrode          |  0.15131% | 315    |  0.444% | 282    |  0.506% | 
 | 183  | Shedinja           |  0.14650% | 538    |  0.759% | 403    |  0.724% | 
 | 184  | Abomasnow-Mega     |  0.14509% | 216    |  0.305% | 167    |  0.300% | 
 | 185  | Luxray             |  0.14005% | 304    |  0.429% | 214    |  0.384% | 
 | 186  | Minior             |  0.13576% | 423    |  0.597% | 319    |  0.573% | 
 | 187  | Palossand          |  0.12330% | 258    |  0.364% | 224    |  0.402% | 
 | 188  | Crustle            |  0.12281% | 216    |  0.305% | 175    |  0.314% | 
 | 189  | Weezing            |  0.11823% | 348    |  0.491% | 298    |  0.535% | 
 | 190  | Exeggutor-Alola    |  0.11737% | 170    |  0.240% | 143    |  0.257% | 
 | 191  | Spiritomb          |  0.11221% | 268    |  0.378% | 221    |  0.397% | 
 | 192  | Mismagius          |  0.11219% | 346    |  0.488% | 268    |  0.481% | 
 | 193  | Whimsicott         |  0.11088% | 584    |  0.824% | 472    |  0.848% | 
 | 194  | Flareon            |  0.10944% | 286    |  0.403% | 223    |  0.400% | 
 | 195  | Houndoom           |  0.10795% | 223    |  0.314% | 164    |  0.294% | 
 | 196  | Zangoose           |  0.10465% | 280    |  0.395% | 223    |  0.400% | 
 | 197  | Exploud            |  0.10454% | 275    |  0.388% | 221    |  0.397% | 
 | 198  | Ninetales          |  0.10433% | 315    |  0.444% | 250    |  0.449% | 
 | 199  | Slurpuff           |  0.10071% | 454    |  0.640% | 328    |  0.589% | 
 | 200  | Klinklang          |  0.09925% | 155    |  0.219% | 120    |  0.215% | 
 | 201  | Hariyama           |  0.09839% | 276    |  0.389% | 233    |  0.418% | 
 | 202  | Sudowoodo          |  0.09749% | 140    |  0.197% | 112    |  0.201% | 
 | 203  | Medicham           |  0.09727% | 203    |  0.286% | 154    |  0.277% | 
 | 204  | Passimian          |  0.09519% | 108    |  0.152% | 90     |  0.162% | 
 | 205  | Absol              |  0.09084% | 257    |  0.362% | 184    |  0.330% | 
 | 206  | Delphox            |  0.09037% | 478    |  0.674% | 309    |  0.555% | 
 | 207  | Drampa             |  0.08725% | 135    |  0.190% | 97     |  0.174% | 
 | 208  | Vileplume          |  0.08681% | 362    |  0.510% | 280    |  0.503% | 
 | 209  | Registeel          |  0.08607% | 447    |  0.630% | 351    |  0.630% | 
 | 210  | Charizard          |  0.08563% | 616    |  0.869% | 481    |  0.864% | 
 | 211  | Aromatisse         |  0.08559% | 141    |  0.199% | 104    |  0.187% | 
 | 212  | Kingler            |  0.08513% | 236    |  0.333% | 166    |  0.298% | 
 | 213  | Scyther            |  0.08153% | 187    |  0.264% | 140    |  0.251% | 
 | 214  | Audino-Mega        |  0.07798% | 157    |  0.221% | 100    |  0.180% | 
 | 215  | Liepard            |  0.07645% | 284    |  0.400% | 222    |  0.399% | 
 | 216  | Silvally-Grass     |  0.07566% | 14     |  0.020% | 10     |  0.018% | 
 | 217  | Pikachu            |  0.07511% | 353    |  0.498% | 279    |  0.501% | 
 | 218  | Regice             |  0.07469% | 176    |  0.248% | 136    |  0.244% | 
 | 219  | Meowstic           |  0.07419% | 240    |  0.338% | 197    |  0.354% | 
 | 220  | Sigilyph           |  0.07296% | 441    |  0.622% | 298    |  0.535% | 
 | 221  | Ferroseed          |  0.07279% | 87     |  0.123% | 80     |  0.144% | 
 | 222  | Electivire         |  0.07095% | 396    |  0.558% | 306    |  0.549% | 
 | 223  | Tauros             |  0.06764% | 363    |  0.512% | 269    |  0.483% | 
 | 224  | Slaking            |  0.06446% | 321    |  0.453% | 270    |  0.485% | 
 | 225  | Lanturn            |  0.06368% | 265    |  0.374% | 212    |  0.381% | 
 | 226  | Pyukumuku          |  0.06324% | 305    |  0.430% | 248    |  0.445% | 
 | 227  | Audino             |  0.06186% | 128    |  0.181% | 104    |  0.187% | 
 | 228  | Armaldo            |  0.06044% | 88     |  0.124% | 67     |  0.120% | 
 | 229  | Mudsdale           |  0.06042% | 198    |  0.279% | 172    |  0.309% | 
 | 230  | Drifblim           |  0.06007% | 315    |  0.444% | 253    |  0.454% | 
 | 231  | Unown              |  0.05809% | 92     |  0.130% | 55     |  0.099% | 
 | 232  | Omastar            |  0.05753% | 267    |  0.377% | 232    |  0.417% | 
 | 233  | Silvally-Steel     |  0.05710% | 111    |  0.157% | 91     |  0.163% | 
 | 234  | Pyroar             |  0.05681% | 93     |  0.131% | 75     |  0.135% | 
 | 235  | Gourgeist-Super    |  0.05517% | 98     |  0.138% | 78     |  0.140% | 
 | 236  | Bellossom          |  0.05423% | 87     |  0.123% | 68     |  0.122% | 
 | 237  | Persian-Alola      |  0.05199% | 251    |  0.354% | 194    |  0.348% | 
 | 238  | Golurk             |  0.05142% | 203    |  0.286% | 168    |  0.302% | 
 | 239  | Mr. Mime           |  0.05103% | 162    |  0.228% | 146    |  0.262% | 
 | 240  | Sneasel            |  0.05075% | 82     |  0.116% | 69     |  0.124% | 
 | 241  | Skuntank           |  0.04871% | 254    |  0.358% | 210    |  0.377% | 
 | 242  | Poliwrath          |  0.04801% | 257    |  0.362% | 217    |  0.390% | 
 | 243  | Farfetch'd         |  0.04792% | 89     |  0.126% | 74     |  0.133% | 
 | 244  | Leafeon            |  0.04633% | 223    |  0.314% | 154    |  0.277% | 
 | 245  | Lickilicky         |  0.04505% | 87     |  0.123% | 71     |  0.127% | 
 | 246  | Bouffalant         |  0.04431% | 58     |  0.082% | 43     |  0.077% | 
 | 247  | Cryogonal          |  0.04360% | 75     |  0.106% | 55     |  0.099% | 
 | 248  | Gumshoos           |  0.04308% | 114    |  0.161% | 87     |  0.156% | 
 | 249  | Typhlosion         |  0.04239% | 575    |  0.811% | 430    |  0.772% | 
 | 250  | Camerupt-Mega      |  0.04216% | 217    |  0.306% | 175    |  0.314% | 
 | 251  | Vivillon           |  0.04194% | 129    |  0.182% | 101    |  0.181% | 
 | 252  | Silvally-Ice       |  0.03999% | 6      |  0.008% | 4      |  0.007% | 
 | 253  | Rotom-Frost        |  0.03857% | 52     |  0.073% | 44     |  0.079% | 
 | 254  | Glalie-Mega        |  0.03778% | 170    |  0.240% | 133    |  0.239% | 
 | 255  | Golem              |  0.03675% | 159    |  0.224% | 132    |  0.237% | 
 | 256  | Ariados            |  0.03665% | 186    |  0.262% | 176    |  0.316% | 
 | 257  | Golem-Alola        |  0.03579% | 141    |  0.199% | 103    |  0.185% | 
 | 258  | Murkrow            |  0.03570% | 107    |  0.151% | 86     |  0.154% | 
 | 259  | Crabominable       |  0.03514% | 128    |  0.181% | 97     |  0.174% | 
 | 260  | Parasect           |  0.03406% | 70     |  0.099% | 59     |  0.106% | 
 | 261  | Granbull           |  0.03335% | 83     |  0.117% | 60     |  0.108% | 
 | 262  | Pidgeot            |  0.03121% | 78     |  0.110% | 67     |  0.120% | 
 | 263  | Samurott           |  0.03059% | 197    |  0.278% | 152    |  0.273% | 
 | 264  | Cinccino           |  0.03038% | 298    |  0.420% | 211    |  0.379% | 
 | 265  | Ampharos           |  0.03028% | 123    |  0.173% | 95     |  0.171% | 
 | 266  | Dusknoir           |  0.03024% | 277    |  0.391% | 230    |  0.413% | 
 | 267  | Regirock           |  0.02978% | 159    |  0.224% | 135    |  0.242% | 
 | 268  | Type: Null         |  0.02883% | 172    |  0.243% | 129    |  0.232% | 
 | 269  | Shiftry            |  0.02847% | 105    |  0.148% | 75     |  0.135% | 
 | 270  | Clefairy           |  0.02842% | 208    |  0.293% | 177    |  0.318% | 
 | 271  | Delcatty           |  0.02829% | 54     |  0.076% | 46     |  0.083% | 
 | 272  | Gallade            |  0.02774% | 800    |  1.128% | 627    |  1.126% | 
 | 273  | Castform           |  0.02697% | 99     |  0.140% | 60     |  0.108% | 
 | 274  | Regigigas          |  0.02676% | 174    |  0.245% | 152    |  0.273% | 
 | 275  | Butterfree         |  0.02622% | 192    |  0.271% | 158    |  0.284% | 
 | 276  | Raichu             |  0.02530% | 152    |  0.214% | 126    |  0.226% | 
 | 277  | Mimikyu-Totem      |  0.02498% | 10     |  0.014% | 5      |  0.009% | 
 | 278  | Braviary           |  0.02457% | 290    |  0.409% | 219    |  0.393% | 
 | 279  | Raichu-Alola       |  0.02453% | 186    |  0.262% | 145    |  0.260% | 
 | 280  | Bruxish            |  0.02444% | 108    |  0.152% | 84     |  0.151% | 
 | 281  | Avalugg            |  0.02420% | 163    |  0.230% | 124    |  0.223% | 
 | 282  | Lapras             |  0.02329% | 316    |  0.446% | 245    |  0.440% | 
 | 283  | Rhydon             |  0.02180% | 166    |  0.234% | 122    |  0.219% | 
 | 284  | Dodrio             |  0.02100% | 213    |  0.300% | 163    |  0.293% | 
 | 285  | Corsola            |  0.02059% | 72     |  0.102% | 56     |  0.101% | 
 | 286  | Zebstrika          |  0.02013% | 146    |  0.206% | 113    |  0.203% | 
 | 287  | Walrein            |  0.01944% | 169    |  0.238% | 116    |  0.208% | 
 | 288  | Trevenant          |  0.01910% | 211    |  0.298% | 161    |  0.289% | 
 | 289  | Dugtrio-Alola      |  0.01906% | 87     |  0.123% | 70     |  0.126% | 
 | 290  | Cacturne           |  0.01839% | 189    |  0.267% | 147    |  0.264% | 
 | 291  | Probopass          |  0.01817% | 146    |  0.206% | 117    |  0.210% | 
 | 292  | Toucannon          |  0.01789% | 173    |  0.244% | 136    |  0.244% | 
 | 293  | Bastiodon          |  0.01781% | 86     |  0.121% | 69     |  0.124% | 
 | 294  | Dewgong            |  0.01776% | 103    |  0.145% | 94     |  0.169% | 
 | 295  | Oranguru           |  0.01712% | 73     |  0.103% | 57     |  0.102% | 
 | 296  | Bibarel            |  0.01679% | 91     |  0.128% | 74     |  0.133% | 
 | 297  | Lurantis           |  0.01620% | 175    |  0.247% | 128    |  0.230% | 
 | 298  | Tangela            |  0.01600% | 60     |  0.085% | 43     |  0.077% | 
 | 299  | Sandslash          |  0.01598% | 86     |  0.121% | 71     |  0.127% | 
 | 300  | Exeggutor          |  0.01562% | 163    |  0.230% | 120    |  0.215% | 
 | 301  | Ninjask            |  0.01513% | 138    |  0.195% | 119    |  0.214% | 
 | 302  | Rotom-Fan          |  0.01488% | 76     |  0.107% | 57     |  0.102% | 
 | 303  | Togedemaru         |  0.01477% | 200    |  0.282% | 175    |  0.314% | 
 | 304  | Golbat             |  0.01465% | 48     |  0.068% | 35     |  0.063% | 
 | 305  | Emboar             |  0.01464% | 247    |  0.348% | 196    |  0.352% | 
 | 306  | Gogoat             |  0.01457% | 25     |  0.035% | 17     |  0.031% | 
 | 307  | Seaking            |  0.01388% | 101    |  0.142% | 71     |  0.127% | 
 | 308  | Illumise           |  0.01343% | 56     |  0.079% | 49     |  0.088% | 
 | 309  | Carracosta         |  0.01286% | 188    |  0.265% | 156    |  0.280% | 
 | 310  | Wishiwashi         |  0.01266% | 78     |  0.110% | 62     |  0.111% | 
 | 311  | Chatot             |  0.01256% | 112    |  0.158% | 89     |  0.160% | 
 | 312  | Ludicolo           |  0.01254% | 284    |  0.400% | 239    |  0.429% | 
 | 313  | Golduck            |  0.01237% | 113    |  0.159% | 97     |  0.174% | 
 | 314  | Barbaracle         |  0.01231% | 101    |  0.142% | 84     |  0.151% | 
 | 315  | Shiinotic          |  0.01225% | 84     |  0.118% | 72     |  0.129% | 
 | 316  | Furfrou            |  0.01176% | 31     |  0.044% | 27     |  0.048% | 
 | 317  | Rotom              |  0.01174% | 84     |  0.118% | 68     |  0.122% | 
 | 318  | Glaceon            |  0.01166% | 158    |  0.223% | 122    |  0.219% | 
 | 319  | Eevee              |  0.01138% | 58     |  0.082% | 46     |  0.083% | 
 | 320  | Jumpluff           |  0.01134% | 186    |  0.262% | 147    |  0.264% | 
 | 321  | Raticate           |  0.01126% | 114    |  0.161% | 92     |  0.165% | 
 | 322  | Mawile             |  0.01093% | 111    |  0.157% | 93     |  0.167% | 
 | 323  | Persian            |  0.01089% | 57     |  0.080% | 51     |  0.092% | 
 | 324  | Guzzlord           |  0.01075% | 99     |  0.140% | 83     |  0.149% | 
 | 325  | Lycanroc-Midnight  |  0.01054% | 102    |  0.144% | 79     |  0.142% | 
 | 326  | Beheeyem           |  0.01026% | 32     |  0.045% | 19     |  0.034% | 
 | 327  | Silvally           |  0.01015% | 232    |  0.327% | 192    |  0.345% | 
 | 328  | Wartortle          |  0.00988% | 13     |  0.018% | 12     |  0.022% | 
 | 329  | Shieldon           |  0.00988% | 34     |  0.048% | 32     |  0.057% | 
 | 330  | Wailord            |  0.00979% | 117    |  0.165% | 100    |  0.180% | 
 | 331  | Volbeat            |  0.00970% | 48     |  0.068% | 43     |  0.077% | 
 | 332  | Swoobat            |  0.00954% | 52     |  0.073% | 31     |  0.056% | 
 | 333  | Mightyena          |  0.00950% | 115    |  0.162% | 90     |  0.162% | 
 | 334  | Cottonee           |  0.00896% | 53     |  0.075% | 39     |  0.070% | 
 | 335  | Dragonair          |  0.00886% | 38     |  0.054% | 31     |  0.056% | 
 | 336  | Sawk               |  0.00884% | 47     |  0.066% | 42     |  0.075% | 
 | 337  | Aron               |  0.00878% | 128    |  0.181% | 100    |  0.180% | 
 | 338  | Silvally-Bug       |  0.00871% | 26     |  0.037% | 20     |  0.036% | 
 | 339  | Altaria            |  0.00851% | 109    |  0.154% | 92     |  0.165% | 
 | 340  | Manectric          |  0.00845% | 347    |  0.489% | 276    |  0.496% | 
 | 341  | Jynx               |  0.00834% | 140    |  0.197% | 97     |  0.174% | 
 | 342  | Pangoro            |  0.00829% | 97     |  0.137% | 80     |  0.144% | 
 | 343  | Musharna           |  0.00787% | 94     |  0.133% | 75     |  0.135% | 
 | 344  | Grovyle            |  0.00752% | 38     |  0.054% | 29     |  0.052% | 
 | 345  | Qwilfish           |  0.00727% | 111    |  0.157% | 99     |  0.178% | 
 | 346  | Gourgeist-Large    |  0.00722% | 2      |  0.003% | 2      |  0.004% | 
 | 347  | Tropius            |  0.00713% | 276    |  0.389% | 219    |  0.393% | 
 | 348  | Gourgeist          |  0.00695% | 35     |  0.049% | 34     |  0.061% | 
 | 349  | Wingull            |  0.00694% | 5      |  0.007% | 3      |  0.005% | 
 | 350  | Slowpoke           |  0.00694% | 4      |  0.006% | 3      |  0.005% | 
 | 351  | Wailmer            |  0.00694% | 2      |  0.003% | 1      |  0.002% | 
 | 352  | Vanilluxe          |  0.00687% | 148    |  0.209% | 120    |  0.215% | 
 | 353  | Boldore            |  0.00653% | 22     |  0.031% | 18     |  0.032% | 
 | 354  | Rampardos          |  0.00647% | 220    |  0.310% | 145    |  0.260% | 
 | 355  | Combusken          |  0.00631% | 20     |  0.028% | 14     |  0.025% | 
 | 356  | Oricorio-Pom-Pom   |  0.00618% | 26     |  0.037% | 23     |  0.041% | 
 | 357  | Rapidash           |  0.00549% | 117    |  0.165% | 85     |  0.153% | 
 | 358  | Servine            |  0.00542% | 23     |  0.032% | 21     |  0.038% | 
 | 359  | Noctowl            |  0.00536% | 150    |  0.212% | 115    |  0.206% | 
 | 360  | Vespiquen          |  0.00528% | 94     |  0.133% | 71     |  0.127% | 
 | 361  | Frogadier          |  0.00499% | 15     |  0.021% | 13     |  0.023% | 
 | 362  | Abomasnow          |  0.00497% | 79     |  0.111% | 70     |  0.126% | 
 | 363  | Furret             |  0.00474% | 42     |  0.059% | 33     |  0.059% | 
 | 364  | Rattata            |  0.00467% | 150    |  0.212% | 124    |  0.223% | 
 | 365  | Marill             |  0.00463% | 17     |  0.024% | 16     |  0.029% | 
 | 366  | Baltoy             |  0.00463% | 9      |  0.013% | 8      |  0.014% | 
 | 367  | Arbok              |  0.00431% | 126    |  0.178% | 96     |  0.172% | 
 | 368  | Dedenne            |  0.00428% | 52     |  0.073% | 43     |  0.077% | 
 | 369  | Stantler           |  0.00425% | 45     |  0.063% | 34     |  0.061% | 
 | 370  | Dewott             |  0.00423% | 1      |  0.001% | 1      |  0.002% | 
 | 371  | Turtonator         |  0.00416% | 94     |  0.133% | 75     |  0.135% | 
 | 372  | Unfezant           |  0.00402% | 128    |  0.181% | 105    |  0.189% | 
 | 373  | Primeape           |  0.00398% | 207    |  0.292% | 171    |  0.307% | 
 | 374  | Ledian             |  0.00394% | 37     |  0.052% | 29     |  0.052% | 
 | 375  | Cyndaquil          |  0.00383% | 8      |  0.011% | 8      |  0.014% | 
 | 376  | Mothim             |  0.00372% | 5      |  0.007% | 4      |  0.007% | 
 | 377  | Vigoroth           |  0.00370% | 17     |  0.024% | 11     |  0.020% | 
 | 378  | Meganium           |  0.00366% | 142    |  0.200% | 122    |  0.219% | 
 | 379  | Hitmonchan         |  0.00329% | 274    |  0.386% | 206    |  0.370% | 
 | 380  | Togetic            |  0.00302% | 142    |  0.200% | 112    |  0.201% | 
 | 381  | Simipour           |  0.00301% | 54     |  0.076% | 39     |  0.070% | 
 | 382  | Solrock            |  0.00294% | 69     |  0.097% | 48     |  0.086% | 
 | 383  | Nosepass           |  0.00293% | 35     |  0.049% | 24     |  0.043% | 
 | 384  | Politoed           |  0.00291% | 120    |  0.169% | 95     |  0.171% | 
 | 385  | Inkay              |  0.00290% | 11     |  0.016% | 8      |  0.014% | 
 | 386  | Ivysaur            |  0.00289% | 6      |  0.008% | 5      |  0.009% | 
 | 387  | Igglybuff          |  0.00289% | 3      |  0.004% | 3      |  0.005% | 
 | 388  | Magnemite          |  0.00278% | 34     |  0.048% | 23     |  0.041% | 
 | 389  | Throh              |  0.00270% | 24     |  0.034% | 21     |  0.038% | 
 | 390  | Raticate-Alola     |  0.00264% | 50     |  0.071% | 44     |  0.079% | 
 | 391  | Purugly            |  0.00250% | 36     |  0.051% | 25     |  0.045% | 
 | 392  | Wigglytuff         |  0.00250% | 61     |  0.086% | 44     |  0.079% | 
 | 393  | Pachirisu          |  0.00248% | 96     |  0.135% | 84     |  0.151% | 
 | 394  | Heatmor            |  0.00246% | 13     |  0.018% | 11     |  0.020% | 
 | 395  | Seviper            |  0.00245% | 19     |  0.027% | 14     |  0.025% | 
 | 396  | Marowak            |  0.00240% | 132    |  0.186% | 113    |  0.203% | 
 | 397  | Whirlipede         |  0.00226% | 9      |  0.013% | 8      |  0.014% | 
 | 398  | Octillery          |  0.00225% | 61     |  0.086% | 44     |  0.079% | 
 | 399  | Gurdurr            |  0.00223% | 21     |  0.030% | 14     |  0.025% | 
 | 400  | Delibird           |  0.00220% | 48     |  0.068% | 39     |  0.070% | 
 | 401  | Silvally-Fire      |  0.00214% | 18     |  0.025% | 17     |  0.031% | 
 | 402  | Carbink            |  0.00193% | 104    |  0.147% | 79     |  0.142% | 
 | 403  | Quilava            |  0.00192% | 2      |  0.003% | 2      |  0.004% | 
 | 404  | Quilladin          |  0.00192% | 3      |  0.004% | 3      |  0.005% | 
 | 405  | Glalie             |  0.00191% | 17     |  0.024% | 15     |  0.027% | 
 | 406  | Torkoal            |  0.00180% | 187    |  0.264% | 159    |  0.285% | 
 | 407  | Swanna             |  0.00170% | 69     |  0.097% | 56     |  0.101% | 
 | 408  | Gloom              |  0.00170% | 19     |  0.027% | 16     |  0.029% | 
 | 409  | Fearow             |  0.00162% | 82     |  0.116% | 64     |  0.115% | 
 | 410  | Charjabug          |  0.00146% | 9      |  0.013% | 9      |  0.016% | 
 | 411  | Oricorio-Sensu     |  0.00141% | 11     |  0.016% | 8      |  0.014% | 
 | 412  | Monferno           |  0.00136% | 21     |  0.030% | 20     |  0.036% | 
 | 413  | Onix               |  0.00132% | 12     |  0.017% | 11     |  0.020% | 
 | 414  | Mime Jr.           |  0.00131% | 8      |  0.011% | 7      |  0.013% | 
 | 415  | Metapod            |  0.00131% | 15     |  0.021% | 13     |  0.023% | 
 | 416  | Victreebel         |  0.00131% | 105    |  0.148% | 80     |  0.144% | 
 | 417  | Lopunny            |  0.00131% | 41     |  0.058% | 35     |  0.063% | 
 | 418  | Whiscash           |  0.00125% | 56     |  0.079% | 42     |  0.075% | 
 | 419  | Hypno              |  0.00123% | 83     |  0.117% | 70     |  0.126% | 
 | 420  | Sawsbuck           |  0.00123% | 73     |  0.103% | 55     |  0.099% | 
 | 421  | Rufflet            |  0.00122% | 10     |  0.014% | 9      |  0.016% | 
 | 422  | Braixen            |  0.00117% | 34     |  0.048% | 26     |  0.047% | 
 | 423  | Girafarig          |  0.00116% | 29     |  0.041% | 18     |  0.032% | 
 | 424  | Magcargo           |  0.00116% | 32     |  0.045% | 27     |  0.048% | 
 | 425  | Mesprit            |  0.00114% | 53     |  0.075% | 46     |  0.083% | 
 | 426  | Buizel             |  0.00113% | 13     |  0.018% | 11     |  0.020% | 
 | 427  | Silvally-Fighting  |  0.00105% | 13     |  0.018% | 10     |  0.018% | 
 | 428  | Turtwig            |  0.00104% | 8      |  0.011% | 7      |  0.013% | 
 | 429  | Staravia           |  0.00104% | 9      |  0.013% | 5      |  0.009% | 
 | 430  | Leavanny           |  0.00104% | 102    |  0.144% | 95     |  0.171% | 
 | 431  | Mantyke            |  0.00091% | 9      |  0.013% | 8      |  0.014% | 
 | 432  | Relicanth          |  0.00086% | 71     |  0.100% | 57     |  0.102% | 
 | 433  | Emolga             |  0.00080% | 63     |  0.089% | 50     |  0.090% | 
 | 434  | Pinsir             |  0.00079% | 31     |  0.044% | 23     |  0.041% | 
 | 435  | Plusle             |  0.00077% | 14     |  0.020% | 13     |  0.023% | 
 | 436  | Beartic            |  0.00075% | 74     |  0.104% | 63     |  0.113% | 
 | 437  | Grotle             |  0.00074% | 8      |  0.011% | 8      |  0.014% | 
 | 438  | Dugtrio            |  0.00073% | 83     |  0.117% | 72     |  0.129% | 
 | 439  | Floatzel           |  0.00072% | 99     |  0.140% | 78     |  0.140% | 
 | 440  | Grumpig            |  0.00067% | 24     |  0.034% | 17     |  0.031% | 
 | 441  | Marshtomp          |  0.00065% | 18     |  0.025% | 8      |  0.014% | 
 | 442  | Lilligant          |  0.00062% | 127    |  0.179% | 102    |  0.183% | 
 | 443  | Luvdisc            |  0.00060% | 6      |  0.008% | 6      |  0.011% | 
 | 444  | Simisage           |  0.00056% | 32     |  0.045% | 22     |  0.040% | 
 | 445  | Bulbasaur          |  0.00052% | 28     |  0.039% | 23     |  0.041% | 
 | 446  | Shellos            |  0.00049% | 7      |  0.010% | 5      |  0.009% | 
 | 447  | Burmy              |  0.00049% | 7      |  0.010% | 6      |  0.011% | 
 | 448  | Oricorio           |  0.00044% | 27     |  0.038% | 24     |  0.043% | 
 | 449  | Muk                |  0.00044% | 50     |  0.071% | 43     |  0.077% | 
 | 450  | Gorebyss           |  0.00041% | 21     |  0.030% | 11     |  0.020% | 
 | 451  | Wobbuffet          |  0.00041% | 126    |  0.178% | 102    |  0.183% | 
 | 452  | Smoochum           |  0.00039% | 6      |  0.008% | 5      |  0.009% | 
 | 453  | Cosmoem            |  0.00037% | 2      |  0.003% | 2      |  0.004% | 
 | 454  | Pineco             |  0.00035% | 50     |  0.071% | 45     |  0.081% | 
 | 455  | Nuzleaf            |  0.00035% | 21     |  0.030% | 18     |  0.032% | 
 | 456  | Ralts              |  0.00032% | 35     |  0.049% | 26     |  0.047% | 
 | 457  | Camerupt           |  0.00032% | 73     |  0.103% | 63     |  0.113% | 
 | 458  | Chikorita          |  0.00031% | 7      |  0.010% | 7      |  0.013% | 
 | 459  | Vulpix-Alola       |  0.00030% | 18     |  0.025% | 13     |  0.023% | 
 | 460  | Sunflora           |  0.00027% | 58     |  0.082% | 33     |  0.059% | 
 | 461  | Sealeo             |  0.00027% | 10     |  0.014% | 4      |  0.007% | 
 | 462  | Lileep             |  0.00027% | 8      |  0.011% | 2      |  0.004% | 
 | 463  | Nidorina           |  0.00027% | 12     |  0.017% | 10     |  0.018% | 
 | 464  | Beedrill           |  0.00027% | 30     |  0.042% | 25     |  0.045% | 
 | 465  | Bunnelby           |  0.00025% | 21     |  0.030% | 17     |  0.031% | 
 | 466  | Doduo              |  0.00025% | 24     |  0.034% | 14     |  0.025% | 
 | 467  | Archen             |  0.00025% | 5      |  0.007% | 5      |  0.009% | 
 | 468  | Bergmite           |  0.00025% | 5      |  0.007% | 5      |  0.009% | 
 | 469  | Spinda             |  0.00024% | 15     |  0.021% | 14     |  0.025% | 
 | 470  | Torracat           |  0.00020% | 38     |  0.054% | 29     |  0.052% | 
 | 471  | Riolu              |  0.00020% | 30     |  0.042% | 22     |  0.040% | 
 | 472  | Krokorok           |  0.00019% | 38     |  0.054% | 35     |  0.063% | 
 | 473  | Haunter            |  0.00019% | 36     |  0.051% | 31     |  0.056% | 
 | 474  | Watchog            |  0.00018% | 16     |  0.023% | 10     |  0.018% | 
 | 475  | Helioptile         |  0.00016% | 1      |  0.001% | 1      |  0.002% | 
 | 476  | Starly             |  0.00015% | 19     |  0.027% | 17     |  0.031% | 
 | 477  | Karrablast         |  0.00014% | 3      |  0.004% | 3      |  0.005% | 
 | 478  | Silvally-Ground    |  0.00010% | 7      |  0.010% | 6      |  0.011% | 
 | 479  | Stunfisk           |  0.00010% | 17     |  0.024% | 15     |  0.027% | 
 | 480  | Dustox             |  0.00009% | 7      |  0.010% | 6      |  0.011% | 
 | 481  | Piloswine          |  0.00008% | 90     |  0.127% | 74     |  0.133% | 
 | 482  | Duosion            |  0.00007% | 5      |  0.007% | 3      |  0.005% | 
 | 483  | Clamperl           |  0.00007% | 20     |  0.028% | 15     |  0.027% | 
 | 484  | Chingling          |  0.00005% | 3      |  0.004% | 1      |  0.002% | 
 | 485  | Swinub             |  0.00005% | 11     |  0.016% | 10     |  0.018% | 
 | 486  | Togepi             |  0.00005% | 6      |  0.008% | 4      |  0.007% | 
 | 487  | Spheal             |  0.00005% | 3      |  0.004% | 2      |  0.004% | 
 | 488  | Zubat              |  0.00005% | 14     |  0.020% | 9      |  0.016% | 
 | 489  | Joltik             |  0.00005% | 2      |  0.003% | 2      |  0.004% | 
 | 490  | Gastly             |  0.00005% | 14     |  0.020% | 9      |  0.016% | 
 | 491  | Salandit           |  0.00003% | 6      |  0.008% | 3      |  0.005% | 
 | 492  | Cherubi            |  0.00003% | 3      |  0.004% | 3      |  0.005% | 
 | 493  | Jigglypuff         |  0.00003% | 7      |  0.010% | 7      |  0.013% | 
 | 494  | Huntail            |  0.00002% | 28     |  0.039% | 21     |  0.038% | 
 | 495  | Seedot             |  0.00002% | 6      |  0.008% | 5      |  0.009% | 
 | 496  | Kadabra            |  0.00002% | 17     |  0.024% | 14     |  0.025% | 
 | 497  | Eelektrik          |  0.00001% | 1      |  0.001% | 1      |  0.002% | 
 | 498  | Mienfoo            |  0.00001% | 6      |  0.008% | 6      |  0.011% | 
 | 499  | Porygon            |  0.00001% | 8      |  0.011% | 5      |  0.009% | 
 | 500  | Trapinch           |  0.00001% | 9      |  0.013% | 8      |  0.014% | 
 | 501  | Silvally-Ghost     |  0.00001% | 21     |  0.030% | 15     |  0.027% | 
 | 502  | Seadra             |  0.00001% | 37     |  0.052% | 19     |  0.034% | 
 | 503  | Sandshrew-Alola    |  0.00001% | 5      |  0.007% | 3      |  0.005% | 
 | 504  | Amaura             |  0.00001% | 15     |  0.021% | 15     |  0.027% | 
 | 505  | Gothitelle         |  0.00000% | 23     |  0.032% | 18     |  0.032% | 
 | 506  | Pignite            |  0.00000% | 19     |  0.027% | 16     |  0.029% | 
 | 507  | Shelmet            |  0.00000% | 17     |  0.024% | 12     |  0.022% | 
 | 508  | Phione             |  0.00000% | 11     |  0.016% | 9      |  0.016% | 
 | 509  | Hippopotas         |  0.00000% | 24     |  0.034% | 17     |  0.031% | 
 | 510  | Electabuzz         |  0.00000% | 38     |  0.054% | 30     |  0.054% | 
 | 511  | Poliwhirl          |  0.00000% | 7      |  0.010% | 5      |  0.009% | 
 | 512  | Geodude            |  0.00000% | 22     |  0.031% | 21     |  0.038% | 
 | 513  | Silvally-Dark      |  0.00000% | 10     |  0.014% | 6      |  0.011% | 
 | 514  | Swalot             |  0.00000% | 29     |  0.041% | 26     |  0.047% | 
 | 515  | Dunsparce          |  0.00000% | 26     |  0.037% | 25     |  0.045% | 
 | 516  | Masquerain         |  0.00000% | 64     |  0.090% | 55     |  0.099% | 
 | 517  | Tynamo             |  0.00000% | 12     |  0.017% | 11     |  0.020% | 
 | 518  | Cranidos           |  0.00000% | 12     |  0.017% | 9      |  0.016% | 
 | 519  | Herdier            |  0.00000% | 12     |  0.017% | 11     |  0.020% | 
 | 520  | Torchic            |  0.00000% | 12     |  0.017% | 12     |  0.022% | 
 | 521  | Poipole            |  0.00000% | 19     |  0.027% | 14     |  0.025% | 
 | 522  | Lunatone           |  0.00000% | 29     |  0.041% | 18     |  0.032% | 
 | 523  | Pichu              |  0.00000% | 8      |  0.011% | 7      |  0.013% | 
 | 524  | Croconaw           |  0.00000% | 11     |  0.016% | 8      |  0.014% | 
 | 525  | Silvally-Dragon    |  0.00000% | 23     |  0.032% | 21     |  0.038% | 
 | 526  | Pidgeotto          |  0.00000% | 19     |  0.027% | 11     |  0.020% | 
 | 527  | Wormadam-Trash     |  0.00000% | 29     |  0.041% | 27     |  0.048% | 
 | 528  | Glameow            |  0.00000% | 3      |  0.004% | 3      |  0.005% | 
 | 529  | Meowth             |  0.00000% | 10     |  0.014% | 9      |  0.016% | 
 | 530  | Skitty             |  0.00000% | 5      |  0.007% | 5      |  0.009% | 
 | 531  | Zweilous           |  0.00000% | 18     |  0.025% | 14     |  0.025% | 
 | 532  | Magmar             |  0.00000% | 21     |  0.030% | 16     |  0.029% | 
 | 533  | Silvally-Electric  |  0.00000% | 19     |  0.027% | 17     |  0.031% | 
 | 534  | Silvally-Flying    |  0.00000% | 11     |  0.016% | 10     |  0.018% | 
 | 535  | Gourgeist-Small    |  0.00000% | 21     |  0.030% | 16     |  0.029% | 
 | 536  | Vullaby            |  0.00000% | 10     |  0.014% | 9      |  0.016% | 
 | 537  | Carnivine          |  0.00000% | 5      |  0.007% | 5      |  0.009% | 
 | 538  | Basculin           |  0.00000% | 30     |  0.042% | 19     |  0.034% | 
 | 539  | Banette            |  0.00000% | 10     |  0.014% | 6      |  0.011% | 
 | 540  | Machoke            |  0.00000% | 16     |  0.023% | 15     |  0.027% | 
 | 541  | Prinplup           |  0.00000% | 5      |  0.007% | 4      |  0.007% | 
 | 542  | Bayleef            |  0.00000% | 6      |  0.008% | 2      |  0.004% | 
 | 543  | Fletchinder        |  0.00000% | 2      |  0.003% | 2      |  0.004% | 
 | 544  | Buneary            |  0.00000% | 5      |  0.007% | 5      |  0.009% | 
 | 545  | Roggenrola         |  0.00000% | 3      |  0.004% | 3      |  0.005% | 
 | 546  | Lillipup           |  0.00000% | 6      |  0.008% | 5      |  0.009% | 
 | 547  | Cleffa             |  0.00000% | 1      |  0.001% | 1      |  0.002% | 
 | 548  | Gothorita          |  0.00000% | 3      |  0.004% | 3      |  0.005% | 
 | 549  | Silvally-Water     |  0.00000% | 10     |  0.014% | 7      |  0.013% | 
 | 550  | Snubbull           |  0.00000% | 1      |  0.001% | 1      |  0.002% | 
 | 551  | Houndour           |  0.00000% | 4      |  0.006% | 4      |  0.007% | 
 | 552  | Slakoth            |  0.00000% | 1      |  0.001% | 0      |  0.000% | 
 | 553  | Binacle            |  0.00000% | 1      |  0.001% | 1      |  0.002% | 
 | 554  | Zorua              |  0.00000% | 5      |  0.007% | 3      |  0.005% | 
 | 555  | Pikachu-Alola      |  0.00000% | 3      |  0.004% | 2      |  0.004% | 
 | 556  | Swirlix            |  0.00000% | 8      |  0.011% | 6      |  0.011% | 
 | 557  | Gabite             |  0.00000% | 2      |  0.003% | 1      |  0.002% | 
 | 558  | Squirtle           |  0.00000% | 2      |  0.003% | 2      |  0.004% | 
 | 559  | Wimpod             |  0.00000% | 1      |  0.001% | 1      |  0.002% | 
 | 560  | Skiploom           |  0.00000% | 1      |  0.001% | 1      |  0.002% | 
 | 561  | Deino              |  0.00000% | 2      |  0.003% | 2      |  0.004% | 
 | 562  | Klang              |  0.00000% | 1      |  0.001% | 1      |  0.002% | 
 | 563  | Remoraid           |  0.00000% | 4      |  0.006% | 3      |  0.005% | 
 | 564  | NidoranM           |  0.00000% | 1      |  0.001% | 0      |  0.000% | 
 | 565  | Wooper             |  0.00000% | 4      |  0.006% | 3      |  0.005% | 
 | 566  | Cherrim            |  0.00000% | 8      |  0.011% | 5      |  0.009% | 
 | 567  | Seel               |  0.00000% | 1      |  0.001% | 0      |  0.000% | 
 | 568  | Hakamo-o           |  0.00000% | 6      |  0.008% | 3      |  0.005% | 
 | 569  | Aipom              |  0.00000% | 15     |  0.021% | 11     |  0.020% | 
 | 570  | Goldeen            |  0.00000% | 8      |  0.011% | 7      |  0.013% | 
 | 571  | Elekid             |  0.00000% | 4      |  0.006% | 3      |  0.005% | 
 | 572  | Poliwag            |  0.00000% | 6      |  0.008% | 4      |  0.007% | 
 | 573  | Kirlia             |  0.00000% | 8      |  0.011% | 6      |  0.011% | 
 | 574  | Espurr             |  0.00000% | 1      |  0.001% | 1      |  0.002% | 
 | 575  | Metang             |  0.00000% | 7      |  0.010% | 6      |  0.011% | 
 | 576  | Skiddo             |  0.00000% | 1      |  0.001% | 1      |  0.002% | 
 | 577  | Nidorino           |  0.00000% | 4      |  0.006% | 3      |  0.005% | 
 | 578  | Weepinbell         |  0.00000% | 5      |  0.007% | 2      |  0.004% | 
 | 579  | Cutiefly           |  0.00000% | 6      |  0.008% | 6      |  0.011% | 
 | 580  | Larvesta           |  0.00000% | 3      |  0.004% | 3      |  0.005% | 
 | 581  | Litten             |  0.00000% | 4      |  0.006% | 2      |  0.004% | 
 | 582  | Venonat            |  0.00000% | 2      |  0.003% | 2      |  0.004% | 
 | 583  | Treecko            |  0.00000% | 7      |  0.010% | 5      |  0.009% | 
 | 584  | Pumpkaboo          |  0.00000% | 1      |  0.001% | 1      |  0.002% | 
 | 585  | Scraggy            |  0.00000% | 6      |  0.008% | 5      |  0.009% | 
 | 586  | Jangmo-o           |  0.00000% | 1      |  0.001% | 0      |  0.000% | 
 | 587  | Chinchou           |  0.00000% | 1      |  0.001% | 1      |  0.002% | 
 | 588  | Gulpin             |  0.00000% | 2      |  0.003% | 2      |  0.004% | 
 | 589  | Mudbray            |  0.00000% | 3      |  0.004% | 3      |  0.005% | 
 | 590  | Mareanie           |  0.00000% | 7      |  0.010% | 7      |  0.013% | 
 | 591  | Wormadam-Sandy     |  0.00000% | 2      |  0.003% | 2      |  0.004% | 
 | 592  | Staryu             |  0.00000% | 16     |  0.023% | 14     |  0.025% | 
 | 593  | Mareep             |  0.00000% | 6      |  0.008% | 5      |  0.009% | 
 | 594  | Pidove             |  0.00000% | 2      |  0.003% | 2      |  0.004% | 
 | 595  | Omanyte            |  0.00000% | 5      |  0.007% | 5      |  0.009% | 
 | 596  | Barboach           |  0.00000% | 1      |  0.001% | 1      |  0.002% | 
 | 597  | Minun              |  0.00000% | 13     |  0.018% | 11     |  0.020% | 
 | 598  | Mudkip             |  0.00000% | 6      |  0.008% | 6      |  0.011% | 
 | 599  | Pumpkaboo-Super    |  0.00000% | 1      |  0.001% | 1      |  0.002% | 
 | 600  | Psyduck            |  0.00000% | 3      |  0.004% | 3      |  0.005% | 
 | 601  | Luxio              |  0.00000% | 2      |  0.003% | 1      |  0.002% | 
 | 602  | Cubchoo            |  0.00000% | 1      |  0.001% | 1      |  0.002% | 
 | 603  | Abra               |  0.00000% | 3      |  0.004% | 3      |  0.005% | 
 | 604  | Corphish           |  0.00000% | 7      |  0.010% | 6      |  0.011% | 
 | 605  | Magikarp           |  0.00000% | 13     |  0.018% | 9      |  0.016% | 
 | 606  | Pawniard           |  0.00000% | 4      |  0.006% | 4      |  0.007% | 
 | 607  | Vulpix             |  0.00000% | 4      |  0.006% | 3      |  0.005% | 
 | 608  | Bellsprout         |  0.00000% | 2      |  0.003% | 2      |  0.004% | 
 | 609  | Silvally-Fairy     |  0.00000% | 10     |  0.014% | 8      |  0.014% | 
 | 610  | Simisear           |  0.00000% | 17     |  0.024% | 14     |  0.025% | 
 | 611  | Axew               |  0.00000% | 6      |  0.008% | 5      |  0.009% | 
 | 612  | Oricorio-Pa'u      |  0.00000% | 1      |  0.001% | 1      |  0.002% | 
 | 613  | Ponyta             |  0.00000% | 3      |  0.004% | 2      |  0.004% | 
 | 614  | Marowak-Alola-Totem |  0.00000% | 4      |  0.006% | 3      |  0.005% | 
 | 615  | Taillow            |  0.00000% | 21     |  0.030% | 13     |  0.023% | 
 | 616  | Sandshrew          |  0.00000% | 1      |  0.001% | 1      |  0.002% | 
 | 617  | Shroomish          |  0.00000% | 1      |  0.001% | 1      |  0.002% | 
 | 618  | Larvitar           |  0.00000% | 5      |  0.007% | 5      |  0.009% | 
 | 619  | Silvally-Psychic   |  0.00000% | 3      |  0.004% | 3      |  0.005% | 
 | 620  | Carvanha           |  0.00000% | 2      |  0.003% | 1      |  0.002% | 
 | 621  | Finneon            |  0.00000% | 3      |  0.004% | 3      |  0.005% | 
 | 622  | Maractus           |  0.00000% | 12     |  0.017% | 10     |  0.018% | 
 | 623  | Elgyem             |  0.00000% | 3      |  0.004% | 3      |  0.005% | 
 | 624  | Magby              |  0.00000% | 4      |  0.006% | 2      |  0.004% | 
 | 625  | Brionne            |  0.00000% | 1      |  0.001% | 1      |  0.002% | 
 | 626  | Floette            |  0.00000% | 4      |  0.006% | 4      |  0.007% | 
 | 627  | Kakuna             |  0.00000% | 4      |  0.006% | 4      |  0.007% | 
 | 628  | Electrike          |  0.00000% | 2      |  0.003% | 2      |  0.004% | 
 | 629  | Grimer-Alola       |  0.00000% | 1      |  0.001% | 1      |  0.002% | 
 | 630  | Foongus            |  0.00000% | 6      |  0.008% | 3      |  0.005% | 
 | 631  | Silcoon            |  0.00000% | 1      |  0.001% | 1      |  0.002% | 
 | 632  | Sandygast          |  0.00000% | 2      |  0.003% | 1      |  0.002% | 
 | 633  | Koffing            |  0.00000% | 3      |  0.004% | 1      |  0.002% | 
 | 634  | Shellder           |  0.00000% | 3      |  0.004% | 1      |  0.002% | 
 | 635  | Meditite           |  0.00000% | 13     |  0.018% | 11     |  0.020% | 
 | 636  | Dratini            |  0.00000% | 4      |  0.006% | 3      |  0.005% | 
 | 637  | Bonsly             |  0.00000% | 1      |  0.001% | 1      |  0.002% | 
 | 638  | Popplio            |  0.00000% | 5      |  0.007% | 4      |  0.007% | 
 | 639  | Roselia            |  0.00000% | 7      |  0.010% | 7      |  0.013% | 
 | 640  | Shelgon            |  0.00000% | 15     |  0.021% | 12     |  0.022% | 
 | 641  | Tirtouga           |  0.00000% | 10     |  0.014% | 7      |  0.013% | 
 | 642  | Trubbish           |  0.00000% | 3      |  0.004% | 2      |  0.004% | 
 | 643  | Croagunk           |  0.00000% | 2      |  0.003% | 2      |  0.004% | 
 | 644  | Hoothoot           |  0.00000% | 1      |  0.001% | 1      |  0.002% | 
 | 645  | Tyrogue            |  0.00000% | 1      |  0.001% | 1      |  0.002% | 
 | 646  | Cosmog             |  0.00000% | 1      |  0.001% | 1      |  0.002% | 
 | 647  | Chimchar           |  0.00000% | 1      |  0.001% | 1      |  0.002% | 
 | 648  | Gible              |  0.00000% | 2      |  0.003% | 1      |  0.002% | 
 | 649  | Rattata-Alola      |  0.00000% | 16     |  0.023% | 14     |  0.025% | 
 | 650  | Voltorb            |  0.00000% | 4      |  0.006% | 4      |  0.007% | 
 | 651  | Tranquill          |  0.00000% | 3      |  0.004% | 2      |  0.004% | 
 | 652  | Drifloon           |  0.00000% | 8      |  0.011% | 7      |  0.013% | 
 | 653  | Silvally-Rock      |  0.00000% | 3      |  0.004% | 3      |  0.005% | 
 | 654  | Solosis            |  0.00000% | 1      |  0.001% | 1      |  0.002% | 
 | 655  | Timburr            |  0.00000% | 1      |  0.001% | 1      |  0.002% | 
 | 656  | Natu               |  0.00000% | 9      |  0.013% | 6      |  0.011% | 
 | 657  | Chespin            |  0.00000% | 2      |  0.003% | 2      |  0.004% | 
 | 658  | Pancham            |  0.00000% | 3      |  0.004% | 2      |  0.004% | 
 | 659  | Bronzor            |  0.00000% | 3      |  0.004% | 3      |  0.005% | 
 | 660  | Dwebble            |  0.00000% | 11     |  0.016% | 11     |  0.020% | 
 | 661  | Charmander         |  0.00000% | 7      |  0.010% | 4      |  0.007% | 
 | 662  | Fraxure            |  0.00000% | 8      |  0.011% | 5      |  0.009% | 
 | 663  | Morelull           |  0.00000% | 6      |  0.008% | 6      |  0.011% | 
 | 664  | Rockruff           |  0.00000% | 5      |  0.007% | 4      |  0.007% | 
 | 665  | Steenee            |  0.00000% | 1      |  0.001% | 1      |  0.002% | 
 | 666  | Petilil            |  0.00000% | 3      |  0.004% | 3      |  0.005% | 
 | 667  | Pikachu-Kalos      |  0.00000% | 2      |  0.003% | 2      |  0.004% | 
 | 668  | Lotad              |  0.00000% | 3      |  0.004% | 3      |  0.005% | 
 | 669  | Honedge            |  0.00000% | 4      |  0.006% | 4      |  0.007% | 
 | 670  | Sentret            |  0.00000% | 5      |  0.007% | 4      |  0.007% | 
 | 671  | Snover             |  0.00000% | 1      |  0.001% | 1      |  0.002% | 
 | 672  | Sliggoo            |  0.00000% | 6      |  0.008% | 5      |  0.009% | 
 | 673  | Zigzagoon          |  0.00000% | 6      |  0.008% | 4      |  0.007% | 
 | 674  | Goomy              |  0.00000% | 1      |  0.001% | 1      |  0.002% | 
 | 675  | Spinarak           |  0.00000% | 2      |  0.003% | 2      |  0.004% | 
 | 676  | Growlithe          |  0.00000% | 4      |  0.006% | 1      |  0.002% | 
 | 677  | Wynaut             |  0.00000% | 1      |  0.001% | 1      |  0.002% | 
 | 678  | Purrloin           |  0.00000% | 1      |  0.001% | 1      |  0.002% | 
 | 679  | Loudred            |  0.00000% | 1      |  0.001% | 1      |  0.002% | 
 | 680  | Diglett            |  0.00000% | 3      |  0.004% | 3      |  0.005% | 
 | 681  | Wurmple            |  0.00000% | 2      |  0.003% | 2      |  0.004% | 
 | 682  | Pikipek            |  0.00000% | 1      |  0.001% | 1      |  0.002% | 
 | 683  | Tentacool          |  0.00000% | 11     |  0.016% | 7      |  0.013% | 
 | 684  | Feebas             |  0.00000% | 1      |  0.001% | 0      |  0.000% | 
 | 685  | Charmeleon         |  0.00000% | 2      |  0.003% | 1      |  0.002% | 
 | 686  | Swadloon           |  0.00000% | 3      |  0.004% | 2      |  0.004% | 
 | 687  | Palpitoad          |  0.00000% | 3      |  0.004% | 3      |  0.005% | 
 | 688  | Yungoos            |  0.00000% | 4      |  0.006% | 3      |  0.005% | 
 | 689  | Yamask             |  0.00000% | 9      |  0.013% | 6      |  0.011% | 
 | 690  | Graveler-Alola     |  0.00000% | 4      |  0.006% | 4      |  0.007% | 
 | 691  | Happiny            |  0.00000% | 1      |  0.001% | 1      |  0.002% | 
 | 692  | Lickitung          |  0.00000% | 1      |  0.001% | 0      |  0.000% | 
 | 693  | Pidgey             |  0.00000% | 4      |  0.006% | 3      |  0.005% | 
 | 694  | Darumaka           |  0.00000% | 2      |  0.003% | 2      |  0.004% | 
 | 695  | Misdreavus         |  0.00000% | 6      |  0.008% | 5      |  0.009% | 
 | 696  | Litwick            |  0.00000% | 5      |  0.007% | 5      |  0.009% | 
 | 697  | Beautifly          |  0.00000% | 2      |  0.003% | 2      |  0.004% | 
 | 698  | Drowzee            |  0.00000% | 1      |  0.001% | 1      |  0.002% | 
 | 699  | Deerling           |  0.00000% | 1      |  0.001% | 1      |  0.002% | 
 | 700  | Combee             |  0.00000% | 6      |  0.008% | 4      |  0.007% | 
 | 701  | Rowlet             |  0.00000% | 14     |  0.020% | 12     |  0.022% | 
 | 702  | Fennekin           |  0.00000% | 10     |  0.014% | 7      |  0.013% | 
 | 703  | Vanillite          |  0.00000% | 1      |  0.001% | 1      |  0.002% | 
 | 704  | Piplup             |  0.00000% | 1      |  0.001% | 1      |  0.002% | 
 | 705  | Lairon             |  0.00000% | 9      |  0.013% | 5      |  0.009% | 
 | 706  | Slugma             |  0.00000% | 2      |  0.003% | 2      |  0.004% | 
 | 707  | Whismur            |  0.00000% | 1      |  0.001% | 0      |  0.000% | 
 | 708  | Patrat             |  0.00000% | 6      |  0.008% | 6      |  0.011% | 
 | 709  | Bidoof             |  0.00000% | 12     |  0.017% | 11     |  0.020% | 
 | 710  | Munchlax           |  0.00000% | 4      |  0.006% | 3      |  0.005% | 
 | 711  | Kricketune         |  0.00000% | 12     |  0.017% | 11     |  0.020% | 
 | 712  | Snivy              |  0.00000% | 2      |  0.003% | 2      |  0.004% | 
 | 713  | Machop             |  0.00000% | 1      |  0.001% | 1      |  0.002% | 
 | 714  | Caterpie           |  0.00000% | 2      |  0.003% | 2      |  0.004% | 
 | 715  | Froakie            |  0.00000% | 1      |  0.001% | 1      |  0.002% | 
 | 716  | Cacnea             |  0.00000% | 2      |  0.003% | 1      |  0.002% | 
 | 717  | Shinx              |  0.00000% | 1      |  0.001% | 1      |  0.002% | 
 | 718  | Rhyhorn            |  0.00000% | 5      |  0.007% | 5      |  0.009% | 
 | 719  | Cubone             |  0.00000% | 1      |  0.001% | 1      |  0.002% | 
 + ---- + ------------------ + --------- + ------ + ------- + ------ + ------- + 
