 Total battles: 214
 Avg. weight/team: 0.006
 + ---- + ------------------ + --------- + ------ + ------- + ------ + ------- + 
 | Rank | Pokemon            | Usage %   | Raw    | %       | Real   | %       | 
 + ---- + ------------------ + --------- + ------ + ------- + ------ + ------- + 
 | 1    | Swoobat            | 83.61895% | 23     |  5.374% | 16     |  5.047% | 
 | 2    | Ribombee           | 66.52073% | 27     |  6.308% | 25     |  7.886% | 
 | 3    | Swellow            | 66.52041% | 7      |  1.636% | 5      |  1.577% | 
 | 4    | Marowak-Alola      | 66.52041% | 7      |  1.636% | 5      |  1.577% | 
 | 5    | Ursaring           | 49.57505% | 30     |  7.009% | 25     |  7.886% | 
 | 6    | Pikachu            | 49.57496% | 11     |  2.570% | 8      |  2.524% | 
 | 7    | Krookodile         | 20.91170% | 9      |  2.103% | 8      |  2.524% | 
 | 8    | Tapu Koko          | 17.32836% | 3      |  0.701% | 3      |  0.946% | 
 | 9    | Blastoise-Mega     | 17.09836% | 13     |  3.037% | 9      |  2.839% | 
 | 10   | Raichu-Alola       | 17.09825% | 7      |  1.636% | 3      |  0.946% | 
 | 11   | Druddigon          | 17.09825% | 2      |  0.467% | 0      |  0.000% | 
 | 12   | Lurantis           | 16.94577% | 13     |  3.037% | 12     |  3.785% | 
 | 13   | Eevee              | 16.94544% | 3      |  0.701% | 1      |  0.315% | 
 | 14   | Delphox            |  6.78592% | 10     |  2.336% | 8      |  2.524% | 
 | 15   | Ditto              |  6.08036% | 17     |  3.972% | 10     |  3.155% | 
 | 16   | Scrafty            |  5.12806% | 5      |  1.168% | 3      |  0.946% | 
 | 17   | Heliolisk          |  5.12806% | 12     |  2.804% | 9      |  2.839% | 
 | 18   | Miltank            |  5.12806% | 2      |  0.467% | 2      |  0.631% | 
 | 19   | Golbat             |  5.12806% | 2      |  0.467% | 2      |  0.631% | 
 | 20   | Decidueye          |  4.19251% | 15     |  3.505% | 14     |  4.416% | 
 | 21   | Haxorus            |  3.69934% | 4      |  0.935% | 3      |  0.946% | 
 | 22   | Metagross          |  3.65914% | 10     |  2.336% | 8      |  2.524% | 
 | 23   | Silvally-Fairy     |  3.65914% | 2      |  0.467% | 2      |  0.631% | 
 | 24   | Alomomola          |  3.65914% | 1      |  0.234% | 1      |  0.315% | 
 | 25   | Klefki             |  1.77674% | 33     |  7.710% | 27     |  8.517% | 
 | 26   | Toxapex            |  1.75935% | 17     |  3.972% | 14     |  4.416% | 
 | 27   | Cloyster           |  1.72062% | 25     |  5.841% | 19     |  5.994% | 
 | 28   | Dugtrio-Alola      |  1.65787% | 8      |  1.869% | 7      |  2.208% | 
 | 29   | Slaking            |  1.65787% | 23     |  5.374% | 15     |  4.732% | 
 | 30   | Jirachi            |  1.65787% | 8      |  1.869% | 7      |  2.208% | 
 | 31   | Ferrothorn         |  1.57340% | 43     | 10.047% | 38     | 11.987% | 
 | 32   | Tyranitar-Mega     |  1.51075% | 13     |  3.037% | 11     |  3.470% | 
 | 33   | Hawlucha           |  1.51017% | 10     |  2.336% | 7      |  2.208% | 
 | 34   | Tapu Lele          |  1.51017% | 9      |  2.103% | 6      |  1.893% | 
 | 35   | Rotom-Heat         |  1.51017% | 13     |  3.037% | 9      |  2.839% | 
 | 36   | Jolteon            |  1.46305% | 10     |  2.336% | 8      |  2.524% | 
 | 37   | Regice             |  1.12819% | 34     |  7.944% | 18     |  5.678% | 
 | 38   | Mimikyu            |  0.95256% | 33     |  7.710% | 18     |  5.678% | 
 | 39   | Sceptile           |  0.95243% | 36     |  8.411% | 25     |  7.886% | 
 | 40   | Ambipom            |  0.85515% | 19     |  4.439% | 13     |  4.101% | 
 | 41   | Victini            |  0.82432% | 4      |  0.935% | 3      |  0.946% | 
 | 42   | Regirock           |  0.82432% | 3      |  0.701% | 2      |  0.631% | 
 | 43   | Bellossom          |  0.82432% | 4      |  0.935% | 3      |  0.946% | 
 | 44   | Flareon            |  0.82432% | 2      |  0.467% | 0      |  0.000% | 
 | 45   | Chatot             |  0.82432% | 1      |  0.234% | 1      |  0.315% | 
 | 46   | Beedrill-Mega      |  0.60939% | 18     |  4.206% | 15     |  4.732% | 
 | 47   | Gourgeist-Super    |  0.60452% | 7      |  1.636% | 7      |  2.208% | 
 | 48   | Combusken          |  0.53338% | 13     |  3.037% | 10     |  3.155% | 
 | 49   | Frogadier          |  0.53338% | 12     |  2.804% | 9      |  2.839% | 
 | 50   | Slurpuff           |  0.53338% | 11     |  2.570% | 10     |  3.155% | 
 | 51   | Umbreon            |  0.49759% | 8      |  1.869% | 8      |  2.524% | 
 | 52   | Tyranitar          |  0.48343% | 18     |  4.206% | 9      |  2.839% | 
 | 53   | Aggron             |  0.48336% | 7      |  1.636% | 6      |  1.893% | 
 | 54   | Fraxure            |  0.48336% | 4      |  0.935% | 2      |  0.631% | 
 | 55   | Trevenant          |  0.48336% | 7      |  1.636% | 7      |  2.208% | 
 | 56   | Tsareena           |  0.48336% | 14     |  3.271% | 12     |  3.785% | 
 | 57   | Greninja-Ash       |  0.47741% | 63     | 14.720% | 43     | 13.565% | 
 | 58   | Rhyperior          |  0.39792% | 4      |  0.935% | 4      |  1.262% | 
 | 59   | Breloom            |  0.38827% | 5      |  1.168% | 5      |  1.577% | 
 | 60   | Typhlosion         |  0.38827% | 4      |  0.935% | 4      |  1.262% | 
 | 61   | Xatu               |  0.38827% | 2      |  0.467% | 1      |  0.315% | 
 | 62   | Simipour           |  0.38827% | 1      |  0.234% | 1      |  0.315% | 
 | 63   | Krokorok           |  0.37906% | 6      |  1.402% | 5      |  1.577% | 
 | 64   | Lopunny-Mega       |  0.34241% | 24     |  5.607% | 11     |  3.470% | 
 | 65   | Incineroar         |  0.24526% | 33     |  7.710% | 20     |  6.309% | 
 | 66   | Garchomp           |  0.24507% | 34     |  7.944% | 21     |  6.625% | 
 | 67   | Smeargle           |  0.24507% | 20     |  4.673% | 16     |  5.047% | 
 | 68   | Heatran            |  0.23023% | 21     |  4.907% | 15     |  4.732% | 
 | 69   | Gliscor            |  0.23016% | 20     |  4.673% | 18     |  5.678% | 
 | 70   | Electrode          |  0.22619% | 20     |  4.673% | 19     |  5.994% | 
 | 71   | Walrein            |  0.22506% | 17     |  3.972% | 14     |  4.416% | 
 | 72   | Beedrill           |  0.22505% | 14     |  3.271% | 10     |  3.155% | 
 | 73   | Hariyama           |  0.22505% | 14     |  3.271% | 12     |  3.785% | 
 | 74   | Banette-Mega       |  0.22505% | 15     |  3.505% | 15     |  4.732% | 
 | 75   | Zebstrika          |  0.22505% | 14     |  3.271% | 10     |  3.155% | 
 | 76   | Torterra           |  0.22505% | 15     |  3.505% | 15     |  4.732% | 
 | 77   | Pidgeot-Mega       |  0.21337% | 9      |  2.103% | 6      |  1.893% | 
 | 78   | Landorus-Therian   |  0.20096% | 13     |  3.037% | 9      |  2.839% | 
 | 79   | Marowak            |  0.17621% | 24     |  5.607% | 18     |  5.678% | 
 | 80   | Regigigas          |  0.17589% | 15     |  3.505% | 12     |  3.785% | 
 | 81   | Steelix-Mega       |  0.17589% | 11     |  2.570% | 9      |  2.839% | 
 | 82   | Dusknoir           |  0.17589% | 11     |  2.570% | 10     |  3.155% | 
 | 83   | Omastar            |  0.13681% | 8      |  1.869% | 7      |  2.208% | 
 | 84   | Politoed           |  0.13637% | 5      |  1.168% | 4      |  1.262% | 
 | 85   | Silvally-Fire      |  0.13637% | 5      |  1.168% | 2      |  0.631% | 
 | 86   | Armaldo            |  0.13637% | 7      |  1.636% | 4      |  1.262% | 
 | 87   | Hitmonchan         |  0.08617% | 15     |  3.505% | 10     |  3.155% | 
 | 88   | Rotom-Frost        |  0.07535% | 8      |  1.869% | 6      |  1.893% | 
 | 89   | Toxicroak          |  0.06483% | 21     |  4.907% | 17     |  5.363% | 
 | 90   | Weavile            |  0.06483% | 23     |  5.374% | 16     |  5.047% | 
 | 91   | Manectric          |  0.06306% | 6      |  1.402% | 4      |  1.262% | 
 | 92   | Pyukumuku          |  0.04958% | 8      |  1.869% | 5      |  1.577% | 
 | 93   | Butterfree         |  0.04958% | 8      |  1.869% | 5      |  1.577% | 
 | 94   | Noivern            |  0.04958% | 3      |  0.701% | 2      |  0.631% | 
 | 95   | Silvally-Ground    |  0.04958% | 4      |  0.935% | 2      |  0.631% | 
 | 96   | Registeel          |  0.04958% | 6      |  1.402% | 6      |  1.893% | 
 | 97   | Salazzle           |  0.04958% | 14     |  3.271% | 10     |  3.155% | 
 | 98   | Bisharp            |  0.04090% | 2      |  0.467% | 2      |  0.631% | 
 | 99   | Kartana            |  0.04047% | 18     |  4.206% | 12     |  3.785% | 
 | 100  | Haunter            |  0.04034% | 8      |  1.869% | 4      |  1.262% | 
 | 101  | Shuckle            |  0.04021% | 7      |  1.636% | 7      |  2.208% | 
 | 102  | Mightyena          |  0.02143% | 4      |  0.935% | 3      |  0.946% | 
 | 103  | Dedenne            |  0.02143% | 4      |  0.935% | 4      |  1.262% | 
 | 104  | Whiscash           |  0.02143% | 4      |  0.935% | 4      |  1.262% | 
 | 105  | Crabominable       |  0.02143% | 5      |  1.168% | 4      |  1.262% | 
 | 106  | Vespiquen          |  0.02143% | 4      |  0.935% | 3      |  0.946% | 
 | 107  | Rotom-Wash         |  0.01906% | 2      |  0.467% | 2      |  0.631% | 
 | 108  | Excadrill          |  0.01906% | 14     |  3.271% | 13     |  4.101% | 
 | 109  | Tornadus-Therian   |  0.01906% | 2      |  0.467% | 2      |  0.631% | 
 | 110  | Infernape          |  0.01422% | 2      |  0.467% | 2      |  0.631% | 
 | 111  | Mesprit            |  0.01422% | 2      |  0.467% | 2      |  0.631% | 
 | 112  | Forretress         |  0.01422% | 2      |  0.467% | 2      |  0.631% | 
 | 113  | Golisopod          |  0.01422% | 4      |  0.935% | 3      |  0.946% | 
 | 114  | Flygon             |  0.01422% | 8      |  1.869% | 6      |  1.893% | 
 | 115  | Sableye-Mega       |  0.01150% | 8      |  1.869% | 7      |  2.208% | 
 | 116  | Electivire         |  0.00984% | 6      |  1.402% | 5      |  1.577% | 
 | 117  | Palossand          |  0.00965% | 15     |  3.505% | 12     |  3.785% | 
 | 118  | Drapion            |  0.00965% | 1      |  0.234% | 1      |  0.315% | 
 | 119  | Octillery          |  0.00965% | 1      |  0.234% | 1      |  0.315% | 
 | 120  | Zangoose           |  0.00919% | 9      |  2.103% | 4      |  1.262% | 
 | 121  | Aggron-Mega        |  0.00899% | 7      |  1.636% | 5      |  1.577% | 
 | 122  | Cofagrigus         |  0.00899% | 4      |  0.935% | 2      |  0.631% | 
 | 123  | Lapras             |  0.00899% | 10     |  2.336% | 9      |  2.839% | 
 | 124  | Vikavolt           |  0.00899% | 1      |  0.234% | 1      |  0.315% | 
 | 125  | Onix               |  0.00899% | 1      |  0.234% | 0      |  0.000% | 
 | 126  | Starmie            |  0.00223% | 18     |  4.206% | 11     |  3.470% | 
 | 127  | Gardevoir          |  0.00216% | 14     |  3.271% | 9      |  2.839% | 
 | 128  | Dugtrio            |  0.00202% | 7      |  1.636% | 5      |  1.577% | 
 | 129  | Hippowdon          |  0.00185% | 3      |  0.701% | 3      |  0.946% | 
 | 130  | Amoonguss          |  0.00185% | 2      |  0.467% | 2      |  0.631% | 
 | 131  | Slowking           |  0.00185% | 14     |  3.271% | 12     |  3.785% | 
 | 132  | Cobalion           |  0.00185% | 1      |  0.234% | 0      |  0.000% | 
 | 133  | Skarmory           |  0.00070% | 13     |  3.037% | 12     |  3.785% | 
 | 134  | Chansey            |  0.00070% | 3      |  0.701% | 3      |  0.946% | 
 | 135  | Audino-Mega        |  0.00070% | 5      |  1.168% | 4      |  1.262% | 
 | 136  | Shiinotic          |  0.00070% | 15     |  3.505% | 12     |  3.785% | 
 | 137  | Gothitelle         |  0.00070% | 1      |  0.234% | 1      |  0.315% | 
 | 138  | Donphan            |  0.00055% | 3      |  0.701% | 3      |  0.946% | 
 | 139  | Tropius            |  0.00044% | 6      |  1.402% | 5      |  1.577% | 
 | 140  | Blissey            |  0.00044% | 7      |  1.636% | 5      |  1.577% | 
 | 141  | Houndoom           |  0.00044% | 1      |  0.234% | 1      |  0.315% | 
 | 142  | Kommo-o            |  0.00020% | 2      |  0.467% | 1      |  0.315% | 
 | 143  | Lucario            |  0.00020% | 4      |  0.935% | 4      |  1.262% | 
 | 144  | Reuniclus          |  0.00020% | 2      |  0.467% | 0      |  0.000% | 
 | 145  | Carracosta         |  0.00019% | 6      |  1.402% | 6      |  1.893% | 
 | 146  | Mudsdale           |  0.00019% | 4      |  0.935% | 4      |  1.262% | 
 | 147  | Porygon2           |  0.00019% | 7      |  1.636% | 5      |  1.577% | 
 | 148  | Glaceon            |  0.00014% | 6      |  1.402% | 2      |  0.631% | 
 | 149  | Crobat             |  0.00012% | 18     |  4.206% | 13     |  4.101% | 
 | 150  | Goodra             |  0.00012% | 17     |  3.972% | 6      |  1.893% | 
 | 151  | Absol              |  0.00009% | 15     |  3.505% | 8      |  2.524% | 
 | 152  | Lycanroc           |  0.00009% | 14     |  3.271% | 11     |  3.470% | 
 | 153  | Victreebel         |  0.00009% | 9      |  2.103% | 8      |  2.524% | 
 | 154  | Espeon             |  0.00008% | 4      |  0.935% | 4      |  1.262% | 
 | 155  | Gardevoir-Mega     |  0.00007% | 22     |  5.140% | 18     |  5.678% | 
 | 156  | Azumarill          |  0.00006% | 21     |  4.907% | 16     |  5.047% | 
 | 157  | Xurkitree          |  0.00006% | 3      |  0.701% | 2      |  0.631% | 
 | 158  | Hitmonlee          |  0.00002% | 10     |  2.336% | 8      |  2.524% | 
 | 159  | Silvally-Dragon    |  0.00002% | 4      |  0.935% | 3      |  0.946% | 
 | 160  | Masquerain         |  0.00002% | 5      |  1.168% | 4      |  1.262% | 
 | 161  | Pinsir             |  0.00002% | 4      |  0.935% | 2      |  0.631% | 
 | 162  | Aerodactyl-Mega    |  0.00002% | 6      |  1.402% | 6      |  1.893% | 
 | 163  | Geodude            |  0.00002% | 2      |  0.467% | 2      |  0.631% | 
 | 164  | Riolu              |  0.00002% | 6      |  1.402% | 6      |  1.893% | 
 | 165  | Mandibuzz          |  0.00001% | 3      |  0.701% | 0      |  0.000% | 
 | 166  | Spinda             |  0.00001% | 3      |  0.701% | 3      |  0.946% | 
 | 167  | Glalie-Mega        |  0.00001% | 5      |  1.168% | 4      |  1.262% | 
 | 168  | Dodrio             |  0.00001% | 5      |  1.168% | 3      |  0.946% | 
 | 169  | Solrock            |  0.00001% | 3      |  0.701% | 1      |  0.315% | 
 | 170  | Arbok              |  0.00001% | 6      |  1.402% | 5      |  1.577% | 
 | 171  | Comfey             |  0.00001% | 12     |  2.804% | 4      |  1.262% | 
 | 172  | Malamar            |  0.00001% | 3      |  0.701% | 3      |  0.946% | 
 | 173  | Medicham           |  0.00001% | 6      |  1.402% | 3      |  0.946% | 
 | 174  | Blastoise          |  0.00001% | 16     |  3.738% | 14     |  4.416% | 
 | 175  | Venusaur           |  0.00000% | 8      |  1.869% | 8      |  2.524% | 
 | 176  | Gengar             |  0.00000% | 25     |  5.841% | 16     |  5.047% | 
 | 177  | Charizard          |  0.00000% | 9      |  2.103% | 8      |  2.524% | 
 | 178  | Vivillon           |  0.00000% | 12     |  2.804% | 5      |  1.577% | 
 | 179  | Stunfisk           |  0.00000% | 4      |  0.935% | 4      |  1.262% | 
 | 180  | Lumineon           |  0.00000% | 6      |  1.402% | 4      |  1.262% | 
 | 181  | Sawsbuck           |  0.00000% | 3      |  0.701% | 0      |  0.000% | 
 | 182  | Bruxish            |  0.00000% | 5      |  1.168% | 4      |  1.262% | 
 | 183  | Cryogonal          |  0.00000% | 5      |  1.168% | 5      |  1.577% | 
 | 184  | Charizard-Mega-X   |  0.00000% | 23     |  5.374% | 17     |  5.363% | 
 | 185  | Venusaur-Mega      |  0.00000% | 3      |  0.701% | 3      |  0.946% | 
 | 186  | Garchomp-Mega      |  0.00000% | 4      |  0.935% | 4      |  1.262% | 
 | 187  | Froslass           |  0.00000% | 10     |  2.336% | 8      |  2.524% | 
 | 188  | Mamoswine          |  0.00000% | 2      |  0.467% | 2      |  0.631% | 
 | 189  | Scizor             |  0.00000% | 5      |  1.168% | 5      |  1.577% | 
 | 190  | Altaria-Mega       |  0.00000% | 3      |  0.701% | 2      |  0.631% | 
 | 191  | Gyarados           |  0.00000% | 12     |  2.804% | 10     |  3.155% | 
 | 192  | Ninetales-Alola    |  0.00000% | 6      |  1.402% | 6      |  1.893% | 
 | 193  | Houndoom-Mega      |  0.00000% | 1      |  0.234% | 1      |  0.315% | 
 | 194  | Doublade           |  0.00000% | 4      |  0.935% | 2      |  0.631% | 
 | 195  | Kecleon            |  0.00000% | 4      |  0.935% | 1      |  0.315% | 
 | 196  | Hakamo-o           |  0.00000% | 4      |  0.935% | 2      |  0.631% | 
 | 197  | Klang              |  0.00000% | 4      |  0.935% | 2      |  0.631% | 
 | 198  | Dunsparce          |  0.00000% | 5      |  1.168% | 4      |  1.262% | 
 | 199  | Mr. Mime           |  0.00000% | 6      |  1.402% | 3      |  0.946% | 
 | 200  | Spiritomb          |  0.00000% | 2      |  0.467% | 1      |  0.315% | 
 | 201  | Beheeyem           |  0.00000% | 2      |  0.467% | 2      |  0.631% | 
 | 202  | Golurk             |  0.00000% | 10     |  2.336% | 8      |  2.524% | 
 | 203  | Porygon-Z          |  0.00000% | 1      |  0.234% | 1      |  0.315% | 
 | 204  | Volcarona          |  0.00000% | 8      |  1.869% | 7      |  2.208% | 
 | 205  | Roserade           |  0.00000% | 4      |  0.935% | 3      |  0.946% | 
 | 206  | Kadabra            |  0.00000% | 3      |  0.701% | 2      |  0.631% | 
 | 207  | Liepard            |  0.00000% | 1      |  0.234% | 1      |  0.315% | 
 | 208  | Muk-Alola          |  0.00000% | 4      |  0.935% | 4      |  1.262% | 
 | 209  | Snorlax            |  0.00000% | 4      |  0.935% | 3      |  0.946% | 
 | 210  | Swanna             |  0.00000% | 10     |  2.336% | 6      |  1.893% | 
 | 211  | Poliwrath          |  0.00000% | 1      |  0.234% | 1      |  0.315% | 
 | 212  | Machamp            |  0.00000% | 2      |  0.467% | 1      |  0.315% | 
 | 213  | Abomasnow-Mega     |  0.00000% | 6      |  1.402% | 6      |  1.893% | 
 | 214  | Florges            |  0.00000% | 4      |  0.935% | 2      |  0.631% | 
 | 215  | Cresselia          |  0.00000% | 1      |  0.234% | 1      |  0.315% | 
 | 216  | Aurorus            |  0.00000% | 1      |  0.234% | 0      |  0.000% | 
 | 217  | Alakazam-Mega      |  0.00000% | 12     |  2.804% | 7      |  2.208% | 
 | 218  | Tangela            |  0.00000% | 2      |  0.467% | 2      |  0.631% | 
 | 219  | Diggersby          |  0.00000% | 1      |  0.234% | 1      |  0.315% | 
 | 220  | Magearna           |  0.00000% | 4      |  0.935% | 2      |  0.631% | 
 | 221  | Exeggutor-Alola    |  0.00000% | 1      |  0.234% | 1      |  0.315% | 
 | 222  | Komala             |  0.00000% | 4      |  0.935% | 2      |  0.631% | 
 | 223  | Persian-Alola      |  0.00000% | 6      |  1.402% | 5      |  1.577% | 
 | 224  | Milotic            |  0.00000% | 14     |  3.271% | 12     |  3.785% | 
 | 225  | Aerodactyl         |  0.00000% | 2      |  0.467% | 2      |  0.631% | 
 | 226  | Dhelmise           |  0.00000% | 1      |  0.234% | 0      |  0.000% | 
 | 227  | Latias             |  0.00000% | 5      |  1.168% | 1      |  0.315% | 
 | 228  | Rampardos          |  0.00000% | 6      |  1.402% | 5      |  1.577% | 
 | 229  | Mantine            |  0.00000% | 2      |  0.467% | 2      |  0.631% | 
 | 230  | Nidoqueen          |  0.00000% | 5      |  1.168% | 5      |  1.577% | 
 | 231  | Cinccino           |  0.00000% | 13     |  3.037% | 10     |  3.155% | 
 | 232  | Gallade-Mega       |  0.00000% | 6      |  1.402% | 4      |  1.262% | 
 | 233  | Tangrowth          |  0.00000% | 5      |  1.168% | 4      |  1.262% | 
 | 234  | Zoroark            |  0.00000% | 3      |  0.701% | 3      |  0.946% | 
 | 235  | Yanmega            |  0.00000% | 10     |  2.336% | 7      |  2.208% | 
 | 236  | Leafeon            |  0.00000% | 1      |  0.234% | 0      |  0.000% | 
 | 237  | Slowbro            |  0.00000% | 2      |  0.467% | 1      |  0.315% | 
 | 238  | Serperior          |  0.00000% | 3      |  0.701% | 3      |  0.946% | 
 | 239  | Celebi             |  0.00000% | 12     |  2.804% | 10     |  3.155% | 
 | 240  | Ampharos           |  0.00000% | 3      |  0.701% | 3      |  0.946% | 
 | 241  | Hitmontop          |  0.00000% | 12     |  2.804% | 12     |  3.785% | 
 | 242  | Golem              |  0.00000% | 1      |  0.234% | 1      |  0.315% | 
 | 243  | Pikachu-Alola      |  0.00000% | 4      |  0.935% | 3      |  0.946% | 
 | 244  | Pangoro            |  0.00000% | 2      |  0.467% | 1      |  0.315% | 
 | 245  | Scolipede          |  0.00000% | 1      |  0.234% | 1      |  0.315% | 
 | 246  | Kangaskhan         |  0.00000% | 2      |  0.467% | 1      |  0.315% | 
 | 247  | Togekiss           |  0.00000% | 4      |  0.935% | 4      |  1.262% | 
 | 248  | Gyarados-Mega      |  0.00000% | 15     |  3.505% | 11     |  3.470% | 
 | 249  | Thundurus-Therian  |  0.00000% | 1      |  0.234% | 1      |  0.315% | 
 | 250  | Raikou             |  0.00000% | 4      |  0.935% | 3      |  0.946% | 
 | 251  | Salamence          |  0.00000% | 5      |  1.168% | 5      |  1.577% | 
 | 252  | Greninja           |  0.00000% | 11     |  2.570% | 8      |  2.524% | 
 | 253  | Mawile-Mega        |  0.00000% | 4      |  0.935% | 4      |  1.262% | 
 | 254  | Arcanine           |  0.00000% | 6      |  1.402% | 5      |  1.577% | 
 | 255  | Raticate           |  0.00000% | 1      |  0.234% | 1      |  0.315% | 
 | 256  | Trubbish           |  0.00000% | 10     |  2.336% | 10     |  3.155% | 
 | 257  | Pawniard           |  0.00000% | 10     |  2.336% | 8      |  2.524% | 
 | 258  | Tentacruel         |  0.00000% | 2      |  0.467% | 1      |  0.315% | 
 | 259  | Celesteela         |  0.00000% | 9      |  2.103% | 5      |  1.577% | 
 | 260  | Ampharos-Mega      |  0.00000% | 3      |  0.701% | 3      |  0.946% | 
 | 261  | Primeape           |  0.00000% | 1      |  0.234% | 1      |  0.315% | 
 | 262  | Relicanth          |  0.00000% | 1      |  0.234% | 1      |  0.315% | 
 | 263  | Exploud            |  0.00000% | 2      |  0.467% | 1      |  0.315% | 
 | 264  | Sylveon            |  0.00000% | 11     |  2.570% | 9      |  2.839% | 
 | 265  | Misdreavus         |  0.00000% | 1      |  0.234% | 1      |  0.315% | 
 | 266  | Charizard-Mega-Y   |  0.00000% | 11     |  2.570% | 9      |  2.839% | 
 | 267  | Togedemaru         |  0.00000% | 10     |  2.336% | 7      |  2.208% | 
 | 268  | Virizion           |  0.00000% | 4      |  0.935% | 4      |  1.262% | 
 | 269  | Type: Null         |  0.00000% | 1      |  0.234% | 1      |  0.315% | 
 | 270  | Uxie               |  0.00000% | 3      |  0.701% | 2      |  0.631% | 
 | 271  | Scizor-Mega        |  0.00000% | 4      |  0.935% | 2      |  0.631% | 
 | 272  | Pelipper           |  0.00000% | 2      |  0.467% | 2      |  0.631% | 
 | 273  | Talonflame         |  0.00000% | 3      |  0.701% | 3      |  0.946% | 
 | 274  | Raticate-Alola     |  0.00000% | 1      |  0.234% | 1      |  0.315% | 
 | 275  | Honchkrow          |  0.00000% | 5      |  1.168% | 1      |  0.315% | 
 | 276  | Alakazam           |  0.00000% | 2      |  0.467% | 2      |  0.631% | 
 | 277  | Wailord            |  0.00000% | 1      |  0.234% | 0      |  0.000% | 
 | 278  | Dragonite          |  0.00000% | 3      |  0.701% | 3      |  0.946% | 
 | 279  | Darmanitan         |  0.00000% | 5      |  1.168% | 3      |  0.946% | 
 | 280  | Gastrodon          |  0.00000% | 4      |  0.935% | 1      |  0.315% | 
 | 281  | Turtonator         |  0.00000% | 8      |  1.869% | 6      |  1.893% | 
 | 282  | Vaporeon           |  0.00000% | 2      |  0.467% | 2      |  0.631% | 
 | 283  | Chandelure         |  0.00000% | 4      |  0.935% | 3      |  0.946% | 
 | 284  | Watchog            |  0.00000% | 1      |  0.234% | 1      |  0.315% | 
 | 285  | Latias-Mega        |  0.00000% | 1      |  0.234% | 1      |  0.315% | 
 | 286  | Probopass          |  0.00000% | 1      |  0.234% | 1      |  0.315% | 
 | 287  | Conkeldurr         |  0.00000% | 1      |  0.234% | 0      |  0.000% | 
 | 288  | Drifblim           |  0.00000% | 1      |  0.234% | 1      |  0.315% | 
 | 289  | Hypno              |  0.00000% | 2      |  0.467% | 2      |  0.631% | 
 | 290  | Lopunny            |  0.00000% | 1      |  0.234% | 1      |  0.315% | 
 | 291  | Sandslash-Alola    |  0.00000% | 2      |  0.467% | 2      |  0.631% | 
 | 292  | Slowbro-Mega       |  0.00000% | 1      |  0.234% | 1      |  0.315% | 
 | 293  | Drampa             |  0.00000% | 2      |  0.467% | 1      |  0.315% | 
 | 294  | Aromatisse         |  0.00000% | 11     |  2.570% | 7      |  2.208% | 
 | 295  | Furret             |  0.00000% | 2      |  0.467% | 2      |  0.631% | 
 | 296  | Lanturn            |  0.00000% | 4      |  0.935% | 2      |  0.631% | 
 | 297  | Bibarel            |  0.00000% | 1      |  0.234% | 1      |  0.315% | 
 | 298  | Furfrou            |  0.00000% | 3      |  0.701% | 0      |  0.000% | 
 | 299  | Lickilicky         |  0.00000% | 5      |  1.168% | 3      |  0.946% | 
 | 300  | Fearow             |  0.00000% | 1      |  0.234% | 1      |  0.315% | 
 | 301  | Swampert           |  0.00000% | 5      |  1.168% | 4      |  1.262% | 
 | 302  | Tapu Fini          |  0.00000% | 6      |  1.402% | 6      |  1.893% | 
 | 303  | Primarina          |  0.00000% | 7      |  1.636% | 7      |  2.208% | 
 | 304  | Articuno           |  0.00000% | 1      |  0.234% | 1      |  0.315% | 
 | 305  | Kyurem-Black       |  0.00000% | 11     |  2.570% | 5      |  1.577% | 
 | 306  | Scyther            |  0.00000% | 27     |  6.308% | 25     |  7.886% | 
 | 307  | Magnezone          |  0.00000% | 7      |  1.636% | 7      |  2.208% | 
 | 308  | Rotom-Fan          |  0.00000% | 1      |  0.234% | 0      |  0.000% | 
 | 309  | Sceptile-Mega      |  0.00000% | 6      |  1.402% | 6      |  1.893% | 
 | 310  | Hydreigon          |  0.00000% | 1      |  0.234% | 1      |  0.315% | 
 | 311  | Volcanion          |  0.00000% | 4      |  0.935% | 3      |  0.946% | 
 | 312  | Mismagius          |  0.00000% | 1      |  0.234% | 0      |  0.000% | 
 | 313  | Larvitar           |  0.00000% | 10     |  2.336% | 7      |  2.208% | 
 | 314  | Hoopa              |  0.00000% | 2      |  0.467% | 1      |  0.315% | 
 | 315  | Diancie-Mega       |  0.00000% | 1      |  0.234% | 1      |  0.315% | 
 | 316  | Mimikyu-Totem      |  0.00000% | 3      |  0.701% | 2      |  0.631% | 
 | 317  | Clefable           |  0.00000% | 9      |  2.103% | 4      |  1.262% | 
 | 318  | Minior             |  0.00000% | 7      |  1.636% | 4      |  1.262% | 
 | 319  | Jellicent          |  0.00000% | 4      |  0.935% | 2      |  0.631% | 
 | 320  | Qwilfish           |  0.00000% | 3      |  0.701% | 1      |  0.315% | 
 | 321  | Zygarde-10%        |  0.00000% | 4      |  0.935% | 3      |  0.946% | 
 | 322  | Latios             |  0.00000% | 1      |  0.234% | 1      |  0.315% | 
 | 323  | Latios-Mega        |  0.00000% | 1      |  0.234% | 1      |  0.315% | 
 | 324  | Clawitzer          |  0.00000% | 3      |  0.701% | 3      |  0.946% | 
 | 325  | Throh              |  0.00000% | 5      |  1.168% | 2      |  0.631% | 
 | 326  | Lycanroc-Dusk      |  0.00000% | 1      |  0.234% | 1      |  0.315% | 
 | 327  | Cradily            |  0.00000% | 3      |  0.701% | 2      |  0.631% | 
 | 328  | Quilava            |  0.00000% | 1      |  0.234% | 1      |  0.315% | 
 | 329  | Clefairy           |  0.00000% | 1      |  0.234% | 1      |  0.315% | 
 | 330  | Kingler            |  0.00000% | 3      |  0.701% | 3      |  0.946% | 
 | 331  | Claydol            |  0.00000% | 2      |  0.467% | 1      |  0.315% | 
 | 332  | Manaphy            |  0.00000% | 3      |  0.701% | 3      |  0.946% | 
 | 333  | Ninetales          |  0.00000% | 1      |  0.234% | 1      |  0.315% | 
 | 334  | Zeraora            |  0.00000% | 4      |  0.935% | 2      |  0.631% | 
 | 335  | Skuntank           |  0.00000% | 1      |  0.234% | 1      |  0.315% | 
 | 336  | Gumshoos           |  0.00000% | 1      |  0.234% | 1      |  0.315% | 
 | 337  | Zapdos             |  0.00000% | 3      |  0.701% | 1      |  0.315% | 
 + ---- + ------------------ + --------- + ------ + ------- + ------ + ------- + 
