 Total battles: 9969
 Avg. weight/team: 0.537
 + ---- + ------------------ + --------- + ------ + ------- + ------ + ------- + 
 | Rank | Pokemon            | Usage %   | Raw    | %       | Real   | %       | 
 + ---- + ------------------ + --------- + ------ + ------- + ------ + ------- + 
 | 1    | Incineroar         | 58.08946% | 10294  | 51.630% | 5265   | 58.249% | 
 | 2    | Tapu Koko          | 40.47765% | 7100   | 35.610% | 2752   | 30.446% | 
 | 3    | Groudon-Primal     | 34.98434% | 6347   | 31.834% | 4457   | 49.309% | 
 | 4    | Kyogre-Primal      | 34.00972% | 6252   | 31.357% | 4104   | 45.404% | 
 | 5    | Rayquaza-Mega      | 29.43131% | 5208   | 26.121% | 3126   | 34.584% | 
 | 6    | Xerneas            | 27.06078% | 4890   | 24.526% | 2927   | 32.382% | 
 | 7    | Tapu Fini          | 18.64183% | 3395   | 17.028% | 1444   | 15.976% | 
 | 8    | Salamence-Mega     | 18.21263% | 3377   | 16.938% | 1315   | 14.548% | 
 | 9    | Celesteela         | 15.38922% | 2511   | 12.594% | 878    |  9.714% | 
 | 10   | Lunala             | 13.59581% | 2328   | 11.676% | 1391   | 15.389% | 
 | 11   | Tapu Lele          | 12.72033% | 2404   | 12.057% | 1040   | 11.506% | 
 | 12   | Nihilego           | 12.71353% | 1840   |  9.229% | 475    |  5.255% | 
 | 13   | Gengar-Mega        | 11.40988% | 2203   | 11.049% | 693    |  7.667% | 
 | 14   | Amoonguss          | 10.74901% | 2007   | 10.066% | 576    |  6.373% | 
 | 15   | Landorus-Therian   | 10.40760% | 2096   | 10.513% | 847    |  9.371% | 
 | 16   | Stakataka          |  9.04093% | 1661   |  8.331% | 582    |  6.439% | 
 | 17   | Yveltal            |  8.84677% | 1597   |  8.010% | 793    |  8.773% | 
 | 18   | Smeargle           |  8.31444% | 1648   |  8.266% | 492    |  5.443% | 
 | 19   | Necrozma-Dawn-Wings |  8.30691% | 1502   |  7.533% | 785    |  8.685% | 
 | 20   | Kangaskhan-Mega    |  8.15983% | 1333   |  6.686% | 541    |  5.985% | 
 | 21   | Kartana            |  8.06551% | 1636   |  8.205% | 583    |  6.450% | 
 | 22   | Metagross-Mega     |  6.75298% | 1304   |  6.540% | 467    |  5.167% | 
 | 23   | Ferrothorn         |  5.90086% | 1261   |  6.325% | 487    |  5.388% | 
 | 24   | Tornadus           |  5.39956% | 903    |  4.529% | 296    |  3.275% | 
 | 25   | Whimsicott         |  5.07219% | 915    |  4.589% | 381    |  4.215% | 
 | 26   | Crobat             |  4.59563% | 853    |  4.278% | 256    |  2.832% | 
 | 27   | Shedinja           |  3.66952% | 732    |  3.671% | 279    |  3.087% | 
 | 28   | Togedemaru         |  3.48229% | 582    |  2.919% | 201    |  2.224% | 
 | 29   | Snorlax            |  3.37830% | 856    |  4.293% | 403    |  4.459% | 
 | 30   | Gastrodon          |  3.29368% | 656    |  3.290% | 263    |  2.910% | 
 | 31   | Lucario-Mega       |  3.26896% | 611    |  3.064% | 216    |  2.390% | 
 | 32   | Aegislash          |  2.59751% | 589    |  2.954% | 209    |  2.312% | 
 | 33   | Venusaur           |  2.52642% | 439    |  2.202% | 109    |  1.206% | 
 | 34   | Bronzong           |  2.50627% | 510    |  2.558% | 180    |  1.991% | 
 | 35   | Ditto              |  2.49561% | 500    |  2.508% | 214    |  2.368% | 
 | 36   | Necrozma-Dusk-Mane |  2.47503% | 616    |  3.090% | 345    |  3.817% | 
 | 37   | Clefairy           |  2.14807% | 522    |  2.618% | 100    |  1.106% | 
 | 38   | Murkrow            |  2.02928% | 355    |  1.781% | 99     |  1.095% | 
 | 39   | Hitmontop          |  2.02537% | 468    |  2.347% | 197    |  2.179% | 
 | 40   | Garchomp           |  2.01166% | 566    |  2.839% | 195    |  2.157% | 
 | 41   | Gardevoir-Mega     |  1.99672% | 431    |  2.162% | 267    |  2.954% | 
 | 42   | Oranguru           |  1.85416% | 398    |  1.996% | 133    |  1.471% | 
 | 43   | Eevee              |  1.84645% | 434    |  2.177% | 375    |  4.149% | 
 | 44   | Mimikyu            |  1.81372% | 445    |  2.232% | 201    |  2.224% | 
 | 45   | Lilligant          |  1.80298% | 304    |  1.525% | 44     |  0.487% | 
 | 46   | Pinsir-Mega        |  1.71416% | 267    |  1.339% | 19     |  0.210% | 
 | 47   | Cresselia          |  1.70551% | 450    |  2.257% | 157    |  1.737% | 
 | 48   | Latias-Mega        |  1.70169% | 389    |  1.951% | 246    |  2.722% | 
 | 49   | Krookodile         |  1.68203% | 376    |  1.886% | 250    |  2.766% | 
 | 50   | Gengar             |  1.62691% | 289    |  1.449% | 109    |  1.206% | 
 | 51   | Espeon             |  1.61068% | 374    |  1.876% | 42     |  0.465% | 
 | 52   | Mandibuzz          |  1.52125% | 234    |  1.174% | 86     |  0.951% | 
 | 53   | Ludicolo           |  1.49530% | 327    |  1.640% | 106    |  1.173% | 
 | 54   | Naganadel          |  1.49194% | 310    |  1.555% | 123    |  1.361% | 
 | 55   | Raichu             |  1.46748% | 369    |  1.851% | 153    |  1.693% | 
 | 56   | Tapu Bulu          |  1.41453% | 443    |  2.222% | 178    |  1.969% | 
 | 57   | Greninja           |  1.38071% | 397    |  1.991% | 193    |  2.135% | 
 | 58   | Mewtwo-Mega-Y      |  1.38042% | 321    |  1.610% | 169    |  1.870% | 
 | 59   | Kyogre             |  1.37882% | 280    |  1.404% | 150    |  1.660% | 
 | 60   | Accelgor           |  1.36933% | 289    |  1.449% | 86     |  0.951% | 
 | 61   | Rotom-Wash         |  1.27529% | 346    |  1.735% | 117    |  1.294% | 
 | 62   | Tsareena           |  1.27389% | 242    |  1.214% | 104    |  1.151% | 
 | 63   | Arcanine           |  1.24556% | 354    |  1.776% | 166    |  1.837% | 
 | 64   | Togekiss           |  1.24283% | 329    |  1.650% | 175    |  1.936% | 
 | 65   | Lopunny-Mega       |  1.15781% | 238    |  1.194% | 123    |  1.361% | 
 | 66   | Staraptor          |  1.13380% | 190    |  0.953% | 75     |  0.830% | 
 | 67   | Tyranitar          |  1.12112% | 284    |  1.424% | 83     |  0.918% | 
 | 68   | Ho-Oh              |  1.10461% | 200    |  1.003% | 110    |  1.217% | 
 | 69   | Talonflame         |  1.07924% | 158    |  0.792% | 41     |  0.454% | 
 | 70   | Terrakion          |  1.07844% | 148    |  0.742% | 24     |  0.266% | 
 | 71   | Ribombee           |  1.06461% | 187    |  0.938% | 50     |  0.553% | 
 | 72   | Mawile-Mega        |  1.06384% | 229    |  1.149% | 121    |  1.339% | 
 | 73   | Charizard-Mega-Y   |  1.05196% | 309    |  1.550% | 122    |  1.350% | 
 | 74   | Suicune            |  1.00223% | 215    |  1.078% | 83     |  0.918% | 
 | 75   | Kommo-o            |  0.98625% | 266    |  1.334% | 122    |  1.350% | 
 | 76   | Blaziken-Mega      |  0.97351% | 249    |  1.249% | 114    |  1.261% | 
 | 77   | Zekrom             |  0.96989% | 172    |  0.863% | 72     |  0.797% | 
 | 78   | Jumpluff           |  0.96856% | 185    |  0.928% | 85     |  0.940% | 
 | 79   | Medicham-Mega      |  0.96549% | 202    |  1.013% | 64     |  0.708% | 
 | 80   | Solgaleo           |  0.96074% | 302    |  1.515% | 161    |  1.781% | 
 | 81   | Dialga             |  0.96071% | 212    |  1.063% | 117    |  1.294% | 
 | 82   | Hydreigon          |  0.90786% | 197    |  0.988% | 61     |  0.675% | 
 | 83   | Landorus           |  0.90496% | 175    |  0.878% | 64     |  0.708% | 
 | 84   | Ninetales-Alola    |  0.88372% | 225    |  1.128% | 82     |  0.907% | 
 | 85   | Umbreon            |  0.87500% | 236    |  1.184% | 87     |  0.963% | 
 | 86   | Palkia             |  0.87479% | 256    |  1.284% | 125    |  1.383% | 
 | 87   | Chandelure         |  0.82900% | 157    |  0.787% | 62     |  0.686% | 
 | 88   | Swampert-Mega      |  0.82882% | 225    |  1.128% | 115    |  1.272% | 
 | 89   | Venusaur-Mega      |  0.82498% | 210    |  1.053% | 80     |  0.885% | 
 | 90   | Charizard-Mega-X   |  0.80282% | 249    |  1.249% | 138    |  1.527% | 
 | 91   | Metagross          |  0.77340% | 193    |  0.968% | 83     |  0.918% | 
 | 92   | Azumarill          |  0.75433% | 219    |  1.098% | 97     |  1.073% | 
 | 93   | Milotic            |  0.75122% | 254    |  1.274% | 118    |  1.305% | 
 | 94   | Heatran            |  0.74847% | 227    |  1.139% | 93     |  1.029% | 
 | 95   | Mewtwo             |  0.74455% | 226    |  1.134% | 84     |  0.929% | 
 | 96   | Serperior          |  0.74269% | 164    |  0.823% | 84     |  0.929% | 
 | 97   | Breloom            |  0.73570% | 166    |  0.833% | 61     |  0.675% | 
 | 98   | Pelipper           |  0.70655% | 242    |  1.214% | 115    |  1.272% | 
 | 99   | Manectric-Mega     |  0.70475% | 160    |  0.802% | 71     |  0.785% | 
 | 100  | Giratina           |  0.70316% | 245    |  1.229% | 138    |  1.527% | 
 | 101  | Clefable           |  0.68358% | 192    |  0.963% | 85     |  0.940% | 
 | 102  | Pheromosa          |  0.67795% | 181    |  0.908% | 75     |  0.830% | 
 | 103  | Gyarados-Mega      |  0.67128% | 168    |  0.843% | 50     |  0.553% | 
 | 104  | Zygarde            |  0.65853% | 198    |  0.993% | 100    |  1.106% | 
 | 105  | Regigigas          |  0.65670% | 133    |  0.667% | 47     |  0.520% | 
 | 106  | Muk-Alola          |  0.65571% | 174    |  0.873% | 75     |  0.830% | 
 | 107  | Marowak-Alola      |  0.63519% | 155    |  0.777% | 72     |  0.797% | 
 | 108  | Toxapex            |  0.61622% | 196    |  0.983% | 82     |  0.907% | 
 | 109  | Blacephalon        |  0.61274% | 117    |  0.587% | 31     |  0.343% | 
 | 110  | Blaziken           |  0.60375% | 213    |  1.068% | 76     |  0.841% | 
 | 111  | Lucario            |  0.59914% | 178    |  0.893% | 67     |  0.741% | 
 | 112  | Gyarados           |  0.59619% | 164    |  0.823% | 79     |  0.874% | 
 | 113  | Aerodactyl-Mega    |  0.59270% | 114    |  0.572% | 43     |  0.476% | 
 | 114  | Zapdos             |  0.59262% | 158    |  0.792% | 55     |  0.608% | 
 | 115  | Empoleon           |  0.59140% | 120    |  0.602% | 39     |  0.431% | 
 | 116  | Skarmory           |  0.58632% | 98     |  0.492% | 34     |  0.376% | 
 | 117  | Lugia              |  0.57807% | 170    |  0.853% | 78     |  0.863% | 
 | 118  | Mewtwo-Mega-X      |  0.57732% | 143    |  0.717% | 76     |  0.841% | 
 | 119  | Excadrill          |  0.56318% | 167    |  0.838% | 90     |  0.996% | 
 | 120  | Chansey            |  0.55856% | 154    |  0.772% | 52     |  0.575% | 
 | 121  | Kyurem-White       |  0.55311% | 128    |  0.642% | 63     |  0.697% | 
 | 122  | Meowstic           |  0.53886% | 140    |  0.702% | 78     |  0.863% | 
 | 123  | Alakazam-Mega      |  0.53769% | 145    |  0.727% | 66     |  0.730% | 
 | 124  | Cloyster           |  0.51817% | 157    |  0.787% | 74     |  0.819% | 
 | 125  | Persian-Alola      |  0.50620% | 104    |  0.522% | 71     |  0.785% | 
 | 126  | Toxicroak          |  0.50607% | 78     |  0.391% | 31     |  0.343% | 
 | 127  | Bisharp            |  0.50021% | 142    |  0.712% | 63     |  0.697% | 
 | 128  | Magnezone          |  0.49632% | 126    |  0.632% | 46     |  0.509% | 
 | 129  | Lapras             |  0.49186% | 127    |  0.637% | 46     |  0.509% | 
 | 130  | Giratina-Origin    |  0.48729% | 137    |  0.687% | 59     |  0.653% | 
 | 131  | Salamence          |  0.48659% | 126    |  0.632% | 52     |  0.575% | 
 | 132  | Sceptile-Mega      |  0.48623% | 167    |  0.838% | 80     |  0.885% | 
 | 133  | Braviary           |  0.47778% | 109    |  0.547% | 37     |  0.409% | 
 | 134  | Thundurus-Therian  |  0.47276% | 115    |  0.577% | 43     |  0.476% | 
 | 135  | Weavile            |  0.46861% | 152    |  0.762% | 52     |  0.575% | 
 | 136  | Sableye            |  0.46176% | 101    |  0.507% | 58     |  0.642% | 
 | 137  | Scizor-Mega        |  0.45958% | 123    |  0.617% | 46     |  0.509% | 
 | 138  | Raichu-Alola       |  0.44631% | 126    |  0.632% | 50     |  0.553% | 
 | 139  | Garchomp-Mega      |  0.43833% | 131    |  0.657% | 75     |  0.830% | 
 | 140  | Kingdra            |  0.42358% | 161    |  0.808% | 75     |  0.830% | 
 | 141  | Infernape          |  0.40726% | 132    |  0.662% | 55     |  0.608% | 
 | 142  | Tyranitar-Mega     |  0.40352% | 126    |  0.632% | 68     |  0.752% | 
 | 143  | Aerodactyl         |  0.40339% | 95     |  0.476% | 31     |  0.343% | 
 | 144  | Porygon2           |  0.39896% | 94     |  0.471% | 28     |  0.310% | 
 | 145  | Gothitelle         |  0.39544% | 103    |  0.517% | 49     |  0.542% | 
 | 146  | Haxorus            |  0.39385% | 97     |  0.487% | 40     |  0.443% | 
 | 147  | Charizard          |  0.39286% | 109    |  0.547% | 46     |  0.509% | 
 | 148  | Decidueye          |  0.38016% | 125    |  0.627% | 66     |  0.730% | 
 | 149  | Dragonite          |  0.36406% | 99     |  0.497% | 44     |  0.487% | 
 | 150  | Volcarona          |  0.34824% | 102    |  0.512% | 52     |  0.575% | 
 | 151  | Shuckle            |  0.34773% | 96     |  0.481% | 34     |  0.376% | 
 | 152  | Hariyama           |  0.34656% | 142    |  0.712% | 70     |  0.774% | 
 | 153  | Xurkitree          |  0.34583% | 86     |  0.431% | 37     |  0.409% | 
 | 154  | Banette-Mega       |  0.33351% | 95     |  0.476% | 37     |  0.409% | 
 | 155  | Articuno           |  0.33098% | 84     |  0.421% | 41     |  0.454% | 
 | 156  | Xatu               |  0.33097% | 66     |  0.331% | 32     |  0.354% | 
 | 157  | Primarina          |  0.32018% | 83     |  0.416% | 32     |  0.354% | 
 | 158  | Sableye-Mega       |  0.31729% | 87     |  0.436% | 37     |  0.409% | 
 | 159  | Claydol            |  0.31155% | 89     |  0.446% | 37     |  0.409% | 
 | 160  | Ninetales          |  0.31039% | 58     |  0.291% | 16     |  0.177% | 
 | 161  | Pikachu            |  0.30560% | 107    |  0.537% | 39     |  0.431% | 
 | 162  | Shiinotic          |  0.30384% | 96     |  0.481% | 43     |  0.476% | 
 | 163  | Gliscor            |  0.30162% | 102    |  0.512% | 49     |  0.542% | 
 | 164  | Groudon            |  0.29572% | 76     |  0.381% | 34     |  0.376% | 
 | 165  | Rotom-Heat         |  0.29406% | 71     |  0.356% | 24     |  0.266% | 
 | 166  | Drifblim           |  0.29354% | 65     |  0.326% | 25     |  0.277% | 
 | 167  | Linoone            |  0.29345% | 96     |  0.481% | 37     |  0.409% | 
 | 168  | Blissey            |  0.29307% | 81     |  0.406% | 28     |  0.310% | 
 | 169  | Ambipom            |  0.29122% | 89     |  0.446% | 50     |  0.553% | 
 | 170  | Scrafty            |  0.28896% | 97     |  0.487% | 35     |  0.387% | 
 | 171  | Walrein            |  0.28414% | 62     |  0.311% | 23     |  0.254% | 
 | 172  | Camerupt-Mega      |  0.28359% | 79     |  0.396% | 33     |  0.365% | 
 | 173  | Heracross-Mega     |  0.27435% | 87     |  0.436% | 46     |  0.509% | 
 | 174  | Comfey             |  0.27299% | 146    |  0.732% | 60     |  0.664% | 
 | 175  | Flygon             |  0.26525% | 73     |  0.366% | 21     |  0.232% | 
 | 176  | Goodra             |  0.26416% | 94     |  0.471% | 39     |  0.431% | 
 | 177  | Sylveon            |  0.26137% | 75     |  0.376% | 40     |  0.443% | 
 | 178  | Beedrill-Mega      |  0.25619% | 66     |  0.331% | 28     |  0.310% | 
 | 179  | Audino-Mega        |  0.25323% | 68     |  0.341% | 35     |  0.387% | 
 | 180  | Latios             |  0.24840% | 48     |  0.241% | 12     |  0.133% | 
 | 181  | Aggron             |  0.24758% | 79     |  0.396% | 47     |  0.520% | 
 | 182  | Glalie             |  0.24458% | 61     |  0.306% | 31     |  0.343% | 
 | 183  | Raikou             |  0.24315% | 39     |  0.196% | 12     |  0.133% | 
 | 184  | Togetic            |  0.24222% | 63     |  0.316% | 33     |  0.365% | 
 | 185  | Salazzle           |  0.23697% | 64     |  0.321% | 24     |  0.266% | 
 | 186  | Wigglytuff         |  0.23333% | 27     |  0.135% | 11     |  0.122% | 
 | 187  | Typhlosion         |  0.23332% | 60     |  0.301% | 14     |  0.155% | 
 | 188  | Alakazam           |  0.23177% | 62     |  0.311% | 25     |  0.277% | 
 | 189  | Reshiram           |  0.23125% | 77     |  0.386% | 37     |  0.409% | 
 | 190  | Klefki             |  0.23122% | 86     |  0.431% | 22     |  0.243% | 
 | 191  | Porygon-Z          |  0.23079% | 67     |  0.336% | 28     |  0.310% | 
 | 192  | Golduck            |  0.23052% | 115    |  0.577% | 56     |  0.620% | 
 | 193  | Galvantula         |  0.22976% | 72     |  0.361% | 18     |  0.199% | 
 | 194  | Altaria-Mega       |  0.22616% | 108    |  0.542% | 53     |  0.586% | 
 | 195  | Musharna           |  0.22282% | 58     |  0.291% | 15     |  0.166% | 
 | 196  | Gardevoir          |  0.21900% | 103    |  0.517% | 33     |  0.365% | 
 | 197  | Darmanitan         |  0.20821% | 58     |  0.291% | 19     |  0.210% | 
 | 198  | Blastoise-Mega     |  0.20668% | 87     |  0.436% | 40     |  0.443% | 
 | 199  | Hawlucha           |  0.20425% | 66     |  0.331% | 29     |  0.321% | 
 | 200  | Uxie               |  0.20307% | 49     |  0.246% | 47     |  0.520% | 
 | 201  | Aggron-Mega        |  0.20165% | 60     |  0.301% | 31     |  0.343% | 
 | 202  | Sceptile           |  0.20032% | 61     |  0.306% | 22     |  0.243% | 
 | 203  | Kyurem-Black       |  0.19922% | 69     |  0.346% | 31     |  0.343% | 
 | 204  | Mienshao           |  0.19789% | 83     |  0.416% | 48     |  0.531% | 
 | 205  | Conkeldurr         |  0.19703% | 51     |  0.256% | 19     |  0.210% | 
 | 206  | Thundurus          |  0.19582% | 43     |  0.216% | 16     |  0.177% | 
 | 207  | Buzzwole           |  0.19257% | 64     |  0.321% | 35     |  0.387% | 
 | 208  | Chesnaught         |  0.19166% | 51     |  0.256% | 39     |  0.431% | 
 | 209  | Poliwrath          |  0.19158% | 59     |  0.296% | 34     |  0.376% | 
 | 210  | Araquanid          |  0.18992% | 54     |  0.271% | 17     |  0.188% | 
 | 211  | Gallade-Mega       |  0.18910% | 51     |  0.256% | 26     |  0.288% | 
 | 212  | Slowbro            |  0.18807% | 54     |  0.271% | 27     |  0.299% | 
 | 213  | Vaporeon           |  0.18806% | 57     |  0.286% | 26     |  0.288% | 
 | 214  | Luxray             |  0.18600% | 49     |  0.246% | 19     |  0.210% | 
 | 215  | Golisopod          |  0.18051% | 44     |  0.221% | 21     |  0.232% | 
 | 216  | Abomasnow-Mega     |  0.18048% | 47     |  0.236% | 23     |  0.254% | 
 | 217  | Clawitzer          |  0.18027% | 65     |  0.326% | 44     |  0.487% | 
 | 218  | Politoed           |  0.17921% | 48     |  0.241% | 20     |  0.221% | 
 | 219  | Swoobat            |  0.17906% | 44     |  0.221% | 26     |  0.288% | 
 | 220  | Liepard            |  0.17736% | 39     |  0.196% | 17     |  0.188% | 
 | 221  | Ampharos-Mega      |  0.17692% | 47     |  0.236% | 21     |  0.232% | 
 | 222  | Mudsdale           |  0.17591% | 50     |  0.251% | 21     |  0.232% | 
 | 223  | Malamar            |  0.17563% | 60     |  0.301% | 20     |  0.221% | 
 | 224  | Scizor             |  0.17504% | 42     |  0.211% | 17     |  0.188% | 
 | 225  | Golem-Alola        |  0.17201% | 38     |  0.191% | 24     |  0.266% | 
 | 226  | Electivire         |  0.16857% | 62     |  0.311% | 32     |  0.354% | 
 | 227  | Florges            |  0.16837% | 68     |  0.341% | 36     |  0.398% | 
 | 228  | Crabominable       |  0.16832% | 60     |  0.301% | 28     |  0.310% | 
 | 229  | Jynx               |  0.16524% | 45     |  0.226% | 15     |  0.166% | 
 | 230  | Cofagrigus         |  0.16485% | 39     |  0.196% | 13     |  0.144% | 
 | 231  | Houndoom-Mega      |  0.16325% | 41     |  0.206% | 14     |  0.155% | 
 | 232  | Dragalge           |  0.16311% | 53     |  0.266% | 26     |  0.288% | 
 | 233  | Bruxish            |  0.16302% | 34     |  0.171% | 16     |  0.177% | 
 | 234  | Oricorio-Pom-Pom   |  0.16034% | 46     |  0.231% | 10     |  0.111% | 
 | 235  | Blastoise          |  0.15925% | 43     |  0.216% | 11     |  0.122% | 
 | 236  | Slaking            |  0.15860% | 48     |  0.241% | 18     |  0.199% | 
 | 237  | Nidoking           |  0.15832% | 43     |  0.216% | 14     |  0.155% | 
 | 238  | Primeape           |  0.15652% | 37     |  0.186% | 13     |  0.144% | 
 | 239  | Lanturn            |  0.15631% | 37     |  0.186% | 15     |  0.166% | 
 | 240  | Machamp            |  0.15576% | 60     |  0.301% | 17     |  0.188% | 
 | 241  | Swampert           |  0.15419% | 50     |  0.251% | 26     |  0.288% | 
 | 242  | Pachirisu          |  0.15259% | 63     |  0.316% | 38     |  0.420% | 
 | 243  | Manectric          |  0.15141% | 46     |  0.231% | 13     |  0.144% | 
 | 244  | Delphox            |  0.15106% | 38     |  0.191% | 15     |  0.166% | 
 | 245  | Dusclops           |  0.14901% | 36     |  0.181% | 15     |  0.166% | 
 | 246  | Absol              |  0.14852% | 47     |  0.236% | 17     |  0.188% | 
 | 247  | Guzzlord           |  0.14513% | 51     |  0.256% | 23     |  0.254% | 
 | 248  | Absol-Mega         |  0.14206% | 54     |  0.271% | 13     |  0.144% | 
 | 249  | Carbink            |  0.14122% | 36     |  0.181% | 17     |  0.188% | 
 | 250  | Scolipede          |  0.13921% | 42     |  0.211% | 14     |  0.155% | 
 | 251  | Sawk               |  0.13671% | 17     |  0.085% | 4      |  0.044% | 
 | 252  | Cradily            |  0.13638% | 52     |  0.261% | 22     |  0.243% | 
 | 253  | Cacturne           |  0.13506% | 32     |  0.160% | 6      |  0.066% | 
 | 254  | Escavalier         |  0.13288% | 27     |  0.135% | 10     |  0.111% | 
 | 255  | Zygarde-10%        |  0.13092% | 36     |  0.181% | 15     |  0.166% | 
 | 256  | Drapion            |  0.12838% | 38     |  0.191% | 12     |  0.133% | 
 | 257  | Forretress         |  0.12835% | 39     |  0.196% | 18     |  0.199% | 
 | 258  | Bewear             |  0.12667% | 32     |  0.160% | 18     |  0.199% | 
 | 259  | Sharpedo-Mega      |  0.12633% | 27     |  0.135% | 13     |  0.144% | 
 | 260  | Lycanroc-Dusk      |  0.12478% | 38     |  0.191% | 7      |  0.077% | 
 | 261  | Pidgeot-Mega       |  0.12279% | 26     |  0.130% | 15     |  0.166% | 
 | 262  | Passimian          |  0.12243% | 28     |  0.140% | 9      |  0.100% | 
 | 263  | Vanilluxe          |  0.12150% | 32     |  0.160% | 18     |  0.199% | 
 | 264  | Tauros             |  0.12131% | 27     |  0.135% | 11     |  0.122% | 
 | 265  | Gigalith           |  0.12061% | 30     |  0.150% | 10     |  0.111% | 
 | 266  | Cherrim            |  0.12025% | 36     |  0.181% | 12     |  0.133% | 
 | 267  | Parasect           |  0.11797% | 45     |  0.226% | 10     |  0.111% | 
 | 268  | Zoroark            |  0.11737% | 37     |  0.186% | 18     |  0.199% | 
 | 269  | Exeggutor-Alola    |  0.11599% | 24     |  0.120% | 4      |  0.044% | 
 | 270  | Torkoal            |  0.11564% | 40     |  0.201% | 17     |  0.188% | 
 | 271  | Kecleon            |  0.11525% | 27     |  0.135% | 10     |  0.111% | 
 | 272  | Ninjask            |  0.11514% | 54     |  0.271% | 16     |  0.177% | 
 | 273  | Swellow            |  0.11377% | 33     |  0.166% | 19     |  0.210% | 
 | 274  | Mamoswine          |  0.11117% | 31     |  0.155% | 11     |  0.122% | 
 | 275  | Aurorus            |  0.11084% | 31     |  0.155% | 12     |  0.133% | 
 | 276  | Sandslash-Alola    |  0.11019% | 28     |  0.140% | 17     |  0.188% | 
 | 277  | Camerupt           |  0.10935% | 25     |  0.125% | 1      |  0.011% | 
 | 278  | Froslass           |  0.10536% | 32     |  0.160% | 14     |  0.155% | 
 | 279  | Roserade           |  0.10268% | 27     |  0.135% | 15     |  0.166% | 
 | 280  | Tornadus-Therian   |  0.10093% | 42     |  0.211% | 17     |  0.188% | 
 | 281  | Jellicent          |  0.10090% | 24     |  0.120% | 10     |  0.111% | 
 | 282  | Seismitoad         |  0.10068% | 37     |  0.186% | 15     |  0.166% | 
 | 283  | Misdreavus         |  0.09949% | 22     |  0.110% | 3      |  0.033% | 
 | 284  | Feraligatr         |  0.09823% | 32     |  0.160% | 13     |  0.144% | 
 | 285  | Granbull           |  0.09635% | 41     |  0.206% | 17     |  0.188% | 
 | 286  | Carracosta         |  0.09607% | 29     |  0.145% | 12     |  0.133% | 
 | 287  | Rhyperior          |  0.09226% | 28     |  0.140% | 16     |  0.177% | 
 | 288  | Glalie-Mega        |  0.09199% | 25     |  0.125% | 8      |  0.089% | 
 | 289  | Heliolisk          |  0.09149% | 43     |  0.216% | 22     |  0.243% | 
 | 290  | Torterra           |  0.09070% | 33     |  0.166% | 10     |  0.111% | 
 | 291  | Jolteon            |  0.09059% | 26     |  0.130% | 14     |  0.155% | 
 | 292  | Mismagius          |  0.08885% | 23     |  0.115% | 21     |  0.232% | 
 | 293  | Doublade           |  0.08867% | 31     |  0.155% | 20     |  0.221% | 
 | 294  | Leafeon            |  0.08799% | 21     |  0.105% | 5      |  0.055% | 
 | 295  | Turtonator         |  0.08794% | 18     |  0.090% | 5      |  0.055% | 
 | 296  | Vikavolt           |  0.08792% | 21     |  0.105% | 8      |  0.089% | 
 | 297  | Aromatisse         |  0.08763% | 24     |  0.120% | 6      |  0.066% | 
 | 298  | Audino             |  0.08666% | 25     |  0.125% | 19     |  0.210% | 
 | 299  | Mr. Mime           |  0.08412% | 30     |  0.150% | 13     |  0.144% | 
 | 300  | Slurpuff           |  0.08349% | 18     |  0.090% | 9      |  0.100% | 
 | 301  | Rotom-Mow          |  0.08262% | 16     |  0.080% | 4      |  0.044% | 
 | 302  | Klinklang          |  0.08253% | 26     |  0.130% | 8      |  0.089% | 
 | 303  | Tentacruel         |  0.08164% | 26     |  0.130% | 10     |  0.111% | 
 | 304  | Lycanroc-Midnight  |  0.07964% | 24     |  0.120% | 10     |  0.111% | 
 | 305  | Drampa             |  0.07918% | 26     |  0.130% | 7      |  0.077% | 
 | 306  | Medicham           |  0.07636% | 23     |  0.115% | 4      |  0.044% | 
 | 307  | Beartic            |  0.07574% | 22     |  0.110% | 8      |  0.089% | 
 | 308  | Zebstrika          |  0.07543% | 28     |  0.140% | 11     |  0.122% | 
 | 309  | Eelektross         |  0.07523% | 20     |  0.100% | 9      |  0.100% | 
 | 310  | Cinccino           |  0.07514% | 19     |  0.095% | 9      |  0.100% | 
 | 311  | Farfetch'd         |  0.07495% | 17     |  0.085% | 3      |  0.033% | 
 | 312  | Abomasnow          |  0.07425% | 23     |  0.115% | 8      |  0.089% | 
 | 313  | Tangrowth          |  0.07235% | 18     |  0.090% | 3      |  0.033% | 
 | 314  | Wobbuffet          |  0.07162% | 22     |  0.110% | 8      |  0.089% | 
 | 315  | Trevenant          |  0.07102% | 18     |  0.090% | 6      |  0.066% | 
 | 316  | Butterfree         |  0.07083% | 21     |  0.105% | 9      |  0.100% | 
 | 317  | Exeggutor          |  0.06985% | 15     |  0.075% | 7      |  0.077% | 
 | 318  | Gallade            |  0.06961% | 34     |  0.171% | 14     |  0.155% | 
 | 319  | Noivern            |  0.06950% | 20     |  0.100% | 9      |  0.100% | 
 | 320  | Dedenne            |  0.06942% | 13     |  0.065% | 5      |  0.055% | 
 | 321  | Delcatty           |  0.06872% | 24     |  0.120% | 8      |  0.089% | 
 | 322  | Hypno              |  0.06811% | 14     |  0.070% | 3      |  0.033% | 
 | 323  | Floatzel           |  0.06803% | 31     |  0.155% | 17     |  0.188% | 
 | 324  | Dhelmise           |  0.06608% | 17     |  0.085% | 4      |  0.044% | 
 | 325  | Vileplume          |  0.06601% | 18     |  0.090% | 10     |  0.111% | 
 | 326  | Donphan            |  0.06568% | 18     |  0.090% | 13     |  0.144% | 
 | 327  | Altaria            |  0.06549% | 21     |  0.105% | 15     |  0.166% | 
 | 328  | Azelf              |  0.06516% | 26     |  0.130% | 9      |  0.100% | 
 | 329  | Octillery          |  0.06422% | 27     |  0.135% | 14     |  0.155% | 
 | 330  | Lycanroc           |  0.06404% | 17     |  0.085% | 5      |  0.055% | 
 | 331  | Archeops           |  0.06378% | 20     |  0.100% | 10     |  0.111% | 
 | 332  | Oricorio-Sensu     |  0.06013% | 20     |  0.100% | 4      |  0.044% | 
 | 333  | Emolga             |  0.05883% | 17     |  0.085% | 10     |  0.111% | 
 | 334  | Silvally           |  0.05873% | 15     |  0.075% | 8      |  0.089% | 
 | 335  | Venomoth           |  0.05844% | 7      |  0.035% | 1      |  0.011% | 
 | 336  | Latias             |  0.05816% | 17     |  0.085% | 6      |  0.066% | 
 | 337  | Necrozma           |  0.05814% | 12     |  0.060% | 6      |  0.066% | 
 | 338  | Litten             |  0.05796% | 15     |  0.075% | 2      |  0.022% | 
 | 339  | Rayquaza           |  0.05738% | 16     |  0.080% | 9      |  0.100% | 
 | 340  | Cobalion           |  0.05713% | 26     |  0.130% | 9      |  0.100% | 
 | 341  | Hippowdon          |  0.05643% | 19     |  0.095% | 7      |  0.077% | 
 | 342  | Ariados            |  0.05643% | 26     |  0.130% | 3      |  0.033% | 
 | 343  | Shiftry            |  0.05601% | 14     |  0.070% | 9      |  0.100% | 
 | 344  | Riolu              |  0.05596% | 14     |  0.070% | 11     |  0.122% | 
 | 345  | Avalugg            |  0.05409% | 15     |  0.075% | 6      |  0.066% | 
 | 346  | Lickilicky         |  0.05365% | 9      |  0.045% | 4      |  0.044% | 
 | 347  | Sigilyph           |  0.04938% | 16     |  0.080% | 14     |  0.155% | 
 | 348  | Pangoro            |  0.04841% | 17     |  0.085% | 11     |  0.122% | 
 | 349  | Tyrantrum          |  0.04837% | 13     |  0.065% | 8      |  0.089% | 
 | 350  | Aron               |  0.04759% | 11     |  0.055% | 1      |  0.011% | 
 | 351  | Victreebel         |  0.04754% | 13     |  0.065% | 3      |  0.033% | 
 | 352  | Vespiquen          |  0.04737% | 15     |  0.075% | 11     |  0.122% | 
 | 353  | Plusle             |  0.04700% | 15     |  0.075% | 6      |  0.066% | 
 | 354  | Barbaracle         |  0.04606% | 12     |  0.060% | 7      |  0.077% | 
 | 355  | Weezing            |  0.04524% | 10     |  0.050% | 2      |  0.022% | 
 | 356  | Minun              |  0.04388% | 14     |  0.070% | 8      |  0.089% | 
 | 357  | Hitmonchan         |  0.04370% | 20     |  0.100% | 11     |  0.122% | 
 | 358  | Stantler           |  0.04368% | 17     |  0.085% | 7      |  0.077% | 
 | 359  | Dugtrio-Alola      |  0.04356% | 17     |  0.085% | 5      |  0.055% | 
 | 360  | Golurk             |  0.04342% | 11     |  0.055% | 4      |  0.044% | 
 | 361  | Alomomola          |  0.04202% | 9      |  0.045% | 1      |  0.011% | 
 | 362  | Flareon            |  0.04167% | 12     |  0.060% | 7      |  0.077% | 
 | 363  | Lumineon           |  0.04144% | 15     |  0.075% | 3      |  0.033% | 
 | 364  | Purugly            |  0.04133% | 30     |  0.150% | 9      |  0.100% | 
 | 365  | Spiritomb          |  0.03979% | 14     |  0.070% | 6      |  0.066% | 
 | 366  | Dusknoir           |  0.03955% | 14     |  0.070% | 8      |  0.089% | 
 | 367  | Electrode          |  0.03945% | 10     |  0.050% | 1      |  0.011% | 
 | 368  | Golbat             |  0.03918% | 7      |  0.035% | 2      |  0.022% | 
 | 369  | Dugtrio            |  0.03906% | 12     |  0.060% | 4      |  0.044% | 
 | 370  | Arbok              |  0.03813% | 10     |  0.050% | 7      |  0.077% | 
 | 371  | Omastar            |  0.03772% | 13     |  0.065% | 12     |  0.133% | 
 | 372  | Furret             |  0.03692% | 12     |  0.060% | 5      |  0.055% | 
 | 373  | Meganium           |  0.03672% | 8      |  0.040% | 2      |  0.022% | 
 | 374  | Lopunny            |  0.03619% | 28     |  0.140% | 17     |  0.188% | 
 | 375  | Latios-Mega        |  0.03607% | 14     |  0.070% | 3      |  0.033% | 
 | 376  | Regice             |  0.03604% | 10     |  0.050% | 5      |  0.055% | 
 | 377  | Samurott           |  0.03548% | 11     |  0.055% | 4      |  0.044% | 
 | 378  | Steelix            |  0.03536% | 8      |  0.040% | 4      |  0.044% | 
 | 379  | Armaldo            |  0.03525% | 11     |  0.055% | 7      |  0.077% | 
 | 380  | Girafarig          |  0.03470% | 17     |  0.085% | 6      |  0.066% | 
 | 381  | Bastiodon          |  0.03433% | 10     |  0.050% | 4      |  0.044% | 
 | 382  | Silvally-Steel     |  0.03404% | 10     |  0.050% | 3      |  0.033% | 
 | 383  | Steelix-Mega       |  0.03296% | 10     |  0.050% | 4      |  0.044% | 
 | 384  | Crawdaunt          |  0.03293% | 15     |  0.075% | 8      |  0.089% | 
 | 385  | Oricorio           |  0.03281% | 11     |  0.055% | 9      |  0.100% | 
 | 386  | Type: Null         |  0.03281% | 11     |  0.055% | 7      |  0.077% | 
 | 387  | Rattata            |  0.03280% | 9      |  0.045% | 3      |  0.033% | 
 | 388  | Wailord            |  0.03251% | 10     |  0.050% | 3      |  0.033% | 
 | 389  | Hitmonlee          |  0.03238% | 10     |  0.050% | 4      |  0.044% | 
 | 390  | Slowbro-Mega       |  0.03233% | 11     |  0.055% | 6      |  0.066% | 
 | 391  | Stoutland          |  0.03226% | 9      |  0.045% | 6      |  0.066% | 
 | 392  | Houndoom           |  0.03179% | 9      |  0.045% | 2      |  0.022% | 
 | 393  | Gourgeist-Small    |  0.03149% | 7      |  0.035% | 4      |  0.044% | 
 | 394  | Lurantis           |  0.03079% | 10     |  0.050% | 5      |  0.055% | 
 | 395  | Castform           |  0.03056% | 7      |  0.035% | 5      |  0.055% | 
 | 396  | Wishiwashi         |  0.02951% | 9      |  0.045% | 5      |  0.055% | 
 | 397  | Reuniclus          |  0.02898% | 10     |  0.050% | 1      |  0.011% | 
 | 398  | Golem              |  0.02893% | 8      |  0.040% | 2      |  0.022% | 
 | 399  | Furfrou            |  0.02838% | 7      |  0.035% | 2      |  0.022% | 
 | 400  | Spinda             |  0.02804% | 9      |  0.045% | 6      |  0.066% | 
 | 401  | Miltank            |  0.02798% | 12     |  0.060% | 5      |  0.055% | 
 | 402  | Sharpedo           |  0.02792% | 10     |  0.050% | 4      |  0.044% | 
 | 403  | Boldore            |  0.02778% | 8      |  0.040% | 1      |  0.011% | 
 | 404  | Quagsire           |  0.02749% | 8      |  0.040% | 5      |  0.055% | 
 | 405  | Jigglypuff         |  0.02736% | 12     |  0.060% | 6      |  0.066% | 
 | 406  | Entei              |  0.02721% | 7      |  0.035% | 2      |  0.022% | 
 | 407  | Moltres            |  0.02713% | 8      |  0.040% | 4      |  0.044% | 
 | 408  | Rampardos          |  0.02660% | 9      |  0.045% | 3      |  0.033% | 
 | 409  | Starmie            |  0.02597% | 9      |  0.045% | 4      |  0.044% | 
 | 410  | Exploud            |  0.02563% | 5      |  0.025% | 4      |  0.044% | 
 | 411  | Gourgeist          |  0.02562% | 6      |  0.030% | 5      |  0.055% | 
 | 412  | Bellossom          |  0.02562% | 6      |  0.030% | 0      |  0.000% | 
 | 413  | Gogoat             |  0.02552% | 5      |  0.025% | 3      |  0.033% | 
 | 414  | Numel              |  0.02547% | 3      |  0.015% | 2      |  0.022% | 
 | 415  | Illumise           |  0.02537% | 6      |  0.030% | 4      |  0.044% | 
 | 416  | Honchkrow          |  0.02443% | 9      |  0.045% | 6      |  0.066% | 
 | 417  | Pyukumuku          |  0.02412% | 6      |  0.030% | 3      |  0.033% | 
 | 418  | Chatot             |  0.02385% | 10     |  0.050% | 6      |  0.066% | 
 | 419  | Garbodor           |  0.02339% | 7      |  0.035% | 3      |  0.033% | 
 | 420  | Magikarp           |  0.02323% | 6      |  0.030% | 1      |  0.011% | 
 | 421  | Bouffalant         |  0.02318% | 7      |  0.035% | 1      |  0.011% | 
 | 422  | Probopass          |  0.02264% | 7      |  0.035% | 2      |  0.022% | 
 | 423  | Braixen            |  0.02134% | 6      |  0.030% | 3      |  0.033% | 
 | 424  | Druddigon          |  0.02108% | 6      |  0.030% | 2      |  0.022% | 
 | 425  | Ursaring           |  0.02095% | 5      |  0.025% | 3      |  0.033% | 
 | 426  | Dartrix            |  0.02067% | 8      |  0.040% | 5      |  0.055% | 
 | 427  | Beedrill           |  0.02050% | 7      |  0.035% | 6      |  0.066% | 
 | 428  | Maractus           |  0.02037% | 6      |  0.030% | 2      |  0.022% | 
 | 429  | Torracat           |  0.01994% | 5      |  0.025% | 4      |  0.044% | 
 | 430  | Gorebyss           |  0.01976% | 5      |  0.025% | 1      |  0.011% | 
 | 431  | Rhydon             |  0.01976% | 5      |  0.025% | 1      |  0.011% | 
 | 432  | Mesprit            |  0.01966% | 8      |  0.040% | 2      |  0.022% | 
 | 433  | Beheeyem           |  0.01878% | 5      |  0.025% | 1      |  0.011% | 
 | 434  | Marowak            |  0.01848% | 6      |  0.030% | 2      |  0.022% | 
 | 435  | Silvally-Dark      |  0.01813% | 6      |  0.030% | 2      |  0.022% | 
 | 436  | Regirock           |  0.01787% | 6      |  0.030% | 4      |  0.044% | 
 | 437  | Unfezant           |  0.01761% | 8      |  0.040% | 1      |  0.011% | 
 | 438  | Tropius            |  0.01749% | 6      |  0.030% | 2      |  0.022% | 
 | 439  | Silvally-Ice       |  0.01700% | 6      |  0.030% | 2      |  0.022% | 
 | 440  | Registeel          |  0.01696% | 4      |  0.020% | 3      |  0.033% | 
 | 441  | Kangaskhan         |  0.01678% | 15     |  0.075% | 8      |  0.089% | 
 | 442  | Silvally-Dragon    |  0.01654% | 4      |  0.020% | 1      |  0.011% | 
 | 443  | Raticate           |  0.01628% | 4      |  0.020% | 0      |  0.000% | 
 | 444  | Slowking           |  0.01600% | 5      |  0.025% | 0      |  0.000% | 
 | 445  | Palossand          |  0.01599% | 6      |  0.030% | 4      |  0.044% | 
 | 446  | Rowlet             |  0.01596% | 6      |  0.030% | 3      |  0.033% | 
 | 447  | Cryogonal          |  0.01590% | 4      |  0.020% | 2      |  0.022% | 
 | 448  | Silvally-Water     |  0.01552% | 4      |  0.020% | 0      |  0.000% | 
 | 449  | Vanillite          |  0.01544% | 4      |  0.020% | 0      |  0.000% | 
 | 450  | Magmortar          |  0.01540% | 4      |  0.020% | 2      |  0.022% | 
 | 451  | Minior             |  0.01511% | 4      |  0.020% | 3      |  0.033% | 
 | 452  | Cottonee           |  0.01476% | 3      |  0.015% | 0      |  0.000% | 
 | 453  | Toucannon          |  0.01456% | 15     |  0.075% | 2      |  0.022% | 
 | 454  | Muk                |  0.01453% | 6      |  0.030% | 3      |  0.033% | 
 | 455  | Glaceon            |  0.01439% | 4      |  0.020% | 1      |  0.011% | 
 | 456  | Sudowoodo          |  0.01389% | 4      |  0.020% | 1      |  0.011% | 
 | 457  | Magcargo           |  0.01389% | 4      |  0.020% | 3      |  0.033% | 
 | 458  | Chimecho           |  0.01389% | 4      |  0.020% | 2      |  0.022% | 
 | 459  | Kommo-o-Totem      |  0.01343% | 5      |  0.025% | 2      |  0.022% | 
 | 460  | Dewgong            |  0.01335% | 5      |  0.025% | 2      |  0.022% | 
 | 461  | Popplio            |  0.01334% | 5      |  0.025% | 4      |  0.044% | 
 | 462  | Durant             |  0.01331% | 5      |  0.025% | 2      |  0.022% | 
 | 463  | Mantine            |  0.01327% | 3      |  0.015% | 2      |  0.022% | 
 | 464  | Zorua              |  0.01309% | 6      |  0.030% | 0      |  0.000% | 
 | 465  | Poipole            |  0.01291% | 4      |  0.020% | 2      |  0.022% | 
 | 466  | Scyther            |  0.01281% | 3      |  0.015% | 2      |  0.022% | 
 | 467  | Crustle            |  0.01281% | 3      |  0.015% | 1      |  0.011% | 
 | 468  | Volbeat            |  0.01281% | 3      |  0.015% | 0      |  0.000% | 
 | 469  | Banette            |  0.01267% | 4      |  0.020% | 1      |  0.011% | 
 | 470  | Cubchoo            |  0.01234% | 2      |  0.010% | 0      |  0.000% | 
 | 471  | Pikachu-Hoenn      |  0.01232% | 4      |  0.020% | 2      |  0.022% | 
 | 472  | Diggersby          |  0.01192% | 4      |  0.020% | 1      |  0.011% | 
 | 473  | Kyurem             |  0.01191% | 3      |  0.015% | 0      |  0.000% | 
 | 474  | Heracross          |  0.01163% | 4      |  0.020% | 2      |  0.022% | 
 | 475  | Magnemite          |  0.01157% | 3      |  0.015% | 2      |  0.022% | 
 | 476  | Gourgeist-Super    |  0.01155% | 5      |  0.025% | 3      |  0.033% | 
 | 477  | Pidgeot            |  0.01154% | 3      |  0.015% | 0      |  0.000% | 
 | 478  | Combusken          |  0.01135% | 2      |  0.010% | 0      |  0.000% | 
 | 479  | Mightyena          |  0.01093% | 6      |  0.030% | 2      |  0.022% | 
 | 480  | Ampharos           |  0.01056% | 3      |  0.015% | 2      |  0.022% | 
 | 481  | Zangoose           |  0.01032% | 2      |  0.010% | 2      |  0.022% | 
 | 482  | Beautifly          |  0.01001% | 2      |  0.010% | 1      |  0.011% | 
 | 483  | Sunflora           |  0.00991% | 4      |  0.020% | 2      |  0.022% | 
 | 484  | Corsola            |  0.00967% | 5      |  0.025% | 4      |  0.044% | 
 | 485  | Basculin           |  0.00934% | 2      |  0.010% | 0      |  0.000% | 
 | 486  | Kabutops           |  0.00934% | 2      |  0.010% | 0      |  0.000% | 
 | 487  | Heatmor            |  0.00934% | 2      |  0.010% | 1      |  0.011% | 
 | 488  | Grotle             |  0.00934% | 2      |  0.010% | 0      |  0.000% | 
 | 489  | Silvally-Ground    |  0.00934% | 2      |  0.010% | 0      |  0.000% | 
 | 490  | Happiny            |  0.00934% | 2      |  0.010% | 0      |  0.000% | 
 | 491  | Monferno           |  0.00934% | 2      |  0.010% | 0      |  0.000% | 
 | 492  | Munna              |  0.00892% | 2      |  0.010% | 0      |  0.000% | 
 | 493  | Meditite           |  0.00891% | 3      |  0.015% | 2      |  0.022% | 
 | 494  | Dunsparce          |  0.00864% | 3      |  0.015% | 1      |  0.011% | 
 | 495  | Fennekin           |  0.00850% | 3      |  0.015% | 1      |  0.011% | 
 | 496  | Bulbasaur          |  0.00847% | 3      |  0.015% | 1      |  0.011% | 
 | 497  | Squirtle           |  0.00847% | 3      |  0.015% | 1      |  0.011% | 
 | 498  | Lileep             |  0.00820% | 2      |  0.010% | 0      |  0.000% | 
 | 499  | Froakie            |  0.00815% | 4      |  0.020% | 1      |  0.011% | 
 | 500  | Voltorb            |  0.00798% | 4      |  0.020% | 2      |  0.022% | 
 | 501  | Fletchinder        |  0.00798% | 7      |  0.035% | 2      |  0.022% | 
 | 502  | Silvally-Ghost     |  0.00751% | 2      |  0.010% | 1      |  0.011% | 
 | 503  | Meowth             |  0.00737% | 3      |  0.015% | 3      |  0.033% | 
 | 504  | Komala             |  0.00730% | 7      |  0.035% | 2      |  0.022% | 
 | 505  | Virizion           |  0.00713% | 5      |  0.025% | 2      |  0.022% | 
 | 506  | Metapod            |  0.00695% | 2      |  0.010% | 0      |  0.000% | 
 | 507  | Caterpie           |  0.00695% | 2      |  0.010% | 2      |  0.022% | 
 | 508  | Masquerain         |  0.00695% | 2      |  0.010% | 1      |  0.011% | 
 | 509  | Rotom-Frost        |  0.00695% | 2      |  0.010% | 1      |  0.011% | 
 | 510  | Yanmega            |  0.00695% | 2      |  0.010% | 0      |  0.000% | 
 | 511  | Pinsir             |  0.00695% | 2      |  0.010% | 2      |  0.022% | 
 | 512  | Geodude            |  0.00695% | 2      |  0.010% | 1      |  0.011% | 
 | 513  | Mimikyu-Totem      |  0.00695% | 2      |  0.010% | 1      |  0.011% | 
 | 514  | Kingler            |  0.00695% | 2      |  0.010% | 2      |  0.022% | 
 | 515  | Lunatone           |  0.00695% | 2      |  0.010% | 1      |  0.011% | 
 | 516  | Bidoof             |  0.00695% | 2      |  0.010% | 1      |  0.011% | 
 | 517  | Gumshoos           |  0.00695% | 2      |  0.010% | 2      |  0.022% | 
 | 518  | Ferroseed          |  0.00676% | 2      |  0.010% | 1      |  0.011% | 
 | 519  | Bibarel            |  0.00665% | 2      |  0.010% | 1      |  0.011% | 
 | 520  | Sandslash          |  0.00657% | 2      |  0.010% | 0      |  0.000% | 
 | 521  | Seviper            |  0.00657% | 2      |  0.010% | 1      |  0.011% | 
 | 522  | Vulpix-Alola       |  0.00649% | 4      |  0.020% | 3      |  0.033% | 
 | 523  | Delibird           |  0.00603% | 2      |  0.010% | 1      |  0.011% | 
 | 524  | Fearow             |  0.00597% | 2      |  0.010% | 2      |  0.022% | 
 | 525  | Oshawott           |  0.00597% | 2      |  0.010% | 1      |  0.011% | 
 | 526  | Chespin            |  0.00597% | 2      |  0.010% | 1      |  0.011% | 
 | 527  | Charjabug          |  0.00589% | 2      |  0.010% | 0      |  0.000% | 
 | 528  | Seaking            |  0.00589% | 2      |  0.010% | 1      |  0.011% | 
 | 529  | Swanna             |  0.00587% | 1      |  0.005% | 1      |  0.011% | 
 | 530  | Pikachu-Partner    |  0.00575% | 2      |  0.010% | 1      |  0.011% | 
 | 531  | Rapidash           |  0.00553% | 3      |  0.015% | 1      |  0.011% | 
 | 532  | Mantyke            |  0.00547% | 2      |  0.010% | 1      |  0.011% | 
 | 533  | Whiscash           |  0.00532% | 3      |  0.015% | 1      |  0.011% | 
 | 534  | Graveler-Alola     |  0.00524% | 1      |  0.005% | 1      |  0.011% | 
 | 535  | Buizel             |  0.00500% | 2      |  0.010% | 0      |  0.000% | 
 | 536  | Cacnea             |  0.00498% | 2      |  0.010% | 0      |  0.000% | 
 | 537  | Simipour           |  0.00490% | 1      |  0.005% | 0      |  0.000% | 
 | 538  | Clamperl           |  0.00470% | 4      |  0.020% | 2      |  0.022% | 
 | 539  | Silvally-Fairy     |  0.00458% | 3      |  0.015% | 0      |  0.000% | 
 | 540  | Rattata-Alola      |  0.00452% | 2      |  0.010% | 0      |  0.000% | 
 | 541  | Corphish           |  0.00427% | 3      |  0.015% | 1      |  0.011% | 
 | 542  | Sawsbuck           |  0.00350% | 2      |  0.010% | 2      |  0.022% | 
 | 543  | Mudkip             |  0.00349% | 1      |  0.005% | 0      |  0.000% | 
 | 544  | Duosion            |  0.00347% | 1      |  0.005% | 0      |  0.000% | 
 | 545  | Pawniard           |  0.00347% | 1      |  0.005% | 1      |  0.011% | 
 | 546  | Nosepass           |  0.00347% | 1      |  0.005% | 1      |  0.011% | 
 | 547  | Carnivine          |  0.00347% | 1      |  0.005% | 0      |  0.000% | 
 | 548  | Tangela            |  0.00347% | 1      |  0.005% | 1      |  0.011% | 
 | 549  | Mime Jr.           |  0.00347% | 1      |  0.005% | 0      |  0.000% | 
 | 550  | Dodrio             |  0.00347% | 1      |  0.005% | 0      |  0.000% | 
 | 551  | Woobat             |  0.00347% | 1      |  0.005% | 0      |  0.000% | 
 | 552  | Sandygast          |  0.00347% | 1      |  0.005% | 0      |  0.000% | 
 | 553  | Mudbray            |  0.00347% | 1      |  0.005% | 1      |  0.011% | 
 | 554  | Paras              |  0.00347% | 1      |  0.005% | 0      |  0.000% | 
 | 555  | Ralts              |  0.00347% | 1      |  0.005% | 1      |  0.011% | 
 | 556  | Duskull            |  0.00347% | 1      |  0.005% | 1      |  0.011% | 
 | 557  | Kakuna             |  0.00347% | 1      |  0.005% | 0      |  0.000% | 
 | 558  | Silvally-Electric  |  0.00347% | 1      |  0.005% | 0      |  0.000% | 
 | 559  | Emboar             |  0.00347% | 1      |  0.005% | 1      |  0.011% | 
 | 560  | Pineco             |  0.00347% | 1      |  0.005% | 0      |  0.000% | 
 | 561  | Slugma             |  0.00347% | 1      |  0.005% | 0      |  0.000% | 
 | 562  | Gastly             |  0.00347% | 1      |  0.005% | 1      |  0.011% | 
 | 563  | Gligar             |  0.00347% | 1      |  0.005% | 0      |  0.000% | 
 | 564  | Machoke            |  0.00347% | 1      |  0.005% | 1      |  0.011% | 
 | 565  | Gloom              |  0.00347% | 1      |  0.005% | 0      |  0.000% | 
 | 566  | Grovyle            |  0.00347% | 1      |  0.005% | 1      |  0.011% | 
 | 567  | Zigzagoon          |  0.00347% | 1      |  0.005% | 1      |  0.011% | 
 | 568  | Onix               |  0.00347% | 1      |  0.005% | 1      |  0.011% | 
 | 569  | Pikipek            |  0.00347% | 1      |  0.005% | 1      |  0.011% | 
 | 570  | Feebas             |  0.00347% | 1      |  0.005% | 1      |  0.011% | 
 | 571  | Trumbeak           |  0.00347% | 1      |  0.005% | 1      |  0.011% | 
 | 572  | Weedle             |  0.00347% | 1      |  0.005% | 1      |  0.011% | 
 | 573  | Drifloon           |  0.00346% | 1      |  0.005% | 1      |  0.011% | 
 | 574  | Krokorok           |  0.00346% | 1      |  0.005% | 0      |  0.000% | 
 | 575  | Electabuzz         |  0.00334% | 5      |  0.025% | 2      |  0.022% | 
 | 576  | Dewott             |  0.00323% | 1      |  0.005% | 1      |  0.011% | 
 | 577  | Scraggy            |  0.00317% | 1      |  0.005% | 0      |  0.000% | 
 | 578  | Persian            |  0.00313% | 2      |  0.010% | 0      |  0.000% | 
 | 579  | Vigoroth           |  0.00312% | 1      |  0.005% | 0      |  0.000% | 
 | 580  | Pikachu-Alola      |  0.00275% | 1      |  0.005% | 0      |  0.000% | 
 | 581  | Haunter            |  0.00251% | 6      |  0.030% | 2      |  0.022% | 
 | 582  | Vanillish          |  0.00225% | 1      |  0.005% | 1      |  0.011% | 
 | 583  | Nidorino           |  0.00225% | 1      |  0.005% | 1      |  0.011% | 
 | 584  | Beldum             |  0.00225% | 1      |  0.005% | 0      |  0.000% | 
 | 585  | Cosmoem            |  0.00225% | 1      |  0.005% | 0      |  0.000% | 
 | 586  | Magmar             |  0.00225% | 1      |  0.005% | 1      |  0.011% | 
 | 587  | Frogadier          |  0.00219% | 2      |  0.010% | 2      |  0.022% | 
 | 588  | Silvally-Poison    |  0.00132% | 1      |  0.005% | 1      |  0.011% | 
 | 589  | Gothorita          |  0.00109% | 1      |  0.005% | 0      |  0.000% | 
 | 590  | Noctowl            |  0.00093% | 2      |  0.010% | 0      |  0.000% | 
 | 591  | Herdier            |  0.00080% | 1      |  0.005% | 0      |  0.000% | 
 | 592  | Qwilfish           |  0.00079% | 1      |  0.005% | 0      |  0.000% | 
 | 593  | Quilava            |  0.00079% | 1      |  0.005% | 1      |  0.011% | 
 | 594  | Quilladin          |  0.00079% | 1      |  0.005% | 1      |  0.011% | 
 | 595  | Throh              |  0.00061% | 2      |  0.010% | 0      |  0.000% | 
 | 596  | Cosmog             |  0.00025% | 1      |  0.005% | 0      |  0.000% | 
 | 597  | Pichu              |  0.00012% | 1      |  0.005% | 0      |  0.000% | 
 + ---- + ------------------ + --------- + ------ + ------- + ------ + ------- + 
