 Total battles: 59226
 Avg. weight/team: 0.032
 + ---- + ------------------ + --------- + ------ + ------- + ------ + ------- + 
 | Rank | Pokemon            | Usage %   | Raw    | %       | Real   | %       | 
 + ---- + ------------------ + --------- + ------ + ------- + ------ + ------- + 
 | 1    | Incineroar         | 27.16804% | 11631  |  9.819% | 0      |  0.000% | 
 | 2    | Landorus-Therian   | 20.63098% | 10155  |  8.573% | 0      |  0.000% | 
 | 3    | Kommo-o            | 19.95371% | 5816   |  4.910% | 0      |  0.000% | 
 | 4    | Charizard-Mega-Y   | 19.73854% | 10963  |  9.255% | 0      |  0.000% | 
 | 5    | Pelipper           | 14.98854% | 6907   |  5.831% | 0      |  0.000% | 
 | 6    | Tapu Lele          | 14.45764% | 4998   |  4.219% | 0      |  0.000% | 
 | 7    | Swampert-Mega      | 13.77832% | 5592   |  4.721% | 0      |  0.000% | 
 | 8    | Tapu Fini          | 13.63480% | 6688   |  5.646% | 0      |  0.000% | 
 | 9    | Tapu Koko          | 11.56498% | 8663   |  7.314% | 0      |  0.000% | 
 | 10   | Ferrothorn         |  9.26883% | 8627   |  7.283% | 0      |  0.000% | 
 | 11   | Gastrodon          |  8.97965% | 7440   |  6.281% | 0      |  0.000% | 
 | 12   | Aegislash          |  8.64782% | 6446   |  5.442% | 0      |  0.000% | 
 | 13   | Zapdos             |  8.60815% | 5464   |  4.613% | 0      |  0.000% | 
 | 14   | Whimsicott         |  8.59704% | 7479   |  6.314% | 0      |  0.000% | 
 | 15   | Rotom-Wash         |  8.36171% | 3638   |  3.071% | 0      |  0.000% | 
 | 16   | Metagross-Mega     |  8.29495% | 4396   |  3.711% | 0      |  0.000% | 
 | 17   | Kingdra            |  8.24183% | 3223   |  2.721% | 0      |  0.000% | 
 | 18   | Ludicolo           |  8.19713% | 3406   |  2.875% | 0      |  0.000% | 
 | 19   | Zeraora            |  8.02315% | 5533   |  4.671% | 0      |  0.000% | 
 | 20   | Amoonguss          |  7.80050% | 5033   |  4.249% | 0      |  0.000% | 
 | 21   | Diancie            |  7.65486% | 2250   |  1.900% | 0      |  0.000% | 
 | 22   | Kartana            |  7.43373% | 5580   |  4.711% | 0      |  0.000% | 
 | 23   | Genesect           |  7.34813% | 2065   |  1.743% | 0      |  0.000% | 
 | 24   | Salamence-Mega     |  7.25514% | 4022   |  3.395% | 0      |  0.000% | 
 | 25   | Togekiss           |  7.04347% | 4852   |  4.096% | 0      |  0.000% | 
 | 26   | Stakataka          |  6.58760% | 4104   |  3.465% | 0      |  0.000% | 
 | 27   | Mimikyu            |  6.45419% | 4700   |  3.968% | 0      |  0.000% | 
 | 28   | Ninetales-Alola    |  6.41343% | 4692   |  3.961% | 0      |  0.000% | 
 | 29   | Venusaur           |  6.33099% | 3622   |  3.058% | 0      |  0.000% | 
 | 30   | Garchomp           |  6.31584% | 9047   |  7.638% | 0      |  0.000% | 
 | 31   | Tyranitar          |  6.04421% | 5799   |  4.896% | 0      |  0.000% | 
 | 32   | Clefairy           |  6.03120% | 1543   |  1.303% | 0      |  0.000% | 
 | 33   | Thundurus-Therian  |  5.77022% | 2247   |  1.897% | 0      |  0.000% | 
 | 34   | Mawile-Mega        |  5.49891% | 2399   |  2.025% | 0      |  0.000% | 
 | 35   | Milotic            |  5.14543% | 6369   |  5.377% | 0      |  0.000% | 
 | 36   | Azumarill          |  5.00165% | 3126   |  2.639% | 0      |  0.000% | 
 | 37   | Diancie-Mega       |  4.70884% | 3212   |  2.712% | 0      |  0.000% | 
 | 38   | Tapu Bulu          |  4.39203% | 3357   |  2.834% | 0      |  0.000% | 
 | 39   | Chandelure         |  4.29391% | 2661   |  2.246% | 0      |  0.000% | 
 | 40   | Venusaur-Mega      |  4.28770% | 3059   |  2.582% | 0      |  0.000% | 
 | 41   | Excadrill          |  3.97076% | 5562   |  4.696% | 0      |  0.000% | 
 | 42   | Heatran            |  3.95309% | 4178   |  3.527% | 0      |  0.000% | 
 | 43   | Mew                |  3.86032% | 4574   |  3.861% | 0      |  0.000% | 
 | 44   | Porygon2           |  3.80614% | 3125   |  2.638% | 0      |  0.000% | 
 | 45   | Camerupt-Mega      |  3.67295% | 2593   |  2.189% | 0      |  0.000% | 
 | 46   | Abomasnow-Mega     |  3.66540% | 1390   |  1.173% | 0      |  0.000% | 
 | 47   | Zygarde            |  3.60509% | 1868   |  1.577% | 0      |  0.000% | 
 | 48   | Cresselia          |  3.57482% | 4126   |  3.483% | 0      |  0.000% | 
 | 49   | Bronzong           |  3.57469% | 2144   |  1.810% | 0      |  0.000% | 
 | 50   | Heliolisk          |  3.55004% | 1875   |  1.583% | 0      |  0.000% | 
 | 51   | Celesteela         |  3.49237% | 4560   |  3.850% | 0      |  0.000% | 
 | 52   | Darkrai            |  3.36057% | 2263   |  1.910% | 0      |  0.000% | 
 | 53   | Gengar             |  3.27976% | 3807   |  3.214% | 0      |  0.000% | 
 | 54   | Volcarona          |  3.22616% | 7021   |  5.927% | 0      |  0.000% | 
 | 55   | Terrakion          |  3.13344% | 2105   |  1.777% | 0      |  0.000% | 
 | 56   | Ribombee           |  3.09413% | 1821   |  1.537% | 0      |  0.000% | 
 | 57   | Gardevoir-Mega     |  3.03410% | 4327   |  3.653% | 0      |  0.000% | 
 | 58   | Typhlosion         |  3.02501% | 1751   |  1.478% | 0      |  0.000% | 
 | 59   | Scrafty            |  2.98757% | 2150   |  1.815% | 0      |  0.000% | 
 | 60   | Infernape          |  2.97355% | 2590   |  2.187% | 0      |  0.000% | 
 | 61   | Volcanion          |  2.92546% | 2117   |  1.787% | 0      |  0.000% | 
 | 62   | Greninja-Ash       |  2.90213% | 6203   |  5.237% | 0      |  0.000% | 
 | 63   | Torkoal            |  2.81304% | 2894   |  2.443% | 0      |  0.000% | 
 | 64   | Shaymin-Sky        |  2.68672% | 1324   |  1.118% | 0      |  0.000% | 
 | 65   | Naganadel          |  2.54603% | 1568   |  1.324% | 0      |  0.000% | 
 | 66   | Gothitelle         |  2.54020% | 2596   |  2.192% | 0      |  0.000% | 
 | 67   | Politoed           |  2.44429% | 2967   |  2.505% | 0      |  0.000% | 
 | 68   | Arcanine           |  2.37023% | 6669   |  5.630% | 0      |  0.000% | 
 | 69   | Tyranitar-Mega     |  2.35418% | 2683   |  2.265% | 0      |  0.000% | 
 | 70   | Sceptile-Mega      |  2.34739% | 5050   |  4.263% | 0      |  0.000% | 
 | 71   | Blaziken           |  2.27737% | 2524   |  2.131% | 0      |  0.000% | 
 | 72   | Muk-Alola          |  2.24391% | 2592   |  2.188% | 0      |  0.000% | 
 | 73   | Sceptile           |  2.22556% | 1327   |  1.120% | 0      |  0.000% | 
 | 74   | Electivire         |  2.20720% | 2772   |  2.340% | 0      |  0.000% | 
 | 75   | Oranguru           |  2.20232% | 4897   |  4.134% | 0      |  0.000% | 
 | 76   | Meloetta           |  2.16362% | 657    |  0.555% | 0      |  0.000% | 
 | 77   | Hawlucha           |  2.15257% | 1585   |  1.338% | 0      |  0.000% | 
 | 78   | Lurantis           |  2.05885% | 2108   |  1.780% | 0      |  0.000% | 
 | 79   | Xurkitree          |  1.94071% | 2407   |  2.032% | 0      |  0.000% | 
 | 80   | Wishiwashi         |  1.84099% | 614    |  0.518% | 0      |  0.000% | 
 | 81   | Latias             |  1.81760% | 1125   |  0.950% | 0      |  0.000% | 
 | 82   | Manectric-Mega     |  1.76821% | 3391   |  2.863% | 0      |  0.000% | 
 | 83   | Krookodile         |  1.74159% | 2942   |  2.484% | 0      |  0.000% | 
 | 84   | Gallade-Mega       |  1.72540% | 1205   |  1.017% | 0      |  0.000% | 
 | 85   | Bisharp            |  1.67545% | 1330   |  1.123% | 0      |  0.000% | 
 | 86   | Cofagrigus         |  1.67012% | 1601   |  1.352% | 0      |  0.000% | 
 | 87   | Dusclops           |  1.64323% | 932    |  0.787% | 0      |  0.000% | 
 | 88   | Suicune            |  1.57767% | 1244   |  1.050% | 0      |  0.000% | 
 | 89   | Aromatisse         |  1.56206% | 558    |  0.471% | 0      |  0.000% | 
 | 90   | Kyurem-Black       |  1.52297% | 1767   |  1.492% | 0      |  0.000% | 
 | 91   | Lopunny-Mega       |  1.44291% | 2072   |  1.749% | 0      |  0.000% | 
 | 92   | Metagross          |  1.41118% | 2399   |  2.025% | 0      |  0.000% | 
 | 93   | Weavile            |  1.39821% | 2920   |  2.465% | 0      |  0.000% | 
 | 94   | Thundurus          |  1.38135% | 1845   |  1.558% | 0      |  0.000% | 
 | 95   | Gigalith           |  1.37697% | 1432   |  1.209% | 0      |  0.000% | 
 | 96   | Greninja           |  1.37515% | 4958   |  4.186% | 0      |  0.000% | 
 | 97   | Scizor             |  1.34072% | 1334   |  1.126% | 0      |  0.000% | 
 | 98   | Gardevoir          |  1.31442% | 3937   |  3.324% | 0      |  0.000% | 
 | 99   | Umbreon            |  1.30430% | 2835   |  2.393% | 0      |  0.000% | 
 | 100  | Hydreigon          |  1.29275% | 2087   |  1.762% | 0      |  0.000% | 
 | 101  | Staraptor          |  1.28473% | 1579   |  1.333% | 0      |  0.000% | 
 | 102  | Victini            |  1.23246% | 2569   |  2.169% | 0      |  0.000% | 
 | 103  | Conkeldurr         |  1.20953% | 1599   |  1.350% | 0      |  0.000% | 
 | 104  | Breloom            |  1.20783% | 2447   |  2.066% | 0      |  0.000% | 
 | 105  | Marowak-Alola      |  1.18544% | 1896   |  1.601% | 0      |  0.000% | 
 | 106  | Serperior          |  1.17729% | 3794   |  3.203% | 0      |  0.000% | 
 | 107  | Araquanid          |  1.16289% | 1304   |  1.101% | 0      |  0.000% | 
 | 108  | Klefki             |  1.14110% | 1471   |  1.242% | 0      |  0.000% | 
 | 109  | Cradily            |  1.12558% | 1325   |  1.119% | 0      |  0.000% | 
 | 110  | Raichu-Alola       |  1.10996% | 1453   |  1.227% | 0      |  0.000% | 
 | 111  | Raichu             |  1.08446% | 2173   |  1.834% | 0      |  0.000% | 
 | 112  | Hitmontop          |  1.07254% | 1222   |  1.032% | 0      |  0.000% | 
 | 113  | Vivillon           |  1.06756% | 726    |  0.613% | 0      |  0.000% | 
 | 114  | Hariyama           |  1.05379% | 527    |  0.445% | 0      |  0.000% | 
 | 115  | Braviary           |  1.01283% | 723    |  0.610% | 0      |  0.000% | 
 | 116  | Rhyperior          |  1.00700% | 944    |  0.797% | 0      |  0.000% | 
 | 117  | Hoopa-Unbound      |  0.99473% | 1599   |  1.350% | 0      |  0.000% | 
 | 118  | Blacephalon        |  0.99190% | 1651   |  1.394% | 0      |  0.000% | 
 | 119  | Sableye-Mega       |  0.97203% | 2410   |  2.035% | 0      |  0.000% | 
 | 120  | Vanilluxe          |  0.97063% | 518    |  0.437% | 0      |  0.000% | 
 | 121  | Dragonite          |  0.95566% | 3747   |  3.163% | 0      |  0.000% | 
 | 122  | Scizor-Mega        |  0.94377% | 1297   |  1.095% | 0      |  0.000% | 
 | 123  | Ninetales          |  0.94309% | 3408   |  2.877% | 0      |  0.000% | 
 | 124  | Landorus           |  0.93819% | 1220   |  1.030% | 0      |  0.000% | 
 | 125  | Hippowdon          |  0.93474% | 938    |  0.792% | 0      |  0.000% | 
 | 126  | Gyarados           |  0.92047% | 2974   |  2.511% | 0      |  0.000% | 
 | 127  | Alakazam-Mega      |  0.91402% | 2287   |  1.931% | 0      |  0.000% | 
 | 128  | Togedemaru         |  0.90957% | 1299   |  1.097% | 0      |  0.000% | 
 | 129  | Blastoise-Mega     |  0.88262% | 1028   |  0.868% | 0      |  0.000% | 
 | 130  | Magnezone          |  0.82982% | 1155   |  0.975% | 0      |  0.000% | 
 | 131  | Jolteon            |  0.80569% | 2584   |  2.181% | 0      |  0.000% | 
 | 132  | Porygon-Z          |  0.78520% | 1352   |  1.141% | 0      |  0.000% | 
 | 133  | Liepard            |  0.77460% | 758    |  0.640% | 0      |  0.000% | 
 | 134  | Talonflame         |  0.75862% | 2593   |  2.189% | 0      |  0.000% | 
 | 135  | Blaziken-Mega      |  0.73088% | 3005   |  2.537% | 0      |  0.000% | 
 | 136  | Espeon             |  0.71965% | 3158   |  2.666% | 0      |  0.000% | 
 | 137  | Necrozma           |  0.68913% | 347    |  0.293% | 0      |  0.000% | 
 | 138  | Stoutland          |  0.66043% | 421    |  0.355% | 0      |  0.000% | 
 | 139  | Eelektross         |  0.64217% | 1477   |  1.247% | 0      |  0.000% | 
 | 140  | Meowstic           |  0.63782% | 1401   |  1.183% | 0      |  0.000% | 
 | 141  | Oricorio-Pom-Pom   |  0.63050% | 2100   |  1.773% | 0      |  0.000% | 
 | 142  | Drampa             |  0.61993% | 1654   |  1.396% | 0      |  0.000% | 
 | 143  | Jellicent          |  0.60515% | 1229   |  1.038% | 0      |  0.000% | 
 | 144  | Mamoswine          |  0.60193% | 1539   |  1.299% | 0      |  0.000% | 
 | 145  | Crawdaunt          |  0.58735% | 612    |  0.517% | 0      |  0.000% | 
 | 146  | Persian-Alola      |  0.57419% | 1032   |  0.871% | 0      |  0.000% | 
 | 147  | Garchomp-Mega      |  0.57010% | 1321   |  1.115% | 0      |  0.000% | 
 | 148  | Cloyster           |  0.56477% | 1528   |  1.290% | 0      |  0.000% | 
 | 149  | Latios             |  0.56238% | 1049   |  0.886% | 0      |  0.000% | 
 | 150  | Toxapex            |  0.53996% | 2945   |  2.486% | 0      |  0.000% | 
 | 151  | Salamence          |  0.53967% | 1967   |  1.661% | 0      |  0.000% | 
 | 152  | Rampardos          |  0.53380% | 453    |  0.382% | 0      |  0.000% | 
 | 153  | Sylveon            |  0.51804% | 2230   |  1.883% | 0      |  0.000% | 
 | 154  | Sableye            |  0.50998% | 1465   |  1.237% | 0      |  0.000% | 
 | 155  | Clefable           |  0.50984% | 3380   |  2.853% | 0      |  0.000% | 
 | 156  | Pinsir-Mega        |  0.50107% | 326    |  0.275% | 0      |  0.000% | 
 | 157  | Slowbro            |  0.48814% | 578    |  0.488% | 0      |  0.000% | 
 | 158  | Aerodactyl-Mega    |  0.48710% | 1679   |  1.417% | 0      |  0.000% | 
 | 159  | Deoxys-Defense     |  0.48154% | 493    |  0.416% | 0      |  0.000% | 
 | 160  | Gyarados-Mega      |  0.47548% | 1346   |  1.136% | 0      |  0.000% | 
 | 161  | Lucario            |  0.46395% | 2528   |  2.134% | 0      |  0.000% | 
 | 162  | Slowbro-Mega       |  0.44748% | 467    |  0.394% | 0      |  0.000% | 
 | 163  | Crobat             |  0.44586% | 2115   |  1.786% | 0      |  0.000% | 
 | 164  | Smeargle           |  0.43389% | 3113   |  2.628% | 0      |  0.000% | 
 | 165  | Beartic            |  0.42977% | 492    |  0.415% | 0      |  0.000% | 
 | 166  | Armaldo            |  0.42812% | 516    |  0.436% | 0      |  0.000% | 
 | 167  | Chansey            |  0.42483% | 2555   |  2.157% | 0      |  0.000% | 
 | 168  | Skarmory           |  0.42227% | 1333   |  1.125% | 0      |  0.000% | 
 | 169  | Manectric          |  0.40932% | 1095   |  0.924% | 0      |  0.000% | 
 | 170  | Medicham-Mega      |  0.40676% | 1262   |  1.065% | 0      |  0.000% | 
 | 171  | Goodra             |  0.39694% | 1217   |  1.027% | 0      |  0.000% | 
 | 172  | Sandslash          |  0.39107% | 194    |  0.164% | 0      |  0.000% | 
 | 173  | Vikavolt           |  0.38192% | 1108   |  0.935% | 0      |  0.000% | 
 | 174  | Nihilego           |  0.37835% | 1032   |  0.871% | 0      |  0.000% | 
 | 175  | Shuckle            |  0.37742% | 4429   |  3.739% | 0      |  0.000% | 
 | 176  | Ditto              |  0.36736% | 1986   |  1.677% | 0      |  0.000% | 
 | 177  | Durant             |  0.36438% | 1166   |  0.984% | 0      |  0.000% | 
 | 178  | Xatu               |  0.35183% | 1079   |  0.911% | 0      |  0.000% | 
 | 179  | Tornadus-Therian   |  0.34838% | 492    |  0.415% | 0      |  0.000% | 
 | 180  | Keldeo             |  0.33935% | 663    |  0.560% | 0      |  0.000% | 
 | 181  | Reuniclus          |  0.33889% | 1198   |  1.011% | 0      |  0.000% | 
 | 182  | Lanturn            |  0.32764% | 2230   |  1.883% | 0      |  0.000% | 
 | 183  | Houndoom-Mega      |  0.32022% | 1040   |  0.878% | 0      |  0.000% | 
 | 184  | Darmanitan         |  0.30772% | 612    |  0.517% | 0      |  0.000% | 
 | 185  | Lapras             |  0.30681% | 2232   |  1.884% | 0      |  0.000% | 
 | 186  | Glaceon            |  0.29843% | 709    |  0.599% | 0      |  0.000% | 
 | 187  | Ampharos-Mega      |  0.29613% | 791    |  0.668% | 0      |  0.000% | 
 | 188  | Malamar            |  0.29413% | 1804   |  1.523% | 0      |  0.000% | 
 | 189  | Mienshao           |  0.28995% | 777    |  0.656% | 0      |  0.000% | 
 | 190  | Sunflora           |  0.28823% | 333    |  0.281% | 0      |  0.000% | 
 | 191  | Primarina          |  0.28475% | 1769   |  1.493% | 0      |  0.000% | 
 | 192  | Bellossom          |  0.28355% | 519    |  0.438% | 0      |  0.000% | 
 | 193  | Heracross-Mega     |  0.27720% | 1016   |  0.858% | 0      |  0.000% | 
 | 194  | Charizard-Mega-X   |  0.27627% | 2434   |  2.055% | 0      |  0.000% | 
 | 195  | Blissey            |  0.27257% | 2559   |  2.160% | 0      |  0.000% | 
 | 196  | Lilligant          |  0.27073% | 1853   |  1.564% | 0      |  0.000% | 
 | 197  | Camerupt           |  0.26693% | 429    |  0.362% | 0      |  0.000% | 
 | 198  | Rotom-Mow          |  0.26502% | 239    |  0.202% | 0      |  0.000% | 
 | 199  | Silvally           |  0.26334% | 657    |  0.555% | 0      |  0.000% | 
 | 200  | Honchkrow          |  0.26187% | 852    |  0.719% | 0      |  0.000% | 
 | 201  | Lucario-Mega       |  0.25718% | 2328   |  1.965% | 0      |  0.000% | 
 | 202  | Noivern            |  0.25717% | 972    |  0.821% | 0      |  0.000% | 
 | 203  | Gliscor            |  0.25468% | 3885   |  3.280% | 0      |  0.000% | 
 | 204  | Mandibuzz          |  0.24668% | 551    |  0.465% | 0      |  0.000% | 
 | 205  | Bruxish            |  0.24631% | 959    |  0.810% | 0      |  0.000% | 
 | 206  | Escavalier         |  0.24600% | 713    |  0.602% | 0      |  0.000% | 
 | 207  | Charizard          |  0.24513% | 943    |  0.796% | 0      |  0.000% | 
 | 208  | Pikachu            |  0.24177% | 641    |  0.541% | 0      |  0.000% | 
 | 209  | Golem-Alola        |  0.24003% | 629    |  0.531% | 0      |  0.000% | 
 | 210  | Audino-Mega        |  0.23958% | 2942   |  2.484% | 0      |  0.000% | 
 | 211  | Rotom-Heat         |  0.23548% | 1115   |  0.941% | 0      |  0.000% | 
 | 212  | Ambipom            |  0.23198% | 1343   |  1.134% | 0      |  0.000% | 
 | 213  | Trevenant          |  0.23088% | 1629   |  1.375% | 0      |  0.000% | 
 | 214  | Sandslash-Alola    |  0.22866% | 659    |  0.556% | 0      |  0.000% | 
 | 215  | Slowking           |  0.22574% | 523    |  0.442% | 0      |  0.000% | 
 | 216  | Tornadus           |  0.22467% | 340    |  0.287% | 0      |  0.000% | 
 | 217  | Kangaskhan         |  0.22410% | 162    |  0.137% | 0      |  0.000% | 
 | 218  | Scolipede          |  0.22194% | 1577   |  1.331% | 0      |  0.000% | 
 | 219  | Froslass           |  0.21978% | 1165   |  0.984% | 0      |  0.000% | 
 | 220  | Regigigas          |  0.21664% | 2142   |  1.808% | 0      |  0.000% | 
 | 221  | Linoone            |  0.21485% | 1739   |  1.468% | 0      |  0.000% | 
 | 222  | Deoxys-Attack      |  0.21476% | 715    |  0.604% | 0      |  0.000% | 
 | 223  | Empoleon           |  0.21275% | 757    |  0.639% | 0      |  0.000% | 
 | 224  | Pachirisu          |  0.20930% | 1730   |  1.461% | 0      |  0.000% | 
 | 225  | Altaria-Mega       |  0.20036% | 1169   |  0.987% | 0      |  0.000% | 
 | 226  | Gallade            |  0.19784% | 942    |  0.795% | 0      |  0.000% | 
 | 227  | Cherrim            |  0.19151% | 591    |  0.499% | 0      |  0.000% | 
 | 228  | Tauros             |  0.19016% | 1242   |  1.049% | 0      |  0.000% | 
 | 229  | Ursaring           |  0.18897% | 550    |  0.464% | 0      |  0.000% | 
 | 230  | Pidgeot-Mega       |  0.18774% | 669    |  0.565% | 0      |  0.000% | 
 | 231  | Dusknoir           |  0.18603% | 784    |  0.662% | 0      |  0.000% | 
 | 232  | Electrode          |  0.18557% | 377    |  0.318% | 0      |  0.000% | 
 | 233  | Chesnaught         |  0.18444% | 311    |  0.263% | 0      |  0.000% | 
 | 234  | Latias-Mega        |  0.18394% | 779    |  0.658% | 0      |  0.000% | 
 | 235  | Steelix-Mega       |  0.18355% | 610    |  0.515% | 0      |  0.000% | 
 | 236  | Floatzel           |  0.18302% | 462    |  0.390% | 0      |  0.000% | 
 | 237  | Primeape           |  0.18073% | 755    |  0.637% | 0      |  0.000% | 
 | 238  | Walrein            |  0.17505% | 685    |  0.578% | 0      |  0.000% | 
 | 239  | Tentacruel         |  0.17406% | 1653   |  1.396% | 0      |  0.000% | 
 | 240  | Tsareena           |  0.17256% | 1025   |  0.865% | 0      |  0.000% | 
 | 241  | Galvantula         |  0.17156% | 1443   |  1.218% | 0      |  0.000% | 
 | 242  | Alakazam           |  0.16960% | 1757   |  1.483% | 0      |  0.000% | 
 | 243  | Blastoise          |  0.16856% | 1005   |  0.848% | 0      |  0.000% | 
 | 244  | Regirock           |  0.16786% | 279    |  0.236% | 0      |  0.000% | 
 | 245  | Exploud            |  0.16546% | 305    |  0.257% | 0      |  0.000% | 
 | 246  | Shiftry            |  0.16340% | 555    |  0.469% | 0      |  0.000% | 
 | 247  | Rhydon             |  0.16195% | 282    |  0.238% | 0      |  0.000% | 
 | 248  | Vaporeon           |  0.15820% | 1797   |  1.517% | 0      |  0.000% | 
 | 249  | Onix               |  0.15309% | 91     |  0.077% | 0      |  0.000% | 
 | 250  | Machamp            |  0.14828% | 992    |  0.837% | 0      |  0.000% | 
 | 251  | Seismitoad         |  0.14753% | 614    |  0.518% | 0      |  0.000% | 
 | 252  | Golurk             |  0.14733% | 288    |  0.243% | 0      |  0.000% | 
 | 253  | Shedinja           |  0.14708% | 6549   |  5.529% | 0      |  0.000% | 
 | 254  | Mudsdale           |  0.14439% | 672    |  0.567% | 0      |  0.000% | 
 | 255  | Tangrowth          |  0.14293% | 724    |  0.611% | 0      |  0.000% | 
 | 256  | Oricorio-Sensu     |  0.13687% | 963    |  0.813% | 0      |  0.000% | 
 | 257  | Girafarig          |  0.13507% | 528    |  0.446% | 0      |  0.000% | 
 | 258  | Pheromosa          |  0.13385% | 817    |  0.690% | 0      |  0.000% | 
 | 259  | Pyukumuku          |  0.13351% | 315    |  0.266% | 0      |  0.000% | 
 | 260  | Feraligatr         |  0.13291% | 771    |  0.651% | 0      |  0.000% | 
 | 261  | Toxicroak          |  0.13188% | 1561   |  1.318% | 0      |  0.000% | 
 | 262  | Kecleon            |  0.12963% | 474    |  0.400% | 0      |  0.000% | 
 | 263  | Banette-Mega       |  0.12624% | 1717   |  1.450% | 0      |  0.000% | 
 | 264  | Purugly            |  0.12599% | 391    |  0.330% | 0      |  0.000% | 
 | 265  | Torterra           |  0.12482% | 965    |  0.815% | 0      |  0.000% | 
 | 266  | Solrock            |  0.12392% | 214    |  0.181% | 0      |  0.000% | 
 | 267  | Omastar            |  0.12243% | 445    |  0.376% | 0      |  0.000% | 
 | 268  | Salazzle           |  0.12118% | 2060   |  1.739% | 0      |  0.000% | 
 | 269  | Mr. Mime           |  0.11898% | 1424   |  1.202% | 0      |  0.000% | 
 | 270  | Entei              |  0.11586% | 276    |  0.233% | 0      |  0.000% | 
 | 271  | Leafeon            |  0.11498% | 928    |  0.783% | 0      |  0.000% | 
 | 272  | Exeggutor-Alola    |  0.11494% | 489    |  0.413% | 0      |  0.000% | 
 | 273  | Togetic            |  0.11429% | 441    |  0.372% | 0      |  0.000% | 
 | 274  | Claydol            |  0.11196% | 937    |  0.791% | 0      |  0.000% | 
 | 275  | Buzzwole           |  0.11096% | 657    |  0.555% | 0      |  0.000% | 
 | 276  | Swampert           |  0.11004% | 808    |  0.682% | 0      |  0.000% | 
 | 277  | Nidoking           |  0.10971% | 921    |  0.778% | 0      |  0.000% | 
 | 278  | Stantler           |  0.10819% | 837    |  0.707% | 0      |  0.000% | 
 | 279  | Carbink            |  0.10750% | 2110   |  1.781% | 0      |  0.000% | 
 | 280  | Hypno              |  0.10694% | 278    |  0.235% | 0      |  0.000% | 
 | 281  | Flygon             |  0.10666% | 1421   |  1.200% | 0      |  0.000% | 
 | 282  | Crabominable       |  0.10552% | 615    |  0.519% | 0      |  0.000% | 
 | 283  | Lycanroc-Dusk      |  0.10470% | 721    |  0.609% | 0      |  0.000% | 
 | 284  | Aerodactyl         |  0.10457% | 577    |  0.487% | 0      |  0.000% | 
 | 285  | Zebstrika          |  0.10216% | 765    |  0.646% | 0      |  0.000% | 
 | 286  | Chatot             |  0.10095% | 173    |  0.146% | 0      |  0.000% | 
 | 287  | Dragalge           |  0.10091% | 387    |  0.327% | 0      |  0.000% | 
 | 288  | Medicham           |  0.09934% | 503    |  0.425% | 0      |  0.000% | 
 | 289  | Raikou             |  0.09688% | 859    |  0.725% | 0      |  0.000% | 
 | 290  | Slaking            |  0.09519% | 1783   |  1.505% | 0      |  0.000% | 
 | 291  | Hitmonlee          |  0.09136% | 305    |  0.257% | 0      |  0.000% | 
 | 292  | Quagsire           |  0.09117% | 434    |  0.366% | 0      |  0.000% | 
 | 293  | Crustle            |  0.09105% | 184    |  0.155% | 0      |  0.000% | 
 | 294  | Aurorus            |  0.08835% | 494    |  0.417% | 0      |  0.000% | 
 | 295  | Kabutops           |  0.08472% | 595    |  0.502% | 0      |  0.000% | 
 | 296  | Numel              |  0.08441% | 240    |  0.203% | 0      |  0.000% | 
 | 297  | Aron               |  0.08409% | 218    |  0.184% | 0      |  0.000% | 
 | 298  | Sharpedo           |  0.08383% | 192    |  0.162% | 0      |  0.000% | 
 | 299  | Dhelmise           |  0.08331% | 438    |  0.370% | 0      |  0.000% | 
 | 300  | Murkrow            |  0.08101% | 752    |  0.635% | 0      |  0.000% | 
 | 301  | Kyurem             |  0.08069% | 113    |  0.095% | 0      |  0.000% | 
 | 302  | Aggron-Mega        |  0.08048% | 699    |  0.590% | 0      |  0.000% | 
 | 303  | Abomasnow          |  0.07963% | 383    |  0.323% | 0      |  0.000% | 
 | 304  | Beedrill-Mega      |  0.07960% | 1538   |  1.298% | 0      |  0.000% | 
 | 305  | Lumineon           |  0.07718% | 285    |  0.241% | 0      |  0.000% | 
 | 306  | Latios-Mega        |  0.07469% | 314    |  0.265% | 0      |  0.000% | 
 | 307  | Seaking            |  0.07421% | 570    |  0.481% | 0      |  0.000% | 
 | 308  | Haxorus            |  0.07387% | 1017   |  0.859% | 0      |  0.000% | 
 | 309  | Delibird           |  0.06971% | 63     |  0.053% | 0      |  0.000% | 
 | 310  | Sudowoodo          |  0.06959% | 309    |  0.261% | 0      |  0.000% | 
 | 311  | Starmie            |  0.06920% | 680    |  0.574% | 0      |  0.000% | 
 | 312  | Accelgor           |  0.06782% | 626    |  0.528% | 0      |  0.000% | 
 | 313  | Cobalion           |  0.06749% | 249    |  0.210% | 0      |  0.000% | 
 | 314  | Cinccino           |  0.06721% | 432    |  0.365% | 0      |  0.000% | 
 | 315  | Zygarde-10%        |  0.06705% | 129    |  0.109% | 0      |  0.000% | 
 | 316  | Luxray             |  0.06604% | 1124   |  0.949% | 0      |  0.000% | 
 | 317  | Comfey             |  0.06567% | 1347   |  1.137% | 0      |  0.000% | 
 | 318  | Sharpedo-Mega      |  0.06431% | 373    |  0.315% | 0      |  0.000% | 
 | 319  | Tyrantrum          |  0.06407% | 429    |  0.362% | 0      |  0.000% | 
 | 320  | Mantine            |  0.06354% | 330    |  0.279% | 0      |  0.000% | 
 | 321  | Musharna           |  0.06229% | 635    |  0.536% | 0      |  0.000% | 
 | 322  | Aggron             |  0.06173% | 706    |  0.596% | 0      |  0.000% | 
 | 323  | Palossand          |  0.06070% | 372    |  0.314% | 0      |  0.000% | 
 | 324  | Drapion            |  0.06021% | 1199   |  1.012% | 0      |  0.000% | 
 | 325  | Regice             |  0.05887% | 490    |  0.414% | 0      |  0.000% | 
 | 326  | Florges            |  0.05824% | 639    |  0.539% | 0      |  0.000% | 
 | 327  | Flareon            |  0.05787% | 1013   |  0.855% | 0      |  0.000% | 
 | 328  | Dewgong            |  0.05664% | 218    |  0.184% | 0      |  0.000% | 
 | 329  | Zoroark            |  0.05653% | 562    |  0.474% | 0      |  0.000% | 
 | 330  | Lycanroc           |  0.05571% | 409    |  0.345% | 0      |  0.000% | 
 | 331  | Roserade           |  0.05537% | 1116   |  0.942% | 0      |  0.000% | 
 | 332  | Audino             |  0.05491% | 2107   |  1.779% | 0      |  0.000% | 
 | 333  | Hoopa              |  0.05190% | 125    |  0.106% | 0      |  0.000% | 
 | 334  | Parasect           |  0.05151% | 627    |  0.529% | 0      |  0.000% | 
 | 335  | Venomoth           |  0.04938% | 116    |  0.098% | 0      |  0.000% | 
 | 336  | Lickilicky         |  0.04867% | 290    |  0.245% | 0      |  0.000% | 
 | 337  | Krokorok           |  0.04856% | 34     |  0.029% | 0      |  0.000% | 
 | 338  | Clamperl           |  0.04716% | 74     |  0.062% | 0      |  0.000% | 
 | 339  | Turtonator         |  0.04559% | 182    |  0.154% | 0      |  0.000% | 
 | 340  | Beheeyem           |  0.04513% | 431    |  0.364% | 0      |  0.000% | 
 | 341  | Dugtrio-Alola      |  0.04494% | 204    |  0.172% | 0      |  0.000% | 
 | 342  | Delphox            |  0.04489% | 1038   |  0.876% | 0      |  0.000% | 
 | 343  | Oricorio           |  0.04487% | 593    |  0.501% | 0      |  0.000% | 
 | 344  | Moltres            |  0.04487% | 418    |  0.353% | 0      |  0.000% | 
 | 345  | Rotom-Frost        |  0.04428% | 276    |  0.233% | 0      |  0.000% | 
 | 346  | Granbull           |  0.04408% | 748    |  0.631% | 0      |  0.000% | 
 | 347  | Celebi             |  0.04318% | 366    |  0.309% | 0      |  0.000% | 
 | 348  | Weezing            |  0.04083% | 276    |  0.233% | 0      |  0.000% | 
 | 349  | Minior             |  0.04060% | 672    |  0.567% | 0      |  0.000% | 
 | 350  | Slowpoke           |  0.03963% | 34     |  0.029% | 0      |  0.000% | 
 | 351  | Articuno           |  0.03949% | 841    |  0.710% | 0      |  0.000% | 
 | 352  | Golisopod          |  0.03885% | 779    |  0.658% | 0      |  0.000% | 
 | 353  | Silvally-Electric  |  0.03811% | 136    |  0.115% | 0      |  0.000% | 
 | 354  | Gogoat             |  0.03783% | 279    |  0.236% | 0      |  0.000% | 
 | 355  | Spiritomb          |  0.03759% | 224    |  0.189% | 0      |  0.000% | 
 | 356  | Bastiodon          |  0.03717% | 185    |  0.156% | 0      |  0.000% | 
 | 357  | Golduck            |  0.03715% | 1027   |  0.867% | 0      |  0.000% | 
 | 358  | Unfezant           |  0.03709% | 268    |  0.226% | 0      |  0.000% | 
 | 359  | Klinklang          |  0.03672% | 375    |  0.317% | 0      |  0.000% | 
 | 360  | Virizion           |  0.03656% | 238    |  0.201% | 0      |  0.000% | 
 | 361  | Swoobat            |  0.03649% | 1351   |  1.141% | 0      |  0.000% | 
 | 362  | Magmortar          |  0.03628% | 323    |  0.273% | 0      |  0.000% | 
 | 363  | Shiinotic          |  0.03535% | 711    |  0.600% | 0      |  0.000% | 
 | 364  | Absol              |  0.03534% | 742    |  0.626% | 0      |  0.000% | 
 | 365  | Meganium           |  0.03523% | 764    |  0.645% | 0      |  0.000% | 
 | 366  | Spinda             |  0.03512% | 1289   |  1.088% | 0      |  0.000% | 
 | 367  | Sigilyph           |  0.03510% | 433    |  0.366% | 0      |  0.000% | 
 | 368  | Yanmega            |  0.03369% | 267    |  0.225% | 0      |  0.000% | 
 | 369  | Steelix            |  0.03308% | 903    |  0.762% | 0      |  0.000% | 
 | 370  | Archeops           |  0.03289% | 335    |  0.283% | 0      |  0.000% | 
 | 371  | Azelf              |  0.03174% | 242    |  0.204% | 0      |  0.000% | 
 | 372  | Grumpig            |  0.03161% | 160    |  0.135% | 0      |  0.000% | 
 | 373  | Drifblim           |  0.03126% | 400    |  0.338% | 0      |  0.000% | 
 | 374  | Poliwrath          |  0.03093% | 517    |  0.436% | 0      |  0.000% | 
 | 375  | Gothorita          |  0.03073% | 283    |  0.239% | 0      |  0.000% | 
 | 376  | Wailord            |  0.02995% | 374    |  0.316% | 0      |  0.000% | 
 | 377  | Decidueye          |  0.02983% | 734    |  0.620% | 0      |  0.000% | 
 | 378  | Cryogonal          |  0.02900% | 231    |  0.195% | 0      |  0.000% | 
 | 379  | Emboar             |  0.02868% | 253    |  0.214% | 0      |  0.000% | 
 | 380  | Cacturne           |  0.02840% | 363    |  0.306% | 0      |  0.000% | 
 | 381  | Glalie-Mega        |  0.02777% | 359    |  0.303% | 0      |  0.000% | 
 | 382  | Dugtrio            |  0.02738% | 355    |  0.300% | 0      |  0.000% | 
 | 383  | Masquerain         |  0.02718% | 612    |  0.517% | 0      |  0.000% | 
 | 384  | Golem              |  0.02688% | 129    |  0.109% | 0      |  0.000% | 
 | 385  | Donphan            |  0.02651% | 304    |  0.257% | 0      |  0.000% | 
 | 386  | Diggersby          |  0.02617% | 308    |  0.260% | 0      |  0.000% | 
 | 387  | Toucannon          |  0.02533% | 204    |  0.172% | 0      |  0.000% | 
 | 388  | Scyther            |  0.02443% | 147    |  0.124% | 0      |  0.000% | 
 | 389  | Emolga             |  0.02371% | 395    |  0.333% | 0      |  0.000% | 
 | 390  | Slurpuff           |  0.02370% | 593    |  0.501% | 0      |  0.000% | 
 | 391  | Lopunny            |  0.02348% | 925    |  0.781% | 0      |  0.000% | 
 | 392  | Skuntank           |  0.02214% | 506    |  0.427% | 0      |  0.000% | 
 | 393  | Forretress         |  0.02202% | 788    |  0.665% | 0      |  0.000% | 
 | 394  | Carracosta         |  0.02187% | 197    |  0.166% | 0      |  0.000% | 
 | 395  | Passimian          |  0.02180% | 452    |  0.382% | 0      |  0.000% | 
 | 396  | Pyroar             |  0.02044% | 314    |  0.265% | 0      |  0.000% | 
 | 397  | Absol-Mega         |  0.02008% | 582    |  0.491% | 0      |  0.000% | 
 | 398  | Piplup             |  0.01993% | 10     |  0.008% | 0      |  0.000% | 
 | 399  | Heracross          |  0.01955% | 289    |  0.244% | 0      |  0.000% | 
 | 400  | Druddigon          |  0.01931% | 385    |  0.325% | 0      |  0.000% | 
 | 401  | Mesprit            |  0.01915% | 86     |  0.073% | 0      |  0.000% | 
 | 402  | Avalugg            |  0.01865% | 333    |  0.281% | 0      |  0.000% | 
 | 403  | Mimikyu-Totem      |  0.01839% | 5      |  0.004% | 0      |  0.000% | 
 | 404  | Ariados            |  0.01838% | 183    |  0.154% | 0      |  0.000% | 
 | 405  | Dedenne            |  0.01827% | 187    |  0.158% | 0      |  0.000% | 
 | 406  | Houndoom           |  0.01824% | 364    |  0.307% | 0      |  0.000% | 
 | 407  | Dragonair          |  0.01821% | 79     |  0.067% | 0      |  0.000% | 
 | 408  | Munchlax           |  0.01785% | 66     |  0.056% | 0      |  0.000% | 
 | 409  | Plusle             |  0.01724% | 665    |  0.561% | 0      |  0.000% | 
 | 410  | Tangela            |  0.01712% | 151    |  0.127% | 0      |  0.000% | 
 | 411  | Kommo-o-Totem      |  0.01712% | 22     |  0.019% | 0      |  0.000% | 
 | 412  | Vileplume          |  0.01680% | 861    |  0.727% | 0      |  0.000% | 
 | 413  | Wigglytuff         |  0.01660% | 308    |  0.260% | 0      |  0.000% | 
 | 414  | Stunfisk           |  0.01570% | 88     |  0.074% | 0      |  0.000% | 
 | 415  | Gourgeist-Super    |  0.01554% | 202    |  0.171% | 0      |  0.000% | 
 | 416  | Jynx               |  0.01458% | 817    |  0.690% | 0      |  0.000% | 
 | 417  | Kingler            |  0.01441% | 294    |  0.248% | 0      |  0.000% | 
 | 418  | Sawsbuck           |  0.01438% | 493    |  0.416% | 0      |  0.000% | 
 | 419  | Pikachu-Sinnoh     |  0.01431% | 15     |  0.013% | 0      |  0.000% | 
 | 420  | Maractus           |  0.01410% | 455    |  0.384% | 0      |  0.000% | 
 | 421  | Probopass          |  0.01368% | 194    |  0.164% | 0      |  0.000% | 
 | 422  | Wobbuffet          |  0.01351% | 347    |  0.293% | 0      |  0.000% | 
 | 423  | Exeggutor          |  0.01342% | 499    |  0.421% | 0      |  0.000% | 
 | 424  | Deoxys-Speed       |  0.01341% | 310    |  0.262% | 0      |  0.000% | 
 | 425  | Swellow            |  0.01310% | 259    |  0.219% | 0      |  0.000% | 
 | 426  | Victreebel         |  0.01298% | 389    |  0.328% | 0      |  0.000% | 
 | 427  | Delcatty           |  0.01191% | 260    |  0.219% | 0      |  0.000% | 
 | 428  | Alomomola          |  0.01166% | 248    |  0.209% | 0      |  0.000% | 
 | 429  | Nidoqueen          |  0.01123% | 419    |  0.354% | 0      |  0.000% | 
 | 430  | Ninjask            |  0.01101% | 615    |  0.519% | 0      |  0.000% | 
 | 431  | Lunatone           |  0.01077% | 311    |  0.263% | 0      |  0.000% | 
 | 432  | Komala             |  0.01016% | 199    |  0.168% | 0      |  0.000% | 
 | 433  | Beedrill           |  0.01008% | 61     |  0.051% | 0      |  0.000% | 
 | 434  | Whiscash           |  0.01006% | 22     |  0.019% | 0      |  0.000% | 
 | 435  | Clawitzer          |  0.01003% | 375    |  0.317% | 0      |  0.000% | 
 | 436  | Uxie               |  0.00985% | 174    |  0.147% | 0      |  0.000% | 
 | 437  | Pidgeot            |  0.00960% | 162    |  0.137% | 0      |  0.000% | 
 | 438  | Barbaracle         |  0.00946% | 182    |  0.154% | 0      |  0.000% | 
 | 439  | Wartortle          |  0.00940% | 36     |  0.030% | 0      |  0.000% | 
 | 440  | Marowak            |  0.00889% | 226    |  0.191% | 0      |  0.000% | 
 | 441  | Chimecho           |  0.00860% | 265    |  0.224% | 0      |  0.000% | 
 | 442  | Dodrio             |  0.00852% | 162    |  0.137% | 0      |  0.000% | 
 | 443  | Mismagius          |  0.00819% | 578    |  0.488% | 0      |  0.000% | 
 | 444  | Manaphy            |  0.00817% | 384    |  0.324% | 0      |  0.000% | 
 | 445  | Ampharos           |  0.00781% | 423    |  0.357% | 0      |  0.000% | 
 | 446  | Eevee              |  0.00736% | 197    |  0.166% | 0      |  0.000% | 
 | 447  | Miltank            |  0.00726% | 672    |  0.567% | 0      |  0.000% | 
 | 448  | Rapidash           |  0.00719% | 251    |  0.212% | 0      |  0.000% | 
 | 449  | Vespiquen          |  0.00715% | 188    |  0.159% | 0      |  0.000% | 
 | 450  | Torracat           |  0.00713% | 29     |  0.024% | 0      |  0.000% | 
 | 451  | Cottonee           |  0.00666% | 265    |  0.224% | 0      |  0.000% | 
 | 452  | Rattata            |  0.00599% | 127    |  0.107% | 0      |  0.000% | 
 | 453  | Dartrix            |  0.00590% | 17     |  0.014% | 0      |  0.000% | 
 | 454  | Charjabug          |  0.00582% | 130    |  0.110% | 0      |  0.000% | 
 | 455  | Butterfree         |  0.00577% | 533    |  0.450% | 0      |  0.000% | 
 | 456  | Castform           |  0.00563% | 291    |  0.246% | 0      |  0.000% | 
 | 457  | Swanna             |  0.00543% | 167    |  0.141% | 0      |  0.000% | 
 | 458  | Porygon            |  0.00542% | 95     |  0.080% | 0      |  0.000% | 
 | 459  | Silvally-Steel     |  0.00526% | 35     |  0.030% | 0      |  0.000% | 
 | 460  | Bouffalant         |  0.00526% | 292    |  0.247% | 0      |  0.000% | 
 | 461  | Gumshoos           |  0.00524% | 151    |  0.127% | 0      |  0.000% | 
 | 462  | Muk                |  0.00506% | 112    |  0.095% | 0      |  0.000% | 
 | 463  | Jumpluff           |  0.00483% | 346    |  0.292% | 0      |  0.000% | 
 | 464  | Minun              |  0.00474% | 392    |  0.331% | 0      |  0.000% | 
 | 465  | Leavanny           |  0.00460% | 401    |  0.339% | 0      |  0.000% | 
 | 466  | Pineco             |  0.00425% | 75     |  0.063% | 0      |  0.000% | 
 | 467  | Diglett            |  0.00407% | 74     |  0.062% | 0      |  0.000% | 
 | 468  | Bewear             |  0.00403% | 285    |  0.241% | 0      |  0.000% | 
 | 469  | Zangoose           |  0.00390% | 1050   |  0.886% | 0      |  0.000% | 
 | 470  | Gorebyss           |  0.00387% | 136    |  0.115% | 0      |  0.000% | 
 | 471  | Pikachu-Partner    |  0.00387% | 18     |  0.015% | 0      |  0.000% | 
 | 472  | Furfrou            |  0.00385% | 96     |  0.081% | 0      |  0.000% | 
 | 473  | Silvally-Water     |  0.00382% | 22     |  0.019% | 0      |  0.000% | 
 | 474  | Lycanroc-Midnight  |  0.00372% | 301    |  0.254% | 0      |  0.000% | 
 | 475  | Doublade           |  0.00362% | 259    |  0.219% | 0      |  0.000% | 
 | 476  | Farfetch'd         |  0.00353% | 76     |  0.064% | 0      |  0.000% | 
 | 477  | Samurott           |  0.00350% | 411    |  0.347% | 0      |  0.000% | 
 | 478  | Volbeat            |  0.00349% | 503    |  0.425% | 0      |  0.000% | 
 | 479  | Hitmonchan         |  0.00342% | 215    |  0.182% | 0      |  0.000% | 
 | 480  | Basculin           |  0.00333% | 135    |  0.114% | 0      |  0.000% | 
 | 481  | Pangoro            |  0.00306% | 257    |  0.217% | 0      |  0.000% | 
 | 482  | Altaria            |  0.00287% | 127    |  0.107% | 0      |  0.000% | 
 | 483  | Dunsparce          |  0.00265% | 167    |  0.141% | 0      |  0.000% | 
 | 484  | Huntail            |  0.00255% | 38     |  0.032% | 0      |  0.000% | 
 | 485  | Illumise           |  0.00247% | 521    |  0.440% | 0      |  0.000% | 
 | 486  | Squirtle           |  0.00237% | 18     |  0.015% | 0      |  0.000% | 
 | 487  | Luvdisc            |  0.00218% | 134    |  0.113% | 0      |  0.000% | 
 | 488  | Garbodor           |  0.00215% | 128    |  0.108% | 0      |  0.000% | 
 | 489  | Bulbasaur          |  0.00213% | 10     |  0.008% | 0      |  0.000% | 
 | 490  | Simisear           |  0.00200% | 40     |  0.034% | 0      |  0.000% | 
 | 491  | Riolu              |  0.00199% | 54     |  0.046% | 0      |  0.000% | 
 | 492  | Gligar             |  0.00196% | 24     |  0.020% | 0      |  0.000% | 
 | 493  | Wormadam-Sandy     |  0.00193% | 24     |  0.020% | 0      |  0.000% | 
 | 494  | Qwilfish           |  0.00190% | 576    |  0.486% | 0      |  0.000% | 
 | 495  | Salandit           |  0.00188% | 27     |  0.023% | 0      |  0.000% | 
 | 496  | Furret             |  0.00179% | 139    |  0.117% | 0      |  0.000% | 
 | 497  | Trapinch           |  0.00172% | 83     |  0.070% | 0      |  0.000% | 
 | 498  | Chinchou           |  0.00167% | 157    |  0.133% | 0      |  0.000% | 
 | 499  | Heatmor            |  0.00156% | 72     |  0.061% | 0      |  0.000% | 
 | 500  | Golbat             |  0.00153% | 22     |  0.019% | 0      |  0.000% | 
 | 501  | Misdreavus         |  0.00153% | 43     |  0.036% | 0      |  0.000% | 
 | 502  | Seviper            |  0.00151% | 198    |  0.167% | 0      |  0.000% | 
 | 503  | Silvally-Dragon    |  0.00147% | 74     |  0.062% | 0      |  0.000% | 
 | 504  | Silvally-Poison    |  0.00145% | 9      |  0.008% | 0      |  0.000% | 
 | 505  | Goldeen            |  0.00142% | 213    |  0.180% | 0      |  0.000% | 
 | 506  | Guzzlord           |  0.00142% | 175    |  0.148% | 0      |  0.000% | 
 | 507  | Glameow            |  0.00142% | 15     |  0.013% | 0      |  0.000% | 
 | 508  | Gourgeist-Small    |  0.00141% | 25     |  0.021% | 0      |  0.000% | 
 | 509  | Gurdurr            |  0.00140% | 13     |  0.011% | 0      |  0.000% | 
 | 510  | Gabite             |  0.00140% | 13     |  0.011% | 0      |  0.000% | 
 | 511  | Frillish           |  0.00137% | 28     |  0.024% | 0      |  0.000% | 
 | 512  | Magikarp           |  0.00135% | 54     |  0.046% | 0      |  0.000% | 
 | 513  | Mawile             |  0.00130% | 151    |  0.127% | 0      |  0.000% | 
 | 514  | Silvally-Fairy     |  0.00110% | 10     |  0.008% | 0      |  0.000% | 
 | 515  | Banette            |  0.00097% | 32     |  0.027% | 0      |  0.000% | 
 | 516  | Magcargo           |  0.00095% | 101    |  0.085% | 0      |  0.000% | 
 | 517  | Gloom              |  0.00090% | 50     |  0.042% | 0      |  0.000% | 
 | 518  | Brionne            |  0.00089% | 11     |  0.009% | 0      |  0.000% | 
 | 519  | Lickitung          |  0.00089% | 95     |  0.080% | 0      |  0.000% | 
 | 520  | Gulpin             |  0.00080% | 13     |  0.011% | 0      |  0.000% | 
 | 521  | Whirlipede         |  0.00075% | 17     |  0.014% | 0      |  0.000% | 
 | 522  | Noctowl            |  0.00074% | 206    |  0.174% | 0      |  0.000% | 
 | 523  | Kadabra            |  0.00071% | 126    |  0.106% | 0      |  0.000% | 
 | 524  | Lairon             |  0.00070% | 6      |  0.005% | 0      |  0.000% | 
 | 525  | Rotom-Fan          |  0.00068% | 66     |  0.056% | 0      |  0.000% | 
 | 526  | Registeel          |  0.00066% | 203    |  0.171% | 0      |  0.000% | 
 | 527  | Gourgeist          |  0.00064% | 81     |  0.068% | 0      |  0.000% | 
 | 528  | Fearow             |  0.00063% | 24     |  0.020% | 0      |  0.000% | 
 | 529  | Mightyena          |  0.00061% | 161    |  0.136% | 0      |  0.000% | 
 | 530  | Grubbin            |  0.00060% | 8      |  0.007% | 0      |  0.000% | 
 | 531  | Rotom              |  0.00059% | 39     |  0.033% | 0      |  0.000% | 
 | 532  | Sealeo             |  0.00054% | 20     |  0.017% | 0      |  0.000% | 
 | 533  | Spritzee           |  0.00052% | 20     |  0.017% | 0      |  0.000% | 
 | 534  | Graveler           |  0.00052% | 9      |  0.008% | 0      |  0.000% | 
 | 535  | Relicanth          |  0.00046% | 151    |  0.127% | 0      |  0.000% | 
 | 536  | Drowzee            |  0.00046% | 2      |  0.002% | 0      |  0.000% | 
 | 537  | Cyndaquil          |  0.00045% | 4      |  0.003% | 0      |  0.000% | 
 | 538  | Quilava            |  0.00044% | 7      |  0.006% | 0      |  0.000% | 
 | 539  | Nidorino           |  0.00044% | 4      |  0.003% | 0      |  0.000% | 
 | 540  | Sandshrew          |  0.00041% | 3      |  0.003% | 0      |  0.000% | 
 | 541  | Crabrawler         |  0.00035% | 81     |  0.068% | 0      |  0.000% | 
 | 542  | Type: Null         |  0.00030% | 253    |  0.214% | 0      |  0.000% | 
 | 543  | Arbok              |  0.00030% | 204    |  0.172% | 0      |  0.000% | 
 | 544  | Vulpix             |  0.00029% | 17     |  0.014% | 0      |  0.000% | 
 | 545  | Herdier            |  0.00027% | 30     |  0.025% | 0      |  0.000% | 
 | 546  | Yamask             |  0.00026% | 10     |  0.008% | 0      |  0.000% | 
 | 547  | Foongus            |  0.00025% | 85     |  0.072% | 0      |  0.000% | 
 | 548  | Ferroseed          |  0.00025% | 16     |  0.014% | 0      |  0.000% | 
 | 549  | Cacnea             |  0.00025% | 10     |  0.008% | 0      |  0.000% | 
 | 550  | Inkay              |  0.00025% | 62     |  0.052% | 0      |  0.000% | 
 | 551  | Mareanie           |  0.00025% | 7      |  0.006% | 0      |  0.000% | 
 | 552  | Pumpkaboo-Super    |  0.00025% | 10     |  0.008% | 0      |  0.000% | 
 | 553  | Skitty             |  0.00024% | 121    |  0.102% | 0      |  0.000% | 
 | 554  | Sneasel            |  0.00023% | 60     |  0.051% | 0      |  0.000% | 
 | 555  | Silvally-Ice       |  0.00022% | 19     |  0.016% | 0      |  0.000% | 
 | 556  | Sawk               |  0.00021% | 57     |  0.048% | 0      |  0.000% | 
 | 557  | Smoochum           |  0.00021% | 259    |  0.219% | 0      |  0.000% | 
 | 558  | Sunkern            |  0.00021% | 22     |  0.019% | 0      |  0.000% | 
 | 559  | Kricketune         |  0.00020% | 29     |  0.024% | 0      |  0.000% | 
 | 560  | Piloswine          |  0.00020% | 40     |  0.034% | 0      |  0.000% | 
 | 561  | NidoranM           |  0.00019% | 12     |  0.010% | 0      |  0.000% | 
 | 562  | Persian            |  0.00019% | 167    |  0.141% | 0      |  0.000% | 
 | 563  | Jigglypuff         |  0.00019% | 70     |  0.059% | 0      |  0.000% | 
 | 564  | Charmeleon         |  0.00019% | 57     |  0.048% | 0      |  0.000% | 
 | 565  | Frogadier          |  0.00019% | 7      |  0.006% | 0      |  0.000% | 
 | 566  | Magneton           |  0.00018% | 101    |  0.085% | 0      |  0.000% | 
 | 567  | Snivy              |  0.00018% | 22     |  0.019% | 0      |  0.000% | 
 | 568  | Ledian             |  0.00018% | 112    |  0.095% | 0      |  0.000% | 
 | 569  | Swalot             |  0.00018% | 80     |  0.068% | 0      |  0.000% | 
 | 570  | Phione             |  0.00017% | 4      |  0.003% | 0      |  0.000% | 
 | 571  | Rowlet             |  0.00017% | 50     |  0.042% | 0      |  0.000% | 
 | 572  | Purrloin           |  0.00017% | 2      |  0.002% | 0      |  0.000% | 
 | 573  | Zweilous           |  0.00016% | 8      |  0.007% | 0      |  0.000% | 
 | 574  | Spewpa             |  0.00015% | 11     |  0.009% | 0      |  0.000% | 
 | 575  | Silvally-Flying    |  0.00015% | 19     |  0.016% | 0      |  0.000% | 
 | 576  | Throh              |  0.00014% | 77     |  0.065% | 0      |  0.000% | 
 | 577  | Meditite           |  0.00014% | 20     |  0.017% | 0      |  0.000% | 
 | 578  | Oricorio-Pa'u      |  0.00013% | 53     |  0.045% | 0      |  0.000% | 
 | 579  | Octillery          |  0.00013% | 101    |  0.085% | 0      |  0.000% | 
 | 580  | Prinplup           |  0.00013% | 6      |  0.005% | 0      |  0.000% | 
 | 581  | Haunter            |  0.00013% | 110    |  0.093% | 0      |  0.000% | 
 | 582  | Tyrunt             |  0.00009% | 8      |  0.007% | 0      |  0.000% | 
 | 583  | Nuzleaf            |  0.00009% | 3      |  0.003% | 0      |  0.000% | 
 | 584  | Geodude            |  0.00009% | 6      |  0.005% | 0      |  0.000% | 
 | 585  | Rattata-Alola      |  0.00009% | 6      |  0.005% | 0      |  0.000% | 
 | 586  | Helioptile         |  0.00008% | 22     |  0.019% | 0      |  0.000% | 
 | 587  | Minccino           |  0.00008% | 14     |  0.012% | 0      |  0.000% | 
 | 588  | Pikachu-Alola      |  0.00007% | 85     |  0.072% | 0      |  0.000% | 
 | 589  | Ivysaur            |  0.00007% | 23     |  0.019% | 0      |  0.000% | 
 | 590  | Vigoroth           |  0.00007% | 74     |  0.062% | 0      |  0.000% | 
 | 591  | Corsola            |  0.00006% | 25     |  0.021% | 0      |  0.000% | 
 | 592  | Magnemite          |  0.00006% | 19     |  0.016% | 0      |  0.000% | 
 | 593  | Wynaut             |  0.00006% | 13     |  0.011% | 0      |  0.000% | 
 | 594  | Azurill            |  0.00005% | 22     |  0.019% | 0      |  0.000% | 
 | 595  | Bibarel            |  0.00005% | 176    |  0.149% | 0      |  0.000% | 
 | 596  | Pawniard           |  0.00005% | 5      |  0.004% | 0      |  0.000% | 
 | 597  | Magmar             |  0.00005% | 46     |  0.039% | 0      |  0.000% | 
 | 598  | Buneary            |  0.00005% | 188    |  0.159% | 0      |  0.000% | 
 | 599  | Eelektrik          |  0.00004% | 9      |  0.008% | 0      |  0.000% | 
 | 600  | Carnivine          |  0.00004% | 47     |  0.040% | 0      |  0.000% | 
 | 601  | Joltik             |  0.00004% | 19     |  0.016% | 0      |  0.000% | 
 | 602  | Drifloon           |  0.00003% | 13     |  0.011% | 0      |  0.000% | 
 | 603  | Roselia            |  0.00002% | 5      |  0.004% | 0      |  0.000% | 
 | 604  | Silvally-Psychic   |  0.00002% | 12     |  0.010% | 0      |  0.000% | 
 | 605  | Croagunk           |  0.00002% | 20     |  0.017% | 0      |  0.000% | 
 | 606  | Ralts              |  0.00002% | 12     |  0.010% | 0      |  0.000% | 
 | 607  | Dewott             |  0.00002% | 4      |  0.003% | 0      |  0.000% | 
 | 608  | Tropius            |  0.00002% | 194    |  0.164% | 0      |  0.000% | 
 | 609  | Cutiefly           |  0.00002% | 16     |  0.014% | 0      |  0.000% | 
 | 610  | Chimchar           |  0.00002% | 3      |  0.003% | 0      |  0.000% | 
 | 611  | Bidoof             |  0.00002% | 44     |  0.037% | 0      |  0.000% | 
 | 612  | Simipour           |  0.00002% | 35     |  0.030% | 0      |  0.000% | 
 | 613  | Cosmoem            |  0.00001% | 6      |  0.005% | 0      |  0.000% | 
 | 614  | Exeggcute          |  0.00001% | 1      |  0.001% | 0      |  0.000% | 
 | 615  | Seedot             |  0.00001% | 9      |  0.008% | 0      |  0.000% | 
 | 616  | Lotad              |  0.00001% | 3      |  0.003% | 0      |  0.000% | 
 | 617  | Electabuzz         |  0.00001% | 32     |  0.027% | 0      |  0.000% | 
 | 618  | Gourgeist-Large    |  0.00001% | 7      |  0.006% | 0      |  0.000% | 
 | 619  | Scraggy            |  0.00001% | 15     |  0.013% | 0      |  0.000% | 
 | 620  | Blitzle            |  0.00001% | 7      |  0.006% | 0      |  0.000% | 
 | 621  | Caterpie           |  0.00001% | 5      |  0.004% | 0      |  0.000% | 
 | 622  | Litten             |  0.00001% | 5      |  0.004% | 0      |  0.000% | 
 | 623  | Popplio            |  0.00001% | 14     |  0.012% | 0      |  0.000% | 
 | 624  | Oddish             |  0.00001% | 14     |  0.012% | 0      |  0.000% | 
 | 625  | Sandygast          |  0.00001% | 5      |  0.004% | 0      |  0.000% | 
 | 626  | Igglybuff          |  0.00001% | 21     |  0.018% | 0      |  0.000% | 
 | 627  | Wormadam-Trash     |  0.00001% | 34     |  0.029% | 0      |  0.000% | 
 | 628  | Deoxys             |  0.00001% | 23     |  0.019% | 0      |  0.000% | 
 | 629  | Pignite            |  0.00001% | 46     |  0.039% | 0      |  0.000% | 
 | 630  | Swirlix            |  0.00001% | 25     |  0.021% | 0      |  0.000% | 
 | 631  | Silvally-Fire      |  0.00001% | 12     |  0.010% | 0      |  0.000% | 
 | 632  | Pancham            |  0.00001% | 57     |  0.048% | 0      |  0.000% | 
 | 633  | Watchog            |  0.00000% | 96     |  0.081% | 0      |  0.000% | 
 | 634  | Sliggoo            |  0.00000% | 4      |  0.003% | 0      |  0.000% | 
 | 635  | Meowth-Alola       |  0.00000% | 3      |  0.003% | 0      |  0.000% | 
 | 636  | Fletchling         |  0.00000% | 2      |  0.002% | 0      |  0.000% | 
 | 637  | Bunnelby           |  0.00000% | 6      |  0.005% | 0      |  0.000% | 
 | 638  | Stufful            |  0.00000% | 11     |  0.009% | 0      |  0.000% | 
 | 639  | Beautifly          |  0.00000% | 66     |  0.056% | 0      |  0.000% | 
 | 640  | Litwick            |  0.00000% | 17     |  0.014% | 0      |  0.000% | 
 | 641  | Litleo             |  0.00000% | 11     |  0.009% | 0      |  0.000% | 
 | 642  | Mudkip             |  0.00000% | 10     |  0.008% | 0      |  0.000% | 
 | 643  | Zorua              |  0.00000% | 7      |  0.006% | 0      |  0.000% | 
 | 644  | Simisage           |  0.00000% | 45     |  0.038% | 0      |  0.000% | 
 | 645  | Raticate-Alola     |  0.00000% | 26     |  0.022% | 0      |  0.000% | 
 | 646  | Fletchinder        |  0.00000% | 5      |  0.004% | 0      |  0.000% | 
 | 647  | Trumbeak           |  0.00000% | 33     |  0.028% | 0      |  0.000% | 
 | 648  | Braixen            |  0.00000% | 85     |  0.072% | 0      |  0.000% | 
 | 649  | Oshawott           |  0.00000% | 3      |  0.003% | 0      |  0.000% | 
 | 650  | Flaaffy            |  0.00000% | 19     |  0.016% | 0      |  0.000% | 
 | 651  | Rufflet            |  0.00000% | 2      |  0.002% | 0      |  0.000% | 
 | 652  | Loudred            |  0.00000% | 3      |  0.003% | 0      |  0.000% | 
 | 653  | Pichu              |  0.00000% | 15     |  0.013% | 0      |  0.000% | 
 | 654  | Monferno           |  0.00000% | 3      |  0.003% | 0      |  0.000% | 
 | 655  | Koffing            |  0.00000% | 7      |  0.006% | 0      |  0.000% | 
 | 656  | Pikachu-Kalos      |  0.00000% | 7      |  0.006% | 0      |  0.000% | 
 | 657  | Mareep             |  0.00000% | 10     |  0.008% | 0      |  0.000% | 
 | 658  | Wailmer            |  0.00000% | 7      |  0.006% | 0      |  0.000% | 
 | 659  | Seadra             |  0.00000% | 3      |  0.003% | 0      |  0.000% | 
 | 660  | Machoke            |  0.00000% | 13     |  0.011% | 0      |  0.000% | 
 | 661  | Charmander         |  0.00000% | 13     |  0.011% | 0      |  0.000% | 
 | 662  | Klang              |  0.00000% | 7      |  0.006% | 0      |  0.000% | 
 | 663  | Vulpix-Alola       |  0.00000% | 70     |  0.059% | 0      |  0.000% | 
 | 664  | Buizel             |  0.00000% | 22     |  0.019% | 0      |  0.000% | 
 | 665  | Mime Jr.           |  0.00000% | 16     |  0.014% | 0      |  0.000% | 
 | 666  | Kirlia             |  0.00000% | 4      |  0.003% | 0      |  0.000% | 
 | 667  | Diglett-Alola      |  0.00000% | 6      |  0.005% | 0      |  0.000% | 
 | 668  | Grovyle            |  0.00000% | 32     |  0.027% | 0      |  0.000% | 
 | 669  | Combusken          |  0.00000% | 7      |  0.006% | 0      |  0.000% | 
 | 670  | Fennekin           |  0.00000% | 2      |  0.002% | 0      |  0.000% | 
 | 671  | Torchic            |  0.00000% | 2      |  0.002% | 0      |  0.000% | 
 | 672  | Corphish           |  0.00000% | 6      |  0.005% | 0      |  0.000% | 
 | 673  | Glalie             |  0.00000% | 55     |  0.046% | 0      |  0.000% | 
 | 674  | Houndour           |  0.00000% | 3      |  0.003% | 0      |  0.000% | 
 | 675  | Pinsir             |  0.00000% | 328    |  0.277% | 0      |  0.000% | 
 | 676  | Dratini            |  0.00000% | 1      |  0.001% | 0      |  0.000% | 
 | 677  | Weedle             |  0.00000% | 2      |  0.002% | 0      |  0.000% | 
 | 678  | Swadloon           |  0.00000% | 4      |  0.003% | 0      |  0.000% | 
 | 679  | Happiny            |  0.00000% | 2      |  0.002% | 0      |  0.000% | 
 | 680  | Honedge            |  0.00000% | 7      |  0.006% | 0      |  0.000% | 
 | 681  | Silvally-Grass     |  0.00000% | 10     |  0.008% | 0      |  0.000% | 
 | 682  | Phantump           |  0.00000% | 16     |  0.014% | 0      |  0.000% | 
 | 683  | Boldore            |  0.00000% | 53     |  0.045% | 0      |  0.000% | 
 | 684  | Raticate           |  0.00000% | 48     |  0.041% | 0      |  0.000% | 
 | 685  | Spoink             |  0.00000% | 1      |  0.001% | 0      |  0.000% | 
 | 686  | Rhyhorn            |  0.00000% | 5      |  0.004% | 0      |  0.000% | 
 | 687  | Snubbull           |  0.00000% | 196    |  0.165% | 0      |  0.000% | 
 | 688  | Marill             |  0.00000% | 4      |  0.003% | 0      |  0.000% | 
 | 689  | Meowth             |  0.00000% | 10     |  0.008% | 0      |  0.000% | 
 | 690  | Surskit            |  0.00000% | 3      |  0.003% | 0      |  0.000% | 
 | 691  | Dustox             |  0.00000% | 45     |  0.038% | 0      |  0.000% | 
 | 692  | Roggenrola         |  0.00000% | 3      |  0.003% | 0      |  0.000% | 
 | 693  | Kakuna             |  0.00000% | 3      |  0.003% | 0      |  0.000% | 
 | 694  | Makuhita           |  0.00000% | 2      |  0.002% | 0      |  0.000% | 
 | 695  | Chingling          |  0.00000% | 18     |  0.015% | 0      |  0.000% | 
 | 696  | Shieldon           |  0.00000% | 6      |  0.005% | 0      |  0.000% | 
 | 697  | Tepig              |  0.00000% | 1      |  0.001% | 0      |  0.000% | 
 | 698  | Rockruff           |  0.00000% | 3      |  0.003% | 0      |  0.000% | 
 | 699  | Bonsly             |  0.00000% | 24     |  0.020% | 0      |  0.000% | 
 | 700  | Voltorb            |  0.00000% | 1      |  0.001% | 0      |  0.000% | 
 | 701  | Gothita            |  0.00000% | 6      |  0.005% | 0      |  0.000% | 
 | 702  | Silvally-Bug       |  0.00000% | 18     |  0.015% | 0      |  0.000% | 
 | 703  | Omanyte            |  0.00000% | 3      |  0.003% | 0      |  0.000% | 
 | 704  | Tirtouga           |  0.00000% | 12     |  0.010% | 0      |  0.000% | 
 | 705  | Paras              |  0.00000% | 181    |  0.153% | 0      |  0.000% | 
 | 706  | Amaura             |  0.00000% | 185    |  0.156% | 0      |  0.000% | 
 | 707  | Shaymin            |  0.00000% | 15     |  0.013% | 0      |  0.000% | 
 | 708  | Sentret            |  0.00000% | 4      |  0.003% | 0      |  0.000% | 
 | 709  | Aipom              |  0.00000% | 13     |  0.011% | 0      |  0.000% | 
 | 710  | Flabebe            |  0.00000% | 2      |  0.002% | 0      |  0.000% | 
 | 711  | Woobat             |  0.00000% | 9      |  0.008% | 0      |  0.000% | 
 | 712  | Deerling           |  0.00000% | 6      |  0.005% | 0      |  0.000% | 
 | 713  | Pidgey             |  0.00000% | 2      |  0.002% | 0      |  0.000% | 
 | 714  | Duosion            |  0.00000% | 5      |  0.004% | 0      |  0.000% | 
 | 715  | Cleffa             |  0.00000% | 4      |  0.003% | 0      |  0.000% | 
 | 716  | Binacle            |  0.00000% | 3      |  0.003% | 0      |  0.000% | 
 | 717  | Sandshrew-Alola    |  0.00000% | 5      |  0.004% | 0      |  0.000% | 
 | 718  | Skiploom           |  0.00000% | 7      |  0.006% | 0      |  0.000% | 
 | 719  | Archen             |  0.00000% | 2      |  0.002% | 0      |  0.000% | 
 | 720  | Remoraid           |  0.00000% | 3      |  0.003% | 0      |  0.000% | 
 | 721  | Totodile           |  0.00000% | 3      |  0.003% | 0      |  0.000% | 
 | 722  | Wooper             |  0.00000% | 14     |  0.012% | 0      |  0.000% | 
 | 723  | Seel               |  0.00000% | 8      |  0.007% | 0      |  0.000% | 
 | 724  | Hakamo-o           |  0.00000% | 1      |  0.001% | 0      |  0.000% | 
 | 725  | Vanillish          |  0.00000% | 7      |  0.006% | 0      |  0.000% | 
 | 726  | Elekid             |  0.00000% | 1      |  0.001% | 0      |  0.000% | 
 | 727  | Yanma              |  0.00000% | 3      |  0.003% | 0      |  0.000% | 
 | 728  | Metang             |  0.00000% | 1      |  0.001% | 0      |  0.000% | 
 | 729  | Weepinbell         |  0.00000% | 1      |  0.001% | 0      |  0.000% | 
 | 730  | Togepi             |  0.00000% | 10     |  0.008% | 0      |  0.000% | 
 | 731  | Venonat            |  0.00000% | 1      |  0.001% | 0      |  0.000% | 
 | 732  | Treecko            |  0.00000% | 4      |  0.003% | 0      |  0.000% | 
 | 733  | Cherubi            |  0.00000% | 4      |  0.003% | 0      |  0.000% | 
 | 734  | Mudbray            |  0.00000% | 2      |  0.002% | 0      |  0.000% | 
 | 735  | Poipole            |  0.00000% | 27     |  0.023% | 0      |  0.000% | 
 | 736  | Staryu             |  0.00000% | 2      |  0.002% | 0      |  0.000% | 
 | 737  | Pidove             |  0.00000% | 1      |  0.001% | 0      |  0.000% | 
 | 738  | Budew              |  0.00000% | 2      |  0.002% | 0      |  0.000% | 
 | 739  | Mantyke            |  0.00000% | 8      |  0.007% | 0      |  0.000% | 
 | 740  | Shellos            |  0.00000% | 12     |  0.010% | 0      |  0.000% | 
 | 741  | Psyduck            |  0.00000% | 1      |  0.001% | 0      |  0.000% | 
 | 742  | Cascoon            |  0.00000% | 2      |  0.002% | 0      |  0.000% | 
 | 743  | Abra               |  0.00000% | 4      |  0.003% | 0      |  0.000% | 
 | 744  | Marshtomp          |  0.00000% | 8      |  0.007% | 0      |  0.000% | 
 | 745  | Anorith            |  0.00000% | 2      |  0.002% | 0      |  0.000% | 
 | 746  | Nosepass           |  0.00000% | 39     |  0.033% | 0      |  0.000% | 
 | 747  | Chikorita          |  0.00000% | 1      |  0.001% | 0      |  0.000% | 
 | 748  | Duskull            |  0.00000% | 2      |  0.002% | 0      |  0.000% | 
 | 749  | Metapod            |  0.00000% | 8      |  0.007% | 0      |  0.000% | 
 | 750  | Bayleef            |  0.00000% | 2      |  0.002% | 0      |  0.000% | 
 | 751  | Ponyta             |  0.00000% | 1      |  0.001% | 0      |  0.000% | 
 | 752  | Taillow            |  0.00000% | 8      |  0.007% | 0      |  0.000% | 
 | 753  | Shroomish          |  0.00000% | 1      |  0.001% | 0      |  0.000% | 
 | 754  | Carvanha           |  0.00000% | 1      |  0.001% | 0      |  0.000% | 
 | 755  | Elgyem             |  0.00000% | 1      |  0.001% | 0      |  0.000% | 
 | 756  | Floette            |  0.00000% | 6      |  0.005% | 0      |  0.000% | 
 | 757  | Electrike          |  0.00000% | 2      |  0.002% | 0      |  0.000% | 
 | 758  | Wormadam           |  0.00000% | 3      |  0.003% | 0      |  0.000% | 
 | 759  | Pikachu-Original   |  0.00000% | 1      |  0.001% | 0      |  0.000% | 
 | 760  | Shellder           |  0.00000% | 3      |  0.003% | 0      |  0.000% | 
 | 761  | Skorupi            |  0.00000% | 1      |  0.001% | 0      |  0.000% | 
 | 762  | Starly             |  0.00000% | 1      |  0.001% | 0      |  0.000% | 
 | 763  | Shelgon            |  0.00000% | 3      |  0.003% | 0      |  0.000% | 
 | 764  | Trubbish           |  0.00000% | 3      |  0.003% | 0      |  0.000% | 
 | 765  | Clauncher          |  0.00000% | 2      |  0.002% | 0      |  0.000% | 
 | 766  | Noibat             |  0.00000% | 4      |  0.003% | 0      |  0.000% | 
 | 767  | Hoothoot           |  0.00000% | 1      |  0.001% | 0      |  0.000% | 
 | 768  | Tyrogue            |  0.00000% | 6      |  0.005% | 0      |  0.000% | 
 | 769  | Swablu             |  0.00000% | 3      |  0.003% | 0      |  0.000% | 
 | 770  | Gible              |  0.00000% | 1      |  0.001% | 0      |  0.000% | 
 | 771  | Ekans              |  0.00000% | 26     |  0.022% | 0      |  0.000% | 
 | 772  | Gastly             |  0.00000% | 11     |  0.009% | 0      |  0.000% | 
 | 773  | Mothim             |  0.00000% | 18     |  0.015% | 0      |  0.000% | 
 | 774  | Teddiursa          |  0.00000% | 4      |  0.003% | 0      |  0.000% | 
 | 775  | Solosis            |  0.00000% | 7      |  0.006% | 0      |  0.000% | 
 | 776  | Silvally-Dark      |  0.00000% | 61     |  0.051% | 0      |  0.000% | 
 | 777  | Chespin            |  0.00000% | 3      |  0.003% | 0      |  0.000% | 
 | 778  | Swinub             |  0.00000% | 4      |  0.003% | 0      |  0.000% | 
 | 779  | Bronzor            |  0.00000% | 4      |  0.003% | 0      |  0.000% | 
 | 780  | Dwebble            |  0.00000% | 4      |  0.003% | 0      |  0.000% | 
 | 781  | Turtwig            |  0.00000% | 1      |  0.001% | 0      |  0.000% | 
 | 782  | Morelull           |  0.00000% | 2      |  0.002% | 0      |  0.000% | 
 | 783  | Steenee            |  0.00000% | 3      |  0.003% | 0      |  0.000% | 
 | 784  | Snover             |  0.00000% | 1      |  0.001% | 0      |  0.000% | 
 | 785  | Zigzagoon          |  0.00000% | 5      |  0.004% | 0      |  0.000% | 
 | 786  | Shinx              |  0.00000% | 1      |  0.001% | 0      |  0.000% | 
 | 787  | Bagon              |  0.00000% | 2      |  0.002% | 0      |  0.000% | 
 | 788  | Servine            |  0.00000% | 6      |  0.005% | 0      |  0.000% | 
 | 789  | Dewpider           |  0.00000% | 5      |  0.004% | 0      |  0.000% | 
 | 790  | Unown              |  0.00000% | 1      |  0.001% | 0      |  0.000% | 
 | 791  | Spinarak           |  0.00000% | 2      |  0.002% | 0      |  0.000% | 
 | 792  | Growlithe          |  0.00000% | 5      |  0.004% | 0      |  0.000% | 
 | 793  | Lileep             |  0.00000% | 9      |  0.008% | 0      |  0.000% | 
 | 794  | Silvally-Ghost     |  0.00000% | 3      |  0.003% | 0      |  0.000% | 
 | 795  | Feebas             |  0.00000% | 5      |  0.004% | 0      |  0.000% | 
 | 796  | Luxio              |  0.00000% | 21     |  0.018% | 0      |  0.000% | 
 | 797  | Darumaka           |  0.00000% | 2      |  0.002% | 0      |  0.000% | 
 | 798  | Staravia           |  0.00000% | 21     |  0.018% | 0      |  0.000% | 
 | 799  | Palpitoad          |  0.00000% | 4      |  0.003% | 0      |  0.000% | 
 | 800  | Pikachu-Hoenn      |  0.00000% | 4      |  0.003% | 0      |  0.000% | 
 | 801  | Marowak-Alola-Totem |  0.00000% | 9      |  0.008% | 0      |  0.000% | 
 | 802  | Mienfoo            |  0.00000% | 1      |  0.001% | 0      |  0.000% | 
 | 803  | Vanillite          |  0.00000% | 12     |  0.010% | 0      |  0.000% | 
 | 804  | Axew               |  0.00000% | 2      |  0.002% | 0      |  0.000% | 
 | 805  | Slugma             |  0.00000% | 1      |  0.001% | 0      |  0.000% | 
 | 806  | Natu               |  0.00000% | 5      |  0.004% | 0      |  0.000% | 
 | 807  | Graveler-Alola     |  0.00000% | 6      |  0.005% | 0      |  0.000% | 
 | 808  | Silvally-Ground    |  0.00000% | 6      |  0.005% | 0      |  0.000% | 
 | 809  | Pupitar            |  0.00000% | 2      |  0.002% | 0      |  0.000% | 
 | 810  | Shuppet            |  0.00000% | 2      |  0.002% | 0      |  0.000% | 
 | 811  | Machop             |  0.00000% | 3      |  0.003% | 0      |  0.000% | 
 | 812  | Froakie            |  0.00000% | 3      |  0.003% | 0      |  0.000% | 
 | 813  | Cranidos           |  0.00000% | 2      |  0.002% | 0      |  0.000% | 
 | 814  | Burmy              |  0.00000% | 2      |  0.002% | 0      |  0.000% | 
 | 815  | Cubone             |  0.00000% | 7      |  0.006% | 0      |  0.000% | 
 + ---- + ------------------ + --------- + ------ + ------- + ------ + ------- + 
