 Total battles: 10570
 Avg. weight/team: 0.009
 + ---- + ------------------ + --------- + ------ + ------- + ------ + ------- + 
 | Rank | Pokemon            | Usage %   | Raw    | %       | Real   | %       | 
 + ---- + ------------------ + --------- + ------ + ------- + ------ + ------- + 
 | 1    | Metagross          | 24.57161% | 4101   | 19.399% | 3264   | 19.580% | 
 | 2    | Florges            | 21.89117% | 2223   | 10.516% | 1697   | 10.180% | 
 | 3    | Registeel          | 21.77723% | 1799   |  8.510% | 1552   |  9.310% | 
 | 4    | Blastoise-Mega     | 20.65921% | 3728   | 17.635% | 2935   | 17.607% | 
 | 5    | Mandibuzz          | 19.70498% | 1840   |  8.704% | 1496   |  8.974% | 
 | 6    | Donphan            | 17.59625% | 2234   | 10.568% | 1926   | 11.554% | 
 | 7    | Umbreon            | 17.28875% | 2028   |  9.593% | 1554   |  9.322% | 
 | 8    | Shaymin            | 16.24340% | 786    |  3.718% | 565    |  3.389% | 
 | 9    | Snorlax            | 14.46113% | 2539   | 12.010% | 1939   | 11.632% | 
 | 10   | Cresselia          | 14.41758% | 1099   |  5.199% | 820    |  4.919% | 
 | 11   | Golisopod          | 14.04120% | 1831   |  8.661% | 1481   |  8.884% | 
 | 12   | Forretress         | 12.80497% | 2168   | 10.255% | 1966   | 11.794% | 
 | 13   | Vaporeon           | 11.98126% | 469    |  2.219% | 377    |  2.262% | 
 | 14   | Mismagius          | 11.10778% | 464    |  2.195% | 356    |  2.136% | 
 | 15   | Nidoqueen          | 11.03916% | 1711   |  8.094% | 1479   |  8.872% | 
 | 16   | Qwilfish           | 10.40299% | 106    |  0.501% | 89     |  0.534% | 
 | 17   | Druddigon          | 10.14610% | 235    |  1.112% | 214    |  1.284% | 
 | 18   | Milotic            |  9.60674% | 3394   | 16.055% | 2730   | 16.377% | 
 | 19   | Tangela            |  9.37351% | 125    |  0.591% | 105    |  0.630% | 
 | 20   | Noivern            |  9.25663% | 1424   |  6.736% | 1140   |  6.839% | 
 | 21   | Zygarde-10%        |  9.05928% | 909    |  4.300% | 660    |  3.959% | 
 | 22   | Venusaur           |  9.00993% | 1269   |  6.003% | 1025   |  6.149% | 
 | 23   | Flygon             |  8.20320% | 2332   | 11.031% | 1830   | 10.978% | 
 | 24   | Torkoal            |  7.82621% | 463    |  2.190% | 424    |  2.544% | 
 | 25   | Gardevoir          |  7.74119% | 2355   | 11.140% | 1788   | 10.726% | 
 | 26   | Rhyperior          |  7.41253% | 832    |  3.936% | 690    |  4.139% | 
 | 27   | Porygon2           |  7.22862% | 1299   |  6.145% | 1017   |  6.101% | 
 | 28   | Sceptile-Mega      |  6.85892% | 2441   | 11.547% | 1734   | 10.402% | 
 | 29   | Virizion           |  6.78797% | 1267   |  5.993% | 934    |  5.603% | 
 | 30   | Necrozma           |  6.58958% | 662    |  3.132% | 513    |  3.077% | 
 | 31   | Salazzle           |  6.40244% | 2202   | 10.416% | 1635   |  9.808% | 
 | 32   | Roserade           |  6.03483% | 1825   |  8.633% | 1460   |  8.758% | 
 | 33   | Machamp            |  5.94009% | 1918   |  9.073% | 1544   |  9.262% | 
 | 34   | Goodra             |  5.87727% | 1580   |  7.474% | 1193   |  7.157% | 
 | 35   | Pyukumuku          |  5.80840% | 118    |  0.558% | 92     |  0.552% | 
 | 36   | Slowbro            |  5.68313% | 1172   |  5.544% | 942    |  5.651% | 
 | 37   | Arcanine           |  5.66933% | 3192   | 15.099% | 2509   | 15.051% | 
 | 38   | Gastrodon          |  5.55835% | 132    |  0.624% | 108    |  0.648% | 
 | 39   | Abomasnow-Mega     |  5.35065% | 481    |  2.275% | 341    |  2.046% | 
 | 40   | Yanmega            |  4.82132% | 1488   |  7.039% | 1135   |  6.809% | 
 | 41   | Aerodactyl         |  4.70772% | 263    |  1.244% | 212    |  1.272% | 
 | 42   | Cloyster           |  4.69759% | 2524   | 11.939% | 1907   | 11.440% | 
 | 43   | Raikou             |  4.65525% | 1402   |  6.632% | 1074   |  6.443% | 
 | 44   | Houndoom           |  4.32179% | 221    |  1.045% | 177    |  1.062% | 
 | 45   | Bronzong           |  4.24930% | 1829   |  8.652% | 1632   |  9.790% | 
 | 46   | Espeon             |  4.17032% | 2400   | 11.353% | 1880   | 11.278% | 
 | 47   | Honchkrow          |  4.06862% | 1726   |  8.165% | 1299   |  7.793% | 
 | 48   | Lycanroc-Dusk      |  4.03819% | 994    |  4.702% | 715    |  4.289% | 
 | 49   | Swellow            |  3.99960% | 828    |  3.917% | 621    |  3.725% | 
 | 50   | Escavalier         |  3.84428% | 998    |  4.721% | 805    |  4.829% | 
 | 51   | Hariyama           |  3.82058% | 202    |  0.956% | 166    |  0.996% | 
 | 52   | Dragalge           |  3.52797% | 680    |  3.217% | 519    |  3.113% | 
 | 53   | Ditto              |  3.48678% | 291    |  1.377% | 202    |  1.212% | 
 | 54   | Drapion            |  3.45890% | 1609   |  7.611% | 1310   |  7.859% | 
 | 55   | Emboar             |  3.43000% | 362    |  1.712% | 303    |  1.818% | 
 | 56   | Slurpuff           |  3.36394% | 601    |  2.843% | 460    |  2.760% | 
 | 57   | Dhelmise           |  3.32606% | 220    |  1.041% | 185    |  1.110% | 
 | 58   | Passimian          |  3.13933% | 371    |  1.755% | 330    |  1.980% | 
 | 59   | Golbat             |  3.00177% | 240    |  1.135% | 205    |  1.230% | 
 | 60   | Araquanid          |  2.82306% | 1802   |  8.524% | 1527   |  9.160% | 
 | 61   | Jolteon            |  2.71296% | 1542   |  7.294% | 1265   |  7.589% | 
 | 62   | Gigalith           |  2.65366% | 939    |  4.442% | 835    |  5.009% | 
 | 63   | Marowak-Alola      |  2.53086% | 1254   |  5.932% | 981    |  5.885% | 
 | 64   | Weezing            |  2.44060% | 210    |  0.993% | 170    |  1.020% | 
 | 65   | Steelix            |  2.40714% | 251    |  1.187% | 231    |  1.386% | 
 | 66   | Klinklang          |  2.39053% | 129    |  0.610% | 100    |  0.600% | 
 | 67   | Delphox            |  2.37702% | 278    |  1.315% | 210    |  1.260% | 
 | 68   | Tyrantrum          |  2.24006% | 935    |  4.423% | 695    |  4.169% | 
 | 69   | Rotom-Mow          |  2.11943% | 960    |  4.541% | 773    |  4.637% | 
 | 70   | Articuno           |  2.09524% | 146    |  0.691% | 112    |  0.672% | 
 | 71   | Audino-Mega        |  2.02060% | 83     |  0.393% | 66     |  0.396% | 
 | 72   | Uxie               |  2.00149% | 625    |  2.956% | 557    |  3.341% | 
 | 73   | Ninetales          |  1.93395% | 999    |  4.726% | 795    |  4.769% | 
 | 74   | Xatu               |  1.82601% | 326    |  1.542% | 271    |  1.626% | 
 | 75   | Braviary           |  1.72177% | 142    |  0.672% | 117    |  0.702% | 
 | 76   | Toxicroak          |  1.61823% | 1256   |  5.941% | 921    |  5.525% | 
 | 77   | Galvantula         |  1.48174% | 2013   |  9.522% | 1757   | 10.540% | 
 | 78   | Togedemaru         |  1.44907% | 146    |  0.691% | 130    |  0.780% | 
 | 79   | Liepard            |  1.43769% | 202    |  0.956% | 153    |  0.918% | 
 | 80   | Scrafty            |  1.43322% | 438    |  2.072% | 353    |  2.118% | 
 | 81   | Pangoro            |  1.40404% | 271    |  1.282% | 214    |  1.284% | 
 | 82   | Spiritomb          |  1.40325% | 176    |  0.833% | 135    |  0.810% | 
 | 83   | Dusclops           |  1.39261% | 438    |  2.072% | 358    |  2.148% | 
 | 84   | Glalie-Mega        |  1.38831% | 359    |  1.698% | 249    |  1.494% | 
 | 85   | Seismitoad         |  1.34408% | 119    |  0.563% | 102    |  0.612% | 
 | 86   | Luxray             |  1.33749% | 98     |  0.464% | 87     |  0.522% | 
 | 87   | Electivire         |  1.26887% | 279    |  1.320% | 215    |  1.290% | 
 | 88   | Diancie            |  1.25824% | 778    |  3.680% | 663    |  3.977% | 
 | 89   | Mantine            |  1.22525% | 1102   |  5.213% | 914    |  5.483% | 
 | 90   | Ampharos-Mega      |  1.19495% | 1506   |  7.124% | 1065   |  6.389% | 
 | 91   | Cofagrigus         |  1.19455% | 461    |  2.181% | 388    |  2.328% | 
 | 92   | Ribombee           |  1.18145% | 690    |  3.264% | 540    |  3.239% | 
 | 93   | Sawk               |  1.16284% | 88     |  0.416% | 63     |  0.378% | 
 | 94   | Hoopa              |  1.09492% | 473    |  2.237% | 349    |  2.094% | 
 | 95   | Barbaracle         |  1.09464% | 283    |  1.339% | 211    |  1.266% | 
 | 96   | Bruxish            |  1.06010% | 149    |  0.705% | 116    |  0.696% | 
 | 97   | Jellicent          |  0.99483% | 119    |  0.563% | 98     |  0.588% | 
 | 98   | Electrode          |  0.99285% | 140    |  0.662% | 127    |  0.762% | 
 | 99   | Avalugg            |  0.95584% | 50     |  0.237% | 42     |  0.252% | 
 | 100  | Bewear             |  0.95170% | 812    |  3.841% | 608    |  3.647% | 
 | 101  | Whimsicott         |  0.88311% | 338    |  1.599% | 270    |  1.620% | 
 | 102  | Charizard          |  0.84023% | 356    |  1.684% | 300    |  1.800% | 
 | 103  | Gallade            |  0.83105% | 163    |  0.771% | 107    |  0.642% | 
 | 104  | Slowking           |  0.82560% | 170    |  0.804% | 125    |  0.750% | 
 | 105  | Accelgor           |  0.80927% | 247    |  1.168% | 181    |  1.086% | 
 | 106  | Exploud            |  0.80601% | 164    |  0.776% | 126    |  0.756% | 
 | 107  | Malamar            |  0.78804% | 405    |  1.916% | 322    |  1.932% | 
 | 108  | Sableye            |  0.77724% | 166    |  0.785% | 147    |  0.882% | 
 | 109  | Typhlosion         |  0.73409% | 419    |  1.982% | 297    |  1.782% | 
 | 110  | Decidueye          |  0.70769% | 209    |  0.989% | 179    |  1.074% | 
 | 111  | Incineroar         |  0.68421% | 299    |  1.414% | 258    |  1.548% | 
 | 112  | Cryogonal          |  0.68337% | 130    |  0.615% | 81     |  0.486% | 
 | 113  | Shiinotic          |  0.67686% | 32     |  0.151% | 24     |  0.144% | 
 | 114  | Comfey             |  0.55305% | 224    |  1.060% | 176    |  1.056% | 
 | 115  | Kingler            |  0.51546% | 169    |  0.799% | 141    |  0.846% | 
 | 116  | Shiftry            |  0.49438% | 126    |  0.596% | 109    |  0.654% | 
 | 117  | Rotom              |  0.49203% | 88     |  0.416% | 80     |  0.480% | 
 | 118  | Sneasel            |  0.48618% | 254    |  1.202% | 171    |  1.026% | 
 | 119  | Palossand          |  0.48186% | 218    |  1.031% | 197    |  1.182% | 
 | 120  | Hitmonlee          |  0.48170% | 363    |  1.717% | 283    |  1.698% | 
 | 121  | Araquanid-Totem    |  0.47615% | 17     |  0.080% | 15     |  0.090% | 
 | 122  | Lapras             |  0.47578% | 199    |  0.941% | 147    |  0.882% | 
 | 123  | Exeggutor-Alola    |  0.44309% | 95     |  0.449% | 76     |  0.456% | 
 | 124  | Heliolisk          |  0.43800% | 154    |  0.728% | 123    |  0.738% | 
 | 125  | Banette-Mega       |  0.43003% | 1200   |  5.676% | 939    |  5.633% | 
 | 126  | Leafeon            |  0.42673% | 527    |  2.493% | 402    |  2.412% | 
 | 127  | Altaria            |  0.41092% | 86     |  0.407% | 70     |  0.420% | 
 | 128  | Camerupt           |  0.41070% | 33     |  0.156% | 27     |  0.162% | 
 | 129  | Cacturne           |  0.41064% | 75     |  0.355% | 50     |  0.300% | 
 | 130  | Beheeyem           |  0.41062% | 53     |  0.251% | 34     |  0.204% | 
 | 131  | Sigilyph           |  0.39982% | 219    |  1.036% | 168    |  1.008% | 
 | 132  | Gurdurr            |  0.39943% | 11     |  0.052% | 10     |  0.060% | 
 | 133  | Sceptile           |  0.39169% | 121    |  0.572% | 70     |  0.420% | 
 | 134  | Meganium           |  0.37944% | 76     |  0.360% | 55     |  0.330% | 
 | 135  | Throh              |  0.34049% | 9      |  0.043% | 8      |  0.048% | 
 | 136  | Scyther            |  0.32316% | 277    |  1.310% | 222    |  1.332% | 
 | 137  | Exeggutor          |  0.30859% | 54     |  0.255% | 39     |  0.234% | 
 | 138  | Kingdra            |  0.26682% | 404    |  1.911% | 306    |  1.836% | 
 | 139  | Omastar            |  0.26463% | 118    |  0.558% | 106    |  0.636% | 
 | 140  | Tsareena           |  0.26185% | 656    |  3.103% | 511    |  3.065% | 
 | 141  | Vikavolt           |  0.25474% | 70     |  0.331% | 60     |  0.360% | 
 | 142  | Camerupt-Mega      |  0.20566% | 294    |  1.391% | 236    |  1.416% | 
 | 143  | Stoutland          |  0.19686% | 173    |  0.818% | 135    |  0.810% | 
 | 144  | Ursaring           |  0.19680% | 116    |  0.549% | 89     |  0.534% | 
 | 145  | Vanilluxe          |  0.19012% | 180    |  0.851% | 138    |  0.828% | 
 | 146  | Bouffalant         |  0.18664% | 25     |  0.118% | 22     |  0.132% | 
 | 147  | Medicham           |  0.16873% | 177    |  0.837% | 146    |  0.876% | 
 | 148  | Drampa             |  0.16367% | 54     |  0.255% | 43     |  0.258% | 
 | 149  | Minior             |  0.16362% | 292    |  1.381% | 170    |  1.020% | 
 | 150  | Archeops           |  0.15782% | 144    |  0.681% | 107    |  0.642% | 
 | 151  | Lanturn            |  0.15375% | 30     |  0.142% | 25     |  0.150% | 
 | 152  | Golem-Alola        |  0.15027% | 133    |  0.629% | 105    |  0.630% | 
 | 153  | Vivillon           |  0.14979% | 107    |  0.506% | 83     |  0.498% | 
 | 154  | Ambipom            |  0.14583% | 513    |  2.427% | 457    |  2.742% | 
 | 155  | Tauros             |  0.12839% | 78     |  0.369% | 57     |  0.342% | 
 | 156  | Silvally-Poison    |  0.12446% | 16     |  0.076% | 11     |  0.066% | 
 | 157  | Audino             |  0.11868% | 43     |  0.203% | 35     |  0.210% | 
 | 158  | Aggron             |  0.11312% | 229    |  1.083% | 186    |  1.116% | 
 | 159  | Hitmontop          |  0.09609% | 208    |  0.984% | 166    |  0.996% | 
 | 160  | Chimecho           |  0.09574% | 34     |  0.161% | 26     |  0.156% | 
 | 161  | Turtonator         |  0.08788% | 69     |  0.326% | 51     |  0.306% | 
 | 162  | Blastoise          |  0.07768% | 132    |  0.624% | 116    |  0.696% | 
 | 163  | Grovyle            |  0.07530% | 5      |  0.024% | 4      |  0.024% | 
 | 164  | Torterra           |  0.07510% | 150    |  0.710% | 127    |  0.762% | 
 | 165  | Sudowoodo          |  0.07495% | 31     |  0.147% | 27     |  0.162% | 
 | 166  | Pikachu            |  0.06788% | 120    |  0.568% | 93     |  0.558% | 
 | 167  | Haunter            |  0.06721% | 36     |  0.170% | 26     |  0.156% | 
 | 168  | Cinccino           |  0.06686% | 289    |  1.367% | 239    |  1.434% | 
 | 169  | Magmortar          |  0.06526% | 127    |  0.601% | 96     |  0.576% | 
 | 170  | Eelektross         |  0.06294% | 152    |  0.719% | 120    |  0.720% | 
 | 171  | Piloswine          |  0.06277% | 78     |  0.369% | 64     |  0.384% | 
 | 172  | Shedinja           |  0.06218% | 92     |  0.435% | 72     |  0.432% | 
 | 173  | Vileplume          |  0.05884% | 311    |  1.471% | 241    |  1.446% | 
 | 174  | Manectric          |  0.05789% | 60     |  0.284% | 53     |  0.318% | 
 | 175  | Mesprit            |  0.05674% | 26     |  0.123% | 25     |  0.150% | 
 | 176  | Purugly            |  0.05247% | 113    |  0.535% | 90     |  0.540% | 
 | 177  | Staravia           |  0.05089% | 13     |  0.061% | 13     |  0.078% | 
 | 178  | Onix               |  0.04901% | 46     |  0.218% | 41     |  0.246% | 
 | 179  | Delibird           |  0.04513% | 15     |  0.071% | 11     |  0.066% | 
 | 180  | Komala             |  0.04473% | 104    |  0.492% | 70     |  0.420% | 
 | 181  | Persian-Alola      |  0.04473% | 117    |  0.553% | 94     |  0.564% | 
 | 182  | Kecleon            |  0.04456% | 127    |  0.601% | 110    |  0.660% | 
 | 183  | Type: Null         |  0.04282% | 129    |  0.610% | 107    |  0.642% | 
 | 184  | Aromatisse         |  0.04252% | 68     |  0.322% | 49     |  0.294% | 
 | 185  | Carracosta         |  0.04101% | 44     |  0.208% | 34     |  0.204% | 
 | 186  | Unown              |  0.03932% | 36     |  0.170% | 23     |  0.138% | 
 | 187  | Leavanny           |  0.03682% | 36     |  0.170% | 32     |  0.192% | 
 | 188  | Marill             |  0.03658% | 7      |  0.033% | 7      |  0.042% | 
 | 189  | Dedenne            |  0.03658% | 12     |  0.057% | 7      |  0.042% | 
 | 190  | Stufful            |  0.03658% | 5      |  0.024% | 2      |  0.012% | 
 | 191  | Oshawott           |  0.03658% | 7      |  0.033% | 4      |  0.024% | 
 | 192  | Spinda             |  0.03653% | 46     |  0.218% | 34     |  0.204% | 
 | 193  | Shuckle            |  0.03556% | 313    |  1.481% | 226    |  1.356% | 
 | 194  | Furret             |  0.03354% | 24     |  0.114% | 21     |  0.126% | 
 | 195  | Slaking            |  0.03350% | 130    |  0.615% | 87     |  0.522% | 
 | 196  | Swoobat            |  0.03221% | 36     |  0.170% | 24     |  0.144% | 
 | 197  | Marowak            |  0.03143% | 56     |  0.265% | 40     |  0.240% | 
 | 198  | Zebstrika          |  0.02899% | 23     |  0.109% | 14     |  0.084% | 
 | 199  | Jumpluff           |  0.02683% | 33     |  0.156% | 26     |  0.156% | 
 | 200  | Sandslash          |  0.02672% | 56     |  0.265% | 51     |  0.306% | 
 | 201  | Lycanroc           |  0.02569% | 70     |  0.331% | 51     |  0.306% | 
 | 202  | Aurorus            |  0.02353% | 127    |  0.601% | 92     |  0.552% | 
 | 203  | Oranguru           |  0.02310% | 4      |  0.019% | 3      |  0.018% | 
 | 204  | Misdreavus         |  0.02310% | 13     |  0.061% | 6      |  0.036% | 
 | 205  | Ludicolo           |  0.01785% | 124    |  0.587% | 110    |  0.660% | 
 | 206  | Plusle             |  0.01780% | 14     |  0.066% | 11     |  0.066% | 
 | 207  | Regirock           |  0.01667% | 135    |  0.639% | 110    |  0.660% | 
 | 208  | Hitmonchan         |  0.01646% | 93     |  0.440% | 70     |  0.420% | 
 | 209  | Clawitzer          |  0.01586% | 151    |  0.714% | 114    |  0.684% | 
 | 210  | Gourgeist-Super    |  0.01581% | 19     |  0.090% | 17     |  0.102% | 
 | 211  | Pyroar             |  0.01498% | 37     |  0.175% | 31     |  0.186% | 
 | 212  | Poliwrath          |  0.01227% | 105    |  0.497% | 88     |  0.528% | 
 | 213  | Basculin           |  0.01183% | 8      |  0.038% | 6      |  0.036% | 
 | 214  | Kangaskhan         |  0.01159% | 60     |  0.284% | 52     |  0.312% | 
 | 215  | Dodrio             |  0.01119% | 115    |  0.544% | 97     |  0.582% | 
 | 216  | Miltank            |  0.01096% | 134    |  0.634% | 115    |  0.690% | 
 | 217  | Flareon            |  0.01044% | 199    |  0.941% | 162    |  0.972% | 
 | 218  | Wobbuffet          |  0.00895% | 27     |  0.128% | 24     |  0.144% | 
 | 219  | Golurk             |  0.00824% | 83     |  0.393% | 65     |  0.390% | 
 | 220  | Musharna           |  0.00780% | 26     |  0.123% | 21     |  0.126% | 
 | 221  | Drifblim           |  0.00751% | 275    |  1.301% | 199    |  1.194% | 
 | 222  | Cradily            |  0.00678% | 160    |  0.757% | 126    |  0.756% | 
 | 223  | Claydol            |  0.00632% | 174    |  0.823% | 148    |  0.888% | 
 | 224  | Zangoose           |  0.00537% | 52     |  0.246% | 43     |  0.258% | 
 | 225  | Ninjask            |  0.00533% | 60     |  0.284% | 46     |  0.276% | 
 | 226  | Masquerain         |  0.00520% | 60     |  0.284% | 51     |  0.306% | 
 | 227  | Beautifly          |  0.00519% | 16     |  0.076% | 14     |  0.084% | 
 | 228  | Victreebel         |  0.00519% | 40     |  0.189% | 27     |  0.162% | 
 | 229  | Lilligant          |  0.00517% | 79     |  0.374% | 60     |  0.360% | 
 | 230  | Granbull           |  0.00508% | 29     |  0.137% | 26     |  0.156% | 
 | 231  | Glaceon            |  0.00499% | 56     |  0.265% | 46     |  0.276% | 
 | 232  | Absol              |  0.00491% | 101    |  0.478% | 89     |  0.534% | 
 | 233  | Banette            |  0.00447% | 8      |  0.038% | 7      |  0.042% | 
 | 234  | Pupitar            |  0.00405% | 2      |  0.009% | 2      |  0.012% | 
 | 235  | Seviper            |  0.00356% | 28     |  0.132% | 24     |  0.144% | 
 | 236  | Murkrow            |  0.00352% | 17     |  0.080% | 10     |  0.060% | 
 | 237  | Sandslash-Alola    |  0.00340% | 66     |  0.312% | 52     |  0.312% | 
 | 238  | Beartic            |  0.00327% | 55     |  0.260% | 43     |  0.258% | 
 | 239  | Primeape           |  0.00301% | 82     |  0.388% | 58     |  0.348% | 
 | 240  | Persian            |  0.00270% | 50     |  0.237% | 40     |  0.240% | 
 | 241  | Rampardos          |  0.00262% | 43     |  0.203% | 35     |  0.210% | 
 | 242  | Floatzel           |  0.00255% | 71     |  0.336% | 54     |  0.324% | 
 | 243  | Dusknoir           |  0.00255% | 123    |  0.582% | 105    |  0.630% | 
 | 244  | Meowstic           |  0.00249% | 58     |  0.274% | 50     |  0.300% | 
 | 245  | Ariados            |  0.00243% | 44     |  0.208% | 38     |  0.228% | 
 | 246  | Golduck            |  0.00233% | 25     |  0.118% | 23     |  0.138% | 
 | 247  | Rotom-Frost        |  0.00182% | 18     |  0.085% | 17     |  0.102% | 
 | 248  | Chikorita          |  0.00171% | 1      |  0.005% | 1      |  0.006% | 
 | 249  | Litten             |  0.00171% | 2      |  0.009% | 2      |  0.012% | 
 | 250  | Popplio            |  0.00171% | 2      |  0.009% | 2      |  0.012% | 
 | 251  | Fennekin           |  0.00171% | 3      |  0.014% | 3      |  0.018% | 
 | 252  | Garbodor           |  0.00160% | 129    |  0.610% | 115    |  0.690% | 
 | 253  | Armaldo            |  0.00149% | 62     |  0.293% | 50     |  0.300% | 
 | 254  | Volbeat            |  0.00138% | 16     |  0.076% | 16     |  0.096% | 
 | 255  | Kadabra            |  0.00128% | 35     |  0.166% | 26     |  0.156% | 
 | 256  | Metang             |  0.00125% | 10     |  0.047% | 10     |  0.060% | 
 | 257  | Carbink            |  0.00093% | 28     |  0.132% | 20     |  0.120% | 
 | 258  | Riolu              |  0.00091% | 21     |  0.099% | 18     |  0.108% | 
 | 259  | Lairon             |  0.00091% | 12     |  0.057% | 11     |  0.066% | 
 | 260  | Butterfree         |  0.00085% | 37     |  0.175% | 30     |  0.180% | 
 | 261  | Ivysaur            |  0.00084% | 3      |  0.014% | 3      |  0.018% | 
 | 262  | Electrike          |  0.00083% | 3      |  0.014% | 2      |  0.012% | 
 | 263  | Bastiodon          |  0.00081% | 38     |  0.180% | 30     |  0.180% | 
 | 264  | Grumpig            |  0.00080% | 5      |  0.024% | 5      |  0.030% | 
 | 265  | Luvdisc            |  0.00080% | 8      |  0.038% | 7      |  0.042% | 
 | 266  | Togetic            |  0.00078% | 28     |  0.132% | 24     |  0.144% | 
 | 267  | Smeargle           |  0.00077% | 77     |  0.364% | 66     |  0.396% | 
 | 268  | Mr. Mime           |  0.00077% | 53     |  0.251% | 41     |  0.246% | 
 | 269  | Mightyena          |  0.00070% | 50     |  0.237% | 37     |  0.222% | 
 | 270  | Lurantis           |  0.00068% | 92     |  0.435% | 64     |  0.384% | 
 | 271  | Pinsir             |  0.00067% | 33     |  0.156% | 28     |  0.168% | 
 | 272  | Crabominable       |  0.00065% | 55     |  0.260% | 45     |  0.270% | 
 | 273  | Rapidash           |  0.00064% | 28     |  0.132% | 28     |  0.168% | 
 | 274  | Krokorok           |  0.00063% | 33     |  0.156% | 26     |  0.156% | 
 | 275  | Jynx               |  0.00060% | 88     |  0.416% | 74     |  0.444% | 
 | 276  | Silvally-Fairy     |  0.00055% | 9      |  0.043% | 9      |  0.054% | 
 | 277  | Crustle            |  0.00049% | 24     |  0.114% | 18     |  0.108% | 
 | 278  | Regice             |  0.00045% | 189    |  0.894% | 155    |  0.930% | 
 | 279  | Regigigas          |  0.00043% | 43     |  0.203% | 29     |  0.174% | 
 | 280  | Arbok              |  0.00043% | 69     |  0.326% | 37     |  0.222% | 
 | 281  | Guzzlord           |  0.00038% | 24     |  0.114% | 18     |  0.108% | 
 | 282  | Golem              |  0.00037% | 41     |  0.194% | 35     |  0.210% | 
 | 283  | Mudsdale           |  0.00037% | 64     |  0.303% | 53     |  0.318% | 
 | 284  | Monferno           |  0.00037% | 4      |  0.019% | 4      |  0.024% | 
 | 285  | Raichu-Alola       |  0.00036% | 71     |  0.336% | 51     |  0.306% | 
 | 286  | Heatmor            |  0.00031% | 21     |  0.099% | 18     |  0.108% | 
 | 287  | Lunatone           |  0.00031% | 13     |  0.061% | 12     |  0.072% | 
 | 288  | Politoed           |  0.00028% | 23     |  0.109% | 19     |  0.114% | 
 | 289  | Gorebyss           |  0.00027% | 17     |  0.080% | 14     |  0.084% | 
 | 290  | Gogoat             |  0.00027% | 22     |  0.104% | 11     |  0.066% | 
 | 291  | Rotom-Fan          |  0.00026% | 27     |  0.128% | 25     |  0.150% | 
 | 292  | Probopass          |  0.00024% | 23     |  0.109% | 20     |  0.120% | 
 | 293  | Bulbasaur          |  0.00024% | 8      |  0.038% | 6      |  0.036% | 
 | 294  | Beedrill           |  0.00024% | 23     |  0.109% | 19     |  0.114% | 
 | 295  | Zubat              |  0.00024% | 4      |  0.019% | 2      |  0.012% | 
 | 296  | Clefairy           |  0.00024% | 15     |  0.071% | 12     |  0.072% | 
 | 297  | Bidoof             |  0.00024% | 3      |  0.014% | 1      |  0.006% | 
 | 298  | Magcargo           |  0.00024% | 63     |  0.298% | 60     |  0.360% | 
 | 299  | Kabutops           |  0.00023% | 78     |  0.369% | 56     |  0.336% | 
 | 300  | Ferroseed          |  0.00021% | 24     |  0.114% | 21     |  0.126% | 
 | 301  | Meowth-Alola       |  0.00021% | 1      |  0.005% | 1      |  0.006% | 
 | 302  | Vikavolt-Totem     |  0.00021% | 4      |  0.019% | 4      |  0.024% | 
 | 303  | Mawile             |  0.00020% | 39     |  0.184% | 30     |  0.180% | 
 | 304  | Wishiwashi         |  0.00019% | 20     |  0.095% | 15     |  0.090% | 
 | 305  | Ampharos           |  0.00017% | 41     |  0.194% | 33     |  0.198% | 
 | 306  | Castform           |  0.00016% | 27     |  0.128% | 19     |  0.114% | 
 | 307  | Toucannon          |  0.00014% | 26     |  0.123% | 22     |  0.132% | 
 | 308  | Trevenant          |  0.00014% | 235    |  1.112% | 157    |  0.942% | 
 | 309  | Wigglytuff         |  0.00013% | 18     |  0.085% | 14     |  0.084% | 
 | 310  | Combusken          |  0.00013% | 6      |  0.028% | 6      |  0.036% | 
 | 311  | Duosion            |  0.00012% | 2      |  0.009% | 2      |  0.012% | 
 | 312  | Noctowl            |  0.00012% | 5      |  0.024% | 5      |  0.030% | 
 | 313  | Walrein            |  0.00011% | 49     |  0.232% | 32     |  0.192% | 
 | 314  | Raticate-Alola     |  0.00011% | 8      |  0.038% | 8      |  0.048% | 
 | 315  | Seaking            |  0.00010% | 8      |  0.038% | 8      |  0.048% | 
 | 316  | Rhydon             |  0.00010% | 25     |  0.118% | 21     |  0.126% | 
 | 317  | Simisear           |  0.00009% | 23     |  0.109% | 13     |  0.078% | 
 | 318  | Pidgeot            |  0.00008% | 17     |  0.080% | 16     |  0.096% | 
 | 319  | Servine            |  0.00008% | 8      |  0.038% | 7      |  0.042% | 
 | 320  | Samurott           |  0.00008% | 113    |  0.535% | 82     |  0.492% | 
 | 321  | Silvally-Bug       |  0.00007% | 5      |  0.024% | 4      |  0.024% | 
 | 322  | Cherrim            |  0.00006% | 4      |  0.019% | 4      |  0.024% | 
 | 323  | Poliwag            |  0.00006% | 2      |  0.009% | 2      |  0.012% | 
 | 324  | Swanna             |  0.00005% | 42     |  0.199% | 33     |  0.198% | 
 | 325  | Abomasnow          |  0.00005% | 25     |  0.118% | 20     |  0.120% | 
 | 326  | Silvally           |  0.00004% | 26     |  0.123% | 18     |  0.108% | 
 | 327  | Lycanroc-Midnight  |  0.00004% | 23     |  0.109% | 21     |  0.126% | 
 | 328  | Dragonair          |  0.00004% | 40     |  0.189% | 22     |  0.132% | 
 | 329  | Zweilous           |  0.00003% | 42     |  0.199% | 28     |  0.168% | 
 | 330  | Dugtrio-Alola      |  0.00003% | 53     |  0.251% | 40     |  0.240% | 
 | 331  | Clamperl           |  0.00003% | 12     |  0.057% | 8      |  0.048% | 
 | 332  | Bellossom          |  0.00002% | 30     |  0.142% | 25     |  0.150% | 
 | 333  | Muk                |  0.00002% | 59     |  0.279% | 41     |  0.246% | 
 | 334  | Omanyte            |  0.00002% | 8      |  0.038% | 8      |  0.048% | 
 | 335  | Aron               |  0.00002% | 32     |  0.151% | 20     |  0.120% | 
 | 336  | Silvally-Steel     |  0.00002% | 34     |  0.161% | 29     |  0.174% | 
 | 337  | Skuntank           |  0.00001% | 37     |  0.175% | 27     |  0.162% | 
 | 338  | Simipour           |  0.00001% | 3      |  0.014% | 2      |  0.012% | 
 | 339  | Bibarel            |  0.00001% | 19     |  0.090% | 16     |  0.096% | 
 | 340  | Eevee              |  0.00001% | 19     |  0.090% | 17     |  0.102% | 
 | 341  | Dugtrio            |  0.00001% | 26     |  0.123% | 20     |  0.120% | 
 | 342  | Vigoroth           |  0.00000% | 9      |  0.043% | 7      |  0.042% | 
 | 343  | Torracat           |  0.00000% | 4      |  0.019% | 2      |  0.012% | 
 | 344  | Taillow            |  0.00000% | 10     |  0.047% | 7      |  0.042% | 
 | 345  | Nosepass           |  0.00000% | 2      |  0.009% | 1      |  0.006% | 
 | 346  | Pineco             |  0.00000% | 7      |  0.033% | 7      |  0.042% | 
 | 347  | Hippopotas         |  0.00000% | 5      |  0.024% | 2      |  0.012% | 
 | 348  | Cottonee           |  0.00000% | 5      |  0.024% | 5      |  0.030% | 
 | 349  | Silvally-Water     |  0.00000% | 12     |  0.057% | 7      |  0.042% | 
 | 350  | Hakamo-o           |  0.00000% | 2      |  0.009% | 2      |  0.012% | 
 | 351  | Vanillish          |  0.00000% | 1      |  0.005% | 1      |  0.006% | 
 | 352  | Brionne            |  0.00000% | 1      |  0.005% | 0      |  0.000% | 
 | 353  | Braixen            |  0.00000% | 3      |  0.014% | 3      |  0.018% | 
 | 354  | Magikarp           |  0.00000% | 7      |  0.033% | 4      |  0.024% | 
 | 355  | Farfetch'd         |  0.00000% | 20     |  0.095% | 15     |  0.090% | 
 | 356  | Girafarig          |  0.00000% | 9      |  0.043% | 5      |  0.030% | 
 | 357  | Foongus            |  0.00000% | 12     |  0.057% | 10     |  0.060% | 
 | 358  | Dewott             |  0.00000% | 10     |  0.047% | 9      |  0.054% | 
 | 359  | Charmeleon         |  0.00000% | 12     |  0.057% | 11     |  0.066% | 
 | 360  | Rhyhorn            |  0.00000% | 10     |  0.047% | 8      |  0.048% | 
 | 361  | Illumise           |  0.00000% | 9      |  0.043% | 6      |  0.036% | 
 | 362  | Vespiquen          |  0.00000% | 13     |  0.061% | 9      |  0.054% | 
 | 363  | Unfezant           |  0.00000% | 46     |  0.218% | 42     |  0.252% | 
 | 364  | Chatot             |  0.00000% | 23     |  0.109% | 15     |  0.090% | 
 | 365  | Squirtle           |  0.00000% | 4      |  0.019% | 4      |  0.024% | 
 | 366  | Gumshoos           |  0.00000% | 15     |  0.071% | 13     |  0.078% | 
 | 367  | Phantump           |  0.00000% | 2      |  0.009% | 0      |  0.000% | 
 | 368  | Spoink             |  0.00000% | 2      |  0.009% | 2      |  0.012% | 
 | 369  | Sunflora           |  0.00000% | 13     |  0.061% | 9      |  0.054% | 
 | 370  | Frogadier          |  0.00000% | 23     |  0.109% | 12     |  0.072% | 
 | 371  | Wartortle          |  0.00000% | 8      |  0.038% | 6      |  0.036% | 
 | 372  | Magnemite          |  0.00000% | 9      |  0.043% | 8      |  0.048% | 
 | 373  | Tropius            |  0.00000% | 49     |  0.232% | 39     |  0.234% | 
 | 374  | Prinplup           |  0.00000% | 49     |  0.232% | 44     |  0.264% | 
 | 375  | Oricorio-Sensu     |  0.00000% | 9      |  0.043% | 5      |  0.030% | 
 | 376  | Wynaut             |  0.00000% | 3      |  0.014% | 2      |  0.012% | 
 | 377  | Carnivine          |  0.00000% | 13     |  0.061% | 9      |  0.054% | 
 | 378  | Roselia            |  0.00000% | 3      |  0.014% | 2      |  0.012% | 
 | 379  | Hypno              |  0.00000% | 50     |  0.237% | 32     |  0.192% | 
 | 380  | Marshtomp          |  0.00000% | 9      |  0.043% | 8      |  0.048% | 
 | 381  | Emolga             |  0.00000% | 56     |  0.265% | 50     |  0.300% | 
 | 382  | Vulpix             |  0.00000% | 1      |  0.005% | 0      |  0.000% | 
 | 383  | Graveler-Alola     |  0.00000% | 6      |  0.028% | 6      |  0.036% | 
 | 384  | Gourgeist-Small    |  0.00000% | 2      |  0.009% | 1      |  0.006% | 
 | 385  | Duskull            |  0.00000% | 6      |  0.028% | 5      |  0.030% | 
 | 386  | Chimchar           |  0.00000% | 6      |  0.028% | 5      |  0.030% | 
 | 387  | Whismur            |  0.00000% | 5      |  0.024% | 4      |  0.024% | 
 | 388  | Solrock            |  0.00000% | 6      |  0.028% | 5      |  0.030% | 
 | 389  | Lumineon           |  0.00000% | 8      |  0.038% | 8      |  0.048% | 
 | 390  | Raichu             |  0.00000% | 124    |  0.587% | 97     |  0.582% | 
 | 391  | Stunfisk           |  0.00000% | 25     |  0.118% | 21     |  0.126% | 
 | 392  | Gothitelle         |  0.00000% | 7      |  0.033% | 7      |  0.042% | 
 | 393  | Huntail            |  0.00000% | 22     |  0.104% | 15     |  0.090% | 
 | 394  | Lickilicky         |  0.00000% | 30     |  0.142% | 24     |  0.144% | 
 | 395  | Numel              |  0.00000% | 1      |  0.005% | 1      |  0.006% | 
 | 396  | Lopunny            |  0.00000% | 135    |  0.639% | 101    |  0.606% | 
 | 397  | Machoke            |  0.00000% | 12     |  0.057% | 10     |  0.060% | 
 | 398  | Wailord            |  0.00000% | 21     |  0.099% | 14     |  0.084% | 
 | 399  | Relicanth          |  0.00000% | 26     |  0.123% | 26     |  0.156% | 
 | 400  | Fearow             |  0.00000% | 14     |  0.066% | 10     |  0.060% | 
 | 401  | Corphish           |  0.00000% | 1      |  0.005% | 1      |  0.006% | 
 | 402  | Pikachu-Hoenn      |  0.00000% | 1      |  0.005% | 1      |  0.006% | 
 | 403  | Whirlipede         |  0.00000% | 6      |  0.028% | 6      |  0.036% | 
 | 404  | Munchlax           |  0.00000% | 32     |  0.151% | 26     |  0.156% | 
 | 405  | Octillery          |  0.00000% | 6      |  0.028% | 3      |  0.018% | 
 | 406  | Buneary            |  0.00000% | 1      |  0.005% | 1      |  0.006% | 
 | 407  | Roggenrola         |  0.00000% | 3      |  0.014% | 3      |  0.018% | 
 | 408  | Mankey             |  0.00000% | 2      |  0.009% | 1      |  0.006% | 
 | 409  | Raticate           |  0.00000% | 33     |  0.156% | 28     |  0.168% | 
 | 410  | Snubbull           |  0.00000% | 2      |  0.009% | 2      |  0.012% | 
 | 411  | Psyduck            |  0.00000% | 1      |  0.005% | 1      |  0.006% | 
 | 412  | Zorua              |  0.00000% | 4      |  0.019% | 0      |  0.000% | 
 | 413  | Ledian             |  0.00000% | 13     |  0.061% | 7      |  0.042% | 
 | 414  | Pikachu-Alola      |  0.00000% | 2      |  0.009% | 2      |  0.012% | 
 | 415  | Doduo              |  0.00000% | 5      |  0.024% | 5      |  0.030% | 
 | 416  | Pansage            |  0.00000% | 1      |  0.005% | 1      |  0.006% | 
 | 417  | Deino              |  0.00000% | 2      |  0.009% | 1      |  0.006% | 
 | 418  | Gourgeist          |  0.00000% | 9      |  0.043% | 9      |  0.054% | 
 | 419  | Klang              |  0.00000% | 3      |  0.014% | 1      |  0.006% | 
 | 420  | Remoraid           |  0.00000% | 3      |  0.014% | 3      |  0.018% | 
 | 421  | Aipom              |  0.00000% | 14     |  0.066% | 14     |  0.084% | 
 | 422  | Elekid             |  0.00000% | 2      |  0.009% | 2      |  0.012% | 
 | 423  | Yanma              |  0.00000% | 2      |  0.009% | 0      |  0.000% | 
 | 424  | Meowth             |  0.00000% | 8      |  0.038% | 8      |  0.048% | 
 | 425  | Kirlia             |  0.00000% | 1      |  0.005% | 1      |  0.006% | 
 | 426  | Shuppet            |  0.00000% | 1      |  0.005% | 1      |  0.006% | 
 | 427  | Salandit           |  0.00000% | 4      |  0.019% | 4      |  0.024% | 
 | 428  | Larvesta           |  0.00000% | 1      |  0.005% | 1      |  0.006% | 
 | 429  | Electabuzz         |  0.00000% | 19     |  0.090% | 17     |  0.102% | 
 | 430  | Treecko            |  0.00000% | 1      |  0.005% | 1      |  0.006% | 
 | 431  | Bunnelby           |  0.00000% | 4      |  0.019% | 3      |  0.018% | 
 | 432  | Oricorio-Pom-Pom   |  0.00000% | 3      |  0.014% | 3      |  0.018% | 
 | 433  | Baltoy             |  0.00000% | 1      |  0.005% | 0      |  0.000% | 
 | 434  | Quilava            |  0.00000% | 1      |  0.005% | 0      |  0.000% | 
 | 435  | Glalie             |  0.00000% | 2      |  0.009% | 2      |  0.012% | 
 | 436  | Poipole            |  0.00000% | 1      |  0.005% | 0      |  0.000% | 
 | 437  | Purrloin           |  0.00000% | 1      |  0.005% | 1      |  0.006% | 
 | 438  | Kricketot          |  0.00000% | 1      |  0.005% | 0      |  0.000% | 
 | 439  | Barboach           |  0.00000% | 1      |  0.005% | 0      |  0.000% | 
 | 440  | Parasect           |  0.00000% | 10     |  0.047% | 10     |  0.060% | 
 | 441  | Minun              |  0.00000% | 9      |  0.043% | 7      |  0.042% | 
 | 442  | Mudkip             |  0.00000% | 1      |  0.005% | 1      |  0.006% | 
 | 443  | Luxio              |  0.00000% | 1      |  0.005% | 1      |  0.006% | 
 | 444  | Tepig              |  0.00000% | 2      |  0.009% | 2      |  0.012% | 
 | 445  | Jigglypuff         |  0.00000% | 2      |  0.009% | 2      |  0.012% | 
 | 446  | Cascoon            |  0.00000% | 1      |  0.005% | 1      |  0.006% | 
 | 447  | Ralts              |  0.00000% | 7      |  0.033% | 2      |  0.012% | 
 | 448  | Boldore            |  0.00000% | 2      |  0.009% | 2      |  0.012% | 
 | 449  | Deerling           |  0.00000% | 1      |  0.005% | 1      |  0.006% | 
 | 450  | Seedot             |  0.00000% | 1      |  0.005% | 1      |  0.006% | 
 | 451  | Pawniard           |  0.00000% | 1      |  0.005% | 1      |  0.006% | 
 | 452  | Rattata            |  0.00000% | 3      |  0.014% | 3      |  0.018% | 
 | 453  | Bellsprout         |  0.00000% | 2      |  0.009% | 1      |  0.006% | 
 | 454  | Axew               |  0.00000% | 2      |  0.009% | 1      |  0.006% | 
 | 455  | Metapod            |  0.00000% | 1      |  0.005% | 0      |  0.000% | 
 | 456  | Spheal             |  0.00000% | 3      |  0.014% | 3      |  0.018% | 
 | 457  | Bayleef            |  0.00000% | 2      |  0.009% | 1      |  0.006% | 
 | 458  | Watchog            |  0.00000% | 2      |  0.009% | 2      |  0.012% | 
 | 459  | Whiscash           |  0.00000% | 7      |  0.033% | 4      |  0.024% | 
 | 460  | Dustox             |  0.00000% | 2      |  0.009% | 0      |  0.000% | 
 | 461  | Charjabug          |  0.00000% | 1      |  0.005% | 1      |  0.006% | 
 | 462  | Furfrou            |  0.00000% | 2      |  0.009% | 2      |  0.012% | 
 | 463  | Sandshrew          |  0.00000% | 1      |  0.005% | 1      |  0.006% | 
 | 464  | Larvitar           |  0.00000% | 2      |  0.009% | 2      |  0.012% | 
 | 465  | Lickitung          |  0.00000% | 6      |  0.028% | 6      |  0.036% | 
 | 466  | Elgyem             |  0.00000% | 1      |  0.005% | 1      |  0.006% | 
 | 467  | Pichu              |  0.00000% | 2      |  0.009% | 1      |  0.006% | 
 | 468  | Kakuna             |  0.00000% | 3      |  0.014% | 2      |  0.012% | 
 | 469  | Silvally-Electric  |  0.00000% | 2      |  0.009% | 2      |  0.012% | 
 | 470  | Bounsweet          |  0.00000% | 1      |  0.005% | 1      |  0.006% | 
 | 471  | Cyndaquil          |  0.00000% | 2      |  0.009% | 2      |  0.012% | 
 | 472  | Staryu             |  0.00000% | 2      |  0.009% | 2      |  0.012% | 
 | 473  | Wormadam           |  0.00000% | 1      |  0.005% | 0      |  0.000% | 
 | 474  | Spewpa             |  0.00000% | 1      |  0.005% | 1      |  0.006% | 
 | 475  | Simisage           |  0.00000% | 1      |  0.005% | 1      |  0.006% | 
 | 476  | Silcoon            |  0.00000% | 1      |  0.005% | 1      |  0.006% | 
 | 477  | Oricorio           |  0.00000% | 2      |  0.009% | 1      |  0.006% | 
 | 478  | Corsola            |  0.00000% | 11     |  0.052% | 9      |  0.054% | 
 | 479  | Loudred            |  0.00000% | 1      |  0.005% | 0      |  0.000% | 
 | 480  | Lampent            |  0.00000% | 9      |  0.043% | 6      |  0.036% | 
 | 481  | Koffing            |  0.00000% | 21     |  0.099% | 16     |  0.096% | 
 | 482  | Shellder           |  0.00000% | 3      |  0.014% | 3      |  0.018% | 
 | 483  | Starly             |  0.00000% | 2      |  0.009% | 2      |  0.012% | 
 | 484  | Pumpkaboo-Super    |  0.00000% | 1      |  0.005% | 1      |  0.006% | 
 | 485  | Bonsly             |  0.00000% | 1      |  0.005% | 1      |  0.006% | 
 | 486  | Shelgon            |  0.00000% | 4      |  0.019% | 4      |  0.024% | 
 | 487  | Wormadam-Trash     |  0.00000% | 49     |  0.232% | 33     |  0.198% | 
 | 488  | Clauncher          |  0.00000% | 1      |  0.005% | 1      |  0.006% | 
 | 489  | Geodude            |  0.00000% | 12     |  0.057% | 11     |  0.066% | 
 | 490  | Noibat             |  0.00000% | 1      |  0.005% | 1      |  0.006% | 
 | 491  | Hoothoot           |  0.00000% | 2      |  0.009% | 2      |  0.012% | 
 | 492  | Sawsbuck           |  0.00000% | 40     |  0.189% | 28     |  0.168% | 
 | 493  | Swablu             |  0.00000% | 1      |  0.005% | 0      |  0.000% | 
 | 494  | Sandile            |  0.00000% | 1      |  0.005% | 1      |  0.006% | 
 | 495  | Mime Jr.           |  0.00000% | 3      |  0.014% | 2      |  0.012% | 
 | 496  | Voltorb            |  0.00000% | 2      |  0.009% | 2      |  0.012% | 
 | 497  | Smoochum           |  0.00000% | 1      |  0.005% | 1      |  0.006% | 
 | 498  | Gastly             |  0.00000% | 3      |  0.014% | 3      |  0.018% | 
 | 499  | Porygon            |  0.00000% | 5      |  0.024% | 4      |  0.024% | 
 | 500  | Drifloon           |  0.00000% | 6      |  0.028% | 4      |  0.024% | 
 | 501  | Maractus           |  0.00000% | 6      |  0.028% | 5      |  0.030% | 
 | 502  | Natu               |  0.00000% | 4      |  0.019% | 4      |  0.024% | 
 | 503  | Pancham            |  0.00000% | 2      |  0.009% | 2      |  0.012% | 
 | 504  | Bronzor            |  0.00000% | 5      |  0.024% | 5      |  0.030% | 
 | 505  | Dwebble            |  0.00000% | 4      |  0.019% | 4      |  0.024% | 
 | 506  | Charmander         |  0.00000% | 4      |  0.019% | 4      |  0.024% | 
 | 507  | Crabrawler         |  0.00000% | 1      |  0.005% | 1      |  0.006% | 
 | 508  | Kabuto             |  0.00000% | 1      |  0.005% | 1      |  0.006% | 
 | 509  | Turtwig            |  0.00000% | 3      |  0.014% | 3      |  0.018% | 
 | 510  | Fraxure            |  0.00000% | 1      |  0.005% | 0      |  0.000% | 
 | 511  | Rockruff           |  0.00000% | 1      |  0.005% | 1      |  0.006% | 
 | 512  | Honedge            |  0.00000% | 3      |  0.014% | 3      |  0.018% | 
 | 513  | Snover             |  0.00000% | 1      |  0.005% | 1      |  0.006% | 
 | 514  | Sliggoo            |  0.00000% | 1      |  0.005% | 1      |  0.006% | 
 | 515  | Zigzagoon          |  0.00000% | 1      |  0.005% | 1      |  0.006% | 
 | 516  | Bagon              |  0.00000% | 5      |  0.024% | 2      |  0.012% | 
 | 517  | Delcatty           |  0.00000% | 45     |  0.213% | 35     |  0.210% | 
 | 518  | Growlithe          |  0.00000% | 1      |  0.005% | 0      |  0.000% | 
 | 519  | Wurmple            |  0.00000% | 1      |  0.005% | 1      |  0.006% | 
 | 520  | Drilbur            |  0.00000% | 2      |  0.009% | 1      |  0.006% | 
 | 521  | Magmar             |  0.00000% | 6      |  0.028% | 5      |  0.030% | 
 | 522  | Silvally-Ghost     |  0.00000% | 2      |  0.009% | 2      |  0.012% | 
 | 523  | Feebas             |  0.00000% | 1      |  0.005% | 1      |  0.006% | 
 | 524  | Vullaby            |  0.00000% | 1      |  0.005% | 0      |  0.000% | 
 | 525  | Palpitoad          |  0.00000% | 3      |  0.014% | 2      |  0.012% | 
 | 526  | Phione             |  0.00000% | 1      |  0.005% | 1      |  0.006% | 
 | 527  | Shelmet            |  0.00000% | 1      |  0.005% | 1      |  0.006% | 
 | 528  | Yungoos            |  0.00000% | 3      |  0.014% | 3      |  0.018% | 
 | 529  | Litleo             |  0.00000% | 2      |  0.009% | 2      |  0.012% | 
 | 530  | Croconaw           |  0.00000% | 1      |  0.005% | 1      |  0.006% | 
 | 531  | Graveler           |  0.00000% | 3      |  0.014% | 3      |  0.018% | 
 | 532  | Gabite             |  0.00000% | 2      |  0.009% | 2      |  0.012% | 
 | 533  | Tyrunt             |  0.00000% | 2      |  0.009% | 2      |  0.012% | 
 | 534  | Silvally-Fire      |  0.00000% | 1      |  0.005% | 1      |  0.006% | 
 | 535  | Litwick            |  0.00000% | 4      |  0.019% | 3      |  0.018% | 
 | 536  | Herdier            |  0.00000% | 1      |  0.005% | 1      |  0.006% | 
 | 537  | Swalot             |  0.00000% | 2      |  0.009% | 2      |  0.012% | 
 | 538  | Mienfoo            |  0.00000% | 3      |  0.014% | 3      |  0.018% | 
 | 539  | Dunsparce          |  0.00000% | 2      |  0.009% | 2      |  0.012% | 
 | 540  | Anorith            |  0.00000% | 2      |  0.009% | 2      |  0.012% | 
 | 541  | Combee             |  0.00000% | 4      |  0.019% | 2      |  0.012% | 
 | 542  | Rowlet             |  0.00000% | 3      |  0.014% | 3      |  0.018% | 
 | 543  | Fomantis           |  0.00000% | 1      |  0.005% | 1      |  0.006% | 
 | 544  | Pachirisu          |  0.00000% | 1      |  0.005% | 1      |  0.006% | 
 | 545  | Vanillite          |  0.00000% | 1      |  0.005% | 1      |  0.006% | 
 | 546  | Skitty             |  0.00000% | 2      |  0.009% | 1      |  0.006% | 
 | 547  | Tirtouga           |  0.00000% | 3      |  0.014% | 1      |  0.006% | 
 | 548  | Patrat             |  0.00000% | 4      |  0.019% | 4      |  0.024% | 
 | 549  | Silvally-Ground    |  0.00000% | 2      |  0.009% | 1      |  0.006% | 
 | 550  | Seadra             |  0.00000% | 1      |  0.005% | 1      |  0.006% | 
 | 551  | Kricketune         |  0.00000% | 6      |  0.028% | 6      |  0.036% | 
 | 552  | Snivy              |  0.00000% | 2      |  0.009% | 2      |  0.012% | 
 | 553  | Caterpie           |  0.00000% | 1      |  0.005% | 1      |  0.006% | 
 | 554  | Froakie            |  0.00000% | 1      |  0.005% | 1      |  0.006% | 
 | 555  | Cacnea             |  0.00000% | 1      |  0.005% | 1      |  0.006% | 
 | 556  | Cranidos           |  0.00000% | 1      |  0.005% | 1      |  0.006% | 
 | 557  | Dewgong            |  0.00000% | 15     |  0.071% | 13     |  0.078% | 
 | 558  | Pidove             |  0.00000% | 1      |  0.005% | 0      |  0.000% | 
 | 559  | Torchic            |  0.00000% | 1      |  0.005% | 1      |  0.006% | 
 + ---- + ------------------ + --------- + ------ + ------- + ------ + ------- + 
