 Total battles: 56888
 Avg. weight/team: 0.513
 + ---- + ------------------ + --------- + ------ + ------- + ------ + ------- + 
 | Rank | Pokemon            | Usage %   | Raw    | %       | Real   | %       | 
 + ---- + ------------------ + --------- + ------ + ------- + ------ + ------- + 
 | 1    | Shedinja           | 27.49723% | 32916  | 28.931% | 20061  | 30.166% | 
 | 2    | Mewtwo-Mega-X      | 23.79307% | 23229  | 20.416% | 12503  | 18.801% | 
 | 3    | Mewtwo-Mega-Y      | 23.26061% | 22923  | 20.147% | 13070  | 19.654% | 
 | 4    | Gengar-Mega        | 22.52222% | 22047  | 19.378% | 13494  | 20.291% | 
 | 5    | Chansey            | 19.23438% | 17257  | 15.168% | 11220  | 16.872% | 
 | 6    | Zygarde-Complete   | 18.08302% | 16695  | 14.674% | 10305  | 15.496% | 
 | 7    | Kyogre-Primal      | 17.12731% | 16594  | 14.585% | 9851   | 14.813% | 
 | 8    | Giratina           | 16.65779% | 13840  | 12.164% | 9752   | 14.664% | 
 | 9    | Deoxys-Speed       | 15.44026% | 17279  | 15.187% | 11767  | 17.694% | 
 | 10   | Blissey            | 15.02761% | 16299  | 14.326% | 9444   | 14.201% | 
 | 11   | Regigigas          | 14.51248% | 13646  | 11.994% | 8176   | 12.295% | 
 | 12   | Shuckle            | 10.12448% | 13217  | 11.617% | 8355   | 12.564% | 
 | 13   | Arceus             |  8.83239% | 10032  |  8.817% | 5621   |  8.453% | 
 | 14   | Diancie-Mega       |  8.38816% | 7632   |  6.708% | 5037   |  7.574% | 
 | 15   | Aegislash          |  7.95678% | 8732   |  7.675% | 5863   |  8.816% | 
 | 16   | Deoxys-Attack      |  7.75107% | 7893   |  6.937% | 4307   |  6.477% | 
 | 17   | Slaking            |  7.20266% | 8131   |  7.146% | 4593   |  6.907% | 
 | 18   | Xerneas            |  6.99790% | 6983   |  6.137% | 4453   |  6.696% | 
 | 19   | Yveltal            |  6.84417% | 6593   |  5.795% | 4322   |  6.499% | 
 | 20   | Registeel          |  6.79780% | 5606   |  4.927% | 4177   |  6.281% | 
 | 21   | Tyranitar-Mega     |  6.41287% | 6386   |  5.613% | 3872   |  5.822% | 
 | 22   | Dialga             |  5.90965% | 5418   |  4.762% | 3588   |  5.395% | 
 | 23   | Necrozma-Ultra     |  5.77911% | 6873   |  6.041% | 3911   |  5.881% | 
 | 24   | Greninja-Ash       |  5.71487% | 7713   |  6.779% | 5062   |  7.612% | 
 | 25   | Kyurem-Black       |  5.38673% | 5350   |  4.702% | 3335   |  5.015% | 
 | 26   | Deoxys-Defense     |  5.04063% | 6123   |  5.382% | 3921   |  5.896% | 
 | 27   | Marshadow          |  4.63810% | 5366   |  4.716% | 3369   |  5.066% | 
 | 28   | Charizard-Mega-Y   |  4.58936% | 4590   |  4.034% | 2860   |  4.301% | 
 | 29   | Ferrothorn         |  4.56061% | 4698   |  4.129% | 3465   |  5.210% | 
 | 30   | Darkrai            |  4.29335% | 5724   |  5.031% | 3740   |  5.624% | 
 | 31   | Blaziken-Mega      |  4.17048% | 5639   |  4.956% | 3407   |  5.123% | 
 | 32   | Lugia              |  4.09402% | 4519   |  3.972% | 2622   |  3.943% | 
 | 33   | Darmanitan         |  4.06119% | 4540   |  3.990% | 2949   |  4.435% | 
 | 34   | Kartana            |  4.03454% | 4544   |  3.994% | 2649   |  3.983% | 
 | 35   | Kyurem-White       |  3.91277% | 4048   |  3.558% | 2374   |  3.570% | 
 | 36   | Scizor-Mega        |  3.69078% | 4405   |  3.872% | 2663   |  4.004% | 
 | 37   | Steelix-Mega       |  3.56372% | 3521   |  3.095% | 2486   |  3.738% | 
 | 38   | Heracross-Mega     |  3.54356% | 3494   |  3.071% | 2036   |  3.062% | 
 | 39   | Rayquaza           |  3.44839% | 4146   |  3.644% | 2487   |  3.740% | 
 | 40   | Metagross-Mega     |  3.39750% | 4155   |  3.652% | 2330   |  3.504% | 
 | 41   | Giratina-Origin    |  3.35206% | 4114   |  3.616% | 2512   |  3.777% | 
 | 42   | Beedrill-Mega      |  3.31695% | 3498   |  3.074% | 2305   |  3.466% | 
 | 43   | Necrozma-Dusk-Mane |  3.21695% | 3153   |  2.771% | 2091   |  3.144% | 
 | 44   | Groudon-Primal     |  3.18750% | 3089   |  2.715% | 2000   |  3.007% | 
 | 45   | Gardevoir-Mega     |  3.17448% | 3868   |  3.400% | 2288   |  3.441% | 
 | 46   | Salamence-Mega     |  3.15811% | 3994   |  3.510% | 2177   |  3.274% | 
 | 47   | Lucario-Mega       |  3.10009% | 4373   |  3.844% | 2558   |  3.847% | 
 | 48   | Zekrom             |  3.09621% | 2990   |  2.628% | 1844   |  2.773% | 
 | 49   | Audino-Mega        |  3.05347% | 2787   |  2.450% | 1910   |  2.872% | 
 | 50   | Eevee              |  3.00662% | 3982   |  3.500% | 3197   |  4.807% | 
 | 51   | Garchomp-Mega      |  3.00569% | 3800   |  3.340% | 2256   |  3.392% | 
 | 52   | Swampert-Mega      |  2.90214% | 3474   |  3.053% | 2033   |  3.057% | 
 | 53   | Gyarados-Mega      |  2.70015% | 2531   |  2.225% | 1724   |  2.592% | 
 | 54   | Magearna           |  2.67331% | 2591   |  2.277% | 1725   |  2.594% | 
 | 55   | Sableye-Mega       |  2.65820% | 2615   |  2.298% | 1933   |  2.907% | 
 | 56   | Ho-Oh              |  2.46340% | 2528   |  2.222% | 1633   |  2.456% | 
 | 57   | Banette-Mega       |  2.38451% | 2487   |  2.186% | 1379   |  2.074% | 
 | 58   | Golisopod          |  2.31618% | 2252   |  1.979% | 1271   |  1.911% | 
 | 59   | Toxapex            |  2.25656% | 2394   |  2.104% | 1660   |  2.496% | 
 | 60   | Charizard-Mega-X   |  2.21820% | 3411   |  2.998% | 2160   |  3.248% | 
 | 61   | Ferroseed          |  2.21794% | 2045   |  1.797% | 1778   |  2.674% | 
 | 62   | Alakazam-Mega      |  2.20424% | 2812   |  2.472% | 1722   |  2.589% | 
 | 63   | Lopunny-Mega       |  2.19802% | 2246   |  1.974% | 1524   |  2.292% | 
 | 64   | Sceptile-Mega      |  2.14395% | 2780   |  2.443% | 1738   |  2.613% | 
 | 65   | Pheromosa          |  2.14138% | 2263   |  1.989% | 1411   |  2.122% | 
 | 66   | Rayquaza-Mega      |  2.12422% | 2656   |  2.334% | 1570   |  2.361% | 
 | 67   | Aggron-Mega        |  2.09177% | 2306   |  2.027% | 1558   |  2.343% | 
 | 68   | Celesteela         |  1.94744% | 2010   |  1.767% | 1335   |  2.007% | 
 | 69   | Arceus-Fairy       |  1.75706% | 1682   |  1.478% | 1102   |  1.657% | 
 | 70   | Venusaur-Mega      |  1.71011% | 1939   |  1.704% | 1242   |  1.868% | 
 | 71   | Aerodactyl-Mega    |  1.67742% | 1895   |  1.666% | 1272   |  1.913% | 
 | 72   | Zeraora            |  1.64272% | 2330   |  2.048% | 1448   |  2.177% | 
 | 73   | Tapu Koko          |  1.55801% | 1891   |  1.662% | 1193   |  1.794% | 
 | 74   | Mimikyu            |  1.54255% | 2132   |  1.874% | 1324   |  1.991% | 
 | 75   | Palkia             |  1.49410% | 1643   |  1.444% | 1003   |  1.508% | 
 | 76   | Kangaskhan-Mega    |  1.47658% | 1629   |  1.432% | 932    |  1.401% | 
 | 77   | Wobbuffet          |  1.47602% | 1583   |  1.391% | 829    |  1.247% | 
 | 78   | Ninjask            |  1.41051% | 1924   |  1.691% | 1375   |  2.068% | 
 | 79   | Arceus-Ghost       |  1.39598% | 1442   |  1.267% | 816    |  1.227% | 
 | 80   | Groudon            |  1.32890% | 1848   |  1.624% | 1185   |  1.782% | 
 | 81   | Rattata            |  1.32306% | 2057   |  1.808% | 794    |  1.194% | 
 | 82   | Genesect           |  1.31392% | 1565   |  1.376% | 969    |  1.457% | 
 | 83   | Hoopa-Unbound      |  1.28110% | 1460   |  1.283% | 909    |  1.367% | 
 | 84   | Gallade-Mega       |  1.28051% | 1697   |  1.492% | 1026   |  1.543% | 
 | 85   | Xurkitree          |  1.27076% | 1478   |  1.299% | 826    |  1.242% | 
 | 86   | Magikarp           |  1.26731% | 1627   |  1.430% | 848    |  1.275% | 
 | 87   | Garchomp           |  1.23940% | 1574   |  1.383% | 989    |  1.487% | 
 | 88   | Naganadel          |  1.22178% | 1640   |  1.441% | 931    |  1.400% | 
 | 89   | Snorlax            |  1.22135% | 1779   |  1.564% | 1137   |  1.710% | 
 | 90   | Slowbro-Mega       |  1.16043% | 967    |  0.850% | 699    |  1.051% | 
 | 91   | Solgaleo           |  1.14025% | 1240   |  1.090% | 820    |  1.233% | 
 | 92   | Necrozma-Dawn-Wings |  1.12112% | 1449   |  1.274% | 917    |  1.379% | 
 | 93   | Dusclops           |  1.00410% | 988    |  0.868% | 658    |  0.989% | 
 | 94   | Blacephalon        |  0.98809% | 1234   |  1.085% | 793    |  1.192% | 
 | 95   | Camerupt-Mega      |  0.98744% | 1072   |  0.942% | 543    |  0.817% | 
 | 96   | Muk-Alola          |  0.98729% | 1120   |  0.984% | 631    |  0.949% | 
 | 97   | Pidgeot-Mega       |  0.98105% | 1199   |  1.054% | 720    |  1.083% | 
 | 98   | Lunala             |  0.96880% | 1210   |  1.063% | 761    |  1.144% | 
 | 99   | Reshiram           |  0.92428% | 1103   |  0.969% | 620    |  0.932% | 
 | 100  | Umbreon            |  0.89061% | 1039   |  0.913% | 740    |  1.113% | 
 | 101  | Togekiss           |  0.85948% | 876    |  0.770% | 591    |  0.889% | 
 | 102  | Meloetta           |  0.85153% | 945    |  0.831% | 637    |  0.958% | 
 | 103  | Thundurus-Therian  |  0.83024% | 874    |  0.768% | 495    |  0.744% | 
 | 104  | Pinsir-Mega        |  0.82731% | 915    |  0.804% | 553    |  0.832% | 
 | 105  | Gliscor            |  0.82508% | 1251   |  1.100% | 813    |  1.223% | 
 | 106  | Volcarona          |  0.78111% | 1111   |  0.976% | 601    |  0.904% | 
 | 107  | Gengar             |  0.75074% | 1006   |  0.884% | 616    |  0.926% | 
 | 108  | Smeargle           |  0.74662% | 1134   |  0.997% | 760    |  1.143% | 
 | 109  | Cosmoem            |  0.74125% | 1023   |  0.899% | 488    |  0.734% | 
 | 110  | Weavile            |  0.73725% | 900    |  0.791% | 546    |  0.821% | 
 | 111  | Empoleon           |  0.73003% | 693    |  0.609% | 511    |  0.768% | 
 | 112  | Altaria-Mega       |  0.72611% | 997    |  0.876% | 575    |  0.865% | 
 | 113  | Cofagrigus         |  0.69563% | 688    |  0.605% | 419    |  0.630% | 
 | 114  | Landorus-Therian   |  0.68801% | 993    |  0.873% | 635    |  0.955% | 
 | 115  | Arceus-Dark        |  0.68180% | 841    |  0.739% | 548    |  0.824% | 
 | 116  | Regice             |  0.67975% | 730    |  0.642% | 481    |  0.723% | 
 | 117  | Tyranitar          |  0.67453% | 808    |  0.710% | 548    |  0.824% | 
 | 118  | Shaymin-Sky        |  0.66971% | 875    |  0.769% | 532    |  0.800% | 
 | 119  | Jirachi            |  0.66948% | 791    |  0.695% | 556    |  0.836% | 
 | 120  | Arceus-Steel       |  0.65693% | 825    |  0.725% | 504    |  0.758% | 
 | 121  | Heatran            |  0.64962% | 778    |  0.684% | 513    |  0.771% | 
 | 122  | Pikachu            |  0.64299% | 803    |  0.706% | 488    |  0.734% | 
 | 123  | Mew                |  0.63502% | 1011   |  0.889% | 668    |  1.004% | 
 | 124  | Kommo-o            |  0.62827% | 851    |  0.748% | 535    |  0.804% | 
 | 125  | Marowak-Alola      |  0.62767% | 722    |  0.635% | 394    |  0.592% | 
 | 126  | Arceus-Electric    |  0.61904% | 763    |  0.671% | 437    |  0.657% | 
 | 127  | Ditto              |  0.60617% | 855    |  0.751% | 529    |  0.795% | 
 | 128  | Stakataka          |  0.60428% | 715    |  0.628% | 520    |  0.782% | 
 | 129  | Buzzwole           |  0.58195% | 655    |  0.576% | 388    |  0.583% | 
 | 130  | Drapion            |  0.57894% | 607    |  0.534% | 472    |  0.710% | 
 | 131  | Ampharos-Mega      |  0.57727% | 778    |  0.684% | 468    |  0.704% | 
 | 132  | Skarmory           |  0.57628% | 774    |  0.680% | 587    |  0.883% | 
 | 133  | Clefable           |  0.57440% | 931    |  0.818% | 572    |  0.860% | 
 | 134  | Houndoom-Mega      |  0.57245% | 751    |  0.660% | 455    |  0.684% | 
 | 135  | Absol-Mega         |  0.56988% | 782    |  0.687% | 506    |  0.761% | 
 | 136  | Manectric-Mega     |  0.56866% | 746    |  0.656% | 433    |  0.651% | 
 | 137  | Spiritomb          |  0.55624% | 692    |  0.608% | 507    |  0.762% | 
 | 138  | Krookodile         |  0.55502% | 797    |  0.700% | 462    |  0.695% | 
 | 139  | Latias-Mega        |  0.53429% | 714    |  0.628% | 452    |  0.680% | 
 | 140  | Excadrill          |  0.52683% | 741    |  0.651% | 436    |  0.656% | 
 | 141  | Hydreigon          |  0.52015% | 783    |  0.688% | 473    |  0.711% | 
 | 142  | Mawile-Mega        |  0.50988% | 698    |  0.613% | 405    |  0.609% | 
 | 143  | Guzzlord           |  0.50546% | 746    |  0.656% | 490    |  0.737% | 
 | 144  | Chandelure         |  0.50100% | 591    |  0.519% | 381    |  0.573% | 
 | 145  | Budew              |  0.48071% | 415    |  0.365% | 233    |  0.350% | 
 | 146  | Dragonite          |  0.47238% | 726    |  0.638% | 442    |  0.665% | 
 | 147  | Cresselia          |  0.46924% | 423    |  0.372% | 270    |  0.406% | 
 | 148  | Thundurus          |  0.45688% | 344    |  0.302% | 225    |  0.338% | 
 | 149  | Arceus-Psychic     |  0.45348% | 381    |  0.335% | 256    |  0.385% | 
 | 150  | Serperior          |  0.45167% | 631    |  0.555% | 456    |  0.686% | 
 | 151  | Deoxys             |  0.44370% | 645    |  0.567% | 366    |  0.550% | 
 | 152  | Archeops           |  0.43722% | 574    |  0.505% | 356    |  0.535% | 
 | 153  | Infernape          |  0.43552% | 762    |  0.670% | 464    |  0.698% | 
 | 154  | Arceus-Dragon      |  0.43347% | 604    |  0.531% | 340    |  0.511% | 
 | 155  | Breloom            |  0.43086% | 636    |  0.559% | 414    |  0.623% | 
 | 156  | Bisharp            |  0.42740% | 597    |  0.525% | 378    |  0.568% | 
 | 157  | Decidueye          |  0.42039% | 675    |  0.593% | 429    |  0.645% | 
 | 158  | Roserade           |  0.41728% | 403    |  0.354% | 290    |  0.436% | 
 | 159  | Zapdos             |  0.41362% | 607    |  0.534% | 402    |  0.605% | 
 | 160  | Arceus-Grass       |  0.41300% | 349    |  0.307% | 227    |  0.341% | 
 | 161  | Greninja           |  0.41040% | 596    |  0.524% | 385    |  0.579% | 
 | 162  | Arceus-Ice         |  0.40464% | 441    |  0.388% | 263    |  0.395% | 
 | 163  | Blastoise-Mega     |  0.40366% | 748    |  0.657% | 447    |  0.672% | 
 | 164  | Mewtwo             |  0.40189% | 551    |  0.484% | 352    |  0.529% | 
 | 165  | Bulbasaur          |  0.39207% | 468    |  0.411% | 345    |  0.519% | 
 | 166  | Latios-Mega        |  0.38770% | 528    |  0.464% | 286    |  0.430% | 
 | 167  | Drifblim           |  0.38296% | 527    |  0.463% | 349    |  0.525% | 
 | 168  | Magnezone          |  0.38271% | 577    |  0.507% | 364    |  0.547% | 
 | 169  | Azumarill          |  0.38192% | 575    |  0.505% | 352    |  0.529% | 
 | 170  | Tapu Fini          |  0.37763% | 426    |  0.374% | 272    |  0.409% | 
 | 171  | Arceus-Water       |  0.37275% | 460    |  0.404% | 271    |  0.408% | 
 | 172  | Nihilego           |  0.36504% | 316    |  0.278% | 240    |  0.361% | 
 | 173  | Furret             |  0.36387% | 713    |  0.627% | 249    |  0.374% | 
 | 174  | Machamp            |  0.36341% | 493    |  0.433% | 313    |  0.471% | 
 | 175  | Victini            |  0.34769% | 503    |  0.442% | 311    |  0.468% | 
 | 176  | Rotom-Wash         |  0.34733% | 561    |  0.493% | 344    |  0.517% | 
 | 177  | Gardevoir          |  0.34438% | 617    |  0.542% | 354    |  0.532% | 
 | 178  | Haxorus            |  0.33586% | 495    |  0.435% | 306    |  0.460% | 
 | 179  | Porygon2           |  0.33440% | 352    |  0.309% | 183    |  0.275% | 
 | 180  | Cloyster           |  0.33033% | 486    |  0.427% | 321    |  0.483% | 
 | 181  | Incineroar         |  0.32800% | 578    |  0.508% | 418    |  0.629% | 
 | 182  | Dusknoir           |  0.32625% | 415    |  0.365% | 273    |  0.411% | 
 | 183  | Volcanion          |  0.32548% | 398    |  0.350% | 273    |  0.411% | 
 | 184  | Arcanine           |  0.32398% | 530    |  0.466% | 330    |  0.496% | 
 | 185  | Kyogre             |  0.32247% | 459    |  0.403% | 249    |  0.374% | 
 | 186  | Blaziken           |  0.32164% | 508    |  0.446% | 321    |  0.483% | 
 | 187  | Garbodor           |  0.32150% | 447    |  0.393% | 330    |  0.496% | 
 | 188  | Arceus-Poison      |  0.31901% | 396    |  0.348% | 240    |  0.361% | 
 | 189  | Escavalier         |  0.31014% | 323    |  0.284% | 218    |  0.328% | 
 | 190  | Pyukumuku          |  0.30544% | 349    |  0.307% | 249    |  0.374% | 
 | 191  | Gyarados           |  0.30425% | 440    |  0.387% | 240    |  0.361% | 
 | 192  | Salazzle           |  0.30362% | 423    |  0.372% | 300    |  0.451% | 
 | 193  | Zoroark            |  0.30272% | 423    |  0.372% | 269    |  0.405% | 
 | 194  | Hawlucha           |  0.30258% | 480    |  0.422% | 313    |  0.471% | 
 | 195  | Avalugg            |  0.30192% | 299    |  0.263% | 165    |  0.248% | 
 | 196  | Galvantula         |  0.29656% | 412    |  0.362% | 348    |  0.523% | 
 | 197  | Milotic            |  0.29559% | 391    |  0.344% | 235    |  0.353% | 
 | 198  | Porygon-Z          |  0.28911% | 457    |  0.402% | 243    |  0.365% | 
 | 199  | Jolteon            |  0.28483% | 460    |  0.404% | 282    |  0.424% | 
 | 200  | Tapu Lele          |  0.28171% | 309    |  0.272% | 205    |  0.308% | 
 | 201  | Arceus-Fire        |  0.28160% | 429    |  0.377% | 255    |  0.383% | 
 | 202  | Lucario            |  0.27929% | 415    |  0.365% | 273    |  0.411% | 
 | 203  | Scolipede          |  0.27929% | 420    |  0.369% | 288    |  0.433% | 
 | 204  | Arceus-Flying      |  0.27681% | 342    |  0.301% | 218    |  0.328% | 
 | 205  | Electrode          |  0.26893% | 367    |  0.323% | 256    |  0.385% | 
 | 206  | Durant             |  0.26758% | 296    |  0.260% | 206    |  0.310% | 
 | 207  | Rattata-Alola      |  0.26751% | 562    |  0.494% | 171    |  0.257% | 
 | 208  | Forretress         |  0.26729% | 345    |  0.303% | 268    |  0.403% | 
 | 209  | Keldeo             |  0.26689% | 425    |  0.374% | 247    |  0.371% | 
 | 210  | Noivern            |  0.26550% | 361    |  0.317% | 221    |  0.332% | 
 | 211  | Ninetales-Alola    |  0.26512% | 420    |  0.369% | 266    |  0.400% | 
 | 212  | Crobat             |  0.26393% | 404    |  0.355% | 269    |  0.405% | 
 | 213  | Medicham-Mega      |  0.26313% | 328    |  0.288% | 228    |  0.343% | 
 | 214  | Goodra             |  0.26161% | 383    |  0.337% | 243    |  0.365% | 
 | 215  | Sylveon            |  0.26134% | 382    |  0.336% | 231    |  0.347% | 
 | 216  | Nidoking           |  0.25985% | 435    |  0.382% | 265    |  0.398% | 
 | 217  | Zygarde            |  0.25183% | 342    |  0.301% | 219    |  0.329% | 
 | 218  | Regirock           |  0.25169% | 296    |  0.260% | 198    |  0.298% | 
 | 219  | Charizard          |  0.24462% | 424    |  0.373% | 292    |  0.439% | 
 | 220  | Type: Null         |  0.24371% | 268    |  0.236% | 164    |  0.247% | 
 | 221  | Floette-Eternal    |  0.23208% | 361    |  0.317% | 196    |  0.295% | 
 | 222  | Doublade           |  0.23010% | 285    |  0.250% | 210    |  0.316% | 
 | 223  | Staraptor          |  0.22577% | 378    |  0.332% | 249    |  0.374% | 
 | 224  | Celebi             |  0.22506% | 367    |  0.323% | 204    |  0.307% | 
 | 225  | Tyrantrum          |  0.22284% | 307    |  0.270% | 165    |  0.248% | 
 | 226  | Bastiodon          |  0.22210% | 286    |  0.251% | 198    |  0.298% | 
 | 227  | Quagsire           |  0.22111% | 311    |  0.273% | 226    |  0.340% | 
 | 228  | Wailord            |  0.21749% | 305    |  0.268% | 197    |  0.296% | 
 | 229  | Aggron             |  0.21707% | 326    |  0.287% | 183    |  0.275% | 
 | 230  | Dhelmise           |  0.21618% | 231    |  0.203% | 117    |  0.176% | 
 | 231  | Sunkern            |  0.21568% | 326    |  0.287% | 193    |  0.290% | 
 | 232  | Alakazam           |  0.21518% | 325    |  0.286% | 191    |  0.287% | 
 | 233  | Lycanroc-Dusk      |  0.21229% | 385    |  0.338% | 284    |  0.427% | 
 | 234  | Raticate-Alola     |  0.20657% | 204    |  0.179% | 123    |  0.185% | 
 | 235  | Toxicroak          |  0.20623% | 293    |  0.258% | 159    |  0.239% | 
 | 236  | Electivire         |  0.20537% | 339    |  0.298% | 209    |  0.314% | 
 | 237  | Riolu              |  0.20208% | 349    |  0.307% | 194    |  0.292% | 
 | 238  | Miltank            |  0.20167% | 239    |  0.210% | 146    |  0.220% | 
 | 239  | Bidoof             |  0.20111% | 353    |  0.310% | 266    |  0.400% | 
 | 240  | Sharpedo-Mega      |  0.20061% | 274    |  0.241% | 137    |  0.206% | 
 | 241  | Typhlosion         |  0.19940% | 329    |  0.289% | 213    |  0.320% | 
 | 242  | Abomasnow-Mega     |  0.19937% | 293    |  0.258% | 189    |  0.284% | 
 | 243  | Cottonee           |  0.19798% | 302    |  0.265% | 153    |  0.230% | 
 | 244  | Sandshrew-Alola    |  0.19608% | 174    |  0.153% | 136    |  0.205% | 
 | 245  | Espeon             |  0.19537% | 332    |  0.292% | 198    |  0.298% | 
 | 246  | Accelgor           |  0.19183% | 285    |  0.250% | 168    |  0.253% | 
 | 247  | Swampert           |  0.18955% | 301    |  0.265% | 198    |  0.298% | 
 | 248  | Salamence          |  0.18948% | 346    |  0.304% | 212    |  0.319% | 
 | 249  | Kabutops           |  0.18687% | 227    |  0.200% | 156    |  0.235% | 
 | 250  | Kyurem             |  0.18505% | 256    |  0.225% | 155    |  0.233% | 
 | 251  | Whimsicott         |  0.18390% | 250    |  0.220% | 155    |  0.233% | 
 | 252  | Pangoro            |  0.18324% | 215    |  0.189% | 129    |  0.194% | 
 | 253  | Articuno           |  0.18299% | 251    |  0.221% | 144    |  0.217% | 
 | 254  | Landorus           |  0.18272% | 243    |  0.214% | 152    |  0.229% | 
 | 255  | Raikou             |  0.18091% | 245    |  0.215% | 162    |  0.244% | 
 | 256  | Feraligatr         |  0.17943% | 285    |  0.250% | 189    |  0.284% | 
 | 257  | Tapu Bulu          |  0.17900% | 257    |  0.226% | 162    |  0.244% | 
 | 258  | Aron               |  0.17785% | 267    |  0.235% | 192    |  0.289% | 
 | 259  | Metagross          |  0.17693% | 306    |  0.269% | 196    |  0.295% | 
 | 260  | Trevenant          |  0.17652% | 225    |  0.198% | 149    |  0.224% | 
 | 261  | Primarina          |  0.17536% | 335    |  0.294% | 194    |  0.292% | 
 | 262  | Luxray             |  0.17396% | 282    |  0.248% | 181    |  0.272% | 
 | 263  | Rampardos          |  0.17393% | 237    |  0.208% | 136    |  0.205% | 
 | 264  | Tornadus-Therian   |  0.16954% | 241    |  0.212% | 143    |  0.215% | 
 | 265  | Zubat              |  0.16836% | 236    |  0.207% | 157    |  0.236% | 
 | 266  | Suicune            |  0.16567% | 189    |  0.166% | 117    |  0.176% | 
 | 267  | Chesnaught         |  0.16388% | 206    |  0.181% | 134    |  0.202% | 
 | 268  | Leafeon            |  0.16090% | 219    |  0.192% | 121    |  0.182% | 
 | 269  | Carbink            |  0.15944% | 210    |  0.185% | 158    |  0.238% | 
 | 270  | Tangrowth          |  0.15910% | 217    |  0.191% | 138    |  0.208% | 
 | 271  | Moltres            |  0.15903% | 214    |  0.188% | 126    |  0.189% | 
 | 272  | Rotom-Heat         |  0.15845% | 274    |  0.241% | 149    |  0.224% | 
 | 273  | Happiny            |  0.15655% | 161    |  0.142% | 104    |  0.156% | 
 | 274  | Lycanroc-Midnight  |  0.15526% | 270    |  0.237% | 158    |  0.238% | 
 | 275  | Arceus-Ground      |  0.15497% | 222    |  0.195% | 131    |  0.197% | 
 | 276  | Ralts              |  0.15425% | 239    |  0.210% | 156    |  0.235% | 
 | 277  | Torterra           |  0.15323% | 194    |  0.171% | 132    |  0.198% | 
 | 278  | Cobalion           |  0.15093% | 162    |  0.142% | 88     |  0.132% | 
 | 279  | Palossand          |  0.14894% | 182    |  0.160% | 109    |  0.164% | 
 | 280  | Golurk             |  0.14688% | 239    |  0.210% | 144    |  0.217% | 
 | 281  | Starmie            |  0.14656% | 176    |  0.155% | 108    |  0.162% | 
 | 282  | Talonflame         |  0.14468% | 311    |  0.273% | 185    |  0.278% | 
 | 283  | Linoone            |  0.14325% | 172    |  0.151% | 100    |  0.150% | 
 | 284  | Conkeldurr         |  0.14081% | 181    |  0.159% | 104    |  0.156% | 
 | 285  | Flygon             |  0.14053% | 225    |  0.198% | 161    |  0.242% | 
 | 286  | Entei              |  0.14036% | 177    |  0.156% | 106    |  0.159% | 
 | 287  | Latios             |  0.13868% | 181    |  0.159% | 116    |  0.174% | 
 | 288  | Manaphy            |  0.13798% | 224    |  0.197% | 135    |  0.203% | 
 | 289  | Jellicent          |  0.13714% | 146    |  0.128% | 133    |  0.200% | 
 | 290  | Walrein            |  0.13680% | 210    |  0.185% | 93     |  0.140% | 
 | 291  | Cradily            |  0.13569% | 183    |  0.161% | 99     |  0.149% | 
 | 292  | Meganium           |  0.13565% | 168    |  0.148% | 85     |  0.128% | 
 | 293  | Ambipom            |  0.13501% | 156    |  0.137% | 116    |  0.174% | 
 | 294  | Lapras             |  0.13476% | 232    |  0.204% | 175    |  0.263% | 
 | 295  | Raichu             |  0.13252% | 209    |  0.184% | 141    |  0.212% | 
 | 296  | Bewear             |  0.13212% | 127    |  0.112% | 87     |  0.131% | 
 | 297  | Sneasel            |  0.13194% | 121    |  0.106% | 84     |  0.126% | 
 | 298  | Emboar             |  0.13065% | 278    |  0.244% | 137    |  0.206% | 
 | 299  | Raichu-Alola       |  0.13033% | 248    |  0.218% | 148    |  0.223% | 
 | 300  | Sceptile           |  0.12945% | 219    |  0.192% | 140    |  0.211% | 
 | 301  | Butterfree         |  0.12892% | 176    |  0.155% | 95     |  0.143% | 
 | 302  | Froslass           |  0.12862% | 171    |  0.150% | 145    |  0.218% | 
 | 303  | Necrozma           |  0.12858% | 222    |  0.195% | 135    |  0.203% | 
 | 304  | Heliolisk          |  0.12816% | 127    |  0.112% | 63     |  0.095% | 
 | 305  | Ursaring           |  0.12815% | 137    |  0.120% | 94     |  0.141% | 
 | 306  | Florges            |  0.12765% | 183    |  0.161% | 126    |  0.189% | 
 | 307  | Rotom-Mow          |  0.12732% | 148    |  0.130% | 92     |  0.138% | 
 | 308  | Cinccino           |  0.12522% | 168    |  0.148% | 114    |  0.171% | 
 | 309  | Diancie            |  0.12494% | 137    |  0.120% | 101    |  0.152% | 
 | 310  | Arceus-Fighting    |  0.12351% | 175    |  0.154% | 107    |  0.161% | 
 | 311  | Crawdaunt          |  0.12277% | 210    |  0.185% | 105    |  0.158% | 
 | 312  | Caterpie           |  0.12193% | 180    |  0.158% | 92     |  0.138% | 
 | 313  | Diggersby          |  0.12081% | 145    |  0.127% | 75     |  0.113% | 
 | 314  | Eelektross         |  0.11880% | 177    |  0.156% | 79     |  0.119% | 
 | 315  | Vaporeon           |  0.11854% | 181    |  0.159% | 130    |  0.195% | 
 | 316  | Blastoise          |  0.11815% | 208    |  0.183% | 124    |  0.186% | 
 | 317  | Seismitoad         |  0.11724% | 163    |  0.143% | 96     |  0.144% | 
 | 318  | Togedemaru         |  0.11710% | 186    |  0.163% | 133    |  0.200% | 
 | 319  | Venusaur           |  0.11393% | 176    |  0.155% | 116    |  0.174% | 
 | 320  | Flareon            |  0.11392% | 203    |  0.178% | 141    |  0.212% | 
 | 321  | Kommo-o-Totem      |  0.11315% | 150    |  0.132% | 105    |  0.158% | 
 | 322  | Honedge            |  0.11247% | 75     |  0.066% | 62     |  0.093% | 
 | 323  | Wynaut             |  0.11154% | 119    |  0.105% | 47     |  0.071% | 
 | 324  | Rhydon             |  0.11074% | 162    |  0.142% | 122    |  0.183% | 
 | 325  | Gigalith           |  0.11019% | 157    |  0.138% | 114    |  0.171% | 
 | 326  | Rotom-Frost        |  0.10978% | 128    |  0.113% | 96     |  0.144% | 
 | 327  | Ludicolo           |  0.10964% | 169    |  0.149% | 101    |  0.152% | 
 | 328  | Pikachu-Alola      |  0.10830% | 205    |  0.180% | 148    |  0.223% | 
 | 329  | Delphox            |  0.10789% | 170    |  0.149% | 115    |  0.173% | 
 | 330  | Wishiwashi-School  |  0.10702% | 88     |  0.077% | 54     |  0.081% | 
 | 331  | Vikavolt           |  0.10673% | 132    |  0.116% | 92     |  0.138% | 
 | 332  | Mismagius          |  0.10489% | 163    |  0.143% | 94     |  0.141% | 
 | 333  | Magmortar          |  0.10369% | 154    |  0.135% | 91     |  0.137% | 
 | 334  | Gastrodon          |  0.10359% | 139    |  0.122% | 68     |  0.102% | 
 | 335  | Wigglytuff         |  0.10252% | 130    |  0.114% | 60     |  0.090% | 
 | 336  | Mamoswine          |  0.10200% | 148    |  0.130% | 104    |  0.156% | 
 | 337  | Abomasnow          |  0.10176% | 118    |  0.104% | 74     |  0.111% | 
 | 338  | Dugtrio            |  0.10084% | 134    |  0.118% | 113    |  0.170% | 
 | 339  | Gligar             |  0.10048% | 135    |  0.119% | 109    |  0.164% | 
 | 340  | Tsareena           |  0.09939% | 153    |  0.134% | 88     |  0.132% | 
 | 341  | Igglybuff          |  0.09919% | 145    |  0.127% | 102    |  0.153% | 
 | 342  | Malamar            |  0.09910% | 132    |  0.116% | 97     |  0.146% | 
 | 343  | Zygarde-10%        |  0.09839% | 133    |  0.117% | 73     |  0.110% | 
 | 344  | Sableye            |  0.09818% | 177    |  0.156% | 119    |  0.179% | 
 | 345  | Braviary           |  0.09759% | 161    |  0.142% | 128    |  0.192% | 
 | 346  | Vanillite          |  0.09712% | 202    |  0.178% | 6      |  0.009% | 
 | 347  | Pachirisu          |  0.09674% | 151    |  0.133% | 110    |  0.165% | 
 | 348  | Poliwrath          |  0.09626% | 157    |  0.138% | 106    |  0.159% | 
 | 349  | Glaceon            |  0.09573% | 164    |  0.144% | 93     |  0.140% | 
 | 350  | Pikachu-Original   |  0.09504% | 103    |  0.091% | 73     |  0.110% | 
 | 351  | Arceus-Bug         |  0.09479% | 149    |  0.131% | 100    |  0.150% | 
 | 352  | Swellow            |  0.09235% | 154    |  0.135% | 99     |  0.149% | 
 | 353  | Gallade            |  0.09209% | 147    |  0.129% | 96     |  0.144% | 
 | 354  | Vivillon           |  0.09180% | 129    |  0.113% | 46     |  0.069% | 
 | 355  | Weedle             |  0.09145% | 143    |  0.126% | 119    |  0.179% | 
 | 356  | Probopass          |  0.08870% | 123    |  0.108% | 91     |  0.137% | 
 | 357  | Dunsparce          |  0.08783% | 128    |  0.113% | 96     |  0.144% | 
 | 358  | Geodude            |  0.08767% | 167    |  0.147% | 130    |  0.195% | 
 | 359  | Charmander         |  0.08745% | 139    |  0.122% | 77     |  0.116% | 
 | 360  | Farfetch'd         |  0.08733% | 126    |  0.111% | 71     |  0.107% | 
 | 361  | Steelix            |  0.08640% | 119    |  0.105% | 80     |  0.120% | 
 | 362  | Ninetales          |  0.08611% | 149    |  0.131% | 97     |  0.146% | 
 | 363  | Pikachu-Kalos      |  0.08561% | 147    |  0.129% | 85     |  0.128% | 
 | 364  | Cacturne           |  0.08532% | 117    |  0.103% | 71     |  0.107% | 
 | 365  | Gastly             |  0.08490% | 112    |  0.098% | 60     |  0.090% | 
 | 366  | Unown              |  0.08286% | 198    |  0.174% | 72     |  0.108% | 
 | 367  | Lampent            |  0.08272% | 107    |  0.094% | 79     |  0.119% | 
 | 368  | Sunflora           |  0.08236% | 128    |  0.113% | 76     |  0.114% | 
 | 369  | Cyndaquil          |  0.08211% | 112    |  0.098% | 80     |  0.120% | 
 | 370  | Metapod            |  0.08199% | 122    |  0.107% | 69     |  0.104% | 
 | 371  | Xatu               |  0.08151% | 115    |  0.101% | 52     |  0.078% | 
 | 372  | Tentacruel         |  0.08145% | 119    |  0.105% | 78     |  0.117% | 
 | 373  | Simisage           |  0.07959% | 129    |  0.113% | 98     |  0.147% | 
 | 374  | Zangoose           |  0.07938% | 118    |  0.104% | 58     |  0.087% | 
 | 375  | Virizion           |  0.07932% | 85     |  0.075% | 62     |  0.093% | 
 | 376  | Alomomola          |  0.07786% | 88     |  0.077% | 57     |  0.086% | 
 | 377  | Hippowdon          |  0.07765% | 123    |  0.108% | 89     |  0.134% | 
 | 378  | Terrakion          |  0.07605% | 90     |  0.079% | 53     |  0.080% | 
 | 379  | Arceus-Rock        |  0.07561% | 88     |  0.077% | 54     |  0.081% | 
 | 380  | Honchkrow          |  0.07434% | 115    |  0.101% | 84     |  0.126% | 
 | 381  | Pichu              |  0.07399% | 101    |  0.089% | 81     |  0.122% | 
 | 382  | Klefki             |  0.07388% | 146    |  0.128% | 93     |  0.140% | 
 | 383  | Mr. Mime           |  0.07242% | 136    |  0.120% | 96     |  0.144% | 
 | 384  | Sandslash-Alola    |  0.07169% | 159    |  0.140% | 103    |  0.155% | 
 | 385  | Heracross          |  0.07166% | 107    |  0.094% | 65     |  0.098% | 
 | 386  | Haunter            |  0.07121% | 85     |  0.075% | 41     |  0.062% | 
 | 387  | Clawitzer          |  0.07116% | 110    |  0.097% | 54     |  0.081% | 
 | 388  | Scizor             |  0.06990% | 135    |  0.119% | 81     |  0.122% | 
 | 389  | Golem              |  0.06977% | 96     |  0.084% | 70     |  0.105% | 
 | 390  | Camerupt           |  0.06906% | 93     |  0.082% | 48     |  0.072% | 
 | 391  | Mienshao           |  0.06791% | 107    |  0.094% | 67     |  0.101% | 
 | 392  | Vanilluxe          |  0.06712% | 106    |  0.093% | 53     |  0.080% | 
 | 393  | Sawk               |  0.06659% | 129    |  0.113% | 79     |  0.119% | 
 | 394  | Diglett            |  0.06654% | 146    |  0.128% | 72     |  0.108% | 
 | 395  | Glalie-Mega        |  0.06570% | 92     |  0.081% | 63     |  0.095% | 
 | 396  | Raticate-Alola-Totem |  0.06568% | 45     |  0.040% | 31     |  0.047% | 
 | 397  | Rhyperior          |  0.06547% | 109    |  0.096% | 75     |  0.113% | 
 | 398  | Turtonator         |  0.06460% | 112    |  0.098% | 87     |  0.131% | 
 | 399  | Politoed           |  0.06422% | 77     |  0.068% | 45     |  0.068% | 
 | 400  | Reuniclus          |  0.06394% | 137    |  0.120% | 75     |  0.113% | 
 | 401  | Starly             |  0.06388% | 129    |  0.113% | 43     |  0.065% | 
 | 402  | Rotom-Fan          |  0.06318% | 93     |  0.082% | 69     |  0.104% | 
 | 403  | Drampa             |  0.06315% | 74     |  0.065% | 44     |  0.066% | 
 | 404  | Simisear           |  0.06290% | 67     |  0.059% | 61     |  0.092% | 
 | 405  | Nidoqueen          |  0.06267% | 108    |  0.095% | 84     |  0.126% | 
 | 406  | Pikachu-Partner    |  0.06254% | 93     |  0.082% | 55     |  0.083% | 
 | 407  | Arbok              |  0.06176% | 81     |  0.071% | 40     |  0.060% | 
 | 408  | Minior             |  0.06128% | 96     |  0.084% | 65     |  0.098% | 
 | 409  | Maractus           |  0.06113% | 73     |  0.064% | 53     |  0.080% | 
 | 410  | Ampharos           |  0.06040% | 106    |  0.093% | 74     |  0.111% | 
 | 411  | Ribombee           |  0.06021% | 101    |  0.089% | 70     |  0.105% | 
 | 412  | Tornadus           |  0.05994% | 106    |  0.093% | 48     |  0.072% | 
 | 413  | Hitmonlee          |  0.05987% | 94     |  0.083% | 57     |  0.086% | 
 | 414  | Rotom              |  0.05914% | 81     |  0.071% | 61     |  0.092% | 
 | 415  | Mimikyu-Totem      |  0.05896% | 114    |  0.100% | 84     |  0.126% | 
 | 416  | Castform           |  0.05895% | 89     |  0.078% | 38     |  0.057% | 
 | 417  | Swalot             |  0.05847% | 64     |  0.056% | 46     |  0.069% | 
 | 418  | Rapidash           |  0.05814% | 86     |  0.076% | 57     |  0.086% | 
 | 419  | Scyther            |  0.05810% | 71     |  0.062% | 35     |  0.053% | 
 | 420  | Weezing            |  0.05807% | 81     |  0.071% | 61     |  0.092% | 
 | 421  | Samurott           |  0.05799% | 132    |  0.116% | 70     |  0.105% | 
 | 422  | Scrafty            |  0.05792% | 93     |  0.082% | 63     |  0.095% | 
 | 423  | Lurantis           |  0.05696% | 65     |  0.057% | 40     |  0.060% | 
 | 424  | Delibird           |  0.05530% | 113    |  0.099% | 73     |  0.110% | 
 | 425  | Exploud            |  0.05495% | 91     |  0.080% | 53     |  0.080% | 
 | 426  | Persian-Alola      |  0.05379% | 76     |  0.067% | 58     |  0.087% | 
 | 427  | Togepi             |  0.05282% | 94     |  0.083% | 55     |  0.083% | 
 | 428  | Latias             |  0.05280% | 104    |  0.091% | 60     |  0.090% | 
 | 429  | Jigglypuff         |  0.05230% | 90     |  0.079% | 48     |  0.072% | 
 | 430  | Nosepass           |  0.05210% | 87     |  0.076% | 73     |  0.110% | 
 | 431  | Granbull           |  0.05207% | 70     |  0.062% | 35     |  0.053% | 
 | 432  | Electabuzz         |  0.05188% | 57     |  0.050% | 24     |  0.036% | 
 | 433  | Lanturn            |  0.05152% | 69     |  0.061% | 38     |  0.057% | 
 | 434  | Litwick            |  0.05084% | 88     |  0.077% | 77     |  0.116% | 
 | 435  | Altaria            |  0.05076% | 73     |  0.064% | 50     |  0.075% | 
 | 436  | Hoopa              |  0.05049% | 88     |  0.077% | 53     |  0.080% | 
 | 437  | Druddigon          |  0.05040% | 66     |  0.058% | 49     |  0.074% | 
 | 438  | Silvally-Steel     |  0.05033% | 56     |  0.049% | 24     |  0.036% | 
 | 439  | Sigilyph           |  0.05028% | 79     |  0.069% | 43     |  0.065% | 
 | 440  | Magneton           |  0.05004% | 91     |  0.080% | 53     |  0.080% | 
 | 441  | Corsola            |  0.04992% | 77     |  0.068% | 63     |  0.095% | 
 | 442  | Meowstic           |  0.04985% | 72     |  0.063% | 41     |  0.062% | 
 | 443  | Mudsdale           |  0.04982% | 74     |  0.065% | 52     |  0.078% | 
 | 444  | Ledian             |  0.04955% | 63     |  0.055% | 44     |  0.066% | 
 | 445  | Kingler            |  0.04944% | 102    |  0.090% | 74     |  0.111% | 
 | 446  | Toucannon          |  0.04910% | 73     |  0.064% | 30     |  0.045% | 
 | 447  | Oshawott           |  0.04839% | 76     |  0.067% | 50     |  0.075% | 
 | 448  | Skuntank           |  0.04826% | 73     |  0.064% | 50     |  0.075% | 
 | 449  | Swoobat            |  0.04774% | 72     |  0.063% | 42     |  0.063% | 
 | 450  | Kingdra            |  0.04734% | 80     |  0.070% | 46     |  0.069% | 
 | 451  | Uxie               |  0.04718% | 61     |  0.054% | 39     |  0.059% | 
 | 452  | Lilligant          |  0.04649% | 69     |  0.061% | 34     |  0.051% | 
 | 453  | Silvally           |  0.04616% | 70     |  0.062% | 46     |  0.069% | 
 | 454  | Aurorus            |  0.04403% | 54     |  0.047% | 31     |  0.047% | 
 | 455  | Squirtle           |  0.04396% | 70     |  0.062% | 46     |  0.069% | 
 | 456  | Silvally-Dragon    |  0.04370% | 52     |  0.046% | 29     |  0.044% | 
 | 457  | Slowbro            |  0.04351% | 77     |  0.068% | 36     |  0.054% | 
 | 458  | Golduck            |  0.04344% | 79     |  0.069% | 57     |  0.086% | 
 | 459  | Lopunny            |  0.04337% | 60     |  0.053% | 47     |  0.071% | 
 | 460  | Pelipper           |  0.04336% | 70     |  0.062% | 47     |  0.071% | 
 | 461  | Vileplume          |  0.04321% | 81     |  0.071% | 53     |  0.080% | 
 | 462  | Marowak            |  0.04296% | 70     |  0.062% | 47     |  0.071% | 
 | 463  | Oranguru           |  0.04289% | 53     |  0.047% | 42     |  0.063% | 
 | 464  | Victreebel         |  0.04286% | 68     |  0.060% | 49     |  0.074% | 
 | 465  | Jynx               |  0.04264% | 56     |  0.049% | 31     |  0.047% | 
 | 466  | Banette            |  0.04235% | 56     |  0.049% | 20     |  0.030% | 
 | 467  | Golem-Alola        |  0.04171% | 64     |  0.056% | 33     |  0.050% | 
 | 468  | Wooper             |  0.04150% | 67     |  0.059% | 40     |  0.060% | 
 | 469  | Aerodactyl         |  0.04100% | 54     |  0.047% | 29     |  0.044% | 
 | 470  | Hariyama           |  0.04061% | 66     |  0.058% | 47     |  0.071% | 
 | 471  | Dodrio             |  0.04060% | 50     |  0.044% | 36     |  0.054% | 
 | 472  | Araquanid          |  0.04018% | 57     |  0.050% | 47     |  0.071% | 
 | 473  | Zigzagoon          |  0.04012% | 75     |  0.066% | 62     |  0.093% | 
 | 474  | Azelf              |  0.04005% | 52     |  0.046% | 37     |  0.056% | 
 | 475  | Shaymin            |  0.03982% | 60     |  0.053% | 31     |  0.047% | 
 | 476  | Hakamo-o           |  0.03962% | 60     |  0.053% | 27     |  0.041% | 
 | 477  | Seviper            |  0.03947% | 52     |  0.046% | 36     |  0.054% | 
 | 478  | Gourgeist-Super    |  0.03941% | 48     |  0.042% | 25     |  0.038% | 
 | 479  | Wingull            |  0.03896% | 57     |  0.050% | 30     |  0.045% | 
 | 480  | Lycanroc           |  0.03884% | 52     |  0.046% | 30     |  0.045% | 
 | 481  | Flaaffy            |  0.03826% | 47     |  0.041% | 31     |  0.047% | 
 | 482  | Watchog            |  0.03820% | 50     |  0.044% | 24     |  0.036% | 
 | 483  | Psyduck            |  0.03817% | 52     |  0.046% | 29     |  0.044% | 
 | 484  | Deerling           |  0.03810% | 39     |  0.034% | 20     |  0.030% | 
 | 485  | Chatot             |  0.03783% | 54     |  0.047% | 32     |  0.048% | 
 | 486  | Pidgeot            |  0.03771% | 49     |  0.043% | 33     |  0.050% | 
 | 487  | Misdreavus         |  0.03768% | 74     |  0.065% | 42     |  0.063% | 
 | 488  | Unfezant           |  0.03766% | 79     |  0.069% | 45     |  0.068% | 
 | 489  | Wishiwashi         |  0.03692% | 72     |  0.063% | 49     |  0.074% | 
 | 490  | Lickitung          |  0.03687% | 33     |  0.029% | 21     |  0.032% | 
 | 491  | Hitmonchan         |  0.03682% | 65     |  0.057% | 47     |  0.071% | 
 | 492  | Furfrou            |  0.03678% | 66     |  0.058% | 39     |  0.059% | 
 | 493  | Munchlax           |  0.03673% | 52     |  0.046% | 38     |  0.057% | 
 | 494  | Claydol            |  0.03636% | 58     |  0.051% | 35     |  0.053% | 
 | 495  | Mandibuzz          |  0.03631% | 30     |  0.026% | 29     |  0.044% | 
 | 496  | Tauros             |  0.03624% | 47     |  0.041% | 22     |  0.033% | 
 | 497  | Crabrawler         |  0.03598% | 51     |  0.045% | 9      |  0.014% | 
 | 498  | Kabuto             |  0.03577% | 45     |  0.040% | 39     |  0.059% | 
 | 499  | Cosmog             |  0.03568% | 56     |  0.049% | 42     |  0.063% | 
 | 500  | Exeggutor          |  0.03565% | 57     |  0.050% | 39     |  0.059% | 
 | 501  | Omastar            |  0.03532% | 65     |  0.057% | 49     |  0.074% | 
 | 502  | Crabominable       |  0.03523% | 68     |  0.060% | 50     |  0.075% | 
 | 503  | Slurpuff           |  0.03514% | 52     |  0.046% | 33     |  0.050% | 
 | 504  | Bibarel            |  0.03478% | 63     |  0.055% | 37     |  0.056% | 
 | 505  | Pineco             |  0.03478% | 69     |  0.061% | 55     |  0.083% | 
 | 506  | Dustox             |  0.03473% | 38     |  0.033% | 10     |  0.015% | 
 | 507  | Torkoal            |  0.03466% | 71     |  0.062% | 27     |  0.041% | 
 | 508  | Clamperl           |  0.03453% | 38     |  0.033% | 27     |  0.041% | 
 | 509  | Mesprit            |  0.03416% | 52     |  0.046% | 30     |  0.045% | 
 | 510  | Pidgey             |  0.03380% | 56     |  0.049% | 33     |  0.050% | 
 | 511  | Floatzel           |  0.03351% | 65     |  0.057% | 41     |  0.062% | 
 | 512  | Lickilicky         |  0.03322% | 30     |  0.026% | 18     |  0.027% | 
 | 513  | Magcargo           |  0.03313% | 50     |  0.044% | 30     |  0.045% | 
 | 514  | Musharna           |  0.03298% | 65     |  0.057% | 32     |  0.048% | 
 | 515  | Donphan            |  0.03272% | 43     |  0.038% | 29     |  0.044% | 
 | 516  | Magnemite          |  0.03243% | 59     |  0.052% | 41     |  0.062% | 
 | 517  | Krokorok           |  0.03223% | 43     |  0.038% | 31     |  0.047% | 
 | 518  | Hitmontop          |  0.03217% | 52     |  0.046% | 31     |  0.047% | 
 | 519  | Mudkip             |  0.03206% | 45     |  0.040% | 32     |  0.048% | 
 | 520  | Sandslash          |  0.03191% | 66     |  0.058% | 40     |  0.060% | 
 | 521  | Croconaw           |  0.03181% | 38     |  0.033% | 24     |  0.036% | 
 | 522  | Absol              |  0.03166% | 56     |  0.049% | 33     |  0.050% | 
 | 523  | Dragalge           |  0.03153% | 44     |  0.039% | 36     |  0.054% | 
 | 524  | Clefairy           |  0.03093% | 39     |  0.034% | 35     |  0.053% | 
 | 525  | Amoonguss          |  0.03089% | 56     |  0.049% | 43     |  0.065% | 
 | 526  | Octillery          |  0.03083% | 37     |  0.033% | 20     |  0.030% | 
 | 527  | Silvally-Ghost     |  0.03072% | 50     |  0.044% | 35     |  0.053% | 
 | 528  | Hypno              |  0.02983% | 62     |  0.054% | 48     |  0.072% | 
 | 529  | Mienfoo            |  0.02976% | 39     |  0.034% | 6      |  0.009% | 
 | 530  | Shelgon            |  0.02971% | 63     |  0.055% | 39     |  0.059% | 
 | 531  | Abra               |  0.02967% | 46     |  0.040% | 32     |  0.048% | 
 | 532  | Kakuna             |  0.02963% | 45     |  0.040% | 28     |  0.042% | 
 | 533  | Pikachu-Unova      |  0.02957% | 51     |  0.045% | 27     |  0.041% | 
 | 534  | Ariados            |  0.02927% | 42     |  0.037% | 29     |  0.044% | 
 | 535  | Pikachu-Hoenn      |  0.02921% | 50     |  0.044% | 39     |  0.059% | 
 | 536  | Cascoon            |  0.02877% | 42     |  0.037% | 34     |  0.051% | 
 | 537  | Pikachu-Sinnoh     |  0.02865% | 43     |  0.038% | 29     |  0.044% | 
 | 538  | Tangela            |  0.02822% | 39     |  0.034% | 34     |  0.051% | 
 | 539  | Trubbish           |  0.02805% | 37     |  0.033% | 25     |  0.038% | 
 | 540  | Palpitoad          |  0.02805% | 35     |  0.031% | 30     |  0.045% | 
 | 541  | Omanyte            |  0.02793% | 41     |  0.036% | 32     |  0.048% | 
 | 542  | Muk                |  0.02749% | 57     |  0.050% | 30     |  0.045% | 
 | 543  | Sharpedo           |  0.02728% | 43     |  0.038% | 21     |  0.032% | 
 | 544  | Girafarig          |  0.02685% | 28     |  0.025% | 20     |  0.030% | 
 | 545  | Silvally-Ice       |  0.02677% | 25     |  0.022% | 17     |  0.026% | 
 | 546  | Bellossom          |  0.02639% | 52     |  0.046% | 30     |  0.045% | 
 | 547  | Phione             |  0.02626% | 33     |  0.029% | 31     |  0.047% | 
 | 548  | Zorua              |  0.02598% | 43     |  0.038% | 31     |  0.047% | 
 | 549  | Venomoth           |  0.02564% | 52     |  0.046% | 43     |  0.065% | 
 | 550  | Torchic            |  0.02561% | 48     |  0.042% | 39     |  0.059% | 
 | 551  | Komala             |  0.02555% | 36     |  0.032% | 17     |  0.026% | 
 | 552  | Diglett-Alola      |  0.02552% | 43     |  0.038% | 33     |  0.050% | 
 | 553  | Manectric          |  0.02543% | 46     |  0.040% | 27     |  0.041% | 
 | 554  | Shieldon           |  0.02528% | 39     |  0.034% | 31     |  0.047% | 
 | 555  | Stunfisk           |  0.02525% | 51     |  0.045% | 42     |  0.063% | 
 | 556  | Heatmor            |  0.02502% | 41     |  0.036% | 25     |  0.038% | 
 | 557  | Liepard            |  0.02490% | 41     |  0.036% | 30     |  0.045% | 
 | 558  | Aromatisse         |  0.02488% | 28     |  0.025% | 15     |  0.023% | 
 | 559  | Machop             |  0.02460% | 42     |  0.037% | 29     |  0.044% | 
 | 560  | Armaldo            |  0.02451% | 41     |  0.036% | 27     |  0.041% | 
 | 561  | Pyroar             |  0.02425% | 49     |  0.043% | 32     |  0.048% | 
 | 562  | Houndoom           |  0.02416% | 47     |  0.041% | 36     |  0.054% | 
 | 563  | Braixen            |  0.02405% | 45     |  0.040% | 26     |  0.039% | 
 | 564  | Wailmer            |  0.02399% | 32     |  0.028% | 24     |  0.036% | 
 | 565  | Beartic            |  0.02365% | 44     |  0.039% | 31     |  0.047% | 
 | 566  | Yanmega            |  0.02325% | 59     |  0.052% | 40     |  0.060% | 
 | 567  | Togetic            |  0.02314% | 30     |  0.026% | 22     |  0.033% | 
 | 568  | Basculin           |  0.02297% | 33     |  0.029% | 18     |  0.027% | 
 | 569  | Stoutland          |  0.02266% | 54     |  0.047% | 40     |  0.060% | 
 | 570  | Cubone             |  0.02249% | 46     |  0.040% | 29     |  0.044% | 
 | 571  | Dragonair          |  0.02236% | 50     |  0.044% | 31     |  0.047% | 
 | 572  | Feebas             |  0.02236% | 32     |  0.028% | 15     |  0.023% | 
 | 573  | Bouffalant         |  0.02227% | 40     |  0.035% | 31     |  0.047% | 
 | 574  | Seedot             |  0.02210% | 27     |  0.024% | 10     |  0.015% | 
 | 575  | Cherrim            |  0.02182% | 44     |  0.039% | 38     |  0.057% | 
 | 576  | Comfey             |  0.02179% | 29     |  0.025% | 17     |  0.026% | 
 | 577  | Salandit           |  0.02163% | 28     |  0.025% | 24     |  0.036% | 
 | 578  | Chimecho           |  0.02148% | 24     |  0.021% | 20     |  0.030% | 
 | 579  | Bronzong           |  0.02141% | 34     |  0.030% | 22     |  0.033% | 
 | 580  | Roggenrola         |  0.02134% | 32     |  0.028% | 24     |  0.036% | 
 | 581  | Dugtrio-Alola      |  0.02108% | 30     |  0.026% | 18     |  0.027% | 
 | 582  | Barbaracle         |  0.02106% | 31     |  0.027% | 19     |  0.029% | 
 | 583  | Vespiquen          |  0.02090% | 38     |  0.033% | 17     |  0.026% | 
 | 584  | Wartortle          |  0.02089% | 39     |  0.034% | 28     |  0.042% | 
 | 585  | Charmeleon         |  0.02077% | 33     |  0.029% | 27     |  0.041% | 
 | 586  | Carracosta         |  0.02045% | 30     |  0.026% | 19     |  0.029% | 
 | 587  | Swanna             |  0.02032% | 54     |  0.047% | 27     |  0.041% | 
 | 588  | Exeggutor-Alola    |  0.02027% | 40     |  0.035% | 28     |  0.042% | 
 | 589  | Cryogonal          |  0.02026% | 33     |  0.029% | 31     |  0.047% | 
 | 590  | Parasect           |  0.02003% | 35     |  0.031% | 17     |  0.026% | 
 | 591  | Murkrow            |  0.02002% | 27     |  0.024% | 14     |  0.021% | 
 | 592  | Persian            |  0.02001% | 40     |  0.035% | 33     |  0.050% | 
 | 593  | Dratini            |  0.02001% | 44     |  0.039% | 20     |  0.030% | 
 | 594  | Gloom              |  0.01981% | 19     |  0.017% | 7      |  0.011% | 
 | 595  | Solrock            |  0.01976% | 29     |  0.025% | 16     |  0.024% | 
 | 596  | Sawsbuck           |  0.01950% | 69     |  0.061% | 36     |  0.054% | 
 | 597  | Minun              |  0.01935% | 29     |  0.025% | 21     |  0.032% | 
 | 598  | Dewott             |  0.01930% | 47     |  0.041% | 39     |  0.059% | 
 | 599  | Machoke            |  0.01930% | 28     |  0.025% | 18     |  0.027% | 
 | 600  | Kecleon            |  0.01917% | 51     |  0.045% | 36     |  0.054% | 
 | 601  | Makuhita           |  0.01910% | 30     |  0.026% | 5      |  0.008% | 
 | 602  | Beedrill           |  0.01889% | 36     |  0.032% | 29     |  0.044% | 
 | 603  | Raticate           |  0.01886% | 37     |  0.033% | 30     |  0.045% | 
 | 604  | Slowking           |  0.01863% | 23     |  0.020% | 17     |  0.026% | 
 | 605  | Ivysaur            |  0.01843% | 27     |  0.024% | 24     |  0.036% | 
 | 606  | Rockruff           |  0.01812% | 35     |  0.031% | 32     |  0.048% | 
 | 607  | Onix               |  0.01809% | 32     |  0.028% | 28     |  0.042% | 
 | 608  | Trapinch           |  0.01803% | 20     |  0.018% | 9      |  0.014% | 
 | 609  | Simipour           |  0.01785% | 24     |  0.021% | 10     |  0.015% | 
 | 610  | Fraxure            |  0.01716% | 18     |  0.016% | 4      |  0.006% | 
 | 611  | Oricorio-Sensu     |  0.01698% | 50     |  0.044% | 34     |  0.051% | 
 | 612  | Mightyena          |  0.01695% | 22     |  0.019% | 14     |  0.021% | 
 | 613  | Poipole            |  0.01689% | 28     |  0.025% | 25     |  0.038% | 
 | 614  | Shiinotic          |  0.01665% | 28     |  0.025% | 19     |  0.029% | 
 | 615  | Kirlia             |  0.01657% | 21     |  0.018% | 14     |  0.021% | 
 | 616  | Silvally-Poison    |  0.01650% | 24     |  0.021% | 10     |  0.015% | 
 | 617  | Medicham           |  0.01646% | 27     |  0.024% | 18     |  0.027% | 
 | 618  | Leavanny           |  0.01644% | 32     |  0.028% | 17     |  0.026% | 
 | 619  | Cleffa             |  0.01598% | 34     |  0.030% | 25     |  0.038% | 
 | 620  | Zebstrika          |  0.01580% | 20     |  0.018% | 15     |  0.023% | 
 | 621  | Emolga             |  0.01564% | 47     |  0.041% | 36     |  0.054% | 
 | 622  | Noctowl            |  0.01562% | 17     |  0.015% | 11     |  0.017% | 
 | 623  | Glalie             |  0.01549% | 23     |  0.020% | 10     |  0.015% | 
 | 624  | Petilil            |  0.01537% | 20     |  0.018% | 14     |  0.021% | 
 | 625  | Jumpluff           |  0.01533% | 23     |  0.020% | 12     |  0.018% | 
 | 626  | Popplio            |  0.01533% | 27     |  0.024% | 9      |  0.014% | 
 | 627  | Golbat             |  0.01529% | 31     |  0.027% | 19     |  0.029% | 
 | 628  | Azurill            |  0.01517% | 26     |  0.023% | 16     |  0.024% | 
 | 629  | Wimpod             |  0.01503% | 21     |  0.018% | 12     |  0.018% | 
 | 630  | Sandile            |  0.01495% | 24     |  0.021% | 8      |  0.012% | 
 | 631  | Silvally-Fire      |  0.01470% | 23     |  0.020% | 20     |  0.030% | 
 | 632  | Wurmple            |  0.01466% | 21     |  0.018% | 19     |  0.029% | 
 | 633  | Tynamo             |  0.01460% | 35     |  0.031% | 16     |  0.024% | 
 | 634  | Piplup             |  0.01427% | 20     |  0.018% | 14     |  0.021% | 
 | 635  | Froakie            |  0.01427% | 19     |  0.017% | 11     |  0.017% | 
 | 636  | Silvally-Electric  |  0.01424% | 26     |  0.023% | 11     |  0.017% | 
 | 637  | Kricketune         |  0.01422% | 25     |  0.022% | 14     |  0.021% | 
 | 638  | Shiftry            |  0.01387% | 19     |  0.017% | 16     |  0.024% | 
 | 639  | Mawile             |  0.01381% | 39     |  0.034% | 18     |  0.027% | 
 | 640  | Sudowoodo          |  0.01379% | 29     |  0.025% | 24     |  0.036% | 
 | 641  | Cutiefly           |  0.01373% | 15     |  0.013% | 9      |  0.014% | 
 | 642  | Poliwhirl          |  0.01370% | 16     |  0.014% | 15     |  0.023% | 
 | 643  | Duskull            |  0.01350% | 15     |  0.013% | 8      |  0.012% | 
 | 644  | Crustle            |  0.01350% | 23     |  0.020% | 15     |  0.023% | 
 | 645  | Spearow            |  0.01333% | 53     |  0.047% | 13     |  0.020% | 
 | 646  | Bellsprout         |  0.01322% | 25     |  0.022% | 13     |  0.020% | 
 | 647  | Silvally-Dark      |  0.01296% | 23     |  0.020% | 12     |  0.018% | 
 | 648  | Rowlet             |  0.01287% | 24     |  0.021% | 17     |  0.026% | 
 | 649  | Mareanie           |  0.01278% | 21     |  0.018% | 13     |  0.020% | 
 | 650  | Yungoos            |  0.01277% | 17     |  0.015% | 12     |  0.018% | 
 | 651  | Shroomish          |  0.01270% | 14     |  0.012% | 12     |  0.018% | 
 | 652  | Primeape           |  0.01269% | 20     |  0.018% | 13     |  0.020% | 
 | 653  | Combusken          |  0.01265% | 21     |  0.018% | 14     |  0.021% | 
 | 654  | Torracat           |  0.01243% | 14     |  0.012% | 11     |  0.017% | 
 | 655  | Axew               |  0.01240% | 17     |  0.015% | 8      |  0.012% | 
 | 656  | Porygon            |  0.01234% | 17     |  0.015% | 15     |  0.023% | 
 | 657  | Skiploom           |  0.01232% | 34     |  0.030% | 20     |  0.030% | 
 | 658  | Pawniard           |  0.01224% | 21     |  0.018% | 12     |  0.018% | 
 | 659  | Treecko            |  0.01224% | 19     |  0.017% | 10     |  0.015% | 
 | 660  | Pidove             |  0.01198% | 20     |  0.018% | 15     |  0.023% | 
 | 661  | Yamask             |  0.01183% | 24     |  0.021% | 16     |  0.024% | 
 | 662  | Mimikyu-Busted-Totem |  0.01155% | 14     |  0.012% | 9      |  0.014% | 
 | 663  | Grovyle            |  0.01152% | 17     |  0.015% | 15     |  0.023% | 
 | 664  | Seaking            |  0.01143% | 16     |  0.014% | 12     |  0.018% | 
 | 665  | Dwebble            |  0.01137% | 20     |  0.018% | 17     |  0.026% | 
 | 666  | Snivy              |  0.01132% | 28     |  0.025% | 14     |  0.021% | 
 | 667  | Bagon              |  0.01129% | 36     |  0.032% | 15     |  0.023% | 
 | 668  | Skitty             |  0.01119% | 17     |  0.015% | 13     |  0.020% | 
 | 669  | Kangaskhan         |  0.01101% | 21     |  0.018% | 15     |  0.023% | 
 | 670  | Gothitelle         |  0.01098% | 13     |  0.011% | 9      |  0.014% | 
 | 671  | Tyrunt             |  0.01079% | 13     |  0.011% | 11     |  0.017% | 
 | 672  | Vulpix             |  0.01077% | 15     |  0.013% | 11     |  0.017% | 
 | 673  | Qwilfish           |  0.01071% | 16     |  0.014% | 8      |  0.012% | 
 | 674  | Silvally-Fairy     |  0.01059% | 33     |  0.029% | 22     |  0.033% | 
 | 675  | Poliwag            |  0.01059% | 31     |  0.027% | 22     |  0.033% | 
 | 676  | Beheeyem           |  0.01029% | 15     |  0.013% | 8      |  0.012% | 
 | 677  | Masquerain         |  0.01024% | 19     |  0.017% | 4      |  0.006% | 
 | 678  | Pidgeotto          |  0.01008% | 16     |  0.014% | 15     |  0.023% | 
 | 679  | Chingling          |  0.01007% | 11     |  0.010% | 7      |  0.011% | 
 | 680  | Mantine            |  0.01001% | 17     |  0.015% | 10     |  0.015% | 
 | 681  | Exeggcute          |  0.00981% | 15     |  0.013% | 9      |  0.014% | 
 | 682  | Lairon             |  0.00980% | 14     |  0.012% | 12     |  0.018% | 
 | 683  | Frogadier          |  0.00979% | 15     |  0.013% | 7      |  0.011% | 
 | 684  | Vulpix-Alola       |  0.00968% | 24     |  0.021% | 15     |  0.023% | 
 | 685  | Hippopotas         |  0.00968% | 15     |  0.013% | 10     |  0.015% | 
 | 686  | Staryu             |  0.00947% | 13     |  0.011% | 6      |  0.009% | 
 | 687  | Passimian          |  0.00915% | 12     |  0.011% | 8      |  0.012% | 
 | 688  | Gogoat             |  0.00902% | 18     |  0.016% | 7      |  0.011% | 
 | 689  | Phantump           |  0.00892% | 11     |  0.010% | 7      |  0.011% | 
 | 690  | Carnivine          |  0.00886% | 15     |  0.013% | 7      |  0.011% | 
 | 691  | Audino             |  0.00880% | 15     |  0.013% | 9      |  0.014% | 
 | 692  | Silvally-Flying    |  0.00876% | 11     |  0.010% | 8      |  0.012% | 
 | 693  | Panpour            |  0.00870% | 13     |  0.011% | 12     |  0.018% | 
 | 694  | Golett             |  0.00866% | 11     |  0.010% | 9      |  0.014% | 
 | 695  | Taillow            |  0.00858% | 15     |  0.013% | 13     |  0.020% | 
 | 696  | Geodude-Alola      |  0.00858% | 11     |  0.010% | 6      |  0.009% | 
 | 697  | Dedenne            |  0.00852% | 26     |  0.023% | 19     |  0.029% | 
 | 698  | Fennekin           |  0.00846% | 14     |  0.012% | 9      |  0.014% | 
 | 699  | Piloswine          |  0.00839% | 16     |  0.014% | 12     |  0.018% | 
 | 700  | Mime Jr.           |  0.00834% | 12     |  0.011% | 8      |  0.012% | 
 | 701  | Cranidos           |  0.00832% | 10     |  0.009% | 9      |  0.014% | 
 | 702  | Nincada            |  0.00823% | 11     |  0.010% | 9      |  0.014% | 
 | 703  | Stufful            |  0.00812% | 12     |  0.011% | 8      |  0.012% | 
 | 704  | Gurdurr            |  0.00812% | 16     |  0.014% | 7      |  0.011% | 
 | 705  | Snorunt            |  0.00800% | 11     |  0.010% | 3      |  0.005% | 
 | 706  | Archen             |  0.00798% | 13     |  0.011% | 5      |  0.008% | 
 | 707  | Shelmet            |  0.00797% | 14     |  0.012% | 11     |  0.017% | 
 | 708  | Wormadam-Trash     |  0.00787% | 16     |  0.014% | 12     |  0.018% | 
 | 709  | Gabite             |  0.00787% | 17     |  0.015% | 9      |  0.014% | 
 | 710  | Magby              |  0.00783% | 12     |  0.011% | 7      |  0.011% | 
 | 711  | Marill             |  0.00783% | 32     |  0.028% | 21     |  0.032% | 
 | 712  | Metang             |  0.00780% | 29     |  0.025% | 18     |  0.027% | 
 | 713  | Luvdisc            |  0.00769% | 12     |  0.011% | 9      |  0.014% | 
 | 714  | Swinub             |  0.00767% | 9      |  0.008% | 5      |  0.008% | 
 | 715  | Gumshoos           |  0.00765% | 10     |  0.009% | 4      |  0.006% | 
 | 716  | Dewgong            |  0.00763% | 9      |  0.008% | 7      |  0.011% | 
 | 717  | Slakoth            |  0.00758% | 18     |  0.016% | 13     |  0.020% | 
 | 718  | Meowth             |  0.00748% | 16     |  0.014% | 11     |  0.017% | 
 | 719  | Venonat            |  0.00746% | 15     |  0.013% | 13     |  0.020% | 
 | 720  | Mareep             |  0.00718% | 22     |  0.019% | 14     |  0.021% | 
 | 721  | Gothorita          |  0.00712% | 12     |  0.011% | 6      |  0.009% | 
 | 722  | Bayleef            |  0.00700% | 11     |  0.010% | 9      |  0.014% | 
 | 723  | Vikavolt-Totem     |  0.00686% | 26     |  0.023% | 16     |  0.024% | 
 | 724  | Remoraid           |  0.00681% | 11     |  0.010% | 5      |  0.008% | 
 | 725  | Totodile           |  0.00680% | 13     |  0.011% | 10     |  0.015% | 
 | 726  | Stantler           |  0.00678% | 70     |  0.062% | 18     |  0.027% | 
 | 727  | Frillish           |  0.00670% | 9      |  0.008% | 7      |  0.011% | 
 | 728  | Hoppip             |  0.00665% | 7      |  0.006% | 3      |  0.005% | 
 | 729  | Cubchoo            |  0.00665% | 9      |  0.008% | 6      |  0.009% | 
 | 730  | Scraggy            |  0.00663% | 8      |  0.007% | 7      |  0.011% | 
 | 731  | Bronzor            |  0.00661% | 9      |  0.008% | 7      |  0.011% | 
 | 732  | Spinarak           |  0.00661% | 9      |  0.008% | 6      |  0.009% | 
 | 733  | Lunatone           |  0.00656% | 11     |  0.010% | 10     |  0.015% | 
 | 734  | Huntail            |  0.00647% | 10     |  0.009% | 8      |  0.012% | 
 | 735  | Bruxish            |  0.00645% | 7      |  0.006% | 3      |  0.005% | 
 | 736  | Aipom              |  0.00645% | 10     |  0.009% | 7      |  0.011% | 
 | 737  | Drifloon           |  0.00644% | 9      |  0.008% | 7      |  0.011% | 
 | 738  | Litten             |  0.00643% | 11     |  0.010% | 10     |  0.015% | 
 | 739  | Quilava            |  0.00637% | 11     |  0.010% | 6      |  0.009% | 
 | 740  | Ledyba             |  0.00625% | 4      |  0.004% | 1      |  0.002% | 
 | 741  | Whiscash           |  0.00609% | 9      |  0.008% | 5      |  0.008% | 
 | 742  | Chimchar           |  0.00608% | 11     |  0.010% | 10     |  0.015% | 
 | 743  | Purugly            |  0.00598% | 11     |  0.010% | 9      |  0.014% | 
 | 744  | Sandygast          |  0.00597% | 10     |  0.009% | 7      |  0.011% | 
 | 745  | Zweilous           |  0.00590% | 25     |  0.022% | 14     |  0.021% | 
 | 746  | Meditite           |  0.00589% | 10     |  0.009% | 7      |  0.011% | 
 | 747  | Krabby             |  0.00582% | 11     |  0.010% | 10     |  0.015% | 
 | 748  | Delcatty           |  0.00570% | 9      |  0.008% | 5      |  0.008% | 
 | 749  | Lillipup           |  0.00565% | 8      |  0.007% | 5      |  0.008% | 
 | 750  | Kadabra            |  0.00562% | 15     |  0.013% | 11     |  0.017% | 
 | 751  | Mudbray            |  0.00557% | 6      |  0.005% | 5      |  0.008% | 
 | 752  | Shuppet            |  0.00553% | 8      |  0.007% | 5      |  0.008% | 
 | 753  | Tropius            |  0.00537% | 7      |  0.006% | 4      |  0.006% | 
 | 754  | Pinsir             |  0.00537% | 9      |  0.008% | 4      |  0.006% | 
 | 755  | Oddish             |  0.00534% | 8      |  0.007% | 6      |  0.009% | 
 | 756  | Beautifly          |  0.00523% | 11     |  0.010% | 4      |  0.006% | 
 | 757  | Gorebyss           |  0.00522% | 11     |  0.010% | 10     |  0.015% | 
 | 758  | Solosis            |  0.00509% | 8      |  0.007% | 7      |  0.011% | 
 | 759  | Dewpider           |  0.00502% | 9      |  0.008% | 6      |  0.009% | 
 | 760  | Combee             |  0.00501% | 9      |  0.008% | 9      |  0.014% | 
 | 761  | Vanillish          |  0.00498% | 9      |  0.008% | 4      |  0.006% | 
 | 762  | Cacnea             |  0.00494% | 7      |  0.006% | 7      |  0.011% | 
 | 763  | Sandshrew          |  0.00477% | 8      |  0.007% | 7      |  0.011% | 
 | 764  | Larvesta           |  0.00476% | 7      |  0.006% | 4      |  0.006% | 
 | 765  | Salazzle-Totem     |  0.00475% | 55     |  0.048% | 40     |  0.060% | 
 | 766  | Teddiursa          |  0.00462% | 8      |  0.007% | 5      |  0.008% | 
 | 767  | Vigoroth           |  0.00462% | 11     |  0.010% | 4      |  0.006% | 
 | 768  | Fearow             |  0.00461% | 7      |  0.006% | 5      |  0.008% | 
 | 769  | Buizel             |  0.00451% | 18     |  0.016% | 14     |  0.021% | 
 | 770  | Dartrix            |  0.00447% | 6      |  0.005% | 3      |  0.005% | 
 | 771  | Gible              |  0.00445% | 10     |  0.009% | 10     |  0.015% | 
 | 772  | Silvally-Fighting  |  0.00432% | 8      |  0.007% | 3      |  0.005% | 
 | 773  | Ponyta             |  0.00429% | 8      |  0.007% | 5      |  0.008% | 
 | 774  | Darumaka           |  0.00428% | 12     |  0.011% | 8      |  0.012% | 
 | 775  | Oricorio-Pom-Pom   |  0.00426% | 19     |  0.017% | 10     |  0.015% | 
 | 776  | Plusle             |  0.00424% | 9      |  0.008% | 6      |  0.009% | 
 | 777  | Snover             |  0.00410% | 7      |  0.006% | 4      |  0.006% | 
 | 778  | Lurantis-Totem     |  0.00406% | 22     |  0.019% | 11     |  0.017% | 
 | 779  | Shellder           |  0.00406% | 5      |  0.004% | 3      |  0.005% | 
 | 780  | Silvally-Water     |  0.00397% | 6      |  0.005% | 3      |  0.005% | 
 | 781  | Grumpig            |  0.00391% | 6      |  0.005% | 3      |  0.005% | 
 | 782  | Turtwig            |  0.00383% | 9      |  0.008% | 6      |  0.009% | 
 | 783  | Spheal             |  0.00382% | 6      |  0.005% | 5      |  0.008% | 
 | 784  | Ribombee-Totem     |  0.00381% | 22     |  0.019% | 13     |  0.020% | 
 | 785  | Koffing            |  0.00376% | 10     |  0.009% | 9      |  0.014% | 
 | 786  | Chespin            |  0.00375% | 6      |  0.005% | 3      |  0.005% | 
 | 787  | Natu               |  0.00370% | 7      |  0.006% | 6      |  0.009% | 
 | 788  | NidoranF           |  0.00368% | 10     |  0.009% | 8      |  0.012% | 
 | 789  | Araquanid-Totem    |  0.00365% | 36     |  0.032% | 24     |  0.036% | 
 | 790  | Mankey             |  0.00363% | 5      |  0.004% | 3      |  0.005% | 
 | 791  | Boldore            |  0.00362% | 5      |  0.004% | 4      |  0.006% | 
 | 792  | Nuzleaf            |  0.00354% | 27     |  0.024% | 25     |  0.038% | 
 | 793  | Wormadam           |  0.00350% | 7      |  0.006% | 6      |  0.009% | 
 | 794  | Pancham            |  0.00349% | 8      |  0.007% | 7      |  0.011% | 
 | 795  | Klinklang          |  0.00345% | 8      |  0.007% | 6      |  0.009% | 
 | 796  | Elekid             |  0.00345% | 6      |  0.005% | 4      |  0.006% | 
 | 797  | Staravia           |  0.00344% | 5      |  0.004% | 4      |  0.006% | 
 | 798  | Gourgeist          |  0.00342% | 4      |  0.004% | 2      |  0.003% | 
 | 799  | Marshtomp          |  0.00342% | 4      |  0.004% | 2      |  0.003% | 
 | 800  | Swablu             |  0.00335% | 5      |  0.004% | 2      |  0.003% | 
 | 801  | Fletchinder        |  0.00327% | 9      |  0.008% | 8      |  0.012% | 
 | 802  | Whismur            |  0.00318% | 5      |  0.004% | 3      |  0.005% | 
 | 803  | Relicanth          |  0.00318% | 5      |  0.004% | 5      |  0.008% | 
 | 804  | Magmar             |  0.00304% | 5      |  0.004% | 2      |  0.003% | 
 | 805  | Togedemaru-Totem   |  0.00300% | 7      |  0.006% | 4      |  0.006% | 
 | 806  | Silvally-Bug       |  0.00299% | 9      |  0.008% | 5      |  0.008% | 
 | 807  | Pumpkaboo-Super    |  0.00299% | 4      |  0.004% | 4      |  0.006% | 
 | 808  | Quilladin          |  0.00299% | 4      |  0.004% | 3      |  0.005% | 
 | 809  | Oricorio           |  0.00296% | 4      |  0.004% | 3      |  0.005% | 
 | 810  | Slugma             |  0.00294% | 4      |  0.004% | 3      |  0.005% | 
 | 811  | Voltorb            |  0.00294% | 5      |  0.004% | 4      |  0.006% | 
 | 812  | Chinchou           |  0.00293% | 3      |  0.003% | 3      |  0.005% | 
 | 813  | Mimikyu-Busted     |  0.00290% | 14     |  0.012% | 12     |  0.018% | 
 | 814  | Rhyhorn            |  0.00280% | 4      |  0.004% | 4      |  0.006% | 
 | 815  | Volbeat            |  0.00279% | 3      |  0.003% | 3      |  0.005% | 
 | 816  | Nidorina           |  0.00259% | 5      |  0.004% | 4      |  0.006% | 
 | 817  | Pupitar            |  0.00257% | 11     |  0.010% | 7      |  0.011% | 
 | 818  | Smoochum           |  0.00256% | 7      |  0.006% | 5      |  0.008% | 
 | 819  | Spoink             |  0.00255% | 4      |  0.004% | 3      |  0.005% | 
 | 820  | Stunky             |  0.00246% | 6      |  0.005% | 4      |  0.006% | 
 | 821  | Scatterbug         |  0.00246% | 5      |  0.004% | 5      |  0.008% | 
 | 822  | Larvitar           |  0.00245% | 4      |  0.004% | 3      |  0.005% | 
 | 823  | Mothim             |  0.00240% | 5      |  0.004% | 5      |  0.008% | 
 | 824  | Pumpkaboo-Large    |  0.00239% | 12     |  0.011% | 4      |  0.006% | 
 | 825  | Silcoon            |  0.00239% | 8      |  0.007% | 6      |  0.009% | 
 | 826  | Luxio              |  0.00237% | 4      |  0.004% | 4      |  0.006% | 
 | 827  | Marowak-Alola-Totem |  0.00236% | 15     |  0.013% | 11     |  0.017% | 
 | 828  | Throh              |  0.00235% | 6      |  0.005% | 3      |  0.005% | 
 | 829  | Grimer             |  0.00235% | 3      |  0.003% | 3      |  0.005% | 
 | 830  | Monferno           |  0.00235% | 3      |  0.003% | 0      |  0.000% | 
 | 831  | Goldeen            |  0.00227% | 5      |  0.004% | 4      |  0.006% | 
 | 832  | Chikorita          |  0.00225% | 7      |  0.006% | 5      |  0.008% | 
 | 833  | Purrloin           |  0.00225% | 4      |  0.004% | 0      |  0.000% | 
 | 834  | Pansear            |  0.00219% | 5      |  0.004% | 5      |  0.008% | 
 | 835  | Fomantis           |  0.00218% | 5      |  0.004% | 5      |  0.008% | 
 | 836  | Anorith            |  0.00215% | 2      |  0.002% | 0      |  0.000% | 
 | 837  | Slowpoke           |  0.00215% | 2      |  0.002% | 0      |  0.000% | 
 | 838  | Silvally-Grass     |  0.00210% | 3      |  0.003% | 2      |  0.003% | 
 | 839  | Lotad              |  0.00205% | 6      |  0.005% | 4      |  0.006% | 
 | 840  | Sliggoo            |  0.00201% | 12     |  0.011% | 8      |  0.012% | 
 | 841  | Bounsweet          |  0.00196% | 2      |  0.002% | 1      |  0.002% | 
 | 842  | Barboach           |  0.00191% | 4      |  0.004% | 2      |  0.003% | 
 | 843  | Graveler-Alola     |  0.00191% | 3      |  0.003% | 2      |  0.003% | 
 | 844  | Venipede           |  0.00191% | 3      |  0.003% | 3      |  0.005% | 
 | 845  | Sewaddle           |  0.00191% | 3      |  0.003% | 3      |  0.005% | 
 | 846  | Floette            |  0.00191% | 3      |  0.003% | 0      |  0.000% | 
 | 847  | Loudred            |  0.00191% | 3      |  0.003% | 2      |  0.003% | 
 | 848  | Spinda             |  0.00191% | 7      |  0.006% | 6      |  0.009% | 
 | 849  | Electrike          |  0.00190% | 6      |  0.005% | 6      |  0.009% | 
 | 850  | Flabebe            |  0.00183% | 3      |  0.003% | 3      |  0.005% | 
 | 851  | Pignite            |  0.00178% | 3      |  0.003% | 3      |  0.005% | 
 | 852  | Croagunk           |  0.00177% | 3      |  0.003% | 2      |  0.003% | 
 | 853  | Cherubi            |  0.00173% | 3      |  0.003% | 2      |  0.003% | 
 | 854  | Silvally-Rock      |  0.00171% | 9      |  0.008% | 5      |  0.008% | 
 | 855  | Swirlix            |  0.00171% | 2      |  0.002% | 2      |  0.003% | 
 | 856  | Silvally-Psychic   |  0.00171% | 2      |  0.002% | 1      |  0.002% | 
 | 857  | Nidorino           |  0.00171% | 2      |  0.002% | 1      |  0.002% | 
 | 858  | Joltik             |  0.00170% | 3      |  0.003% | 1      |  0.002% | 
 | 859  | Morelull           |  0.00168% | 3      |  0.003% | 0      |  0.000% | 
 | 860  | Tranquill          |  0.00164% | 2      |  0.002% | 1      |  0.002% | 
 | 861  | Whirlipede         |  0.00163% | 2      |  0.002% | 2      |  0.003% | 
 | 862  | Prinplup           |  0.00162% | 3      |  0.003% | 3      |  0.005% | 
 | 863  | Hoothoot           |  0.00162% | 3      |  0.003% | 1      |  0.002% | 
 | 864  | Ducklett           |  0.00162% | 6      |  0.005% | 5      |  0.008% | 
 | 865  | Sentret            |  0.00157% | 2      |  0.002% | 2      |  0.003% | 
 | 866  | Growlithe          |  0.00147% | 5      |  0.004% | 4      |  0.006% | 
 | 867  | Horsea             |  0.00135% | 4      |  0.004% | 4      |  0.006% | 
 | 868  | Silvally-Ground    |  0.00133% | 3      |  0.003% | 1      |  0.002% | 
 | 869  | Pikipek            |  0.00133% | 4      |  0.004% | 2      |  0.003% | 
 | 870  | Bunnelby           |  0.00129% | 4      |  0.004% | 4      |  0.006% | 
 | 871  | Doduo              |  0.00129% | 4      |  0.004% | 1      |  0.002% | 
 | 872  | Mantyke            |  0.00128% | 6      |  0.005% | 4      |  0.006% | 
 | 873  | Fletchling         |  0.00127% | 2      |  0.002% | 1      |  0.002% | 
 | 874  | Grubbin            |  0.00127% | 2      |  0.002% | 2      |  0.003% | 
 | 875  | Corphish           |  0.00127% | 2      |  0.002% | 2      |  0.003% | 
 | 876  | Elgyem             |  0.00127% | 2      |  0.002% | 2      |  0.003% | 
 | 877  | Sealeo             |  0.00126% | 5      |  0.004% | 4      |  0.006% | 
 | 878  | Spewpa             |  0.00125% | 2      |  0.002% | 2      |  0.003% | 
 | 879  | Drowzee            |  0.00109% | 2      |  0.002% | 2      |  0.003% | 
 | 880  | Burmy              |  0.00108% | 2      |  0.002% | 2      |  0.003% | 
 | 881  | Skrelp             |  0.00108% | 1      |  0.001% | 1      |  0.002% | 
 | 882  | Illumise           |  0.00108% | 1      |  0.001% | 0      |  0.000% | 
 | 883  | Trumbeak           |  0.00108% | 1      |  0.001% | 1      |  0.002% | 
 | 884  | Gourgeist-Small    |  0.00108% | 1      |  0.001% | 0      |  0.000% | 
 | 885  | Inkay              |  0.00102% | 3      |  0.003% | 2      |  0.003% | 
 | 886  | Glameow            |  0.00099% | 1      |  0.001% | 1      |  0.002% | 
 | 887  | Herdier            |  0.00090% | 2      |  0.002% | 2      |  0.003% | 
 | 888  | Meowth-Alola       |  0.00087% | 3      |  0.003% | 1      |  0.002% | 
 | 889  | Litleo             |  0.00086% | 3      |  0.003% | 2      |  0.003% | 
 | 890  | Poochyena          |  0.00075% | 2      |  0.002% | 2      |  0.003% | 
 | 891  | Amaura             |  0.00072% | 2      |  0.002% | 2      |  0.003% | 
 | 892  | Jangmo-o           |  0.00071% | 1      |  0.001% | 0      |  0.000% | 
 | 893  | Lombre             |  0.00069% | 2      |  0.002% | 2      |  0.003% | 
 | 894  | Buneary            |  0.00067% | 7      |  0.006% | 2      |  0.003% | 
 | 895  | Weepinbell         |  0.00064% | 2      |  0.002% | 2      |  0.003% | 
 | 896  | Ekans              |  0.00064% | 3      |  0.003% | 2      |  0.003% | 
 | 897  | Yanma              |  0.00064% | 1      |  0.001% | 1      |  0.002% | 
 | 898  | Duosion            |  0.00064% | 1      |  0.001% | 1      |  0.002% | 
 | 899  | Snubbull           |  0.00064% | 1      |  0.001% | 1      |  0.002% | 
 | 900  | NidoranM           |  0.00064% | 1      |  0.001% | 0      |  0.000% | 
 | 901  | Minccino           |  0.00064% | 1      |  0.001% | 1      |  0.002% | 
 | 902  | Gulpin             |  0.00064% | 1      |  0.001% | 1      |  0.002% | 
 | 903  | Klink              |  0.00064% | 1      |  0.001% | 1      |  0.002% | 
 | 904  | Lileep             |  0.00064% | 1      |  0.001% | 1      |  0.002% | 
 | 905  | Beldum             |  0.00064% | 1      |  0.001% | 1      |  0.002% | 
 | 906  | Woobat             |  0.00064% | 1      |  0.001% | 1      |  0.002% | 
 | 907  | Kricketot          |  0.00064% | 1      |  0.001% | 0      |  0.000% | 
 | 908  | Shinx              |  0.00064% | 1      |  0.001% | 1      |  0.002% | 
 | 909  | Darmanitan-Galar-Zen |  0.00064% | 1      |  0.001% | 1      |  0.002% | 
 | 910  | Seadra             |  0.00064% | 1      |  0.001% | 1      |  0.002% | 
 | 911  | Charjabug          |  0.00061% | 5      |  0.004% | 2      |  0.003% | 
 | 912  | Surskit            |  0.00060% | 6      |  0.005% | 2      |  0.003% | 
 | 913  | Tirtouga           |  0.00055% | 4      |  0.004% | 4      |  0.006% | 
 | 914  | Gourgeist-Large    |  0.00051% | 2      |  0.002% | 1      |  0.002% | 
 | 915  | Oricorio-Pa'u      |  0.00046% | 1      |  0.001% | 1      |  0.002% | 
 | 916  | Spritzee           |  0.00038% | 1      |  0.001% | 0      |  0.000% | 
 | 917  | Noibat             |  0.00036% | 2      |  0.002% | 0      |  0.000% | 
 | 918  | Timburr            |  0.00030% | 1      |  0.001% | 1      |  0.002% | 
 | 919  | Bonsly             |  0.00024% | 1      |  0.001% | 1      |  0.002% | 
 | 920  | Patrat             |  0.00017% | 1      |  0.001% | 1      |  0.002% | 
 | 921  | Grimer-Alola       |  0.00016% | 1      |  0.001% | 1      |  0.002% | 
 | 922  | Eelektrik          |  0.00014% | 4      |  0.004% | 2      |  0.003% | 
 | 923  | Tyrogue            |  0.00010% | 1      |  0.001% | 1      |  0.002% | 
 | 924  | Bergmite           |  0.00008% | 1      |  0.001% | 1      |  0.002% | 
 | 925  | Pansage            |  0.00005% | 2      |  0.002% | 1      |  0.002% | 
 | 926  | Steenee            |  0.00002% | 4      |  0.004% | 2      |  0.003% | 
 | 927  | Deino              |  0.00001% | 1      |  0.001% | 1      |  0.002% | 
 | 928  | Karrablast         |  0.00001% | 1      |  0.001% | 1      |  0.002% | 
 | 929  | Gumshoos-Totem     |  0.00001% | 3      |  0.003% | 3      |  0.005% | 
 | 930  | Graveler           |  0.00000% | 2      |  0.002% | 2      |  0.003% | 
 + ---- + ------------------ + --------- + ------ + ------- + ------ + ------- + 
