 +----------------------------------------+ 
 | Kyogre                                 | 
 +----------------------------------------+ 
 | Raw count: 962                         | 
 | Avg. weight: 0.057548225804            | 
 | Viability Ceiling: 92                  | 
 +----------------------------------------+ 
 | Abilities                              | 
 | Drizzle 100.000%                       | 
 +----------------------------------------+ 
 | Items                                  | 
 | Choice Scarf 63.403%                   | 
 | Leftovers 19.637%                      | 
 | Choice Specs 13.337%                   | 
 | Other  3.624%                          | 
 +----------------------------------------+ 
 | Spreads                                | 
 | Timid:0/0/0/252/4/252 41.626%          | 
 | Timid:4/0/0/252/0/252 21.044%          | 
 | Bold:240/0/244/0/0/24 12.862%          | 
 | Modest:0/0/0/252/4/252 12.587%         | 
 | Modest:4/0/0/252/0/252  1.907%         | 
 | Timid:6/0/0/252/0/252  1.803%          | 
 | Other  8.171%                          | 
 +----------------------------------------+ 
 | Moves                                  | 
 | Surf 97.948%                           | 
 | Ice Beam 94.433%                       | 
 | Thunder 82.614%                        | 
 | Water Spout 76.731%                    | 
 | Rest 18.077%                           | 
 | Sleep Talk 15.946%                     | 
 | Other 14.250%                          | 
 +----------------------------------------+ 
 | Teammates                              | 
 | Deoxys-Speed +2.153%                   | 
 | Cloyster +0.898%                       | 
 | Tyranitar +0.686%                      | 
 | Scizor +0.593%                         | 
 +----------------------------------------+ 
 | Checks and Counters                    | 
 +----------------------------------------+ 
 +----------------------------------------+ 
 | Giratina-Origin                        | 
 +----------------------------------------+ 
 | Raw count: 700                         | 
 | Avg. weight: 0.0646926620091           | 
 | Viability Ceiling: 92                  | 
 +----------------------------------------+ 
 | Abilities                              | 
 | Levitate 100.000%                      | 
 +----------------------------------------+ 
 | Items                                  | 
 | Griseous Orb 100.000%                  | 
 +----------------------------------------+ 
 | Spreads                                | 
 | Adamant:84/252/0/0/0/172 41.887%       | 
 | Naive:0/248/0/64/0/196 17.834%         | 
 | Rash:0/244/0/216/0/48 14.492%          | 
 | Mild:0/64/0/248/0/196 10.834%          | 
 | Lonely:0/248/0/60/0/200  5.875%        | 
 | Naive:0/252/0/60/0/196  5.772%         | 
 | Other  3.306%                          | 
 +----------------------------------------+ 
 | Moves                                  | 
 | Shadow Sneak 98.725%                   | 
 | Outrage 68.889%                        | 
 | Earthquake 58.214%                     | 
 | Draco Meteor 56.667%                   | 
 | Substitute 42.471%                     | 
 | Hidden Power Fire 39.723%              | 
 | Thunder 16.156%                        | 
 | Other 19.155%                          | 
 +----------------------------------------+ 
 | Teammates                              | 
 | Lucario +11.535%                       | 
 | Deoxys-Speed +6.692%                   | 
 | Mewtwo +5.311%                         | 
 | Cloyster +3.922%                       | 
 | Ho-Oh +3.268%                          | 
 | Froslass +2.252%                       | 
 +----------------------------------------+ 
 | Checks and Counters                    | 
 +----------------------------------------+ 
 +----------------------------------------+ 
 | Rayquaza                               | 
 +----------------------------------------+ 
 | Raw count: 685                         | 
 | Avg. weight: 0.0504916479042           | 
 | Viability Ceiling: 87                  | 
 +----------------------------------------+ 
 | Abilities                              | 
 | Air Lock 100.000%                      | 
 +----------------------------------------+ 
 | Items                                  | 
 | Life Orb 94.995%                       | 
 | Lum Berry  2.057%                      | 
 | Other  2.947%                          | 
 +----------------------------------------+ 
 | Spreads                                | 
 | Naive:0/0/0/252/0/252 55.028%          | 
 | Adamant:0/252/0/0/4/252 19.557%        | 
 | Jolly:32/252/0/0/8/216  4.974%         | 
 | Hasty:0/40/0/252/0/216  4.288%         | 
 | Jolly:0/252/0/4/0/252  3.288%          | 
 | Naive:0/4/0/252/0/252  2.891%          | 
 | Other  9.976%                          | 
 +----------------------------------------+ 
 | Moves                                  | 
 | Extreme Speed 95.025%                  | 
 | Outrage 69.110%                        | 
 | Draco Meteor 67.989%                   | 
 | Fire Blast 65.377%                     | 
 | Earthquake 31.533%                     | 
 | Swords Dance 24.115%                   | 
 | Dragon Claw 20.158%                    | 
 | Dragon Dance  6.972%                   | 
 | Other 19.720%                          | 
 +----------------------------------------+ 
 | Teammates                              | 
 | Lucario +22.970%                       | 
 | Mewtwo +19.640%                        | 
 | Deoxys-Speed +18.904%                  | 
 | Froslass +3.993%                       | 
 | Deoxys-Attack +2.326%                  | 
 | Mew +1.628%                            | 
 | Jirachi +1.273%                        | 
 | Wobbuffet +1.027%                      | 
 | Salamence +0.613%                      | 
 +----------------------------------------+ 
 | Checks and Counters                    | 
 +----------------------------------------+ 
 +----------------------------------------+ 
 | Palkia                                 | 
 +----------------------------------------+ 
 | Raw count: 567                         | 
 | Avg. weight: 0.0541133414739           | 
 | Viability Ceiling: 87                  | 
 +----------------------------------------+ 
 | Abilities                              | 
 | Pressure 100.000%                      | 
 +----------------------------------------+ 
 | Items                                  | 
 | Choice Scarf 60.381%                   | 
 | Lustrous Orb 28.034%                   | 
 | Choice Specs 10.916%                   | 
 | Other  0.669%                          | 
 +----------------------------------------+ 
 | Spreads                                | 
 | Timid:0/0/0/252/4/252 32.876%          | 
 | Timid:0/0/4/252/0/252 25.809%          | 
 | Hasty:0/4/0/252/0/252 24.902%          | 
 | Timid:4/0/0/252/0/252 13.962%          | 
 | Other  2.451%                          | 
 +----------------------------------------+ 
 | Moves                                  | 
 | Spacial Rend 99.415%                   | 
 | Thunder 92.303%                        | 
 | Fire Blast 59.085%                     | 
 | Surf 48.212%                           | 
 | Hydro Pump 35.638%                     | 
 | Outrage 27.141%                        | 
 | Flamethrower 23.415%                   | 
 | Other 14.791%                          | 
 +----------------------------------------+ 
 | Teammates                              | 
 | Darkrai +17.605%                       | 
 | Scizor +15.222%                        | 
 | Tyranitar +14.956%                     | 
 | Cloyster +10.234%                      | 
 | Dialga +9.575%                         | 
 | Ho-Oh +8.474%                          | 
 | Blissey +8.188%                        | 
 | Froslass +4.766%                       | 
 | Forretress +3.779%                     | 
 | Giratina-Origin +3.665%                | 
 | Skarmory +2.879%                       | 
 +----------------------------------------+ 
 | Checks and Counters                    | 
 +----------------------------------------+ 
 +----------------------------------------+ 
 | Dialga                                 | 
 +----------------------------------------+ 
 | Raw count: 700                         | 
 | Avg. weight: 0.0377176211424           | 
 | Viability Ceiling: 92                  | 
 +----------------------------------------+ 
 | Abilities                              | 
 | Pressure 100.000%                      | 
 +----------------------------------------+ 
 | Items                                  | 
 | Leftovers 62.632%                      | 
 | Life Orb 18.169%                       | 
 | Choice Scarf 13.716%                   | 
 | Lum Berry  3.374%                      | 
 | Other  2.110%                          | 
 +----------------------------------------+ 
 | Spreads                                | 
 | Modest:248/0/0/16/204/40 24.892%       | 
 | Hasty:0/4/0/252/0/252 17.322%          | 
 | Careful:252/4/0/0/252/0 15.482%        | 
 | Modest:252/0/0/140/116/0 14.729%       | 
 | Timid:4/0/0/252/0/252 10.203%          | 
 | Careful:252/0/0/0/220/36  3.779%       | 
 | Other 13.593%                          | 
 +----------------------------------------+ 
 | Moves                                  | 
 | Stealth Rock 64.223%                   | 
 | Thunder 52.184%                        | 
 | Dragon Pulse 47.220%                   | 
 | Draco Meteor 45.347%                   | 
 | Outrage 35.673%                        | 
 | Roar 29.281%                           | 
 | Fire Blast 27.998%                     | 
 | Rest 19.261%                           | 
 | Bulk Up 19.261%                        | 
 | Sleep Talk 19.261%                     | 
 | Flamethrower 16.821%                   | 
 | Thunder Wave 14.124%                   | 
 | Other  9.346%                          | 
 +----------------------------------------+ 
 | Teammates                              | 
 | Cloyster +13.917%                      | 
 | Palkia +11.797%                        | 
 | Deoxys-Attack +9.013%                  | 
 | Froslass +8.903%                       | 
 | Scizor +8.089%                         | 
 | Skarmory +5.809%                       | 
 | Latios +3.169%                         | 
 | Mew +2.778%                            | 
 | Kabutops +2.447%                       | 
 | Wobbuffet +2.218%                      | 
 | Shaymin-Sky +1.531%                    | 
 | Metagross +1.425%                      | 
 +----------------------------------------+ 
 | Checks and Counters                    | 
 +----------------------------------------+ 
 +----------------------------------------+ 
 | Lucario                                | 
 +----------------------------------------+ 
 | Raw count: 237                         | 
 | Avg. weight: 0.100158681703            | 
 | Viability Ceiling: 92                  | 
 +----------------------------------------+ 
 | Abilities                              | 
 | Inner Focus 82.917%                    | 
 | Steadfast 17.083%                      | 
 +----------------------------------------+ 
 | Items                                  | 
 | Life Orb 99.961%                       | 
 | Other  0.039%                          | 
 +----------------------------------------+ 
 | Spreads                                | 
 | Adamant:0/252/0/0/4/252 61.869%        | 
 | Jolly:0/252/0/0/4/252 38.128%          | 
 | Other  0.002%                          | 
 +----------------------------------------+ 
 | Moves                                  | 
 | Swords Dance 99.999%                   | 
 | Extreme Speed 99.999%                  | 
 | Close Combat 99.998%                   | 
 | Crunch 99.956%                         | 
 | Other  0.049%                          | 
 +----------------------------------------+ 
 | Teammates                              | 
 | Deoxys-Speed +37.432%                  | 
 | Mewtwo +35.947%                        | 
 | Rayquaza +31.637%                      | 
 | Giratina-Origin +17.683%               | 
 | Froslass +8.351%                       | 
 +----------------------------------------+ 
 | Checks and Counters                    | 
 +----------------------------------------+ 
 +----------------------------------------+ 
 | Mewtwo                                 | 
 +----------------------------------------+ 
 | Raw count: 549                         | 
 | Avg. weight: 0.0435456139669           | 
 | Viability Ceiling: 92                  | 
 +----------------------------------------+ 
 | Abilities                              | 
 | Pressure 100.000%                      | 
 +----------------------------------------+ 
 | Items                                  | 
 | Life Orb 98.354%                       | 
 | Other  1.646%                          | 
 +----------------------------------------+ 
 | Spreads                                | 
 | Hasty:0/0/0/252/0/252 79.727%          | 
 | Naive:0/4/0/252/0/252  8.590%          | 
 | Hasty:0/4/0/252/0/252  4.128%          | 
 | Timid:0/0/4/252/0/252  3.964%          | 
 | Other  3.592%                          | 
 +----------------------------------------+ 
 | Moves                                  | 
 | Aura Sphere 99.921%                    | 
 | Ice Beam 99.297%                       | 
 | Self-Destruct 95.600%                  | 
 | Grass Knot 79.727%                     | 
 | Thunder  7.312%                        | 
 | Other 18.143%                          | 
 +----------------------------------------+ 
 | Teammates                              | 
 | Deoxys-Speed +40.039%                  | 
 | Lucario +35.510%                       | 
 | Rayquaza +26.138%                      | 
 | Giratina-Origin +4.900%                | 
 | Mew +3.296%                            | 
 | Bronzong +0.722%                       | 
 +----------------------------------------+ 
 | Checks and Counters                    | 
 +----------------------------------------+ 
 +----------------------------------------+ 
 | Scizor                                 | 
 +----------------------------------------+ 
 | Raw count: 272                         | 
 | Avg. weight: 0.0756793669402           | 
 | Viability Ceiling: 84                  | 
 +----------------------------------------+ 
 | Abilities                              | 
 | Technician 100.000%                    | 
 | Swarm  0.000%                          | 
 +----------------------------------------+ 
 | Items                                  | 
 | Choice Band 61.082%                    | 
 | Leftovers 38.031%                      | 
 | Other  0.887%                          | 
 +----------------------------------------+ 
 | Spreads                                | 
 | Careful:244/20/76/0/168/0 38.031%      | 
 | Adamant:248/244/0/0/16/0 31.684%       | 
 | Adamant:200/56/0/0/252/0 20.481%       | 
 | Adamant:248/20/0/0/240/0  4.088%       | 
 | Adamant:248/252/0/0/0/8  2.997%        | 
 | Other  2.720%                          | 
 +----------------------------------------+ 
 | Moves                                  | 
 | Bullet Punch 100.000%                  | 
 | U-turn 99.113%                         | 
 | Superpower 97.850%                     | 
 | Pursuit 61.082%                        | 
 | Roost 38.918%                          | 
 | Other  3.037%                          | 
 +----------------------------------------+ 
 | Teammates                              | 
 | Cloyster +21.595%                      | 
 | Palkia +21.116%                        | 
 | Blissey +18.724%                       | 
 | Tyranitar +14.967%                     | 
 | Darkrai +8.931%                        | 
 | Dialga +8.435%                         | 
 | Wobbuffet +5.186%                      | 
 | Kyogre +5.025%                         | 
 | Deoxys-Attack +2.396%                  | 
 | Salamence +2.123%                      | 
 | Bronzong +0.944%                       | 
 | Shaymin-Sky +0.677%                    | 
 +----------------------------------------+ 
 | Checks and Counters                    | 
 +----------------------------------------+ 
 +----------------------------------------+ 
 | Deoxys-Speed                           | 
 +----------------------------------------+ 
 | Raw count: 426                         | 
 | Avg. weight: 0.0531697654724           | 
 | Viability Ceiling: 92                  | 
 +----------------------------------------+ 
 | Abilities                              | 
 | Pressure 100.000%                      | 
 +----------------------------------------+ 
 | Items                                  | 
 | Lum Berry 88.340%                      | 
 | Focus Sash 10.680%                     | 
 | Other  0.981%                          | 
 +----------------------------------------+ 
 | Spreads                                | 
 | Jolly:0/252/0/0/4/252 53.735%          | 
 | Jolly:0/252/0/0/0/252 17.398%          | 
 | Timid:248/0/0/8/0/252 13.155%          | 
 | Naive:0/4/0/252/0/252  4.427%          | 
 | Jolly:0/252/4/0/0/252  4.178%          | 
 | Timid:0/0/0/252/4/252  3.212%          | 
 | Other  3.895%                          | 
 +----------------------------------------+ 
 | Moves                                  | 
 | Taunt 100.000%                         | 
 | Spikes 96.645%                         | 
 | Stealth Rock 94.995%                   | 
 | Superpower 79.249%                     | 
 | Extreme Speed 11.666%                  | 
 | Other 17.444%                          | 
 +----------------------------------------+ 
 | Teammates                              | 
 | Mewtwo +42.617%                        | 
 | Lucario +39.432%                       | 
 | Rayquaza +27.054%                      | 
 | Giratina-Origin +8.804%                | 
 | Kyogre +0.502%                         | 
 +----------------------------------------+ 
 | Checks and Counters                    | 
 +----------------------------------------+ 
 +----------------------------------------+ 
 | Darkrai                                | 
 +----------------------------------------+ 
 | Raw count: 591                         | 
 | Avg. weight: 0.0298102861767           | 
 | Viability Ceiling: 87                  | 
 +----------------------------------------+ 
 | Abilities                              | 
 | Bad Dreams 100.000%                    | 
 +----------------------------------------+ 
 | Items                                  | 
 | Leftovers 42.611%                      | 
 | Life Orb 31.836%                       | 
 | Focus Sash 24.034%                     | 
 | Other  1.518%                          | 
 +----------------------------------------+ 
 | Spreads                                | 
 | Timid:0/0/0/252/4/252 99.409%          | 
 | Other  0.591%                          | 
 +----------------------------------------+ 
 | Moves                                  | 
 | Dark Void 99.990%                      | 
 | Dark Pulse 99.990%                     | 
 | Nasty Plot 97.576%                     | 
 | Focus Blast 58.838%                    | 
 | Substitute 40.357%                     | 
 | Other  3.250%                          | 
 +----------------------------------------+ 
 | Teammates                              | 
 | Palkia +31.262%                        | 
 | Blissey +24.265%                       | 
 | Groudon +22.641%                       | 
 | Tyranitar +20.404%                     | 
 | Ho-Oh +18.260%                         | 
 | Scizor +11.888%                        | 
 | Forretress +11.766%                    | 
 | Deoxys-Attack +5.891%                  | 
 | Shaymin-Sky +0.984%                    | 
 +----------------------------------------+ 
 | Checks and Counters                    | 
 +----------------------------------------+ 
 +----------------------------------------+ 
 | Groudon                                | 
 +----------------------------------------+ 
 | Raw count: 432                         | 
 | Avg. weight: 0.0279858163713           | 
 | Viability Ceiling: 92                  | 
 +----------------------------------------+ 
 | Abilities                              | 
 | Drought 100.000%                       | 
 +----------------------------------------+ 
 | Items                                  | 
 | Leftovers 75.036%                      | 
 | Life Orb 21.568%                       | 
 | Other  3.396%                          | 
 +----------------------------------------+ 
 | Spreads                                | 
 | Adamant:120/252/0/0/0/136 40.646%      | 
 | Adamant:112/252/8/0/0/136 21.461%      | 
 | Impish:252/4/252/0/0/0 14.370%         | 
 | Impish:252/0/220/0/0/36  8.312%        | 
 | Adamant:68/252/0/0/0/188  4.752%       | 
 | Adamant:200/112/108/0/0/88  4.228%     | 
 | Other  6.232%                          | 
 +----------------------------------------+ 
 | Moves                                  | 
 | Earthquake 100.000%                    | 
 | Stealth Rock 67.080%                   | 
 | Dragon Claw 61.432%                    | 
 | Roar 50.185%                           | 
 | Stone Edge 36.086%                     | 
 | Swords Dance 26.523%                   | 
 | Rock Polish 26.146%                    | 
 | Thunder Wave 18.574%                   | 
 | Other 13.973%                          | 
 +----------------------------------------+ 
 | Teammates                              | 
 | Forretress +34.726%                    | 
 | Darkrai +34.158%                       | 
 | Ho-Oh +32.909%                         | 
 | Deoxys-Attack +11.330%                 | 
 | Kabutops +2.314%                       | 
 | Dialga +1.644%                         | 
 | Typhlosion +1.231%                     | 
 | Tentacruel +1.107%                     | 
 | Salamence +0.945%                      | 
 +----------------------------------------+ 
 | Checks and Counters                    | 
 +----------------------------------------+ 
 +----------------------------------------+ 
 | Tyranitar                              | 
 +----------------------------------------+ 
 | Raw count: 177                         | 
 | Avg. weight: 0.064741748996            | 
 | Viability Ceiling: 78                  | 
 +----------------------------------------+ 
 | Abilities                              | 
 | Sand Stream 100.000%                   | 
 +----------------------------------------+ 
 | Items                                  | 
 | Focus Sash 85.591%                     | 
 | Lum Berry  8.269%                      | 
 | Choice Scarf  6.140%                   | 
 | Other -0.000%                          | 
 +----------------------------------------+ 
 | Spreads                                | 
 | Careful:248/104/0/0/156/0 60.974%      | 
 | Lonely:0/200/0/56/0/252 28.969%        | 
 | Hasty:0/248/0/40/0/220  6.140%         | 
 | Other  3.917%                          | 
 +----------------------------------------+ 
 | Moves                                  | 
 | Crunch 98.152%                         | 
 | Stealth Rock 90.066%                   | 
 | Thunder Wave 60.974%                   | 
 | Earthquake 52.127%                     | 
 | Fire Blast 38.755%                     | 
 | Low Kick 28.969%                       | 
 | Superpower 18.904%                     | 
 | Other 12.053%                          | 
 +----------------------------------------+ 
 | Teammates                              | 
 | Blissey +50.007%                       | 
 | Palkia +38.285%                        | 
 | Darkrai +29.923%                       | 
 | Scizor +26.734%                        | 
 | Skarmory +19.111%                      | 
 | Kyogre +7.083%                         | 
 +----------------------------------------+ 
 | Checks and Counters                    | 
 +----------------------------------------+ 
 +----------------------------------------+ 
 | Forretress                             | 
 +----------------------------------------+ 
 | Raw count: 298                         | 
 | Avg. weight: 0.0375142769784           | 
 | Viability Ceiling: 83                  | 
 +----------------------------------------+ 
 | Abilities                              | 
 | Sturdy 100.000%                        | 
 +----------------------------------------+ 
 | Items                                  | 
 | Leftovers 99.781%                      | 
 | Other  0.219%                          | 
 +----------------------------------------+ 
 | Spreads                                | 
 | Impish:252/0/4/0/252/0 46.813%         | 
 | Careful:248/0/8/0/252/0 43.571%        | 
 | Careful:248/8/0/0/252/0  3.854%        | 
 | Careful:8/0/248/0/252/0  2.062%        | 
 | Other  3.699%                          | 
 +----------------------------------------+ 
 | Moves                                  | 
 | Rapid Spin 99.836%                     | 
 | Payback 86.346%                        | 
 | Spikes 78.713%                         | 
 | Toxic Spikes 68.600%                   | 
 | Stealth Rock 36.441%                   | 
 | Explosion 14.890%                      | 
 | Other 15.175%                          | 
 +----------------------------------------+ 
 | Teammates                              | 
 | Ho-Oh +39.566%                         | 
 | Groudon +35.054%                       | 
 | Latias +23.461%                        | 
 | Darkrai +16.228%                       | 
 | Ludicolo +12.875%                      | 
 | Heatran +12.843%                       | 
 | Garchomp +10.703%                      | 
 | Palkia +6.838%                         | 
 | Giratina +2.002%                       | 
 | Hippowdon +1.686%                      | 
 | Rotom-Wash +1.686%                     | 
 | Ditto +1.622%                          | 
 +----------------------------------------+ 
 | Checks and Counters                    | 
 +----------------------------------------+ 
 +----------------------------------------+ 
 | Blissey                                | 
 +----------------------------------------+ 
 | Raw count: 274                         | 
 | Avg. weight: 0.0330058467548           | 
 | Viability Ceiling: 78                  | 
 +----------------------------------------+ 
 | Abilities                              | 
 | Natural Cure 100.000%                  | 
 | Serene Grace  0.000%                   | 
 +----------------------------------------+ 
 | Items                                  | 
 | Leftovers 100.000%                     | 
 | Other  0.000%                          | 
 +----------------------------------------+ 
 | Spreads                                | 
 | Calm:0/0/252/0/252/4 79.990%           | 
 | Calm:188/0/68/0/252/0  8.583%          | 
 | Calm:4/0/252/0/252/0  5.193%           | 
 | Bold:252/0/252/0/0/4  3.189%           | 
 | Other  3.045%                          | 
 +----------------------------------------+ 
 | Moves                                  | 
 | Seismic Toss 99.271%                   | 
 | Soft-Boiled 91.563%                    | 
 | Toxic 89.374%                          | 
 | Psych Up 79.286%                       | 
 | Heal Bell 15.332%                      | 
 | Wish  8.246%                           | 
 | Other 16.928%                          | 
 +----------------------------------------+ 
 | Teammates                              | 
 | Tyranitar +65.402%                     | 
 | Darkrai +47.462%                       | 
 | Scizor +44.067%                        | 
 | Palkia +27.845%                        | 
 | Latias +5.373%                         | 
 | Kyogre +5.209%                         | 
 | Giratina +2.658%                       | 
 | Shaymin-Sky +2.034%                    | 
 +----------------------------------------+ 
 | Checks and Counters                    | 
 +----------------------------------------+ 
 +----------------------------------------+ 
 | Cloyster                               | 
 +----------------------------------------+ 
 | Raw count: 62                          | 
 | Avg. weight: 0.106946707863            | 
 | Viability Ceiling: 84                  | 
 +----------------------------------------+ 
 | Abilities                              | 
 | Shell Armor 100.000%                   | 
 +----------------------------------------+ 
 | Items                                  | 
 | Focus Sash 100.000%                    | 
 | Other  0.000%                          | 
 +----------------------------------------+ 
 | Spreads                                | 
 | Jolly:0/252/4/0/0/252 97.276%          | 
 | Other  2.724%                          | 
 +----------------------------------------+ 
 | Moves                                  | 
 | Ice Shard 100.000%                     | 
 | Spikes 100.000%                        | 
 | Toxic Spikes 97.276%                   | 
 | Payback 97.276%                        | 
 | Other  5.447%                          | 
 +----------------------------------------+ 
 | Teammates                              | 
 | Scizor +69.019%                        | 
 | Dialga +55.982%                        | 
 | Palkia +49.372%                        | 
 | Giratina-Origin +34.347%               | 
 | Kyogre +18.047%                        | 
 | Typhlosion +2.422%                     | 
 +----------------------------------------+ 
 | Checks and Counters                    | 
 +----------------------------------------+ 
 +----------------------------------------+ 
 | Deoxys-Attack                          | 
 +----------------------------------------+ 
 | Raw count: 247                         | 
 | Avg. weight: 0.0302638103035           | 
 | Viability Ceiling: 77                  | 
 +----------------------------------------+ 
 | Abilities                              | 
 | Pressure 100.000%                      | 
 +----------------------------------------+ 
 | Items                                  | 
 | Focus Sash 84.298%                     | 
 | Life Orb 15.701%                       | 
 | Other  0.000%                          | 
 +----------------------------------------+ 
 | Spreads                                | 
 | Naive:0/220/0/36/0/252 33.639%         | 
 | Naive:0/4/0/252/0/252 32.182%          | 
 | Mild:0/0/0/252/0/252 12.464%           | 
 | Rash:0/220/0/36/0/252 11.409%          | 
 | Hasty:0/252/0/4/0/252  5.114%          | 
 | Hasty:0/4/0/252/0/252  5.059%          | 
 | Other  0.133%                          | 
 +----------------------------------------+ 
 | Moves                                  | 
 | Extreme Speed 97.196%                  | 
 | Grass Knot 77.230%                     | 
 | Superpower 67.813%                     | 
 | Shadow Ball 50.162%                    | 
 | Stealth Rock 32.554%                   | 
 | Signal Beam 32.182%                    | 
 | Ice Beam 15.762%                       | 
 | Psycho Boost 14.483%                   | 
 | Other 12.619%                          | 
 +----------------------------------------+ 
 | Teammates                              | 
 | Wobbuffet +32.563%                     | 
 | Dialga +27.415%                        | 
 | Groudon +15.771%                       | 
 | Latios +11.567%                        | 
 | Garchomp +11.306%                      | 
 | Darkrai +10.984%                       | 
 | Rayquaza +10.447%                      | 
 | Salamence +4.691%                      | 
 | Scizor +4.529%                         | 
 | Bronzong +4.029%                       | 
 | Shaymin-Sky +3.959%                    | 
 +----------------------------------------+ 
 | Checks and Counters                    | 
 +----------------------------------------+ 
 +----------------------------------------+ 
 | Ho-Oh                                  | 
 +----------------------------------------+ 
 | Raw count: 200                         | 
 | Avg. weight: 0.0292210244963           | 
 | Viability Ceiling: 83                  | 
 +----------------------------------------+ 
 | Abilities                              | 
 | Pressure 100.000%                      | 
 +----------------------------------------+ 
 | Items                                  | 
 | Lum Berry 82.745%                      | 
 | Life Orb 10.612%                       | 
 | Leftovers  5.859%                      | 
 | Other  0.783%                          | 
 +----------------------------------------+ 
 | Spreads                                | 
 | Adamant:64/252/0/0/0/192 82.745%       | 
 | Adamant:232/252/0/0/0/24 15.048%       | 
 | Other  2.206%                          | 
 +----------------------------------------+ 
 | Moves                                  | 
 | Sacred Fire 100.000%                   | 
 | Earthquake 99.951%                     | 
 | Brave Bird 99.951%                     | 
 | Roost 97.826%                          | 
 | Other  2.273%                          | 
 +----------------------------------------+ 
 | Teammates                              | 
 | Forretress +77.274%                    | 
 | Groudon +66.951%                       | 
 | Darkrai +55.588%                       | 
 | Palkia +46.062%                        | 
 | Giratina-Origin +31.826%               | 
 | Tentacruel +2.532%                     | 
 | Latias +2.245%                         | 
 +----------------------------------------+ 
 | Checks and Counters                    | 
 +----------------------------------------+ 
 +----------------------------------------+ 
 | Latias                                 | 
 +----------------------------------------+ 
 | Raw count: 276                         | 
 | Avg. weight: 0.0262573308228           | 
 | Viability Ceiling: 79                  | 
 +----------------------------------------+ 
 | Abilities                              | 
 | Levitate 100.000%                      | 
 +----------------------------------------+ 
 | Items                                  | 
 | Soul Dew 99.997%                       | 
 | Other  0.003%                          | 
 +----------------------------------------+ 
 | Spreads                                | 
 | Timid:112/0/0/204/0/192 55.494%        | 
 | Timid:200/0/0/56/0/252 11.738%         | 
 | Timid:160/0/0/96/0/252 10.887%         | 
 | Timid:104/0/4/208/0/192  9.570%        | 
 | Timid:4/0/0/252/0/252  9.451%          | 
 | Other  2.861%                          | 
 +----------------------------------------+ 
 | Moves                                  | 
 | Dragon Pulse 99.849%                   | 
 | Calm Mind 97.405%                      | 
 | Recover 97.340%                        | 
 | Grass Knot 60.705%                     | 
 | Thunder 32.691%                        | 
 | Other 12.010%                          | 
 +----------------------------------------+ 
 | Teammates                              | 
 | Forretress +34.386%                    | 
 | Garchomp +24.981%                      | 
 | Ludicolo +21.628%                      | 
 | Heatran +21.596%                       | 
 | Kingdra +13.193%                       | 
 | Metagross +8.488%                      | 
 | Jirachi +7.690%                        | 
 | Kabutops +7.267%                       | 
 | Skarmory +4.850%                       | 
 | Bronzong +4.167%                       | 
 | Blissey +4.071%                        | 
 | Giratina +3.773%                       | 
 +----------------------------------------+ 
 | Checks and Counters                    | 
 +----------------------------------------+ 
 +----------------------------------------+ 
 | Froslass                               | 
 +----------------------------------------+ 
 | Raw count: 69                          | 
 | Avg. weight: 0.0716195144016           | 
 | Viability Ceiling: 92                  | 
 +----------------------------------------+ 
 | Abilities                              | 
 | Snow Cloak 100.000%                    | 
 +----------------------------------------+ 
 | Items                                  | 
 | Focus Sash 100.000%                    | 
 | Other  0.000%                          | 
 +----------------------------------------+ 
 | Spreads                                | 
 | Timid:0/0/4/252/0/252 81.936%          | 
 | Hasty:0/60/0/252/0/196 11.496%         | 
 | Timid:0/0/0/252/4/252  6.568%          | 
 | Other  0.000%                          | 
 +----------------------------------------+ 
 | Moves                                  | 
 | Shadow Ball 100.000%                   | 
 | Icy Wind 100.000%                      | 
 | Spikes 100.000%                        | 
 | Destiny Bond 85.139%                   | 
 | Other 14.862%                          | 
 +----------------------------------------+ 
 | Teammates                              | 
 | Dialga +44.816%                        | 
 | Lucario +42.882%                       | 
 | Rayquaza +30.104%                      | 
 | Palkia +27.325%                        | 
 | Giratina-Origin +21.471%               | 
 | Kabutops +8.697%                       | 
 +----------------------------------------+ 
 | Checks and Counters                    | 
 +----------------------------------------+ 
 +----------------------------------------+ 
 | Skarmory                               | 
 +----------------------------------------+ 
 | Raw count: 175                         | 
 | Avg. weight: 0.0289114727577           | 
 | Viability Ceiling: 77                  | 
 +----------------------------------------+ 
 | Abilities                              | 
 | Keen Eye 77.669%                       | 
 | Sturdy 22.331%                         | 
 +----------------------------------------+ 
 | Items                                  | 
 | Leftovers 100.000%                     | 
 | Other  0.000%                          | 
 +----------------------------------------+ 
 | Spreads                                | 
 | Impish:252/0/16/0/240/0 75.438%        | 
 | Impish:248/0/16/0/244/0 13.804%        | 
 | Impish:252/0/252/0/4/0  5.718%         | 
 | Impish:248/0/0/0/252/8  1.944%         | 
 | Other  3.095%                          | 
 +----------------------------------------+ 
 | Moves                                  | 
 | Roost 99.992%                          | 
 | Spikes 98.714%                         | 
 | Whirlwind 98.714%                      | 
 | Taunt 75.438%                          | 
 | Brave Bird 20.808%                     | 
 | Other  6.333%                          | 
 +----------------------------------------+ 
 | Teammates                              | 
 | Tyranitar +43.931%                     | 
 | Dialga +27.533%                        | 
 | Palkia +14.741%                        | 
 | Kingdra +12.927%                       | 
 | Jirachi +9.703%                        | 
 | Latias +8.474%                         | 
 | Giratina +5.248%                       | 
 | Kyogre +5.108%                         | 
 | Shaymin-Sky +4.563%                    | 
 +----------------------------------------+ 
 | Checks and Counters                    | 
 +----------------------------------------+ 
 +----------------------------------------+ 
 | Latios                                 | 
 +----------------------------------------+ 
 | Raw count: 301                         | 
 | Avg. weight: 0.013442626734            | 
 | Viability Ceiling: 92                  | 
 +----------------------------------------+ 
 | Abilities                              | 
 | Levitate 100.000%                      | 
 +----------------------------------------+ 
 | Items                                  | 
 | Soul Dew 99.954%                       | 
 | Other  0.046%                          | 
 +----------------------------------------+ 
 | Spreads                                | 
 | Timid:4/0/0/252/0/252 60.638%          | 
 | Timid:0/0/0/252/4/252 36.901%          | 
 | Other  2.461%                          | 
 +----------------------------------------+ 
 | Moves                                  | 
 | Draco Meteor 82.027%                   | 
 | Recover 75.605%                        | 
 | Thunder 67.973%                        | 
 | Grass Knot 51.893%                     | 
 | Surf 45.147%                           | 
 | Calm Mind 27.365%                      | 
 | Roost 19.779%                          | 
 | Dragon Pulse 17.927%                   | 
 | Other 12.286%                          | 
 +----------------------------------------+ 
 | Teammates                              | 
 | Mew +22.383%                           | 
 | Deoxys-Attack +22.349%                 | 
 | Wobbuffet +19.999%                     | 
 | Dialga +19.730%                        | 
 | Garchomp +18.482%                      | 
 | Jirachi +16.236%                       | 
 | Shaymin-Sky +9.264%                    | 
 | Typhlosion +4.268%                     | 
 | Tentacruel +3.831%                     | 
 | Mewtwo +2.562%                         | 
 | Groudon +0.565%                        | 
 +----------------------------------------+ 
 | Checks and Counters                    | 
 +----------------------------------------+ 
 +----------------------------------------+ 
 | Garchomp                               | 
 +----------------------------------------+ 
 | Raw count: 335                         | 
 | Avg. weight: 0.0159796740133           | 
 | Viability Ceiling: 78                  | 
 +----------------------------------------+ 
 | Abilities                              | 
 | Sand Veil 100.000%                     | 
 +----------------------------------------+ 
 | Items                                  | 
 | Choice Scarf 94.309%                   | 
 | Salac Berry  3.405%                    | 
 | Other  2.286%                          | 
 +----------------------------------------+ 
 | Spreads                                | 
 | Jolly:4/252/0/0/0/252 78.624%          | 
 | Jolly:0/252/0/0/4/252 16.169%          | 
 | Jolly:12/244/0/0/0/252  3.405%         | 
 | Other  1.802%                          | 
 +----------------------------------------+ 
 | Moves                                  | 
 | Earthquake 100.000%                    | 
 | Dragon Claw 99.515%                    | 
 | Outrage 94.794%                        | 
 | Stone Edge 94.793%                     | 
 | Other 10.898%                          | 
 +----------------------------------------+ 
 | Teammates                              | 
 | Latias +32.548%                        | 
 | Ludicolo +29.869%                      | 
 | Heatran +29.837%                       | 
 | Forretress +18.840%                    | 
 | Deoxys-Attack +13.591%                 | 
 | Latios +12.167%                        | 
 | Wobbuffet +12.066%                     | 
 | Bronzong +5.830%                       | 
 | Jirachi +3.100%                        | 
 | Manaphy +2.436%                        | 
 +----------------------------------------+ 
 | Checks and Counters                    | 
 +----------------------------------------+ 
 +----------------------------------------+ 
 | Wobbuffet                              | 
 +----------------------------------------+ 
 | Raw count: 209                         | 
 | Avg. weight: 0.0188283410383           | 
 | Viability Ceiling: 78                  | 
 +----------------------------------------+ 
 | Abilities                              | 
 | Shadow Tag 100.000%                    | 
 +----------------------------------------+ 
 | Items                                  | 
 | Leftovers 97.930%                      | 
 | Other  2.070%                          | 
 +----------------------------------------+ 
 | Spreads                                | 
 | Calm:28/0/228/0/252/0 95.495%          | 
 | Other  4.505%                          | 
 +----------------------------------------+ 
 | Moves                                  | 
 | Mirror Coat 100.000%                   | 
 | Counter 100.000%                       | 
 | Encore 99.537%                         | 
 | Tickle 70.373%                         | 
 | Safeguard 27.219%                      | 
 | Other  2.870%                          | 
 +----------------------------------------+ 
 | Teammates                              | 
 | Deoxys-Attack +61.580%                 | 
 | Scizor +25.327%                        | 
 | Latios +19.960%                        | 
 | Salamence +18.297%                     | 
 | Garchomp +18.039%                      | 
 | Dialga +10.454%                        | 
 | Rayquaza +8.878%                       | 
 | Kyogre +3.274%                         | 
 +----------------------------------------+ 
 | Checks and Counters                    | 
 +----------------------------------------+ 
 +----------------------------------------+ 
 | Kingdra                                | 
 +----------------------------------------+ 
 | Raw count: 79                          | 
 | Avg. weight: 0.0347435419798           | 
 | Viability Ceiling: 92                  | 
 +----------------------------------------+ 
 | Abilities                              | 
 | Swift Swim 99.863%                     | 
 | Sniper  0.137%                         | 
 +----------------------------------------+ 
 | Items                                  | 
 | Life Orb 99.863%                       | 
 | Other  0.137%                          | 
 +----------------------------------------+ 
 | Spreads                                | 
 | Lonely:0/252/0/80/0/176 35.336%        | 
 | Rash:0/80/0/252/0/176 25.036%          | 
 | Mild:0/76/0/252/0/180 24.723%          | 
 | Mild:0/80/0/252/0/176 10.371%          | 
 | Other  4.534%                          | 
 +----------------------------------------+ 
 | Moves                                  | 
 | Outrage 100.000%                       | 
 | Draco Meteor 100.000%                  | 
 | Waterfall 74.827%                      | 
 | Hydro Pump 49.759%                     | 
 | Dragon Dance 29.288%                   | 
 | Dragon Pulse 25.036%                   | 
 | Surf 20.953%                           | 
 | Other  0.137%                          | 
 +----------------------------------------+ 
 | Teammates                              | 
 | Latias +36.245%                        | 
 | Kabutops +26.937%                      | 
 | Skarmory +23.621%                      | 
 | Metagross +23.562%                     | 
 | Jirachi +16.954%                       | 
 | Kyogre +11.869%                        | 
 | Shaymin-Sky +9.216%                    | 
 | Manaphy +4.073%                        | 
 | Bronzong +3.620%                       | 
 | Deoxys-Speed +3.375%                   | 
 +----------------------------------------+ 
 | Checks and Counters                    | 
 +----------------------------------------+ 
 +----------------------------------------+ 
 | Jirachi                                | 
 +----------------------------------------+ 
 | Raw count: 159                         | 
 | Avg. weight: 0.0160648285081           | 
 | Viability Ceiling: 77                  | 
 +----------------------------------------+ 
 | Abilities                              | 
 | Serene Grace 100.000%                  | 
 +----------------------------------------+ 
 | Items                                  | 
 | Leftovers 87.359%                      | 
 | Choice Scarf 12.421%                   | 
 | Other  0.220%                          | 
 +----------------------------------------+ 
 | Spreads                                | 
 | Calm:252/0/4/0/216/36 32.012%          | 
 | Careful:252/0/4/0/252/0 27.785%        | 
 | Careful:252/4/0/0/252/0 17.807%        | 
 | Jolly:4/252/0/0/0/252  8.507%          | 
 | Careful:252/0/40/0/216/0  7.956%       | 
 | Jolly:0/252/0/0/4/252  3.914%          | 
 | Other  2.019%                          | 
 +----------------------------------------+ 
 | Moves                                  | 
 | Iron Head 93.612%                      | 
 | Wish 85.560%                           | 
 | Thunder Wave 79.622%                   | 
 | U-turn 52.389%                         | 
 | Stealth Rock 45.812%                   | 
 | Ice Punch 14.220%                      | 
 | Trick 12.421%                          | 
 | Other 16.364%                          | 
 +----------------------------------------+ 
 | Teammates                              | 
 | Mew +29.926%                           | 
 | Latios +25.873%                        | 
 | Latias +23.637%                        | 
 | Skarmory +19.415%                      | 
 | Kingdra +18.654%                       | 
 | Rayquaza +18.485%                      | 
 | Garchomp +8.341%                       | 
 | Dialga +4.787%                         | 
 +----------------------------------------+ 
 | Checks and Counters                    | 
 +----------------------------------------+ 
 +----------------------------------------+ 
 | Heatran                                | 
 +----------------------------------------+ 
 | Raw count: 63                          | 
 | Avg. weight: 0.0440911989485           | 
 | Viability Ceiling: 79                  | 
 +----------------------------------------+ 
 | Abilities                              | 
 | Flash Fire 100.000%                    | 
 +----------------------------------------+ 
 | Items                                  | 
 | Leftovers 99.336%                      | 
 | Other  0.664%                          | 
 +----------------------------------------+ 
 | Spreads                                | 
 | Calm:252/0/0/0/128/128 99.279%         | 
 | Other  0.721%                          | 
 +----------------------------------------+ 
 | Moves                                  | 
 | Flamethrower 99.944%                   | 
 | Taunt 99.279%                          | 
 | Roar 99.279%                           | 
 | Dragon Pulse 99.279%                   | 
 | Other  2.218%                          | 
 +----------------------------------------+ 
 | Teammates                              | 
 | Ludicolo +61.714%                      | 
 | Garchomp +58.498%                      | 
 | Latias +55.616%                        | 
 | Forretress +48.515%                    | 
 | Ninjask +0.659%                        | 
 | Electivire +0.635%                     | 
 | Honchkrow +0.635%                      | 
 +----------------------------------------+ 
 | Checks and Counters                    | 
 +----------------------------------------+ 
 +----------------------------------------+ 
 | Ludicolo                               | 
 +----------------------------------------+ 
 | Raw count: 27                          | 
 | Avg. weight: 0.0988955230978           | 
 | Viability Ceiling: 78                  | 
 +----------------------------------------+ 
 | Abilities                              | 
 | Rain Dish 100.000%                     | 
 | Swift Swim  0.000%                     | 
 +----------------------------------------+ 
 | Items                                  | 
 | Leftovers 100.000%                     | 
 | Other  0.000%                          | 
 +----------------------------------------+ 
 | Spreads                                | 
 | Calm:200/0/56/0/252/0 100.000%         | 
 | Other  0.000%                          | 
 +----------------------------------------+ 
 | Moves                                  | 
 | Protect 100.000%                       | 
 | Leech Seed 100.000%                    | 
 | Ice Beam 100.000%                      | 
 | Substitute 100.000%                    | 
 | Other  0.000%                          | 
 +----------------------------------------+ 
 | Teammates                              | 
 | Heatran +62.150%                       | 
 | Garchomp +58.967%                      | 
 | Latias +56.084%                        | 
 | Forretress +48.984%                    | 
 +----------------------------------------+ 
 | Checks and Counters                    | 
 +----------------------------------------+ 
 +----------------------------------------+ 
 | Kabutops                               | 
 +----------------------------------------+ 
 | Raw count: 36                          | 
 | Avg. weight: 0.0374760666628           | 
 | Viability Ceiling: 75                  | 
 +----------------------------------------+ 
 | Abilities                              | 
 | Swift Swim 100.000%                    | 
 | Battle Armor  0.000%                   | 
 +----------------------------------------+ 
 | Items                                  | 
 | Choice Band 50.330%                    | 
 | Life Orb 49.670%                       | 
 | Other  0.000%                          | 
 +----------------------------------------+ 
 | Spreads                                | 
 | Adamant:0/252/4/0/0/252 91.160%        | 
 | Adamant:0/252/0/0/4/252  8.840%        | 
 | Other  0.000%                          | 
 +----------------------------------------+ 
 | Moves                                  | 
 | Waterfall 100.000%                     | 
 | Stone Edge 100.000%                    | 
 | Low Kick 99.992%                       | 
 | Swords Dance 49.670%                   | 
 | Aqua Jet 41.498%                       | 
 | Other  8.840%                          | 
 +----------------------------------------+ 
 | Teammates                              | 
 | Kingdra +54.401%                       | 
 | Metagross +48.500%                     | 
 | Dialga +47.643%                        | 
 | Latias +40.687%                        | 
 | Froslass +31.994%                      | 
 | Groudon +20.062%                       | 
 | Kyogre +18.548%                        | 
 | Manaphy +8.375%                        | 
 | Bronzong +8.055%                       | 
 +----------------------------------------+ 
 | Checks and Counters                    | 
 +----------------------------------------+ 
 +----------------------------------------+ 
 | Mew                                    | 
 +----------------------------------------+ 
 | Raw count: 113                         | 
 | Avg. weight: 0.0112530581397           | 
 | Viability Ceiling: 77                  | 
 +----------------------------------------+ 
 | Abilities                              | 
 | Synchronize 100.000%                   | 
 +----------------------------------------+ 
 | Items                                  | 
 | Lum Berry 99.855%                      | 
 | Other  0.145%                          | 
 +----------------------------------------+ 
 | Spreads                                | 
 | Jolly:252/4/0/0/0/252 62.022%          | 
 | Jolly:252/36/0/0/0/220 23.270%         | 
 | Adamant:252/184/36/0/36/0 14.563%      | 
 | Other  0.145%                          | 
 +----------------------------------------+ 
 | Moves                                  | 
 | Stealth Rock 99.855%                   | 
 | Explosion 99.855%                      | 
 | Taunt 99.855%                          | 
 | U-turn 99.855%                         | 
 | Other  0.579%                          | 
 +----------------------------------------+ 
 | Teammates                              | 
 | Latios +70.590%                        | 
 | Mewtwo +68.099%                        | 
 | Dialga +58.705%                        | 
 | Jirachi +58.479%                       | 
 | Rayquaza +51.528%                      | 
 +----------------------------------------+ 
 | Checks and Counters                    | 
 +----------------------------------------+ 
 +----------------------------------------+ 
 | Salamence                              | 
 +----------------------------------------+ 
 | Raw count: 132                         | 
 | Avg. weight: 0.0102768933768           | 
 | Viability Ceiling: 74                  | 
 +----------------------------------------+ 
 | Abilities                              | 
 | Intimidate 100.000%                    | 
 +----------------------------------------+ 
 | Items                                  | 
 | Life Orb 99.576%                       | 
 | Other  0.424%                          | 
 +----------------------------------------+ 
 | Spreads                                | 
 | Jolly:0/252/4/0/0/252 82.702%          | 
 | Adamant:0/252/0/0/4/252 16.897%        | 
 | Other  0.401%                          | 
 +----------------------------------------+ 
 | Moves                                  | 
 | Earthquake 100.000%                    | 
 | Dragon Dance 99.998%                   | 
 | Outrage 83.102%                        | 
 | Fire Blast 82.681%                     | 
 | Dragon Claw 16.898%                    | 
 | Other 17.321%                          | 
 +----------------------------------------+ 
 | Teammates                              | 
 | Wobbuffet +51.728%                     | 
 | Scizor +26.238%                        | 
 | Deoxys-Attack +24.087%                 | 
 | Hippowdon +16.519%                     | 
 | Rotom-Wash +16.519%                    | 
 | Ditto +15.896%                         | 
 | Rayquaza +8.891%                       | 
 | Groudon +3.592%                        | 
 | Forretress +0.822%                     | 
 +----------------------------------------+ 
 | Checks and Counters                    | 
 +----------------------------------------+ 
 +----------------------------------------+ 
 | Metagross                              | 
 +----------------------------------------+ 
 | Raw count: 87                          | 
 | Avg. weight: 0.00822761278787          | 
 | Viability Ceiling: 75                  | 
 +----------------------------------------+ 
 | Abilities                              | 
 | Clear Body 100.000%                    | 
 +----------------------------------------+ 
 | Items                                  | 
 | Choice Band 94.690%                    | 
 | Choice Scarf  5.306%                   | 
 | Other  0.004%                          | 
 +----------------------------------------+ 
 | Spreads                                | 
 | Adamant:210/140/0/0/160/0 94.690%      | 
 | Jolly:0/252/4/0/0/252  3.316%          | 
 | Other  1.994%                          | 
 +----------------------------------------+ 
 | Moves                                  | 
 | Meteor Mash 99.996%                    | 
 | Earthquake 99.996%                     | 
 | Explosion 96.680%                      | 
 | Pursuit 94.690%                        | 
 | Other  8.637%                          | 
 +----------------------------------------+ 
 | Teammates                              | 
 | Kabutops +92.507%                      | 
 | Kingdra +90.598%                       | 
 | Latias +87.706%                        | 
 | Dialga +53.396%                        | 
 | Kyogre +17.451%                        | 
 | Gyarados +2.425%                       | 
 | Starmie +2.425%                        | 
 | Ninjask +2.393%                        | 
 +----------------------------------------+ 
 | Checks and Counters                    | 
 +----------------------------------------+ 
 +----------------------------------------+ 
 | Shaymin-Sky                            | 
 +----------------------------------------+ 
 | Raw count: 126                         | 
 | Avg. weight: 0.00555687676099          | 
 | Viability Ceiling: 79                  | 
 +----------------------------------------+ 
 | Abilities                              | 
 | Serene Grace 100.000%                  | 
 +----------------------------------------+ 
 | Items                                  | 
 | Choice Scarf 58.961%                   | 
 | Leftovers 40.141%                      | 
 | Other  0.898%                          | 
 +----------------------------------------+ 
 | Spreads                                | 
 | Timid:0/0/0/252/4/252 53.865%          | 
 | Timid:4/0/0/252/0/252 46.135%          | 
 | Other  0.000%                          | 
 +----------------------------------------+ 
 | Moves                                  | 
 | Air Slash 100.000%                     | 
 | Seed Flare 99.543%                     | 
 | Hidden Power Ice 58.814%               | 
 | Healing Wish 53.864%                   | 
 | Substitute 40.141%                     | 
 | Leech Seed 40.141%                     | 
 | Other  7.497%                          | 
 +----------------------------------------+ 
 | Teammates                              | 
 | Dialga +58.117%                        | 
 | Latios +52.675%                        | 
 | Deoxys-Attack +42.949%                 | 
 | Kingdra +36.048%                       | 
 | Skarmory +32.895%                      | 
 | Blissey +26.378%                       | 
 | Darkrai +25.484%                       | 
 | Scizor +22.296%                        | 
 | Giratina +4.930%                       | 
 +----------------------------------------+ 
 | Checks and Counters                    | 
 +----------------------------------------+ 
 +----------------------------------------+ 
 | Bronzong                               | 
 +----------------------------------------+ 
 | Raw count: 53                          | 
 | Avg. weight: 0.0179491625207           | 
 | Viability Ceiling: 77                  | 
 +----------------------------------------+ 
 | Abilities                              | 
 | Levitate 100.000%                      | 
 | Heatproof  0.000%                      | 
 +----------------------------------------+ 
 | Items                                  | 
 | Leftovers 100.000%                     | 
 | Other  0.000%                          | 
 +----------------------------------------+ 
 | Spreads                                | 
 | Sassy:252/0/0/100/156/0 87.474%        | 
 | Careful:248/8/0/0/252/0 12.526%        | 
 | Other  0.000%                          | 
 +----------------------------------------+ 
 | Moves                                  | 
 | Payback 100.000%                       | 
 | Stealth Rock 100.000%                  | 
 | Grass Knot 87.474%                     | 
 | Gyro Ball 87.474%                      | 
 | Explosion 12.526%                      | 
 | Other 12.526%                          | 
 +----------------------------------------+ 
 | Teammates                              | 
 | Garchomp +30.756%                      | 
 | Latias +27.873%                        | 
 | Deoxys-Attack +26.521%                 | 
 | Manaphy +12.069%                       | 
 | Kabutops +10.342%                      | 
 | Kingdra +8.433%                        | 
 | Scizor +5.867%                         | 
 | Mewtwo +5.091%                         | 
 +----------------------------------------+ 
 | Checks and Counters                    | 
 +----------------------------------------+ 
 +----------------------------------------+ 
 | Giratina                               | 
 +----------------------------------------+ 
 | Raw count: 126                         | 
 | Avg. weight: 0.00371142759022          | 
 | Viability Ceiling: 69                  | 
 +----------------------------------------+ 
 | Abilities                              | 
 | Pressure 100.000%                      | 
 +----------------------------------------+ 
 | Items                                  | 
 | Leftovers 99.999%                      | 
 | Other  0.001%                          | 
 +----------------------------------------+ 
 | Spreads                                | 
 | Impish:248/0/248/0/12/0 91.311%        | 
 | Bold:240/0/252/16/0/0  4.867%          | 
 | Other  3.822%                          | 
 +----------------------------------------+ 
 | Moves                                  | 
 | Rest 96.178%                           | 
 | Sleep Talk 96.178%                     | 
 | Will-O-Wisp 95.107%                    | 
 | Roar 82.994%                           | 
 | Dragon Pulse  8.688%                   | 
 | Calm Mind  8.688%                      | 
 | Other 12.167%                          | 
 +----------------------------------------+ 
 | Teammates                              | 
 | Latias +57.445%                        | 
 | Skarmory +54.305%                      | 
 | Blissey +47.788%                       | 
 | Forretress +45.477%                    | 
 | Shaymin-Sky +7.137%                    | 
 | Lugia +4.756%                          | 
 | Electivire +3.792%                     | 
 | Honchkrow +3.792%                      | 
 | Ninjask +3.760%                        | 
 | Latios +2.153%                         | 
 | Heatran +0.914%                        | 
 +----------------------------------------+ 
 | Checks and Counters                    | 
 +----------------------------------------+ 
 +----------------------------------------+ 
 | Manaphy                                | 
 +----------------------------------------+ 
 | Raw count: 42                          | 
 | Avg. weight: 0.00722398348865          | 
 | Viability Ceiling: 68                  | 
 +----------------------------------------+ 
 | Abilities                              | 
 | Hydration 100.000%                     | 
 +----------------------------------------+ 
 | Items                                  | 
 | Leftovers 100.000%                     | 
 | Other  0.000%                          | 
 +----------------------------------------+ 
 | Spreads                                | 
 | Timid:160/0/88/4/76/180 59.535%        | 
 | Timid:252/0/0/4/0/252 40.465%          | 
 | Other  0.000%                          | 
 +----------------------------------------+ 
 | Moves                                  | 
 | Surf 100.000%                          | 
 | Ice Beam 100.000%                      | 
 | Rest 100.000%                          | 
 | Calm Mind 100.000%                     | 
 | Other  0.000%                          | 
 +----------------------------------------+ 
 | Teammates                              | 
 | Garchomp +44.497%                      | 
 | Bronzong +38.496%                      | 
 | Kabutops +37.090%                      | 
 | Kingdra +36.372%                       | 
 | Scizor +19.607%                        | 
 | Kyogre +11.823%                        | 
 | Deoxys-Speed +10.155%                  | 
 | Dialga +9.294%                         | 
 +----------------------------------------+ 
 | Checks and Counters                    | 
 +----------------------------------------+ 
 +----------------------------------------+ 
 | Hippowdon                              | 
 +----------------------------------------+ 
 | Raw count: 16                          | 
 | Avg. weight: 0.0142163191154           | 
 | Viability Ceiling: 66                  | 
 +----------------------------------------+ 
 | Abilities                              | 
 | Sand Stream 100.000%                   | 
 +----------------------------------------+ 
 | Items                                  | 
 | Leftovers 100.000%                     | 
 | Other  0.000%                          | 
 +----------------------------------------+ 
 | Spreads                                | 
 | Careful:8/0/248/0/252/0 100.000%       | 
 | Other  0.000%                          | 
 +----------------------------------------+ 
 | Moves                                  | 
 | Stealth Rock 100.000%                  | 
 | Sleep Talk 100.000%                    | 
 | Rest 100.000%                          | 
 | Earthquake 100.000%                    | 
 | Other  0.000%                          | 
 +----------------------------------------+ 
 | Teammates                              | 
 | Rotom-Wash +99.624%                    | 
 | Salamence +98.339%                     | 
 | Ditto +95.867%                         | 
 | Forretress +83.926%                    | 
 | Kyogre +20.771%                        | 
 +----------------------------------------+ 
 | Checks and Counters                    | 
 +----------------------------------------+ 
 +----------------------------------------+ 
 | Rotom-Wash                             | 
 +----------------------------------------+ 
 | Raw count: 19                          | 
 | Avg. weight: 0.0119716371498           | 
 | Viability Ceiling: 66                  | 
 +----------------------------------------+ 
 | Abilities                              | 
 | Levitate 100.000%                      | 
 +----------------------------------------+ 
 | Items                                  | 
 | Light Clay 100.000%                    | 
 | Other  0.000%                          | 
 +----------------------------------------+ 
 | Spreads                                | 
 | Hardy:248/0/128/0/128/4 100.000%       | 
 | Other  0.000%                          | 
 +----------------------------------------+ 
 | Moves                                  | 
 | Thunderbolt 100.000%                   | 
 | Shadow Ball 100.000%                   | 
 | Reflect 100.000%                       | 
 | Light Screen 100.000%                  | 
 | Other  0.000%                          | 
 +----------------------------------------+ 
 | Teammates                              | 
 | Hippowdon +99.624%                     | 
 | Salamence +98.339%                     | 
 | Ditto +95.867%                         | 
 | Forretress +83.926%                    | 
 | Kyogre +20.771%                        | 
 +----------------------------------------+ 
 | Checks and Counters                    | 
 +----------------------------------------+ 
 +----------------------------------------+ 
 | Ditto                                  | 
 +----------------------------------------+ 
 | Raw count: 12                          | 
 | Avg. weight: 0.0182404136402           | 
 | Viability Ceiling: 66                  | 
 +----------------------------------------+ 
 | Abilities                              | 
 | Limber 100.000%                        | 
 +----------------------------------------+ 
 | Items                                  | 
 | Quick Powder 100.000%                  | 
 | Other  0.000%                          | 
 +----------------------------------------+ 
 | Spreads                                | 
 | Hardy:0/128/0/128/0/252 100.000%       | 
 | Other  0.000%                          | 
 +----------------------------------------+ 
 | Moves                                  | 
 | Nothing 300.000%                       | 
 | Transform 100.000%                     | 
 +----------------------------------------+ 
 | Teammates                              | 
 | Rotom-Wash +99.624%                    | 
 | Hippowdon +99.624%                     | 
 | Salamence +98.339%                     | 
 | Forretress +83.926%                    | 
 | Kyogre +20.771%                        | 
 +----------------------------------------+ 
 | Checks and Counters                    | 
 +----------------------------------------+ 
 +----------------------------------------+ 
 | Typhlosion                             | 
 +----------------------------------------+ 
 | Raw count: 20                          | 
 | Avg. weight: 0.00910350329821          | 
 | Viability Ceiling: 67                  | 
 +----------------------------------------+ 
 | Abilities                              | 
 | Blaze 100.000%                         | 
 +----------------------------------------+ 
 | Items                                  | 
 | Choice Scarf 100.000%                  | 
 | Other  0.000%                          | 
 +----------------------------------------+ 
 | Spreads                                | 
 | Modest:0/0/0/252/4/252 99.186%         | 
 | Other  0.814%                          | 
 +----------------------------------------+ 
 | Moves                                  | 
 | Fire Blast 100.000%                    | 
 | Eruption 100.000%                      | 
 | Solar Beam 100.000%                    | 
 | Hidden Power Rock 99.186%              | 
 | Other  0.814%                          | 
 +----------------------------------------+ 
 | Teammates                              | 
 | Latios +93.048%                        | 
 | Cloyster +88.211%                      | 
 | Groudon +79.973%                       | 
 | Scizor +68.206%                        | 
 | Giratina-Origin +33.534%               | 
 | Flygon +0.811%                         | 
 | Zapdos +0.811%                         | 
 | Hitmontop +0.811%                      | 
 | Ninjask +0.753%                        | 
 +----------------------------------------+ 
 | Checks and Counters                    | 
 +----------------------------------------+ 
 +----------------------------------------+ 
 | Tentacruel                             | 
 +----------------------------------------+ 
 | Raw count: 18                          | 
 | Avg. weight: 0.0142770883068           | 
 | Viability Ceiling: 68                  | 
 +----------------------------------------+ 
 | Abilities                              | 
 | Liquid Ooze 100.000%                   | 
 | Clear Body  0.000%                     | 
 +----------------------------------------+ 
 | Items                                  | 
 | Focus Sash 100.000%                    | 
 | Other  0.000%                          | 
 +----------------------------------------+ 
 | Spreads                                | 
 | Timid:132/0/0/160/0/216 100.000%       | 
 | Other  0.000%                          | 
 +----------------------------------------+ 
 | Moves                                  | 
 | Toxic Spikes 100.000%                  | 
 | Rapid Spin 100.000%                    | 
 | Hydro Pump 100.000%                    | 
 | Icy Wind 100.000%                      | 
 | Other  0.000%                          | 
 +----------------------------------------+ 
 | Teammates                              | 
 | Latios +56.903%                        | 
 | Ho-Oh +53.638%                         | 
 | Groudon +43.828%                       | 
 | Scizor +32.061%                        | 
 +----------------------------------------+ 
 | Checks and Counters                    | 
 +----------------------------------------+ 
 +----------------------------------------+ 
 | Lugia                                  | 
 +----------------------------------------+ 
 | Raw count: 132                         | 
 | Avg. weight: 0.000508454615586         | 
 | Viability Ceiling: 77                  | 
 +----------------------------------------+ 
 | Abilities                              | 
 | Pressure 100.000%                      | 
 +----------------------------------------+ 
 | Items                                  | 
 | Leftovers 100.000%                     | 
 | Other  0.000%                          | 
 +----------------------------------------+ 
 | Spreads                                | 
 | Timid:248/0/44/0/0/216 60.641%         | 
 | Timid:252/0/64/0/0/192 36.656%         | 
 | Other  2.703%                          | 
 +----------------------------------------+ 
 | Moves                                  | 
 | Ice Beam 100.000%                      | 
 | Roost 97.297%                          | 
 | Whirlwind 94.550%                      | 
 | Substitute 60.641%                     | 
 | Reflect 36.656%                        | 
 | Other 10.856%                          | 
 +----------------------------------------+ 
 | Teammates                              | 
 | Armaldo +60.574%                       | 
 | Shedinja +60.542%                      | 
 | Blissey +46.878%                       | 
 | Forretress +44.567%                    | 
 | Giratina +33.300%                      | 
 | Latias +24.934%                        | 
 | Kyogre +17.738%                        | 
 | Darkrai +8.820%                        | 
 | Mew +0.617%                            | 
 +----------------------------------------+ 
 | Checks and Counters                    | 
 +----------------------------------------+ 
 +----------------------------------------+ 
 | Shedinja                               | 
 +----------------------------------------+ 
 | Raw count: 24                          | 
 | Avg. weight: 0.00249069244655          | 
 | Viability Ceiling: 64                  | 
 +----------------------------------------+ 
 | Abilities                              | 
 | Wonder Guard 100.000%                  | 
 +----------------------------------------+ 
 | Items                                  | 
 | Focus Sash 100.000%                    | 
 | Other  0.000%                          | 
 +----------------------------------------+ 
 | Spreads                                | 
 | Jolly:0/252/0/0/0/252 68.087%          | 
 | Adamant:0/252/0/0/0/252 31.913%        | 
 | Other  0.000%                          | 
 +----------------------------------------+ 
 | Moves                                  | 
 | Will-O-Wisp 100.000%                   | 
 | X-Scissor 100.000%                     | 
 | Shadow Sneak 100.000%                  | 
 | Baton Pass 68.087%                     | 
 | Swords Dance 31.913%                   | 
 | Other  0.000%                          | 
 +----------------------------------------+ 
 | Teammates                              | 
 | Forretress +83.926%                    | 
 | Armaldo +68.019%                       | 
 | Lugia +67.976%                         | 
 | Blissey +54.324%                       | 
 | Latios +25.775%                        | 
 | Kyogre +20.771%                        | 
 | Groudon +12.700%                       | 
 +----------------------------------------+ 
 | Checks and Counters                    | 
 +----------------------------------------+ 
 +----------------------------------------+ 
 | Armaldo                                | 
 +----------------------------------------+ 
 | Raw count: 13                          | 
 | Avg. weight: 0.00313076754886          | 
 | Viability Ceiling: 64                  | 
 +----------------------------------------+ 
 | Abilities                              | 
 | Battle Armor 100.000%                  | 
 +----------------------------------------+ 
 | Items                                  | 
 | Focus Sash 100.000%                    | 
 +----------------------------------------+ 
 | Spreads                                | 
 | Adamant:252/252/4/0/0/0 100.000%       | 
 +----------------------------------------+ 
 | Moves                                  | 
 | Stealth Rock 100.000%                  | 
 | Rock Blast 100.000%                    | 
 | X-Scissor 100.000%                     | 
 | Rapid Spin 100.000%                    | 
 +----------------------------------------+ 
 | Teammates                              | 
 | Shedinja +99.901%                      | 
 | Lugia +99.889%                         | 
 | Blissey +86.237%                       | 
 | Forretress +83.926%                    | 
 | Kyogre +20.771%                        | 
 +----------------------------------------+ 
 | Checks and Counters                    | 
 +----------------------------------------+ 
 +----------------------------------------+ 
 | Ninjask                                | 
 +----------------------------------------+ 
 | Raw count: 33                          | 
 | Avg. weight: 0.0012974376226           | 
 | Viability Ceiling: 59                  | 
 +----------------------------------------+ 
 | Abilities                              | 
 | Speed Boost 100.000%                   | 
 +----------------------------------------+ 
 | Items                                  | 
 | Expert Belt 58.264%                    | 
 | Focus Sash 41.736%                     | 
 | Other  0.000%                          | 
 +----------------------------------------+ 
 | Spreads                                | 
 | Adamant:96/252/4/0/0/156 54.804%       | 
 | Adamant:0/252/0/0/4/252 41.736%        | 
 | Other  3.460%                          | 
 +----------------------------------------+ 
 | Moves                                  | 
 | U-turn 58.264%                         | 
 | Night Slash 58.264%                    | 
 | Aerial Ace 58.264%                     | 
 | Toxic 54.804%                          | 
 | Protect 41.736%                        | 
 | Baton Pass 41.736%                     | 
 | Swords Dance 41.736%                   | 
 | X-Scissor 41.736%                      | 
 | Other  3.460%                          | 
 +----------------------------------------+ 
 | Teammates                              | 
 | Heatran +42.289%                       | 
 | Electivire +41.707%                    | 
 | Honchkrow +41.707%                     | 
 | Giratina +41.128%                      | 
 | Gyarados +40.524%                      | 
 | Starmie +40.524%                       | 
 | Metagross +39.391%                     | 
 | Wobbuffet +36.246%                     | 
 | Blissey +26.789%                       | 
 | Forretress +24.478%                    | 
 | Flygon +3.458%                         | 
 | Zapdos +3.458%                         | 
 +----------------------------------------+ 
 | Checks and Counters                    | 
 +----------------------------------------+ 
 +----------------------------------------+ 
 | Exeggutor                              | 
 +----------------------------------------+ 
 | Raw count: 12                          | 
 | Avg. weight: 0.00171253388654          | 
 | Viability Ceiling: 65                  | 
 +----------------------------------------+ 
 | Abilities                              | 
 | Chlorophyll 100.000%                   | 
 +----------------------------------------+ 
 | Items                                  | 
 | Choice Specs 81.891%                   | 
 | Odd Incense 18.109%                    | 
 | Other  0.000%                          | 
 +----------------------------------------+ 
 | Spreads                                | 
 | Modest:252/0/0/252/0/4 81.891%         | 
 | Jolly:0/0/156/0/176/176 18.109%        | 
 | Other  0.000%                          | 
 +----------------------------------------+ 
 | Moves                                  | 
 | Psychic 100.000%                       | 
 | Explosion 81.891%                      | 
 | Hidden Power Fire 81.891%              | 
 | Leaf Storm 81.891%                     | 
 | Seed Bomb 18.109%                      | 
 | Hidden Power Ice 18.109%               | 
 | Other 18.109%                          | 
 +----------------------------------------+ 
 | Teammates                              | 
 | Uxie +81.864%                          | 
 | Hitmonlee +81.864%                     | 
 | Floatzel +81.863%                      | 
 | Wobbuffet +76.401%                     | 
 | Blissey +68.129%                       | 
 | Machamp +18.102%                       | 
 | Gliscor +18.102%                       | 
 | Snorlax +18.102%                       | 
 | Charizard +18.102%                     | 
 | Kingdra +14.016%                       | 
 | Kingdra +14.016%                       | | 
 +----------------------------------------+ 
 | Checks and Counters                    | 
 +----------------------------------------+ 
 +----------------------------------------+ 
 | Deoxys-Defense                         | 
 +----------------------------------------+ 
 | Raw count: 36                          | 
 | Avg. weight: 0.000539934173486         | 
 | Viability Ceiling: 63                  | 
 +----------------------------------------+ 
 | Abilities                              | 
 | Pressure 100.000%                      | 
 +----------------------------------------+ 
 | Items                                  | 
 | Leftovers 100.000%                     | 
 | Other  0.000%                          | 
 +----------------------------------------+ 
 | Spreads                                | 
 | Bold:252/0/252/0/4/0 100.000%          | 
 | Other  0.000%                          | 
 +----------------------------------------+ 
 | Moves                                  | 
 | Recover 100.000%                       | 
 | Toxic 100.000%                         | 
 | Spikes 100.000%                        | 
 | Counter 100.000%                       | 
 | Other  0.000%                          | 
 +----------------------------------------+ 
 | Teammates                              | 
 | Registeel +99.968%                     | 
 | Latios +93.861%                        | 
 | Groudon +80.787%                       | 
 | Rayquaza +51.672%                      | 
 | Kyogre +20.771%                        | 
 +----------------------------------------+ 
 | Checks and Counters                    | 
 +----------------------------------------+ 
 +----------------------------------------+ 
 | Registeel                              | 
 +----------------------------------------+ 
 | Raw count: 13                          | 
 | Avg. weight: 0.00149520232658          | 
 | Viability Ceiling: 59                  | 
 +----------------------------------------+ 
 | Abilities                              | 
 | Clear Body 100.000%                    | 
 +----------------------------------------+ 
 | Items                                  | 
 | Leftovers 100.000%                     | 
 | Other  0.000%                          | 
 +----------------------------------------+ 
 | Spreads                                | 
 | Calm:252/0/4/0/252/0 100.000%          | 
 | Other  0.000%                          | 
 +----------------------------------------+ 
 | Moves                                  | 
 | Protect 100.000%                       | 
 | Stealth Rock 100.000%                  | 
 | Toxic 100.000%                         | 
 | Seismic Toss 100.000%                  | 
 | Other  0.000%                          | 
 +----------------------------------------+ 
 | Teammates                              | 
 | Deoxys-Defense +99.968%                | 
 | Latios +93.861%                        | 
 | Groudon +80.787%                       | 
 | Rayquaza +51.672%                      | 
 | Kyogre +20.771%                        | 
 +----------------------------------------+ 
 | Checks and Counters                    | 
 +----------------------------------------+ 
 +----------------------------------------+ 
 | Primeape                               | 
 +----------------------------------------+ 
 | Raw count: 7                           | 
 | Avg. weight: 0.00259090801429          | 
 | Viability Ceiling: 55                  | 
 +----------------------------------------+ 
 | Abilities                              | 
 | Vital Spirit 100.000%                  | 
 +----------------------------------------+ 
 | Items                                  | 
 | Choice Scarf 100.000%                  | 
 +----------------------------------------+ 
 | Spreads                                | 
 | Jolly:0/252/0/0/4/252 100.000%         | 
 +----------------------------------------+ 
 | Moves                                  | 
 | U-turn 100.000%                        | 
 | Earthquake 100.000%                    | 
 | Stone Edge 100.000%                    | 
 | Close Combat 100.000%                  | 
 +----------------------------------------+ 
 | Teammates                              | 
 | Latias +91.026%                        | 
 | Blissey +86.237%                       | 
 | Forretress +83.926%                    | 
 | Darkrai +72.208%                       | 
 | Giratina-Origin +34.347%               | 
 +----------------------------------------+ 
 | Checks and Counters                    | 
 +----------------------------------------+ 
 +----------------------------------------+ 
 | Honchkrow                              | 
 +----------------------------------------+ 
 | Raw count: 13                          | 
 | Avg. weight: 0.00137637355904          | 
 | Viability Ceiling: 55                  | 
 +----------------------------------------+ 
 | Abilities                              | 
 | Super Luck 100.000%                    | 
 +----------------------------------------+ 
 | Items                                  | 
 | Choice Scarf 99.870%                   | 
 | Other  0.130%                          | 
 +----------------------------------------+ 
 | Spreads                                | 
 | Jolly:0/252/0/0/4/252 99.870%          | 
 | Other  0.130%                          | 
 +----------------------------------------+ 
 | Moves                                  | 
 | Night Slash 100.000%                   | 
 | Brave Bird 100.000%                    | 
 | Pursuit 100.000%                       | 
 | Superpower 99.870%                     | 
 | Other  0.130%                          | 
 +----------------------------------------+ 
 | Teammates                              | 
 | Electivire +99.841%                    | 
 | Ninjask +99.809%                       | 
 | Giratina +99.262%                      | 
 | Heatran +96.963%                       | 
 | Wobbuffet +94.380%                     | 
 | Wobbuffet +94.380%                     | | 
 +----------------------------------------+ 
 | Checks and Counters                    | 
 +----------------------------------------+ 
 +----------------------------------------+ 
 | Electivire                             | 
 +----------------------------------------+ 
 | Raw count: 30                          | 
 | Avg. weight: 0.000638200779371         | 
 | Viability Ceiling: 59                  | 
 +----------------------------------------+ 
 | Abilities                              | 
 | Motor Drive 100.000%                   | 
 +----------------------------------------+ 
 | Items                                  | 
 | Choice Scarf 100.000%                  | 
 | Other  0.000%                          | 
 +----------------------------------------+ 
 | Spreads                                | 
 | Adamant:0/252/0/0/4/252 100.000%       | 
 | Other  0.000%                          | 
 +----------------------------------------+ 
 | Moves                                  | 
 | Nothing 100.000%                       | 
 | Brick Break 100.000%                   | 
 | Rock Slide 100.000%                    | 
 | Thunder Punch 100.000%                 | 
 | Other  0.000%                          | 
 +----------------------------------------+ 
 | Teammates                              | 
 | Honchkrow +99.970%                     | 
 | Ninjask +99.939%                       | 
 | Giratina +99.392%                      | 
 | Heatran +97.092%                       | 
 | Wobbuffet +94.510%                     | 
 | Wobbuffet +94.510%                     | | 
 +----------------------------------------+ 
 | Checks and Counters                    | 
 +----------------------------------------+ 
 +----------------------------------------+ 
 | Starmie                                | 
 +----------------------------------------+ 
 | Raw count: 24                          | 
 | Avg. weight: 0.000977681999593         | 
 | Viability Ceiling: 56                  | 
 +----------------------------------------+ 
 | Abilities                              | 
 | Natural Cure 100.000%                  | 
 | Illuminate  0.000%                     | 
 +----------------------------------------+ 
 | Items                                  | 
 | Choice Scarf 100.000%                  | 
 | Other  0.000%                          | 
 +----------------------------------------+ 
 | Spreads                                | 
 | Modest:0/0/0/252/4/252 100.000%        | 
 | Other  0.000%                          | 
 +----------------------------------------+ 
 | Moves                                  | 
 | Thunderbolt 100.000%                   | 
 | Psychic 100.000%                       | 
 | Ice Beam 100.000%                      | 
 | Hydro Pump 100.000%                    | 
 | Other  0.000%                          | 
 +----------------------------------------+ 
 | Teammates                              | 
 | Gyarados +73.967%                      | 
 | Ninjask +73.935%                       | 
 | Metagross +72.835%                     | 
 | Blissey +60.233%                       | 
 | Forretress +57.922%                    | 
 +----------------------------------------+ 
 | Checks and Counters                    | 
 +----------------------------------------+ 
 +----------------------------------------+ 
 | Gyarados                               | 
 +----------------------------------------+ 
 | Raw count: 34                          | 
 | Avg. weight: 0.000690128470301         | 
 | Viability Ceiling: 68                  | 
 +----------------------------------------+ 
 | Abilities                              | 
 | Intimidate 100.000%                    | 
 +----------------------------------------+ 
 | Items                                  | 
 | Leftovers 100.000%                     | 
 | Other  0.000%                          | 
 +----------------------------------------+ 
 | Spreads                                | 
 | Adamant:156/72/96/0/0/184 100.000%     | 
 | Other  0.000%                          | 
 +----------------------------------------+ 
 | Moves                                  | 
 | Dragon Dance 100.000%                  | 
 | Taunt 100.000%                         | 
 | Earthquake 100.000%                    | 
 | Waterfall 100.000%                     | 
 | Other  0.000%                          | 
 +----------------------------------------+ 
 | Teammates                              | 
 | Starmie +73.967%                       | 
 | Ninjask +73.935%                       | 
 | Metagross +72.835%                     | 
 | Blissey +60.233%                       | 
 | Forretress +57.922%                    | 
 +----------------------------------------+ 
 | Checks and Counters                    | 
 +----------------------------------------+ 
 +----------------------------------------+ 
 | Floatzel                               | 
 +----------------------------------------+ 
 | Raw count: 29                          | 
 | Avg. weight: 0.000591709923614         | 
 | Viability Ceiling: 65                  | 
 +----------------------------------------+ 
 | Abilities                              | 
 | Swift Swim 100.000%                    | 
 +----------------------------------------+ 
 | Items                                  | 
 | Choice Band 98.074%                    | 
 | Other  1.926%                          | 
 +----------------------------------------+ 
 | Spreads                                | 
 | Jolly:4/252/0/0/0/252 98.074%          | 
 | Other  1.926%                          | 
 +----------------------------------------+ 
 | Moves                                  | 
 | Waterfall 100.000%                     | 
 | Ice Punch 99.865%                      | 
 | Crunch 98.074%                         | 
 | Aqua Jet 98.074%                       | 
 | Other  3.988%                          | 
 +----------------------------------------+ 
 | Teammates                              | 
 | Uxie +98.046%                          | 
 | Hitmonlee +98.046%                     | 
 | Exeggutor +98.040%                     | 
 | Wobbuffet +92.583%                     | 
 | Blissey +84.311%                       | 
 | Torterra +0.895%                       | 
 | Rotom-Heat +0.765%                     | 
 | Spiritomb +0.765%                      | 
 +----------------------------------------+ 
 | Checks and Counters                    | 
 +----------------------------------------+ 
 +----------------------------------------+ 
 | Uxie                                   | 
 +----------------------------------------+ 
 | Raw count: 10                          | 
 | Avg. weight: 0.00168290206068          | 
 | Viability Ceiling: 65                  | 
 +----------------------------------------+ 
 | Abilities                              | 
 | Levitate 100.000%                      | 
 +----------------------------------------+ 
 | Items                                  | 
 | Light Clay 100.000%                    | 
 | Other  0.000%                          | 
 +----------------------------------------+ 
 | Spreads                                | 
 | Impish:252/0/252/0/0/4 100.000%        | 
 | Other  0.000%                          | 
 +----------------------------------------+ 
 | Moves                                  | 
 | U-turn 100.000%                        | 
 | Reflect 100.000%                       | 
 | Light Screen 100.000%                  | 
 | Memento 100.000%                       | 
 | Other  0.000%                          | 
 +----------------------------------------+ 
 | Teammates                              | 
 | Hitmonlee +99.972%                     | 
 | Floatzel +99.972%                      | 
 | Exeggutor +99.966%                     | 
 | Wobbuffet +94.510%                     | 
 | Blissey +86.237%                       | 
 | Blissey +86.237%                       | | 
 +----------------------------------------+ 
 | Checks and Counters                    | 
 +----------------------------------------+ 
 +----------------------------------------+ 
 | Hitmonlee                              | 
 +----------------------------------------+ 
 | Raw count: 2                           | 
 | Avg. weight: 0.00841451030338          | 
 | Viability Ceiling: 56                  | 
 +----------------------------------------+ 
 | Abilities                              | 
 | Limber 100.000%                        | 
 +----------------------------------------+ 
 | Items                                  | 
 | Liechi Berry 100.000%                  | 
 | Other  0.000%                          | 
 +----------------------------------------+ 
 | Spreads                                | 
 | Adamant:4/252/0/0/0/252 100.000%       | 
 | Other  0.000%                          | 
 +----------------------------------------+ 
 | Moves                                  | 
 | Mach Punch 100.000%                    | 
 | Endure 100.000%                        | 
 | Reversal 100.000%                      | 
 | Stone Edge 100.000%                    | 
 | Other  0.000%                          | 
 +----------------------------------------+ 
 | Teammates                              | 
 | Uxie +99.972%                          | 
 | Floatzel +99.972%                      | 
 | Exeggutor +99.966%                     | 
 | Wobbuffet +94.510%                     | 
 | Blissey +86.237%                       | 
 +----------------------------------------+ 
 | Checks and Counters                    | 
 +----------------------------------------+ 
