 offense.......................63.63636%
 weatherless...................63.63636%
 balance.......................22.72727%
 sun...........................18.18182%
 sand..........................13.63636%
 rain.......................... 9.09091%
 hyperoffense.................. 9.09091%
 semistall..................... 4.54545%
 sunoffense.................... 4.54545%
 multiweather.................. 4.54545%

 Stalliness (mean: -0.258)
     |##############################
 -0.8|######################
     |###############
 -0.4|########
     |##############################
  0.0|###############
     |
 +0.4|######################
     |###############
 +0.8|
     |
 more negative = more offensive, more positive = more stall
 one # =  0.61%
