 offense.......................64.48253%
 weatherless...................63.06699%
 balance.......................20.43625%
 sun...........................19.21156%
 sand..........................13.43195%
 rain.......................... 9.40066%
 hyperoffense.................. 8.13718%
 semistall..................... 6.94403%
 multiweather.................. 5.11115%
 sunoffense.................... 3.02603%

 Stalliness (mean: -0.251)
     |##############################
 -0.8|#######################
     |#############
 -0.4|#######
     |############################
  0.0|#############
     |
 +0.4|###################
     |#############
 +0.8|
     |
 more negative = more offensive, more positive = more stall
 one # =  0.64%
