 weatherless...................92.92929%
 offense.......................48.98990%
 balance.......................24.24242%
 hyperoffense..................19.69697%
 stall......................... 5.05051%
 hail.......................... 5.05051%
 hailstall..................... 5.05051%
 semistall..................... 2.02020%
 sun........................... 1.51515%
 batonpass..................... 1.51515%
 trickroom..................... 1.01010%
 rain.......................... 0.50505%
 choice........................ 0.50505%
 sunoffense.................... 0.50505%

 Stalliness (mean: -0.257)
 -1.5|###########
     |#####
 -1.0|###############
     |#################
 -0.5|##############################
     |#########
  0.0|######
     |###############
 +0.5|#####
     |#########
 +1.0|#
     |#
 +1.5|##
     |
 +2.0|
 more negative = more offensive, more positive = more stall
 one # =  0.76%
