 offense.......................47.22222%
 rain..........................41.66667%
 weatherless...................41.66667%
 semistall.....................19.44444%
 balance.......................16.66667%
 hyperoffense..................13.88889%
 rainoffense...................11.11111%
 sun........................... 8.33333%
 sand.......................... 8.33333%
 hail.......................... 5.55556%
 multiweather.................. 5.55556%
 stall......................... 2.77778%
 sunoffense.................... 2.77778%
 rainstall..................... 2.77778%

 Stalliness (mean: -0.082)
 -1.2|###############
     |##############################
 -0.8|########
     |####
 -0.4|########
     |###############
  0.0|###########
     |
 +0.4|########
     |####
 +0.8|
     |###########
     |
     |########
 more negative = more offensive, more positive = more stall
 one # =  0.74%
