 weatherless...................100.00000%
 hyperoffense..................37.50000%
 balance.......................37.50000%
 offense.......................25.00000%

 Stalliness (mean: -0.737)
     |###############
 -1.6|##############################
     |
 -1.2|
     |
 -0.8|###############
     |###############
 -0.4|
     |
  0.0|###############
     |###############
 +0.4|
 more negative = more offensive, more positive = more stall
 one # =  0.83%
