 Total battles: 554
 Avg. weight/team: 0.015
 + ---- + ------------------ + --------- + ------ + ------- + ------ + ------- + 
 | Rank | Pokemon            | Usage %   | Raw    | %       | Real   | %       | 
 + ---- + ------------------ + --------- + ------ + ------- + ------ + ------- + 
 | 1    | Venusaur           | 69.84994% | 374    | 33.755% | 308    | 32.871% | 
 | 2    | Mismagius          | 64.68461% | 232    | 20.939% | 195    | 20.811% | 
 | 3    | Rhyperior          | 63.21209% | 255    | 23.014% | 193    | 20.598% | 
 | 4    | Swellow            | 63.06375% | 211    | 19.043% | 191    | 20.384% | 
 | 5    | Steelix            | 61.01967% | 173    | 15.614% | 160    | 17.076% | 
 | 6    | Azumarill          | 60.93332% | 162    | 14.621% | 135    | 14.408% | 
 | 7    | Uxie               | 15.82759% | 276    | 24.910% | 261    | 27.855% | 
 | 8    | Houndoom           | 13.34838% | 130    | 11.733% | 105    | 11.206% | 
 | 9    | Dugtrio            | 12.18139% | 167    | 15.072% | 128    | 13.661% | 
 | 10   | Registeel          | 12.14609% | 232    | 20.939% | 209    | 22.305% | 
 | 11   | Omastar            | 11.56201% | 77     |  6.949% | 72     |  7.684% | 
 | 12   | Donphan            | 10.36166% | 80     |  7.220% | 69     |  7.364% | 
 | 13   | Lanturn            | 10.29382% | 73     |  6.588% | 70     |  7.471% | 
 | 14   | Scyther            |  9.19397% | 64     |  5.776% | 56     |  5.977% | 
 | 15   | Torterra           |  8.87260% | 65     |  5.866% | 53     |  5.656% | 
 | 16   | Milotic            |  8.23297% | 215    | 19.404% | 175    | 18.677% | 
 | 17   | Hitmontop          |  6.79056% | 135    | 12.184% | 115    | 12.273% | 
 | 18   | Arcanine           |  6.44552% | 161    | 14.531% | 142    | 15.155% | 
 | 19   | Hariyama           |  6.09487% | 39     |  3.520% | 34     |  3.629% | 
 | 20   | Victreebel         |  5.60804% | 36     |  3.249% | 31     |  3.308% | 
 | 21   | Shiftry            |  5.35117% | 31     |  2.798% | 26     |  2.775% | 
 | 22   | Chansey            |  4.66978% | 72     |  6.498% | 61     |  6.510% | 
 | 23   | Rotom              |  4.37666% | 90     |  8.123% | 77     |  8.218% | 
 | 24   | Primeape           |  4.05058% | 69     |  6.227% | 55     |  5.870% | 
 | 25   | Ludicolo           |  3.54635% | 70     |  6.318% | 60     |  6.403% | 
 | 26   | Espeon             |  3.52615% | 90     |  8.123% | 79     |  8.431% | 
 | 27   | Alakazam           |  3.50301% | 225    | 20.307% | 170    | 18.143% | 
 | 28   | Kabutops           |  3.44712% | 85     |  7.671% | 70     |  7.471% | 
 | 29   | Blaziken           |  3.20188% | 153    | 13.809% | 131    | 13.981% | 
 | 30   | Moltres            |  2.85744% | 102    |  9.206% | 84     |  8.965% | 
 | 31   | Electrode          |  2.35204% | 20     |  1.805% | 18     |  1.921% | 
 | 32   | Mesprit            |  2.33409% | 52     |  4.693% | 48     |  5.123% | 
 | 33   | Clefable           |  2.17740% | 114    | 10.289% | 86     |  9.178% | 
 | 34   | Nidoqueen          |  2.01669% | 26     |  2.347% | 23     |  2.455% | 
 | 35   | Walrein            |  2.01372% | 14     |  1.264% | 14     |  1.494% | 
 | 36   | Snover             |  2.01372% | 14     |  1.264% | 14     |  1.494% | 
 | 37   | Gligar             |  1.65235% | 22     |  1.986% | 20     |  2.134% | 
 | 38   | Spiritomb          |  1.62655% | 89     |  8.032% | 78     |  8.324% | 
 | 39   | Miltank            |  1.61686% | 21     |  1.895% | 16     |  1.708% | 
 | 40   | Haunter            |  1.56353% | 12     |  1.083% | 9      |  0.961% | 
 | 41   | Aggron             |  1.54221% | 83     |  7.491% | 72     |  7.684% | 
 | 42   | Feraligatr         |  1.50772% | 102    |  9.206% | 82     |  8.751% | 
 | 43   | Tangrowth          |  1.40215% | 34     |  3.069% | 28     |  2.988% | 
 | 44   | Ursaring           |  1.24539% | 49     |  4.422% | 41     |  4.376% | 
 | 45   | Drapion            |  1.23650% | 64     |  5.776% | 59     |  6.297% | 
 | 46   | Altaria            |  1.13700% | 44     |  3.971% | 38     |  4.055% | 
 | 47   | Linoone            |  1.11094% | 58     |  5.235% | 48     |  5.123% | 
 | 48   | Lickilicky         |  1.00127% | 50     |  4.513% | 38     |  4.055% | 
 | 49   | Leafeon            |  0.91714% | 44     |  3.971% | 34     |  3.629% | 
 | 50   | Ambipom            |  0.90474% | 161    | 14.531% | 141    | 15.048% | 
 | 51   | Toxicroak          |  0.86739% | 60     |  5.415% | 52     |  5.550% | 
 | 52   | Exeggutor          |  0.84045% | 82     |  7.401% | 73     |  7.791% | 
 | 53   | Cloyster           |  0.82758% | 50     |  4.513% | 44     |  4.696% | 
 | 54   | Floatzel           |  0.73284% | 42     |  3.791% | 36     |  3.842% | 
 | 55   | Pikachu            |  0.72820% | 21     |  1.895% | 14     |  1.494% | 
 | 56   | Tauros             |  0.62331% | 54     |  4.874% | 43     |  4.589% | 
 | 57   | Typhlosion         |  0.53745% | 29     |  2.617% | 24     |  2.561% | 
 | 58   | Claydol            |  0.51640% | 75     |  6.769% | 69     |  7.364% | 
 | 59   | Magmortar          |  0.49677% | 34     |  3.069% | 23     |  2.455% | 
 | 60   | Lapras             |  0.48974% | 29     |  2.617% | 25     |  2.668% | 
 | 61   | Sceptile           |  0.43802% | 117    | 10.560% | 101    | 10.779% | 
 | 62   | Cradily            |  0.43113% | 32     |  2.888% | 31     |  3.308% | 
 | 63   | Slowbro            |  0.41579% | 36     |  3.249% | 31     |  3.308% | 
 | 64   | Blastoise          |  0.37530% | 83     |  7.491% | 71     |  7.577% | 
 | 65   | Nidoking           |  0.37041% | 39     |  3.520% | 34     |  3.629% | 
 | 66   | Weezing            |  0.34375% | 61     |  5.505% | 52     |  5.550% | 
 | 67   | Qwilfish           |  0.31860% | 41     |  3.700% | 33     |  3.522% | 
 | 68   | Muk                |  0.28104% | 10     |  0.903% | 10     |  1.067% | 
 | 69   | Hitmonlee          |  0.27813% | 43     |  3.881% | 32     |  3.415% | 
 | 70   | Ampharos           |  0.12149% | 28     |  2.527% | 26     |  2.775% | 
 | 71   | Absol              |  0.04576% | 59     |  5.325% | 53     |  5.656% | 
 | 72   | Kangaskhan         |  0.04473% | 24     |  2.166% | 19     |  2.028% | 
 | 73   | Medicham           |  0.02883% | 11     |  0.993% | 9      |  0.961% | 
 | 74   | Raichu             |  0.02511% | 2      |  0.181% | 2      |  0.213% | 
 | 75   | Slowking           |  0.02511% | 9      |  0.812% | 6      |  0.640% | 
 | 76   | Marowak            |  0.01899% | 1      |  0.090% | 1      |  0.107% | 
 | 77   | Glaceon            |  0.01899% | 1      |  0.090% | 1      |  0.107% | 
 | 78   | Slaking            |  0.01709% | 53     |  4.783% | 46     |  4.909% | 
 | 79   | Bastiodon          |  0.01631% | 11     |  0.993% | 11     |  1.174% | 
 | 80   | Rapidash           |  0.01496% | 2      |  0.181% | 1      |  0.107% | 
 | 81   | Politoed           |  0.01412% | 1      |  0.090% | 1      |  0.107% | 
 | 82   | Dusclops           |  0.01412% | 2      |  0.181% | 2      |  0.213% | 
 | 83   | Rampardos          |  0.01398% | 13     |  1.173% | 8      |  0.854% | 
 | 84   | Regirock           |  0.01234% | 15     |  1.354% | 11     |  1.174% | 
 | 85   | Vespiquen          |  0.01234% | 5      |  0.451% | 1      |  0.107% | 
 | 86   | Glalie             |  0.01147% | 2      |  0.181% | 2      |  0.213% | 
 | 87   | Seviper            |  0.00682% | 1      |  0.090% | 1      |  0.107% | 
 | 88   | Shedinja           |  0.00008% | 21     |  1.895% | 20     |  2.134% | 
 | 89   | Camerupt           |  0.00007% | 12     |  1.083% | 10     |  1.067% | 
 | 90   | Mightyena          |  0.00000% | 2      |  0.181% | 2      |  0.213% | 
 | 91   | Kadabra            |  0.00000% | 1      |  0.090% | 1      |  0.107% | 
 | 92   | Sandslash          |  0.00000% | 2      |  0.181% | 1      |  0.107% | 
 | 93   | Beedrill           |  0.00000% | 1      |  0.090% | 1      |  0.107% | 
 | 94   | Gorebyss           |  0.00000% | 2      |  0.181% | 2      |  0.213% | 
 | 95   | Poliwrath          |  0.00000% | 6      |  0.542% | 6      |  0.640% | 
 | 96   | Butterfree         |  0.00000% | 2      |  0.181% | 1      |  0.107% | 
 | 97   | Hitmonchan         |  0.00000% | 5      |  0.451% | 4      |  0.427% | 
 | 98   | Zangoose           |  0.00000% | 3      |  0.271% | 3      |  0.320% | 
 | 99   | Starly             |  0.00000% | 4      |  0.361% | 4      |  0.427% | 
 | 100  | Mantine            |  0.00000% | 2      |  0.181% | 1      |  0.107% | 
 | 101  | Sharpedo           |  0.00000% | 3      |  0.271% | 3      |  0.320% | 
 | 102  | Marshtomp          |  0.00000% | 1      |  0.090% | 1      |  0.107% | 
 | 103  | Hippopotas         |  0.00000% | 3      |  0.271% | 3      |  0.320% | 
 | 104  | Rattata            |  0.00000% | 1      |  0.090% | 1      |  0.107% | 
 | 105  | Articuno           |  0.00000% | 7      |  0.632% | 6      |  0.640% | 
 | 106  | Golem              |  0.00000% | 2      |  0.181% | 2      |  0.213% | 
 | 107  | Pinsir             |  0.00000% | 3      |  0.271% | 2      |  0.213% | 
 | 108  | Arbok              |  0.00000% | 5      |  0.451% | 5      |  0.534% | 
 | 109  | Wigglytuff         |  0.00000% | 2      |  0.181% | 2      |  0.213% | 
 | 110  | Gabite             |  0.00000% | 1      |  0.090% | 1      |  0.107% | 
 | 111  | Beautifly          |  0.00000% | 1      |  0.090% | 1      |  0.107% | 
 | 112  | Misdreavus         |  0.00000% | 1      |  0.090% | 0      |  0.000% | 
 | 113  | Pelipper           |  0.00000% | 2      |  0.181% | 1      |  0.107% | 
 | 114  | Swalot             |  0.00000% | 1      |  0.090% | 1      |  0.107% | 
 | 115  | Cherrim            |  0.00000% | 1      |  0.090% | 1      |  0.107% | 
 | 116  | Monferno           |  0.00000% | 1      |  0.090% | 1      |  0.107% | 
 | 117  | Quagsire           |  0.00000% | 2      |  0.181% | 2      |  0.213% | 
 | 118  | Wailord            |  0.00000% | 2      |  0.181% | 2      |  0.213% | 
 | 119  | Masquerain         |  0.00000% | 1      |  0.090% | 1      |  0.107% | 
 | 120  | Gardevoir          |  0.00000% | 4      |  0.361% | 4      |  0.427% | 
 | 121  | Aipom              |  0.00000% | 1      |  0.090% | 1      |  0.107% | 
 | 122  | Drifblim           |  0.00000% | 5      |  0.451% | 5      |  0.534% | 
 | 123  | Hypno              |  0.00000% | 1      |  0.090% | 1      |  0.107% | 
 | 124  | Lopunny            |  0.00000% | 2      |  0.181% | 2      |  0.213% | 
 | 125  | Jumpluff           |  0.00000% | 1      |  0.090% | 1      |  0.107% | 
 | 126  | Torkoal            |  0.00000% | 1      |  0.090% | 1      |  0.107% | 
 | 127  | Metang             |  0.00000% | 1      |  0.090% | 1      |  0.107% | 
 | 128  | Huntail            |  0.00000% | 2      |  0.181% | 2      |  0.213% | 
 | 129  | Regigigas          |  0.00000% | 4      |  0.361% | 2      |  0.213% | 
 | 130  | Regice             |  0.00000% | 7      |  0.632% | 4      |  0.427% | 
 | 131  | Lunatone           |  0.00000% | 5      |  0.451% | 5      |  0.534% | 
 | 132  | Dodrio             |  0.00000% | 1      |  0.090% | 1      |  0.107% | 
 | 133  | Persian            |  0.00000% | 1      |  0.090% | 0      |  0.000% | 
 | 134  | Gastrodon          |  0.00000% | 2      |  0.181% | 2      |  0.213% | 
 | 135  | Flareon            |  0.00000% | 1      |  0.090% | 1      |  0.107% | 
 | 136  | Carnivine          |  0.00000% | 1      |  0.090% | 1      |  0.107% | 
 | 137  | Manectric          |  0.00000% | 1      |  0.090% | 0      |  0.000% | 
 | 138  | Chatot             |  0.00000% | 2      |  0.181% | 1      |  0.107% | 
 | 139  | Delibird           |  0.00000% | 1      |  0.090% | 1      |  0.107% | 
 | 140  | Octillery          |  0.00000% | 1      |  0.090% | 1      |  0.107% | 
 | 141  | Electabuzz         |  0.00000% | 7      |  0.632% | 6      |  0.640% | 
 | 142  | Charizard          |  0.00000% | 20     |  1.805% | 17     |  1.814% | 
 | 143  | Jynx               |  0.00000% | 16     |  1.444% | 16     |  1.708% | 
 | 144  | Shuckle            |  0.00000% | 2      |  0.181% | 2      |  0.213% | 
 | 145  | Seaking            |  0.00000% | 1      |  0.090% | 1      |  0.107% | 
 | 146  | Luxray             |  0.00000% | 8      |  0.722% | 6      |  0.640% | 
 | 147  | Staravia           |  0.00000% | 3      |  0.271% | 3      |  0.320% | 
 | 148  | Entei              |  0.00000% | 4      |  0.361% | 3      |  0.320% | 
 | 149  | Armaldo            |  0.00000% | 8      |  0.722% | 8      |  0.854% | 
 | 150  | Ninetales          |  0.00000% | 1      |  0.090% | 1      |  0.107% | 
 | 151  | Dunsparce          |  0.00000% | 2      |  0.181% | 2      |  0.213% | 
 | 152  | Vileplume          |  0.00000% | 2      |  0.181% | 2      |  0.213% | 
 | 153  | Magneton           |  0.00000% | 5      |  0.451% | 3      |  0.320% | 
 | 154  | Sneasel            |  0.00000% | 2      |  0.181% | 2      |  0.213% | 
 + ---- + ------------------ + --------- + ------ + ------- + ------ + ------- + 
