 weatherless...................73.98436%
 hyperoffense..................73.50256%
 offense.......................25.72270%
 rain..........................17.14846%
 hail.......................... 8.86718%
 hailoffense................... 7.31769%
 rainoffense................... 3.39192%
 balance....................... 0.77474%

 Stalliness (mean: -1.569)
     |################
 -2.0|###
     |##############################
 -1.5|##
     |####
 -1.0|##############
     |##########
 -0.5|##
     |
  0.0|
     |
 +0.5|
 more negative = more offensive, more positive = more stall
 one # =  1.25%
