 weatherless...................57.81548%
 offense.......................43.48826%
 sand..........................37.79856%
 balance.......................24.01665%
 hyperoffense..................19.58303%
 sandoffense................... 9.04710%
 stall......................... 7.31901%
 semistall..................... 5.59306%
 sandstall..................... 4.57656%
 hail.......................... 4.22660%
 voltturn...................... 2.81436%
 choice........................ 1.87677%
 hailstall..................... 1.37294%
 rain.......................... 0.91653%
 dragmag....................... 0.88860%
 multiweather.................. 0.80504%
 monotype...................... 0.45928%
 batonpass..................... 0.40322%
 rainoffense................... 0.36270%
 monoice....................... 0.36065%
 mononormal.................... 0.05078%
 sun........................... 0.04786%
 monoground.................... 0.04786%

 Stalliness (mean: -0.144)
     |
 -2.0|#
     |###
 -1.5|############
     |##########
 -1.0|##############################
     |#######################
 -0.5|#########################
     |########################
  0.0|#######################
     |#####################
 +0.5|################
     |########
 +1.0|######
     |#####
 +1.5|####
     |##
 +2.0|###
     |#####
 +2.5|#####
 more negative = more offensive, more positive = more stall
 one # =  0.44%
