 hyperoffense..................100.00000%
 hailoffense...................50.00000%
 weatherless...................50.00000%
 hail..........................50.00000%

 Stalliness (mean: -1.435)
     |##############################
     |
     |
     |
 -1.2|##############################
     |
 -1.0|
     |
 -0.8|
     |
 -0.6|
     |
 -0.4|
     |
 -0.2|
     |
  0.0|
 more negative = more offensive, more positive = more stall
 one # =  1.67%
