 +----------------------------------------+ 
 | Gastly                                 | 
 +----------------------------------------+ 
 | Raw count: 8                           | 
 | Avg. weight: 0.0187073087806           | 
 | Viability Ceiling: 69                  | 
 +----------------------------------------+ 
 | Abilities                              | 
 | Levitate 100.000%                      | 
 +----------------------------------------+ 
 | Items                                  | 
 | Choice Scarf 100.000%                  | 
 | Other  0.000%                          | 
 +----------------------------------------+ 
 | Spreads                                | 
 | Timid:36/0/36/200/0/200 100.000%       | 
 | Other  0.000%                          | 
 +----------------------------------------+ 
 | Moves                                  | 
 | Sludge Bomb 100.000%                   | 
 | Hidden Power Ground 100.000%           | 
 | Shadow Ball 100.000%                   | 
 | Thunderbolt 100.000%                   | 
 | Other  0.000%                          | 
 +----------------------------------------+ 
 | Teammates                              | 
 | Chinchou +10.205%                      | 
 | Bronzor +10.205%                       | 
 | Diglett +10.205%                       | 
 | Mankey +10.205%                        | 
 | Dratini +10.205%                       | 
 +----------------------------------------+ 
 | Checks and Counters                    | 
 +----------------------------------------+ 
 +----------------------------------------+ 
 | Diglett                                | 
 +----------------------------------------+ 
 | Raw count: 6                           | 
 | Avg. weight: 0.0249430783742           | 
 | Viability Ceiling: 69                  | 
 +----------------------------------------+ 
 | Abilities                              | 
 | Arena Trap 100.000%                    | 
 +----------------------------------------+ 
 | Items                                  | 
 | Life Orb 100.000%                      | 
 +----------------------------------------+ 
 | Spreads                                | 
 | Hasty:0/240/0/0/0/236 100.000%         | 
 +----------------------------------------+ 
 | Moves                                  | 
 | Sucker Punch 100.000%                  | 
 | Earthquake 100.000%                    | 
 | Hidden Power Ice 100.000%              | 
 | Rock Slide 100.000%                    | 
 +----------------------------------------+ 
 | Teammates                              | 
 | Chinchou +10.205%                      | 
 | Dratini +10.205%                       | 
 | Bronzor +10.205%                       | 
 | Gastly +10.205%                        | 
 | Mankey +10.205%                        | 
 +----------------------------------------+ 
 | Checks and Counters                    | 
 +----------------------------------------+ 
 +----------------------------------------+ 
 | Chinchou                               | 
 +----------------------------------------+ 
 | Raw count: 7                           | 
 | Avg. weight: 0.0249430783742           | 
 | Viability Ceiling: 69                  | 
 +----------------------------------------+ 
 | Abilities                              | 
 | Volt Absorb 100.000%                   | 
 +----------------------------------------+ 
 | Items                                  | 
 | Choice Scarf 100.000%                  | 
 | Other  0.000%                          | 
 +----------------------------------------+ 
 | Spreads                                | 
 | Modest:0/0/52/232/0/220 100.000%       | 
 | Other  0.000%                          | 
 +----------------------------------------+ 
 | Moves                                  | 
 | Surf 100.000%                          | 
 | Thunderbolt 100.000%                   | 
 | Hidden Power Grass 100.000%            | 
 | Ice Beam 100.000%                      | 
 | Other  0.000%                          | 
 +----------------------------------------+ 
 | Teammates                              | 
 | Diglett +10.205%                       | 
 | Bronzor +10.205%                       | 
 | Mankey +10.205%                        | 
 | Dratini +10.205%                       | 
 | Gastly +10.205%                        | 
 +----------------------------------------+ 
 | Checks and Counters                    | 
 +----------------------------------------+ 
 +----------------------------------------+ 
 | Mankey                                 | 
 +----------------------------------------+ 
 | Raw count: 7                           | 
 | Avg. weight: 0.0213797814636           | 
 | Viability Ceiling: 69                  | 
 +----------------------------------------+ 
 | Abilities                              | 
 | Anger Point 100.000%                   | 
 | Vital Spirit  0.000%                   | 
 +----------------------------------------+ 
 | Items                                  | 
 | Choice Scarf 100.000%                  | 
 +----------------------------------------+ 
 | Spreads                                | 
 | Adamant:116/196/0/0/0/196 100.000%     | 
 | Other  0.000%                          | 
 +----------------------------------------+ 
 | Moves                                  | 
 | Payback 100.000%                       | 
 | U-turn 100.000%                        | 
 | Ice Punch 100.000%                     | 
 | Close Combat 100.000%                  | 
 +----------------------------------------+ 
 | Teammates                              | 
 | Bronzor +10.205%                       | 
 | Chinchou +10.205%                      | 
 | Gastly +10.205%                        | 
 | Diglett +10.205%                       | 
 | Dratini +10.205%                       | 
 +----------------------------------------+ 
 | Checks and Counters                    | 
 +----------------------------------------+ 
 +----------------------------------------+ 
 | Dratini                                | 
 +----------------------------------------+ 
 | Raw count: 8                           | 
 | Avg. weight: 0.0187073087806           | 
 | Viability Ceiling: 69                  | 
 +----------------------------------------+ 
 | Abilities                              | 
 | Shed Skin 100.000%                     | 
 +----------------------------------------+ 
 | Items                                  | 
 | Life Orb 100.000%                      | 
 | Other  0.000%                          | 
 +----------------------------------------+ 
 | Spreads                                | 
 | Adamant:28/244/0/0/36/196 100.000%     | 
 | Other  0.000%                          | 
 +----------------------------------------+ 
 | Moves                                  | 
 | Dragon Dance 100.000%                  | 
 | Extreme Speed 100.000%                 | 
 | Waterfall 100.000%                     | 
 | Outrage 100.000%                       | 
 | Other  0.000%                          | 
 +----------------------------------------+ 
 | Teammates                              | 
 | Bronzor +10.205%                       | 
 | Chinchou +10.205%                      | 
 | Gastly +10.205%                        | 
 | Diglett +10.205%                       | 
 | Mankey +10.205%                        | 
 +----------------------------------------+ 
 | Checks and Counters                    | 
 +----------------------------------------+ 
 +----------------------------------------+ 
 | Bronzor                                | 
 +----------------------------------------+ 
 | Raw count: 8                           | 
 | Avg. weight: 0.0187073087806           | 
 | Viability Ceiling: 69                  | 
 +----------------------------------------+ 
 | Abilities                              | 
 | Levitate 100.000%                      | 
 +----------------------------------------+ 
 | Items                                  | 
 | Oran Berry 100.000%                    | 
 | Other  0.000%                          | 
 +----------------------------------------+ 
 | Spreads                                | 
 | Relaxed:220/8/148/4/68/12 100.000%     | 
 | Other  0.000%                          | 
 +----------------------------------------+ 
 | Moves                                  | 
 | Psychic 100.000%                       | 
 | Reflect 100.000%                       | 
 | Stealth Rock 100.000%                  | 
 | Earthquake 100.000%                    | 
 | Other  0.000%                          | 
 +----------------------------------------+ 
 | Teammates                              | 
 | Chinchou +10.205%                      | 
 | Gastly +10.205%                        | 
 | Diglett +10.205%                       | 
 | Mankey +10.205%                        | 
 | Dratini +10.205%                       | 
 +----------------------------------------+ 
 | Checks and Counters                    | 
 +----------------------------------------+ 
