 Total battles: 113767
 Avg. weight/team: 0.092
 + ---- + ------------------ + --------- + ------ + ------- + ------ + ------- + 
 | Rank | Pokemon            | Usage %   | Raw    | %       | Real   | %       | 
 + ---- + ------------------ + --------- + ------ + ------- + ------ + ------- + 
 | 1    | Rayquaza-Mega      | 59.65549% | 100941 | 44.363% | 53956  | 42.255% | 
 | 2    | Chansey            | 38.46018% | 46067  | 20.246% | 27317  | 21.393% | 
 | 3    | Giratina           | 35.42130% | 36809  | 16.177% | 24173  | 18.931% | 
 | 4    | Shedinja           | 31.77666% | 64160  | 28.198% | 40509  | 31.724% | 
 | 5    | Diancie-Mega       | 28.58853% | 33718  | 14.819% | 22903  | 17.936% | 
 | 6    | Gengar-Mega        | 26.95950% | 48284  | 21.221% | 28483  | 22.306% | 
 | 7    | Registeel          | 25.81239% | 19478  |  8.560% | 13790  | 10.800% | 
 | 8    | Aegislash          | 23.72074% | 24060  | 10.574% | 15987  | 12.520% | 
 | 9    | Mewtwo-Mega-Y      | 17.32620% | 39864  | 17.520% | 21489  | 16.829% | 
 | 10   | Mewtwo-Mega-X      | 17.16864% | 39537  | 17.376% | 21956  | 17.195% | 
 | 11   | Regigigas          | 15.48013% | 21686  |  9.531% | 11836  |  9.269% | 
 | 12   | Kyurem-Black       | 13.10147% | 18258  |  8.024% | 11413  |  8.938% | 
 | 13   | Tyranitar-Mega     | 12.23543% | 12945  |  5.689% | 7916   |  6.199% | 
 | 14   | Audino-Mega        | 11.81902% | 11813  |  5.192% | 7204   |  5.642% | 
 | 15   | Arceus             | 11.60698% | 17025  |  7.482% | 8720   |  6.829% | 
 | 16   | Deoxys-Speed       |  9.89383% | 28427  | 12.494% | 19605  | 15.354% | 
 | 17   | Blissey            |  9.67404% | 26952  | 11.845% | 14556  | 11.399% | 
 | 18   | Lugia              |  9.26545% | 18354  |  8.066% | 10303  |  8.069% | 
 | 19   | Garchomp-Mega      |  8.95809% | 13137  |  5.774% | 7614   |  5.963% | 
 | 20   | Groudon-Primal     |  8.74401% | 7808   |  3.432% | 4400   |  3.446% | 
 | 21   | Kyogre             |  7.48157% | 8158   |  3.585% | 5025   |  3.935% | 
 | 22   | Aerodactyl-Mega    |  7.44662% | 10454  |  4.594% | 6710   |  5.255% | 
 | 23   | Deoxys-Attack      |  7.31459% | 18788  |  8.257% | 10073  |  7.889% | 
 | 24   | Slaking            |  7.08732% | 18543  |  8.150% | 9934   |  7.780% | 
 | 25   | Steelix-Mega       |  6.82931% | 9989   |  4.390% | 6700   |  5.247% | 
 | 26   | Ho-Oh              |  6.24789% | 9276   |  4.077% | 5521   |  4.324% | 
 | 27   | Groudon            |  6.21680% | 7224   |  3.175% | 4496   |  3.521% | 
 | 28   | Latios-Mega        |  5.75164% | 10326  |  4.538% | 5595   |  4.382% | 
 | 29   | Dialga             |  5.59608% | 10313  |  4.533% | 6253   |  4.897% | 
 | 30   | Metagross-Mega     |  5.55888% | 10371  |  4.558% | 6296   |  4.931% | 
 | 31   | Yveltal            |  5.36597% | 8816   |  3.875% | 5316   |  4.163% | 
 | 32   | Gyarados-Mega      |  5.06973% | 5799   |  2.549% | 3585   |  2.808% | 
 | 33   | Shuckle            |  4.36148% | 25972  | 11.415% | 15638  | 12.247% | 
 | 34   | Xerneas            |  4.21608% | 10687  |  4.697% | 5910   |  4.628% | 
 | 35   | Arceus-Ghost       |  3.79508% | 5745   |  2.525% | 3333   |  2.610% | 
 | 36   | Aggron-Mega        |  3.49708% | 8719   |  3.832% | 5722   |  4.481% | 
 | 37   | Deoxys-Defense     |  3.24240% | 15795  |  6.942% | 10086  |  7.899% | 
 | 38   | Slowbro-Mega       |  3.22698% | 6216   |  2.732% | 3635   |  2.847% | 
 | 39   | Sceptile-Mega      |  3.06145% | 8761   |  3.850% | 4735   |  3.708% | 
 | 40   | Kyurem-White       |  2.97171% | 8350   |  3.670% | 4366   |  3.419% | 
 | 41   | Giratina-Origin    |  2.94163% | 7481   |  3.288% | 4290   |  3.360% | 
 | 42   | Scizor-Mega        |  2.83258% | 7968   |  3.502% | 4850   |  3.798% | 
 | 43   | Latias-Mega        |  2.80738% | 4641   |  2.040% | 2617   |  2.049% | 
 | 44   | Swampert-Mega      |  2.62944% | 7326   |  3.220% | 4257   |  3.334% | 
 | 45   | Blaziken-Mega      |  2.52475% | 13409  |  5.893% | 7531   |  5.898% | 
 | 46   | Charizard-Mega-Y   |  2.40675% | 9287   |  4.082% | 5159   |  4.040% | 
 | 47   | Ferrothorn         |  2.07246% | 5348   |  2.350% | 3857   |  3.021% | 
 | 48   | Venusaur-Mega      |  2.05289% | 6153   |  2.704% | 3667   |  2.872% | 
 | 49   | Reshiram           |  1.70973% | 4556   |  2.002% | 2578   |  2.019% | 
 | 50   | Palkia             |  1.70708% | 4930   |  2.167% | 2747   |  2.151% | 
 | 51   | Regirock           |  1.69890% | 2291   |  1.007% | 1459   |  1.143% | 
 | 52   | Hoopa-Unbound      |  1.59962% | 7394   |  3.250% | 4241   |  3.321% | 
 | 53   | Alakazam-Mega      |  1.55515% | 7753   |  3.407% | 4380   |  3.430% | 
 | 54   | Heatran            |  1.34508% | 3527   |  1.550% | 2279   |  1.785% | 
 | 55   | Arceus-Fairy       |  1.19583% | 3786   |  1.664% | 2194   |  1.718% | 
 | 56   | Heracross-Mega     |  1.19309% | 6629   |  2.913% | 3500   |  2.741% | 
 | 57   | Cresselia          |  1.19189% | 2998   |  1.318% | 2033   |  1.592% | 
 | 58   | Salamence-Mega     |  1.11523% | 6081   |  2.673% | 3294   |  2.580% | 
 | 59   | Arceus-Steel       |  1.05451% | 2522   |  1.108% | 1489   |  1.166% | 
 | 60   | Weavile            |  1.00659% | 4387   |  1.928% | 2791   |  2.186% | 
 | 61   | Banette-Mega       |  0.99685% | 3474   |  1.527% | 2145   |  1.680% | 
 | 62   | Pikachu            |  0.99279% | 3037   |  1.335% | 1734   |  1.358% | 
 | 63   | Lucario-Mega       |  0.99073% | 8375   |  3.681% | 4921   |  3.854% | 
 | 64   | Charizard-Mega-X   |  0.96908% | 9519   |  4.184% | 5457   |  4.274% | 
 | 65   | Gardevoir-Mega     |  0.91876% | 6836   |  3.004% | 3774   |  2.956% | 
 | 66   | Kyogre-Primal      |  0.88599% | 2447   |  1.075% | 1118   |  0.876% | 
 | 67   | Zekrom             |  0.85453% | 2999   |  1.318% | 1679   |  1.315% | 
 | 68   | Diancie            |  0.80243% | 755    |  0.332% | 551    |  0.432% | 
 | 69   | Mawile-Mega        |  0.76190% | 2430   |  1.068% | 1360   |  1.065% | 
 | 70   | Genesect           |  0.74731% | 4395   |  1.932% | 2440   |  1.911% | 
 | 71   | Lopunny-Mega       |  0.74643% | 4852   |  2.132% | 2745   |  2.150% | 
 | 72   | Arceus-Dragon      |  0.71816% | 1413   |  0.621% | 810    |  0.634% | 
 | 73   | Kangaskhan-Mega    |  0.65421% | 4646   |  2.042% | 2670   |  2.091% | 
 | 74   | Manectric-Mega     |  0.59782% | 3191   |  1.402% | 1819   |  1.425% | 
 | 75   | Arceus-Poison      |  0.57796% | 889    |  0.391% | 571    |  0.447% | 
 | 76   | Arceus-Fire        |  0.57491% | 1555   |  0.683% | 918    |  0.719% | 
 | 77   | Pinsir-Mega        |  0.55106% | 2017   |  0.886% | 1185   |  0.928% | 
 | 78   | Snorlax            |  0.54506% | 4679   |  2.056% | 2685   |  2.103% | 
 | 79   | Arceus-Dark        |  0.53892% | 1185   |  0.521% | 723    |  0.566% | 
 | 80   | Darkrai            |  0.53705% | 8751   |  3.846% | 5233   |  4.098% | 
 | 81   | Arceus-Electric    |  0.53501% | 2009   |  0.883% | 1076   |  0.843% | 
 | 82   | Sableye-Mega       |  0.51911% | 4381   |  1.925% | 2965   |  2.322% | 
 | 83   | Arceus-Flying      |  0.50813% | 1407   |  0.618% | 792    |  0.620% | 
 | 84   | Shaymin-Sky        |  0.50721% | 2573   |  1.131% | 1428   |  1.118% | 
 | 85   | Porygon2           |  0.44386% | 799    |  0.351% | 426    |  0.334% | 
 | 86   | Greninja           |  0.41069% | 6565   |  2.885% | 3926   |  3.075% | 
 | 87   | Landorus-Therian   |  0.39987% | 1691   |  0.743% | 942    |  0.738% | 
 | 88   | Chandelure         |  0.39885% | 1872   |  0.823% | 1198   |  0.938% | 
 | 89   | Dusclops           |  0.38017% | 1953   |  0.858% | 1165   |  0.912% | 
 | 90   | Regice             |  0.37435% | 1693   |  0.744% | 1036   |  0.811% | 
 | 91   | Magikarp           |  0.37306% | 5044   |  2.217% | 2511   |  1.966% | 
 | 92   | Volcanion          |  0.36719% | 2547   |  1.119% | 1468   |  1.150% | 
 | 93   | Umbreon            |  0.36670% | 2054   |  0.903% | 1279   |  1.002% | 
 | 94   | Altaria-Mega       |  0.36367% | 2268   |  0.997% | 1271   |  0.995% | 
 | 95   | Gallade-Mega       |  0.35932% | 4677   |  2.056% | 2483   |  1.945% | 
 | 96   | Doublade           |  0.35532% | 872    |  0.383% | 578    |  0.453% | 
 | 97   | Blastoise-Mega     |  0.33667% | 3669   |  1.613% | 2085   |  1.633% | 
 | 98   | Arceus-Water       |  0.33417% | 1297   |  0.570% | 729    |  0.571% | 
 | 99   | Beedrill-Mega      |  0.32558% | 3280   |  1.442% | 1984   |  1.554% | 
 | 100  | Latios             |  0.32426% | 1215   |  0.534% | 615    |  0.482% | 
 | 101  | Abomasnow-Mega     |  0.31956% | 1750   |  0.769% | 1049   |  0.822% | 
 | 102  | Wobbuffet          |  0.31153% | 1476   |  0.649% | 985    |  0.771% | 
 | 103  | Bastiodon          |  0.30435% | 862    |  0.379% | 623    |  0.488% | 
 | 104  | Rhydon             |  0.30293% | 838    |  0.368% | 381    |  0.298% | 
 | 105  | Archeops           |  0.29936% | 1609   |  0.707% | 915    |  0.717% | 
 | 106  | Ampharos-Mega      |  0.28013% | 2239   |  0.984% | 1224   |  0.959% | 
 | 107  | Meloetta           |  0.27945% | 1246   |  0.548% | 715    |  0.560% | 
 | 108  | Pidgeot-Mega       |  0.27387% | 2840   |  1.248% | 1598   |  1.251% | 
 | 109  | Mew                |  0.26805% | 3006   |  1.321% | 1710   |  1.339% | 
 | 110  | Arceus-Bug         |  0.25903% | 411    |  0.181% | 267    |  0.209% | 
 | 111  | Victini            |  0.24059% | 2496   |  1.097% | 1486   |  1.164% | 
 | 112  | Absol-Mega         |  0.23791% | 2447   |  1.075% | 1467   |  1.149% | 
 | 113  | Keldeo             |  0.23746% | 1188   |  0.522% | 675    |  0.529% | 
 | 114  | Thundurus-Therian  |  0.23527% | 1636   |  0.719% | 944    |  0.739% | 
 | 115  | Mamoswine          |  0.22641% | 860    |  0.378% | 539    |  0.422% | 
 | 116  | Trevenant          |  0.22305% | 373    |  0.164% | 235    |  0.184% | 
 | 117  | Camerupt-Mega      |  0.21696% | 1341   |  0.589% | 810    |  0.634% | 
 | 118  | Ninjask            |  0.21165% | 2458   |  1.080% | 1660   |  1.300% | 
 | 119  | Volcarona          |  0.21017% | 1504   |  0.661% | 870    |  0.681% | 
 | 120  | Forretress         |  0.20714% | 925    |  0.407% | 619    |  0.485% | 
 | 121  | Deoxys             |  0.20263% | 1114   |  0.490% | 655    |  0.513% | 
 | 122  | Darmanitan         |  0.20242% | 1563   |  0.687% | 910    |  0.713% | 
 | 123  | Arceus-Ground      |  0.19958% | 904    |  0.397% | 525    |  0.411% | 
 | 124  | Goodra             |  0.19892% | 1788   |  0.786% | 1085   |  0.850% | 
 | 125  | Avalugg            |  0.19880% | 602    |  0.265% | 351    |  0.275% | 
 | 126  | Arceus-Psychic     |  0.19330% | 1096   |  0.482% | 601    |  0.471% | 
 | 127  | Gengar             |  0.18957% | 1753   |  0.770% | 1128   |  0.883% | 
 | 128  | Raikou             |  0.18578% | 1384   |  0.608% | 750    |  0.587% | 
 | 129  | Arceus-Grass       |  0.17875% | 568    |  0.250% | 291    |  0.228% | 
 | 130  | Arceus-Ice         |  0.17637% | 943    |  0.414% | 557    |  0.436% | 
 | 131  | Togekiss           |  0.16460% | 1360   |  0.598% | 747    |  0.585% | 
 | 132  | Zapdos             |  0.16385% | 2045   |  0.899% | 1028   |  0.805% | 
 | 133  | Cofagrigus         |  0.16336% | 968    |  0.425% | 627    |  0.491% | 
 | 134  | Infernape          |  0.15976% | 2342   |  1.029% | 1407   |  1.102% | 
 | 135  | Arceus-Fighting    |  0.15472% | 919    |  0.404% | 439    |  0.344% | 
 | 136  | Golurk             |  0.15335% | 422    |  0.185% | 242    |  0.190% | 
 | 137  | Suicune            |  0.15139% | 994    |  0.437% | 604    |  0.473% | 
 | 138  | Probopass          |  0.14888% | 397    |  0.174% | 278    |  0.218% | 
 | 139  | Arceus-Rock        |  0.14867% | 459    |  0.202% | 289    |  0.226% | 
 | 140  | Terrakion          |  0.13717% | 623    |  0.274% | 316    |  0.247% | 
 | 141  | Aron               |  0.13505% | 1309   |  0.575% | 888    |  0.695% | 
 | 142  | Thundurus          |  0.13358% | 704    |  0.309% | 403    |  0.316% | 
 | 143  | Rattata            |  0.12771% | 3208   |  1.410% | 1400   |  1.096% | 
 | 144  | Milotic            |  0.12683% | 1102   |  0.484% | 644    |  0.504% | 
 | 145  | Dugtrio            |  0.12628% | 521    |  0.229% | 290    |  0.227% | 
 | 146  | Porygon-Z          |  0.12600% | 1087   |  0.478% | 477    |  0.374% | 
 | 147  | Amoonguss          |  0.12508% | 1043   |  0.458% | 669    |  0.524% | 
 | 148  | Jolteon            |  0.12377% | 1529   |  0.672% | 874    |  0.684% | 
 | 149  | Drapion            |  0.12121% | 828    |  0.364% | 518    |  0.406% | 
 | 150  | Jirachi            |  0.11405% | 1398   |  0.614% | 804    |  0.630% | 
 | 151  | Dragonite          |  0.11177% | 2823   |  1.241% | 1700   |  1.331% | 
 | 152  | Zygarde            |  0.10995% | 2215   |  0.973% | 1293   |  1.013% | 
 | 153  | Spiritomb          |  0.10726% | 1092   |  0.480% | 674    |  0.528% | 
 | 154  | Entei              |  0.10665% | 812    |  0.357% | 449    |  0.352% | 
 | 155  | Crobat             |  0.10657% | 1054   |  0.463% | 649    |  0.508% | 
 | 156  | Skarmory           |  0.10597% | 896    |  0.394% | 520    |  0.407% | 
 | 157  | Marowak            |  0.10596% | 1165   |  0.512% | 664    |  0.520% | 
 | 158  | Tornadus-Therian   |  0.10564% | 916    |  0.403% | 516    |  0.404% | 
 | 159  | Talonflame         |  0.10362% | 1438   |  0.632% | 870    |  0.681% | 
 | 160  | Hawlucha           |  0.10198% | 944    |  0.415% | 597    |  0.468% | 
 | 161  | Landorus           |  0.09858% | 552    |  0.243% | 307    |  0.240% | 
 | 162  | Houndoom-Mega      |  0.09413% | 1484   |  0.652% | 857    |  0.671% | 
 | 163  | Lapras             |  0.09322% | 794    |  0.349% | 490    |  0.384% | 
 | 164  | Sylveon            |  0.09006% | 1608   |  0.707% | 898    |  0.703% | 
 | 165  | Clefable           |  0.08960% | 1216   |  0.534% | 719    |  0.563% | 
 | 166  | Yanmega            |  0.08883% | 201    |  0.088% | 129    |  0.101% | 
 | 167  | Aerodactyl         |  0.08621% | 212    |  0.093% | 127    |  0.099% | 
 | 168  | Ditto              |  0.08550% | 1547   |  0.680% | 861    |  0.674% | 
 | 169  | Bisharp            |  0.08509% | 1371   |  0.603% | 775    |  0.607% | 
 | 170  | Mewtwo             |  0.08418% | 1089   |  0.479% | 586    |  0.459% | 
 | 171  | Gliscor            |  0.08305% | 1588   |  0.698% | 934    |  0.731% | 
 | 172  | Magnezone          |  0.08186% | 1083   |  0.476% | 602    |  0.471% | 
 | 173  | Mandibuzz          |  0.08177% | 247    |  0.109% | 157    |  0.123% | 
 | 174  | Gyarados           |  0.08040% | 851    |  0.374% | 493    |  0.386% | 
 | 175  | Scyther            |  0.07962% | 262    |  0.115% | 143    |  0.112% | 
 | 176  | Cloyster           |  0.07854% | 974    |  0.428% | 564    |  0.442% | 
 | 177  | Espeon             |  0.07705% | 891    |  0.392% | 482    |  0.377% | 
 | 178  | Empoleon           |  0.07684% | 1006   |  0.442% | 688    |  0.539% | 
 | 179  | Medicham-Mega      |  0.07488% | 843    |  0.370% | 518    |  0.406% | 
 | 180  | Blaziken           |  0.07487% | 709    |  0.312% | 439    |  0.344% | 
 | 181  | Garchomp           |  0.07440% | 1080   |  0.475% | 644    |  0.504% | 
 | 182  | Rotom-Heat         |  0.07384% | 471    |  0.207% | 308    |  0.241% | 
 | 183  | Floette-Eternal-Flower |  0.07283% | 886    |  0.389% | 459    |  0.359% | 
 | 184  | Arcanine           |  0.07185% | 1219   |  0.536% | 729    |  0.571% | 
 | 185  | Ledian             |  0.07168% | 82     |  0.036% | 70     |  0.055% | 
 | 186  | Excadrill          |  0.07113% | 786    |  0.345% | 466    |  0.365% | 
 | 187  | Noivern            |  0.07034% | 1196   |  0.526% | 715    |  0.560% | 
 | 188  | Smeargle           |  0.07034% | 1508   |  0.663% | 827    |  0.648% | 
 | 189  | Rampardos          |  0.06969% | 1167   |  0.513% | 635    |  0.497% | 
 | 190  | Staraptor          |  0.06697% | 1230   |  0.541% | 761    |  0.596% | 
 | 191  | Glalie-Mega        |  0.06651% | 823    |  0.362% | 482    |  0.377% | 
 | 192  | Rotom-Wash         |  0.06505% | 785    |  0.345% | 442    |  0.346% | 
 | 193  | Electivire         |  0.06447% | 1108   |  0.487% | 634    |  0.497% | 
 | 194  | Gallade            |  0.06073% | 208    |  0.091% | 136    |  0.107% | 
 | 195  | Flareon            |  0.06019% | 585    |  0.257% | 367    |  0.287% | 
 | 196  | Shaymin            |  0.05921% | 307    |  0.135% | 203    |  0.159% | 
 | 197  | Serperior          |  0.05905% | 1528   |  0.672% | 892    |  0.699% | 
 | 198  | Braviary           |  0.05888% | 313    |  0.138% | 138    |  0.108% | 
 | 199  | Manaphy            |  0.05880% | 839    |  0.369% | 476    |  0.373% | 
 | 200  | Wynaut             |  0.05407% | 150    |  0.066% | 102    |  0.080% | 
 | 201  | Vaporeon           |  0.05353% | 904    |  0.397% | 566    |  0.443% | 
 | 202  | Dusknoir           |  0.05211% | 709    |  0.312% | 465    |  0.364% | 
 | 203  | Hydreigon          |  0.04979% | 1176   |  0.517% | 651    |  0.510% | 
 | 204  | Azelf              |  0.04964% | 771    |  0.339% | 454    |  0.356% | 
 | 205  | Rhyperior          |  0.04870% | 836    |  0.367% | 502    |  0.393% | 
 | 206  | Bidoof             |  0.04850% | 862    |  0.379% | 312    |  0.244% | 
 | 207  | Hippowdon          |  0.04733% | 769    |  0.338% | 556    |  0.435% | 
 | 208  | Gastrodon          |  0.04710% | 304    |  0.134% | 195    |  0.153% | 
 | 209  | Eevee              |  0.04580% | 482    |  0.212% | 296    |  0.232% | 
 | 210  | Florges            |  0.04579% | 636    |  0.280% | 389    |  0.305% | 
 | 211  | Sunkern            |  0.04542% | 603    |  0.265% | 362    |  0.283% | 
 | 212  | Bellossom          |  0.04369% | 169    |  0.074% | 131    |  0.103% | 
 | 213  | Breloom            |  0.04369% | 1159   |  0.509% | 653    |  0.511% | 
 | 214  | Hariyama           |  0.04355% | 220    |  0.097% | 98     |  0.077% | 
 | 215  | Machamp            |  0.04330% | 646    |  0.284% | 377    |  0.295% | 
 | 216  | Lanturn            |  0.04319% | 152    |  0.067% | 91     |  0.071% | 
 | 217  | Electrode          |  0.04252% | 503    |  0.221% | 292    |  0.229% | 
 | 218  | Froslass           |  0.04251% | 484    |  0.213% | 313    |  0.245% | 
 | 219  | Alomomola          |  0.04206% | 320    |  0.141% | 202    |  0.158% | 
 | 220  | Torterra           |  0.04172% | 661    |  0.291% | 407    |  0.319% | 
 | 221  | Escavalier         |  0.04146% | 666    |  0.293% | 412    |  0.323% | 
 | 222  | Klefki             |  0.04135% | 742    |  0.326% | 485    |  0.380% | 
 | 223  | Durant             |  0.03943% | 328    |  0.144% | 210    |  0.164% | 
 | 224  | Tentacruel         |  0.03890% | 239    |  0.105% | 141    |  0.110% | 
 | 225  | Wailord            |  0.03858% | 817    |  0.359% | 466    |  0.365% | 
 | 226  | Crawdaunt          |  0.03778% | 166    |  0.073% | 96     |  0.075% | 
 | 227  | Typhlosion         |  0.03773% | 534    |  0.235% | 321    |  0.251% | 
 | 228  | Tyrantrum          |  0.03719% | 465    |  0.204% | 274    |  0.215% | 
 | 229  | Kingler            |  0.03688% | 116    |  0.051% | 90     |  0.070% | 
 | 230  | Corsola            |  0.03533% | 47     |  0.021% | 39     |  0.031% | 
 | 231  | Swalot             |  0.03532% | 70     |  0.031% | 40     |  0.031% | 
 | 232  | Bronzong           |  0.03487% | 226    |  0.099% | 173    |  0.135% | 
 | 233  | Lucario            |  0.03430% | 521    |  0.229% | 294    |  0.230% | 
 | 234  | Farfetch'd         |  0.03427% | 410    |  0.180% | 230    |  0.180% | 
 | 235  | Glaceon            |  0.03364% | 592    |  0.260% | 346    |  0.271% | 
 | 236  | Conkeldurr         |  0.03272% | 674    |  0.296% | 406    |  0.318% | 
 | 237  | Ninetales          |  0.03271% | 487    |  0.214% | 262    |  0.205% | 
 | 238  | Scizor             |  0.03264% | 406    |  0.178% | 275    |  0.215% | 
 | 239  | Aggron             |  0.03258% | 417    |  0.183% | 280    |  0.219% | 
 | 240  | Celebi             |  0.03229% | 585    |  0.257% | 342    |  0.268% | 
 | 241  | Accelgor           |  0.03222% | 762    |  0.335% | 463    |  0.363% | 
 | 242  | Kingdra            |  0.03197% | 499    |  0.219% | 293    |  0.229% | 
 | 243  | Dedenne            |  0.03171% | 422    |  0.185% | 220    |  0.172% | 
 | 244  | Diglett            |  0.03147% | 366    |  0.161% | 211    |  0.165% | 
 | 245  | Slowbro            |  0.02961% | 236    |  0.104% | 117    |  0.092% | 
 | 246  | Tyranitar          |  0.02894% | 835    |  0.367% | 498    |  0.390% | 
 | 247  | Articuno           |  0.02861% | 837    |  0.368% | 455    |  0.356% | 
 | 248  | Sharpedo-Mega      |  0.02841% | 642    |  0.282% | 384    |  0.301% | 
 | 249  | Whimsicott         |  0.02761% | 550    |  0.242% | 359    |  0.281% | 
 | 250  | Swampert           |  0.02760% | 319    |  0.140% | 193    |  0.151% | 
 | 251  | Zubat              |  0.02732% | 245    |  0.108% | 164    |  0.128% | 
 | 252  | Charizard          |  0.02725% | 576    |  0.253% | 333    |  0.261% | 
 | 253  | Donphan            |  0.02721% | 131    |  0.058% | 87     |  0.068% | 
 | 254  | Castform           |  0.02667% | 358    |  0.157% | 131    |  0.103% | 
 | 255  | Blastoise          |  0.02655% | 281    |  0.123% | 144    |  0.113% | 
 | 256  | Jellicent          |  0.02591% | 278    |  0.122% | 185    |  0.145% | 
 | 257  | Linoone            |  0.02542% | 192    |  0.084% | 106    |  0.083% | 
 | 258  | Porygon            |  0.02528% | 161    |  0.071% | 99     |  0.078% | 
 | 259  | Duosion            |  0.02444% | 31     |  0.014% | 17     |  0.013% | 
 | 260  | Azumarill          |  0.02428% | 536    |  0.236% | 299    |  0.234% | 
 | 261  | Latias             |  0.02392% | 386    |  0.170% | 228    |  0.179% | 
 | 262  | Metagross          |  0.02297% | 367    |  0.161% | 235    |  0.184% | 
 | 263  | Sableye            |  0.02269% | 414    |  0.182% | 259    |  0.203% | 
 | 264  | Drifblim           |  0.02267% | 314    |  0.138% | 213    |  0.167% | 
 | 265  | Magnemite          |  0.02255% | 538    |  0.236% | 271    |  0.212% | 
 | 266  | Glalie             |  0.02210% | 71     |  0.031% | 45     |  0.035% | 
 | 267  | Seedot             |  0.02184% | 157    |  0.069% | 113    |  0.088% | 
 | 268  | Chimecho           |  0.02151% | 41     |  0.018% | 30     |  0.023% | 
 | 269  | Archen             |  0.02114% | 86     |  0.038% | 60     |  0.047% | 
 | 270  | Exploud            |  0.02097% | 132    |  0.058% | 77     |  0.060% | 
 | 271  | Skuntank           |  0.02077% | 83     |  0.036% | 52     |  0.041% | 
 | 272  | Kyurem             |  0.02069% | 239    |  0.105% | 147    |  0.115% | 
 | 273  | Munchlax           |  0.02059% | 263    |  0.116% | 121    |  0.095% | 
 | 274  | Weedle             |  0.02053% | 329    |  0.145% | 199    |  0.156% | 
 | 275  | Pangoro            |  0.02048% | 165    |  0.073% | 103    |  0.081% | 
 | 276  | Luxray             |  0.02038% | 652    |  0.287% | 345    |  0.270% | 
 | 277  | Chesnaught         |  0.02013% | 543    |  0.239% | 294    |  0.230% | 
 | 278  | Tangrowth          |  0.01988% | 409    |  0.180% | 228    |  0.179% | 
 | 279  | Ambipom            |  0.01961% | 328    |  0.144% | 185    |  0.145% | 
 | 280  | Eelektross         |  0.01943% | 618    |  0.272% | 330    |  0.258% | 
 | 281  | Zoroark            |  0.01928% | 811    |  0.356% | 417    |  0.327% | 
 | 282  | Politoed           |  0.01916% | 157    |  0.069% | 110    |  0.086% | 
 | 283  | Raichu             |  0.01892% | 598    |  0.263% | 359    |  0.281% | 
 | 284  | Venusaur           |  0.01876% | 289    |  0.127% | 166    |  0.130% | 
 | 285  | Spinda             |  0.01871% | 226    |  0.099% | 117    |  0.092% | 
 | 286  | Abra               |  0.01871% | 129    |  0.057% | 75     |  0.059% | 
 | 287  | Ursaring           |  0.01853% | 366    |  0.161% | 250    |  0.196% | 
 | 288  | Tepig              |  0.01834% | 26     |  0.011% | 18     |  0.014% | 
 | 289  | Oddish             |  0.01818% | 95     |  0.042% | 52     |  0.041% | 
 | 290  | Roserade           |  0.01806% | 554    |  0.243% | 339    |  0.265% | 
 | 291  | Duskull            |  0.01806% | 154    |  0.068% | 113    |  0.088% | 
 | 292  | Haxorus            |  0.01785% | 779    |  0.342% | 428    |  0.335% | 
 | 293  | Sceptile           |  0.01754% | 323    |  0.142% | 190    |  0.149% | 
 | 294  | Caterpie           |  0.01689% | 227    |  0.100% | 146    |  0.114% | 
 | 295  | Ponyta             |  0.01673% | 59     |  0.026% | 40     |  0.031% | 
 | 296  | Salamence          |  0.01665% | 339    |  0.149% | 209    |  0.164% | 
 | 297  | Starly             |  0.01650% | 534    |  0.235% | 180    |  0.141% | 
 | 298  | Unfezant           |  0.01614% | 127    |  0.056% | 78     |  0.061% | 
 | 299  | Heliolisk          |  0.01574% | 293    |  0.129% | 137    |  0.107% | 
 | 300  | Granbull           |  0.01555% | 164    |  0.072% | 115    |  0.090% | 
 | 301  | Nosepass           |  0.01535% | 203    |  0.089% | 150    |  0.117% | 
 | 302  | Scolipede          |  0.01527% | 597    |  0.262% | 378    |  0.296% | 
 | 303  | Seadra             |  0.01527% | 52     |  0.023% | 39     |  0.031% | 
 | 304  | Cobalion           |  0.01525% | 247    |  0.109% | 134    |  0.105% | 
 | 305  | Octillery          |  0.01521% | 154    |  0.068% | 96     |  0.075% | 
 | 306  | Galvantula         |  0.01517% | 344    |  0.151% | 255    |  0.200% | 
 | 307  | Starmie            |  0.01495% | 469    |  0.206% | 278    |  0.218% | 
 | 308  | Ferroseed          |  0.01494% | 176    |  0.077% | 102    |  0.080% | 
 | 309  | Flygon             |  0.01477% | 449    |  0.197% | 262    |  0.205% | 
 | 310  | Honedge            |  0.01450% | 117    |  0.051% | 84     |  0.066% | 
 | 311  | Pyroar             |  0.01443% | 292    |  0.128% | 184    |  0.144% | 
 | 312  | Alakazam           |  0.01431% | 376    |  0.165% | 225    |  0.176% | 
 | 313  | Persian            |  0.01427% | 153    |  0.067% | 90     |  0.070% | 
 | 314  | Feraligatr         |  0.01427% | 606    |  0.266% | 333    |  0.261% | 
 | 315  | Steelix            |  0.01400% | 179    |  0.079% | 126    |  0.099% | 
 | 316  | Ivysaur            |  0.01397% | 114    |  0.050% | 58     |  0.045% | 
 | 317  | Rayquaza           |  0.01360% | 585    |  0.257% | 360    |  0.282% | 
 | 318  | Barbaracle         |  0.01348% | 161    |  0.071% | 94     |  0.074% | 
 | 319  | Nidoking           |  0.01345% | 428    |  0.188% | 247    |  0.193% | 
 | 320  | Wurmple            |  0.01321% | 269    |  0.118% | 101    |  0.079% | 
 | 321  | Mr. Mime           |  0.01304% | 486    |  0.214% | 240    |  0.188% | 
 | 322  | Riolu              |  0.01286% | 135    |  0.059% | 82     |  0.064% | 
 | 323  | Unown              |  0.01267% | 361    |  0.159% | 177    |  0.139% | 
 | 324  | Swadloon           |  0.01249% | 64     |  0.028% | 32     |  0.025% | 
 | 325  | Emboar             |  0.01236% | 376    |  0.165% | 234    |  0.183% | 
 | 326  | Feebas             |  0.01226% | 100    |  0.044% | 58     |  0.045% | 
 | 327  | Sigilyph           |  0.01224% | 288    |  0.127% | 156    |  0.122% | 
 | 328  | Muk                |  0.01207% | 266    |  0.117% | 171    |  0.134% | 
 | 329  | Leafeon            |  0.01206% | 559    |  0.246% | 308    |  0.241% | 
 | 330  | Haunter            |  0.01196% | 165    |  0.073% | 110    |  0.086% | 
 | 331  | Furfrou            |  0.01176% | 94     |  0.041% | 46     |  0.036% | 
 | 332  | Phantump           |  0.01157% | 59     |  0.026% | 42     |  0.033% | 
 | 333  | Zorua              |  0.01155% | 54     |  0.024% | 33     |  0.026% | 
 | 334  | Exeggutor          |  0.01136% | 292    |  0.128% | 176    |  0.138% | 
 | 335  | Gastly             |  0.01131% | 244    |  0.107% | 139    |  0.109% | 
 | 336  | Moltres            |  0.01098% | 681    |  0.299% | 358    |  0.280% | 
 | 337  | Happiny            |  0.01076% | 99     |  0.044% | 59     |  0.046% | 
 | 338  | Delphox            |  0.01073% | 568    |  0.250% | 351    |  0.275% | 
 | 339  | Ludicolo           |  0.01060% | 397    |  0.174% | 219    |  0.172% | 
 | 340  | Mudkip             |  0.01039% | 419    |  0.184% | 137    |  0.107% | 
 | 341  | Cubone             |  0.01036% | 76     |  0.033% | 51     |  0.040% | 
 | 342  | Pelipper           |  0.01031% | 125    |  0.055% | 77     |  0.060% | 
 | 343  | Gourgeist          |  0.01013% | 56     |  0.025% | 29     |  0.023% | 
 | 344  | Tornadus           |  0.01004% | 155    |  0.068% | 91     |  0.071% | 
 | 345  | Golem              |  0.00999% | 322    |  0.142% | 216    |  0.169% | 
 | 346  | Omastar            |  0.00997% | 296    |  0.130% | 186    |  0.146% | 
 | 347  | Hoopa              |  0.00989% | 264    |  0.116% | 174    |  0.136% | 
 | 348  | Swellow            |  0.00982% | 182    |  0.080% | 110    |  0.086% | 
 | 349  | Miltank            |  0.00969% | 304    |  0.134% | 179    |  0.140% | 
 | 350  | Weezing            |  0.00966% | 187    |  0.082% | 125    |  0.098% | 
 | 351  | Meganium           |  0.00925% | 213    |  0.094% | 137    |  0.107% | 
 | 352  | Sandslash          |  0.00920% | 72     |  0.032% | 44     |  0.034% | 
 | 353  | Snivy              |  0.00919% | 106    |  0.047% | 68     |  0.053% | 
 | 354  | Seismitoad         |  0.00906% | 417    |  0.183% | 140    |  0.110% | 
 | 355  | Kabutops           |  0.00899% | 309    |  0.136% | 195    |  0.153% | 
 | 356  | Krookodile         |  0.00895% | 572    |  0.251% | 302    |  0.237% | 
 | 357  | Rotom-Frost        |  0.00877% | 175    |  0.077% | 92     |  0.072% | 
 | 358  | Aurorus            |  0.00870% | 137    |  0.060% | 91     |  0.071% | 
 | 359  | Zigzagoon          |  0.00860% | 171    |  0.075% | 92     |  0.072% | 
 | 360  | Cottonee           |  0.00860% | 91     |  0.040% | 66     |  0.052% | 
 | 361  | Arbok              |  0.00847% | 117    |  0.051% | 85     |  0.067% | 
 | 362  | Smoochum           |  0.00846% | 39     |  0.017% | 12     |  0.009% | 
 | 363  | Honchkrow          |  0.00818% | 349    |  0.153% | 235    |  0.184% | 
 | 364  | Jumpluff           |  0.00794% | 91     |  0.040% | 58     |  0.045% | 
 | 365  | Gligar             |  0.00793% | 167    |  0.073% | 109    |  0.085% | 
 | 366  | Carbink            |  0.00769% | 226    |  0.099% | 160    |  0.125% | 
 | 367  | Magmortar          |  0.00763% | 254    |  0.112% | 167    |  0.131% | 
 | 368  | Hitmontop          |  0.00738% | 128    |  0.056% | 76     |  0.060% | 
 | 369  | Lilligant          |  0.00730% | 123    |  0.054% | 79     |  0.062% | 
 | 370  | Victreebel         |  0.00721% | 121    |  0.053% | 73     |  0.057% | 
 | 371  | Piplup             |  0.00719% | 107    |  0.047% | 81     |  0.063% | 
 | 372  | Vivillon           |  0.00709% | 208    |  0.091% | 152    |  0.119% | 
 | 373  | Girafarig          |  0.00706% | 73     |  0.032% | 42     |  0.033% | 
 | 374  | Clamperl           |  0.00702% | 108    |  0.047% | 60     |  0.047% | 
 | 375  | Cradily            |  0.00694% | 183    |  0.080% | 117    |  0.092% | 
 | 376  | Vespiquen          |  0.00680% | 170    |  0.075% | 120    |  0.094% | 
 | 377  | Mismagius          |  0.00676% | 310    |  0.136% | 213    |  0.167% | 
 | 378  | Reuniclus          |  0.00670% | 181    |  0.080% | 107    |  0.084% | 
 | 379  | Venomoth           |  0.00668% | 143    |  0.063% | 78     |  0.061% | 
 | 380  | Uxie               |  0.00664% | 167    |  0.073% | 110    |  0.086% | 
 | 381  | Remoraid           |  0.00663% | 45     |  0.020% | 15     |  0.012% | 
 | 382  | Kangaskhan         |  0.00658% | 67     |  0.029% | 40     |  0.031% | 
 | 383  | Slakoth            |  0.00656% | 152    |  0.067% | 103    |  0.081% | 
 | 384  | Heatmor            |  0.00653% | 49     |  0.022% | 24     |  0.019% | 
 | 385  | Samurott           |  0.00652% | 261    |  0.115% | 146    |  0.114% | 
 | 386  | Omanyte            |  0.00634% | 111    |  0.049% | 75     |  0.059% | 
 | 387  | Sawsbuck           |  0.00632% | 122    |  0.054% | 72     |  0.056% | 
 | 388  | Sunflora           |  0.00628% | 329    |  0.145% | 119    |  0.093% | 
 | 389  | Misdreavus         |  0.00627% | 48     |  0.021% | 40     |  0.031% | 
 | 390  | Musharna           |  0.00621% | 52     |  0.023% | 38     |  0.030% | 
 | 391  | Ampharos           |  0.00603% | 147    |  0.065% | 86     |  0.067% | 
 | 392  | Metapod            |  0.00601% | 431    |  0.189% | 206    |  0.161% | 
 | 393  | Quagsire           |  0.00600% | 333    |  0.146% | 199    |  0.156% | 
 | 394  | Armaldo            |  0.00599% | 169    |  0.074% | 103    |  0.081% | 
 | 395  | Pachirisu          |  0.00595% | 134    |  0.059% | 109    |  0.085% | 
 | 396  | Marshtomp          |  0.00594% | 38     |  0.017% | 21     |  0.016% | 
 | 397  | Primeape           |  0.00588% | 119    |  0.052% | 68     |  0.053% | 
 | 398  | Sewaddle           |  0.00586% | 31     |  0.014% | 25     |  0.020% | 
 | 399  | Hitmonlee          |  0.00576% | 208    |  0.091% | 122    |  0.096% | 
 | 400  | Toxicroak          |  0.00556% | 259    |  0.114% | 151    |  0.118% | 
 | 401  | Golett             |  0.00555% | 19     |  0.008% | 18     |  0.014% | 
 | 402  | Chatot             |  0.00544% | 135    |  0.059% | 74     |  0.058% | 
 | 403  | Bouffalant         |  0.00543% | 110    |  0.048% | 45     |  0.035% | 
 | 404  | Jigglypuff         |  0.00543% | 323    |  0.142% | 219    |  0.172% | 
 | 405  | Malamar            |  0.00542% | 286    |  0.126% | 160    |  0.125% | 
 | 406  | Simisage           |  0.00536% | 99     |  0.044% | 62     |  0.049% | 
 | 407  | Slowking           |  0.00533% | 240    |  0.105% | 146    |  0.114% | 
 | 408  | Vanilluxe          |  0.00526% | 113    |  0.050% | 75     |  0.059% | 
 | 409  | Foongus            |  0.00519% | 77     |  0.034% | 53     |  0.042% | 
 | 410  | Crustle            |  0.00517% | 56     |  0.025% | 33     |  0.026% | 
 | 411  | Lickilicky         |  0.00484% | 79     |  0.035% | 43     |  0.034% | 
 | 412  | Abomasnow          |  0.00484% | 29     |  0.013% | 15     |  0.012% | 
 | 413  | Beartic            |  0.00466% | 72     |  0.032% | 54     |  0.042% | 
 | 414  | Emolga             |  0.00465% | 130    |  0.057% | 70     |  0.055% | 
 | 415  | Minun              |  0.00457% | 38     |  0.017% | 28     |  0.022% | 
 | 416  | Dunsparce          |  0.00453% | 340    |  0.149% | 242    |  0.190% | 
 | 417  | Mienshao           |  0.00453% | 133    |  0.058% | 88     |  0.069% | 
 | 418  | Scrafty            |  0.00449% | 375    |  0.165% | 221    |  0.173% | 
 | 419  | Qwilfish           |  0.00447% | 64     |  0.028% | 48     |  0.038% | 
 | 420  | Altaria            |  0.00443% | 90     |  0.040% | 72     |  0.056% | 
 | 421  | Raticate           |  0.00428% | 237    |  0.104% | 116    |  0.091% | 
 | 422  | Beldum             |  0.00420% | 15     |  0.007% | 13     |  0.010% | 
 | 423  | Fearow             |  0.00419% | 81     |  0.036% | 49     |  0.038% | 
 | 424  | Dewott             |  0.00408% | 68     |  0.030% | 35     |  0.027% | 
 | 425  | Budew              |  0.00408% | 43     |  0.019% | 41     |  0.032% | 
 | 426  | Swinub             |  0.00403% | 50     |  0.022% | 41     |  0.032% | 
 | 427  | Venipede           |  0.00402% | 19     |  0.008% | 13     |  0.010% | 
 | 428  | Tauros             |  0.00391% | 190    |  0.084% | 106    |  0.083% | 
 | 429  | Rotom-Mow          |  0.00390% | 187    |  0.082% | 104    |  0.081% | 
 | 430  | Gourgeist-Super    |  0.00383% | 205    |  0.090% | 121    |  0.095% | 
 | 431  | Virizion           |  0.00380% | 257    |  0.113% | 154    |  0.121% | 
 | 432  | Vileplume          |  0.00380% | 95     |  0.042% | 64     |  0.050% | 
 | 433  | Golbat             |  0.00373% | 78     |  0.034% | 55     |  0.043% | 
 | 434  | Togetic            |  0.00368% | 115    |  0.051% | 78     |  0.061% | 
 | 435  | Bibarel            |  0.00364% | 238    |  0.105% | 124    |  0.097% | 
 | 436  | Mawile             |  0.00359% | 33     |  0.015% | 20     |  0.016% | 
 | 437  | Spewpa             |  0.00359% | 14     |  0.006% | 9      |  0.007% | 
 | 438  | Rotom-Fan          |  0.00355% | 170    |  0.075% | 110    |  0.086% | 
 | 439  | Tangela            |  0.00351% | 87     |  0.038% | 64     |  0.050% | 
 | 440  | Gardevoir          |  0.00348% | 452    |  0.199% | 291    |  0.228% | 
 | 441  | Numel              |  0.00345% | 21     |  0.009% | 20     |  0.016% | 
 | 442  | Butterfree         |  0.00335% | 126    |  0.055% | 90     |  0.070% | 
 | 443  | Rapidash           |  0.00331% | 154    |  0.068% | 103    |  0.081% | 
 | 444  | Kakuna             |  0.00318% | 167    |  0.073% | 74     |  0.058% | 
 | 445  | Cherrim            |  0.00317% | 111    |  0.049% | 65     |  0.051% | 
 | 446  | Vanillite          |  0.00317% | 90     |  0.040% | 73     |  0.057% | 
 | 447  | Beheeyem           |  0.00313% | 69     |  0.030% | 26     |  0.020% | 
 | 448  | Shelgon            |  0.00312% | 81     |  0.036% | 43     |  0.034% | 
 | 449  | Swirlix            |  0.00311% | 64     |  0.028% | 33     |  0.026% | 
 | 450  | Dragalge           |  0.00310% | 254    |  0.112% | 144    |  0.113% | 
 | 451  | Claydol            |  0.00306% | 97     |  0.043% | 56     |  0.044% | 
 | 452  | Wartortle          |  0.00302% | 79     |  0.035% | 45     |  0.035% | 
 | 453  | Lampent            |  0.00301% | 58     |  0.025% | 33     |  0.026% | 
 | 454  | Wormadam-Trash     |  0.00297% | 58     |  0.025% | 36     |  0.028% | 
 | 455  | Rotom              |  0.00290% | 229    |  0.101% | 162    |  0.127% | 
 | 456  | Sawk               |  0.00286% | 177    |  0.078% | 120    |  0.094% | 
 | 457  | Tropius            |  0.00277% | 146    |  0.064% | 80     |  0.063% | 
 | 458  | Pichu              |  0.00276% | 176    |  0.077% | 97     |  0.076% | 
 | 459  | Goomy              |  0.00263% | 136    |  0.060% | 50     |  0.039% | 
 | 460  | Bulbasaur          |  0.00262% | 226    |  0.099% | 166    |  0.130% | 
 | 461  | Seviper            |  0.00260% | 60     |  0.026% | 30     |  0.023% | 
 | 462  | Ralts              |  0.00254% | 64     |  0.028% | 50     |  0.039% | 
 | 463  | Relicanth          |  0.00249% | 50     |  0.022% | 38     |  0.030% | 
 | 464  | Magcargo           |  0.00249% | 144    |  0.063% | 95     |  0.074% | 
 | 465  | Clawitzer          |  0.00248% | 193    |  0.085% | 108    |  0.085% | 
 | 466  | Poliwrath          |  0.00246% | 157    |  0.069% | 92     |  0.072% | 
 | 467  | Basculin           |  0.00245% | 25     |  0.011% | 16     |  0.013% | 
 | 468  | Slurpuff           |  0.00236% | 174    |  0.076% | 91     |  0.071% | 
 | 469  | Bellsprout         |  0.00234% | 100    |  0.044% | 67     |  0.052% | 
 | 470  | Torkoal            |  0.00234% | 250    |  0.110% | 189    |  0.148% | 
 | 471  | Absol              |  0.00230% | 142    |  0.062% | 90     |  0.070% | 
 | 472  | Houndoom           |  0.00225% | 88     |  0.039% | 58     |  0.045% | 
 | 473  | Delcatty           |  0.00222% | 86     |  0.038% | 58     |  0.045% | 
 | 474  | Noctowl            |  0.00222% | 97     |  0.043% | 70     |  0.055% | 
 | 475  | Gabite             |  0.00221% | 49     |  0.022% | 36     |  0.028% | 
 | 476  | Magneton           |  0.00220% | 77     |  0.034% | 36     |  0.028% | 
 | 477  | Swanna             |  0.00216% | 80     |  0.035% | 44     |  0.034% | 
 | 478  | Mantine            |  0.00216% | 161    |  0.071% | 96     |  0.075% | 
 | 479  | Quilava            |  0.00214% | 21     |  0.009% | 10     |  0.008% | 
 | 480  | Krokorok           |  0.00214% | 6      |  0.003% | 4      |  0.003% | 
 | 481  | Masquerain         |  0.00214% | 42     |  0.018% | 26     |  0.020% | 
 | 482  | Sharpedo           |  0.00209% | 46     |  0.020% | 37     |  0.029% | 
 | 483  | Vullaby            |  0.00206% | 9      |  0.004% | 2      |  0.002% | 
 | 484  | Pidgey             |  0.00205% | 231    |  0.102% | 173    |  0.135% | 
 | 485  | Jynx               |  0.00205% | 168    |  0.074% | 111    |  0.087% | 
 | 486  | Igglybuff          |  0.00202% | 121    |  0.053% | 67     |  0.052% | 
 | 487  | Lairon             |  0.00202% | 76     |  0.033% | 53     |  0.042% | 
 | 488  | Furret             |  0.00201% | 96     |  0.042% | 58     |  0.045% | 
 | 489  | NidoranM           |  0.00199% | 10     |  0.004% | 9      |  0.007% | 
 | 490  | Whirlipede         |  0.00195% | 40     |  0.018% | 26     |  0.020% | 
 | 491  | Gogoat             |  0.00193% | 110    |  0.048% | 62     |  0.049% | 
 | 492  | Druddigon          |  0.00192% | 75     |  0.033% | 41     |  0.032% | 
 | 493  | Koffing            |  0.00188% | 28     |  0.012% | 22     |  0.017% | 
 | 494  | Parasect           |  0.00185% | 41     |  0.018% | 18     |  0.014% | 
 | 495  | Pineco             |  0.00182% | 43     |  0.019% | 25     |  0.020% | 
 | 496  | Klang              |  0.00182% | 19     |  0.008% | 13     |  0.010% | 
 | 497  | Barboach           |  0.00175% | 9      |  0.004% | 8      |  0.006% | 
 | 498  | Plusle             |  0.00175% | 39     |  0.017% | 25     |  0.020% | 
 | 499  | Houndour           |  0.00170% | 17     |  0.007% | 10     |  0.008% | 
 | 500  | Sneasel            |  0.00168% | 69     |  0.030% | 53     |  0.042% | 
 | 501  | Trubbish           |  0.00168% | 13     |  0.006% | 10     |  0.008% | 
 | 502  | Wailmer            |  0.00168% | 19     |  0.008% | 12     |  0.009% | 
 | 503  | Deino              |  0.00166% | 10     |  0.004% | 7      |  0.005% | 
 | 504  | Machop             |  0.00166% | 13     |  0.006% | 11     |  0.009% | 
 | 505  | Floatzel           |  0.00161% | 153    |  0.067% | 84     |  0.066% | 
 | 506  | Gigalith           |  0.00158% | 117    |  0.051% | 85     |  0.067% | 
 | 507  | Kadabra            |  0.00157% | 25     |  0.011% | 17     |  0.013% | 
 | 508  | Chimchar           |  0.00153% | 21     |  0.009% | 15     |  0.012% | 
 | 509  | Snubbull           |  0.00150% | 47     |  0.021% | 30     |  0.023% | 
 | 510  | Lunatone           |  0.00144% | 69     |  0.030% | 40     |  0.031% | 
 | 511  | Dodrio             |  0.00143% | 302    |  0.133% | 186    |  0.146% | 
 | 512  | Gurdurr            |  0.00142% | 29     |  0.013% | 15     |  0.012% | 
 | 513  | Camerupt           |  0.00141% | 129    |  0.057% | 101    |  0.079% | 
 | 514  | Diggersby          |  0.00141% | 103    |  0.045% | 57     |  0.045% | 
 | 515  | Audino             |  0.00140% | 15     |  0.007% | 12     |  0.009% | 
 | 516  | Vigoroth           |  0.00139% | 93     |  0.041% | 53     |  0.042% | 
 | 517  | Hippopotas         |  0.00139% | 26     |  0.011% | 8      |  0.006% | 
 | 518  | Murkrow            |  0.00131% | 70     |  0.031% | 41     |  0.032% | 
 | 519  | Stunfisk           |  0.00129% | 88     |  0.039% | 55     |  0.043% | 
 | 520  | Wigglytuff         |  0.00128% | 121    |  0.053% | 82     |  0.064% | 
 | 521  | Maractus           |  0.00127% | 81     |  0.036% | 44     |  0.034% | 
 | 522  | Gourgeist-Small    |  0.00127% | 33     |  0.015% | 17     |  0.013% | 
 | 523  | Machoke            |  0.00127% | 84     |  0.037% | 46     |  0.036% | 
 | 524  | Chikorita          |  0.00121% | 22     |  0.010% | 16     |  0.013% | 
 | 525  | Charmander         |  0.00120% | 165    |  0.073% | 106    |  0.083% | 
 | 526  | Stoutland          |  0.00117% | 78     |  0.034% | 57     |  0.045% | 
 | 527  | Flaaffy            |  0.00115% | 38     |  0.017% | 27     |  0.021% | 
 | 528  | Cinccino           |  0.00114% | 186    |  0.082% | 121    |  0.095% | 
 | 529  | Yamask             |  0.00113% | 38     |  0.017% | 33     |  0.026% | 
 | 530  | Dewgong            |  0.00112% | 60     |  0.026% | 35     |  0.027% | 
 | 531  | Whiscash           |  0.00112% | 54     |  0.024% | 28     |  0.022% | 
 | 532  | Paras              |  0.00111% | 60     |  0.026% | 22     |  0.017% | 
 | 533  | Servine            |  0.00110% | 27     |  0.012% | 15     |  0.012% | 
 | 534  | Lotad              |  0.00108% | 56     |  0.025% | 25     |  0.020% | 
 | 535  | Grovyle            |  0.00108% | 111    |  0.049% | 70     |  0.055% | 
 | 536  | Buneary            |  0.00106% | 77     |  0.034% | 37     |  0.029% | 
 | 537  | Dratini            |  0.00104% | 88     |  0.039% | 52     |  0.041% | 
 | 538  | Mothim             |  0.00103% | 21     |  0.009% | 12     |  0.009% | 
 | 539  | Braixen            |  0.00101% | 87     |  0.038% | 57     |  0.045% | 
 | 540  | Joltik             |  0.00101% | 29     |  0.013% | 21     |  0.016% | 
 | 541  | Pancham            |  0.00100% | 13     |  0.006% | 11     |  0.009% | 
 | 542  | Cacturne           |  0.00098% | 84     |  0.037% | 58     |  0.045% | 
 | 543  | Mightyena          |  0.00098% | 102    |  0.045% | 54     |  0.042% | 
 | 544  | Hitmonchan         |  0.00097% | 187    |  0.082% | 121    |  0.095% | 
 | 545  | Ducklett           |  0.00095% | 91     |  0.040% | 55     |  0.043% | 
 | 546  | Sudowoodo          |  0.00093% | 178    |  0.078% | 61     |  0.048% | 
 | 547  | Combusken          |  0.00092% | 82     |  0.036% | 59     |  0.046% | 
 | 548  | Heracross          |  0.00091% | 112    |  0.049% | 76     |  0.060% | 
 | 549  | Ariados            |  0.00090% | 159    |  0.070% | 127    |  0.099% | 
 | 550  | Beedrill           |  0.00085% | 20     |  0.009% | 14     |  0.011% | 
 | 551  | Hypno              |  0.00085% | 196    |  0.086% | 123    |  0.096% | 
 | 552  | Mesprit            |  0.00085% | 69     |  0.030% | 44     |  0.034% | 
 | 553  | Gible              |  0.00084% | 12     |  0.005% | 11     |  0.009% | 
 | 554  | Yanma              |  0.00084% | 8      |  0.004% | 8      |  0.006% | 
 | 555  | Golduck            |  0.00084% | 81     |  0.036% | 49     |  0.038% | 
 | 556  | Squirtle           |  0.00083% | 201    |  0.088% | 108    |  0.085% | 
 | 557  | Shellos            |  0.00080% | 16     |  0.007% | 8      |  0.006% | 
 | 558  | Hoothoot           |  0.00079% | 32     |  0.014% | 23     |  0.018% | 
 | 559  | Leavanny           |  0.00077% | 95     |  0.042% | 51     |  0.040% | 
 | 560  | Croagunk           |  0.00076% | 40     |  0.018% | 20     |  0.016% | 
 | 561  | Tynamo             |  0.00075% | 77     |  0.034% | 62     |  0.049% | 
 | 562  | Skrelp             |  0.00074% | 9      |  0.004% | 7      |  0.005% | 
 | 563  | Lickitung          |  0.00072% | 52     |  0.023% | 32     |  0.025% | 
 | 564  | Kricketune         |  0.00072% | 36     |  0.016% | 27     |  0.021% | 
 | 565  | Onix               |  0.00072% | 173    |  0.076% | 114    |  0.089% | 
 | 566  | Trapinch           |  0.00072% | 37     |  0.016% | 22     |  0.017% | 
 | 567  | Bagon              |  0.00071% | 26     |  0.011% | 21     |  0.016% | 
 | 568  | Floette            |  0.00065% | 72     |  0.032% | 36     |  0.028% | 
 | 569  | Vanillish          |  0.00063% | 21     |  0.009% | 17     |  0.013% | 
 | 570  | Zebstrika          |  0.00062% | 128    |  0.056% | 74     |  0.058% | 
 | 571  | Geodude            |  0.00061% | 48     |  0.021% | 28     |  0.022% | 
 | 572  | Swablu             |  0.00060% | 71     |  0.031% | 45     |  0.035% | 
 | 573  | Silcoon            |  0.00059% | 37     |  0.016% | 30     |  0.023% | 
 | 574  | Voltorb            |  0.00058% | 60     |  0.026% | 40     |  0.031% | 
 | 575  | Delibird           |  0.00057% | 89     |  0.039% | 65     |  0.051% | 
 | 576  | Spritzee           |  0.00056% | 16     |  0.007% | 10     |  0.008% | 
 | 577  | Sentret            |  0.00055% | 15     |  0.007% | 8      |  0.006% | 
 | 578  | Vulpix             |  0.00055% | 66     |  0.029% | 32     |  0.025% | 
 | 579  | Charmeleon         |  0.00054% | 104    |  0.046% | 64     |  0.050% | 
 | 580  | Liepard            |  0.00053% | 108    |  0.047% | 63     |  0.049% | 
 | 581  | Frogadier          |  0.00052% | 48     |  0.021% | 32     |  0.025% | 
 | 582  | Dragonair          |  0.00051% | 146    |  0.064% | 95     |  0.074% | 
 | 583  | Darumaka           |  0.00050% | 38     |  0.017% | 23     |  0.018% | 
 | 584  | Minccino           |  0.00048% | 24     |  0.011% | 17     |  0.013% | 
 | 585  | Oshawott           |  0.00048% | 24     |  0.011% | 14     |  0.011% | 
 | 586  | Finneon            |  0.00048% | 10     |  0.004% | 9      |  0.007% | 
 | 587  | Meditite           |  0.00047% | 2      |  0.001% | 2      |  0.002% | 
 | 588  | Illumise           |  0.00047% | 4      |  0.002% | 4      |  0.003% | 
 | 589  | Weepinbell         |  0.00047% | 16     |  0.007% | 14     |  0.011% | 
 | 590  | Binacle            |  0.00045% | 6      |  0.003% | 4      |  0.003% | 
 | 591  | Wingull            |  0.00045% | 17     |  0.007% | 15     |  0.012% | 
 | 592  | Carracosta         |  0.00043% | 127    |  0.056% | 67     |  0.052% | 
 | 593  | Bergmite           |  0.00042% | 93     |  0.041% | 63     |  0.049% | 
 | 594  | Beautifly          |  0.00042% | 36     |  0.016% | 27     |  0.021% | 
 | 595  | Watchog            |  0.00040% | 45     |  0.020% | 24     |  0.019% | 
 | 596  | Meowstic           |  0.00039% | 308    |  0.135% | 195    |  0.153% | 
 | 597  | Drifloon           |  0.00039% | 23     |  0.010% | 17     |  0.013% | 
 | 598  | Pignite            |  0.00039% | 50     |  0.022% | 25     |  0.020% | 
 | 599  | Mantyke            |  0.00038% | 98     |  0.043% | 68     |  0.053% | 
 | 600  | Vibrava            |  0.00037% | 35     |  0.015% | 25     |  0.020% | 
 | 601  | Tentacool          |  0.00036% | 30     |  0.013% | 19     |  0.015% | 
 | 602  | Monferno           |  0.00036% | 18     |  0.008% | 14     |  0.011% | 
 | 603  | Luvdisc            |  0.00036% | 43     |  0.019% | 33     |  0.026% | 
 | 604  | Sliggoo            |  0.00035% | 131    |  0.058% | 74     |  0.058% | 
 | 605  | Garbodor           |  0.00035% | 122    |  0.054% | 77     |  0.060% | 
 | 606  | Wooper             |  0.00034% | 62     |  0.027% | 34     |  0.027% | 
 | 607  | Gorebyss           |  0.00034% | 48     |  0.021% | 25     |  0.020% | 
 | 608  | Walrein            |  0.00032% | 196    |  0.086% | 124    |  0.097% | 
 | 609  | Pumpkaboo          |  0.00031% | 33     |  0.015% | 21     |  0.016% | 
 | 610  | Shiftry            |  0.00030% | 92     |  0.040% | 55     |  0.043% | 
 | 611  | Shelmet            |  0.00029% | 30     |  0.013% | 21     |  0.016% | 
 | 612  | Nincada            |  0.00029% | 5      |  0.002% | 2      |  0.002% | 
 | 613  | Wormadam-Sandy     |  0.00028% | 22     |  0.010% | 14     |  0.011% | 
 | 614  | Tyrunt             |  0.00028% | 30     |  0.013% | 17     |  0.013% | 
 | 615  | Hoppip             |  0.00028% | 66     |  0.029% | 49     |  0.038% | 
 | 616  | Medicham           |  0.00027% | 25     |  0.011% | 16     |  0.013% | 
 | 617  | Gloom              |  0.00027% | 19     |  0.008% | 14     |  0.011% | 
 | 618  | Spinarak           |  0.00025% | 17     |  0.007% | 6      |  0.005% | 
 | 619  | Magby              |  0.00025% | 8      |  0.004% | 6      |  0.005% | 
 | 620  | Klinklang          |  0.00024% | 117    |  0.051% | 60     |  0.047% | 
 | 621  | Surskit            |  0.00024% | 7      |  0.003% | 4      |  0.003% | 
 | 622  | Zangoose           |  0.00023% | 269    |  0.118% | 175    |  0.137% | 
 | 623  | Kecleon            |  0.00021% | 27     |  0.012% | 20     |  0.016% | 
 | 624  | Totodile           |  0.00021% | 32     |  0.014% | 20     |  0.016% | 
 | 625  | Frillish           |  0.00020% | 11     |  0.005% | 4      |  0.003% | 
 | 626  | Roselia            |  0.00020% | 12     |  0.005% | 8      |  0.006% | 
 | 627  | Cyndaquil          |  0.00019% | 18     |  0.008% | 13     |  0.010% | 
 | 628  | Lillipup           |  0.00018% | 46     |  0.020% | 20     |  0.016% | 
 | 629  | Stantler           |  0.00017% | 25     |  0.011% | 18     |  0.014% | 
 | 630  | Zweilous           |  0.00017% | 17     |  0.007% | 12     |  0.009% | 
 | 631  | Prinplup           |  0.00017% | 8      |  0.004% | 6      |  0.005% | 
 | 632  | Snorunt            |  0.00016% | 24     |  0.011% | 12     |  0.009% | 
 | 633  | Pumpkaboo-Super    |  0.00016% | 40     |  0.018% | 28     |  0.022% | 
 | 634  | Togepi             |  0.00016% | 60     |  0.026% | 30     |  0.023% | 
 | 635  | Rhyhorn            |  0.00016% | 39     |  0.017% | 25     |  0.020% | 
 | 636  | Spearow            |  0.00015% | 18     |  0.008% | 12     |  0.009% | 
 | 637  | Drowzee            |  0.00015% | 46     |  0.020% | 33     |  0.026% | 
 | 638  | Buizel             |  0.00015% | 49     |  0.022% | 31     |  0.024% | 
 | 639  | Bayleef            |  0.00015% | 89     |  0.039% | 36     |  0.028% | 
 | 640  | Metang             |  0.00014% | 34     |  0.015% | 20     |  0.016% | 
 | 641  | Scatterbug         |  0.00014% | 28     |  0.012% | 16     |  0.013% | 
 | 642  | Froakie            |  0.00014% | 90     |  0.040% | 54     |  0.042% | 
 | 643  | Pidgeotto          |  0.00013% | 24     |  0.011% | 20     |  0.016% | 
 | 644  | Pidgeot            |  0.00013% | 131    |  0.058% | 57     |  0.045% | 
 | 645  | Magmar             |  0.00013% | 105    |  0.046% | 61     |  0.048% | 
 | 646  | Aromatisse         |  0.00012% | 45     |  0.020% | 24     |  0.019% | 
 | 647  | Fennekin           |  0.00012% | 43     |  0.019% | 25     |  0.020% | 
 | 648  | Stunky             |  0.00011% | 4      |  0.002% | 2      |  0.002% | 
 | 649  | Clauncher          |  0.00011% | 2      |  0.001% | 1      |  0.001% | 
 | 650  | Kirlia             |  0.00011% | 32     |  0.014% | 18     |  0.014% | 
 | 651  | Croconaw           |  0.00011% | 21     |  0.009% | 14     |  0.011% | 
 | 652  | Torchic            |  0.00011% | 50     |  0.022% | 25     |  0.020% | 
 | 653  | Taillow            |  0.00011% | 80     |  0.035% | 60     |  0.047% | 
 | 654  | Gothitelle         |  0.00010% | 52     |  0.023% | 34     |  0.027% | 
 | 655  | Nidoqueen          |  0.00010% | 151    |  0.066% | 74     |  0.058% | 
 | 656  | Tirtouga           |  0.00010% | 8      |  0.004% | 5      |  0.004% | 
 | 657  | Banette            |  0.00009% | 51     |  0.022% | 38     |  0.030% | 
 | 658  | Spheal             |  0.00008% | 9      |  0.004% | 5      |  0.004% | 
 | 659  | Clefairy           |  0.00008% | 61     |  0.027% | 35     |  0.027% | 
 | 660  | Simipour           |  0.00008% | 36     |  0.016% | 23     |  0.018% | 
 | 661  | Simisear           |  0.00008% | 113    |  0.050% | 43     |  0.034% | 
 | 662  | Pansear            |  0.00008% | 4      |  0.002% | 4      |  0.003% | 
 | 663  | Pansage            |  0.00008% | 7      |  0.003% | 3      |  0.002% | 
 | 664  | Panpour            |  0.00008% | 2      |  0.001% | 2      |  0.002% | 
 | 665  | Shuppet            |  0.00008% | 22     |  0.010% | 14     |  0.011% | 
 | 666  | Pinsir             |  0.00007% | 36     |  0.016% | 21     |  0.016% | 
 | 667  | Tranquill          |  0.00007% | 4      |  0.002% | 4      |  0.003% | 
 | 668  | Slowpoke           |  0.00007% | 53     |  0.023% | 47     |  0.037% | 
 | 669  | Teddiursa          |  0.00007% | 55     |  0.024% | 23     |  0.018% | 
 | 670  | Cubchoo            |  0.00007% | 12     |  0.005% | 9      |  0.007% | 
 | 671  | Meowth             |  0.00006% | 59     |  0.026% | 26     |  0.020% | 
 | 672  | Azurill            |  0.00006% | 23     |  0.010% | 11     |  0.009% | 
 | 673  | Amaura             |  0.00006% | 25     |  0.011% | 17     |  0.013% | 
 | 674  | Fletchinder        |  0.00006% | 32     |  0.014% | 22     |  0.017% | 
 | 675  | Pumpkaboo-Small    |  0.00005% | 18     |  0.008% | 16     |  0.013% | 
 | 676  | Lopunny            |  0.00005% | 115    |  0.051% | 91     |  0.071% | 
 | 677  | Litwick            |  0.00005% | 23     |  0.010% | 20     |  0.016% | 
 | 678  | Corphish           |  0.00005% | 25     |  0.011% | 16     |  0.013% | 
 | 679  | Phione             |  0.00005% | 36     |  0.016% | 20     |  0.016% | 
 | 680  | Elekid             |  0.00005% | 27     |  0.012% | 8      |  0.006% | 
 | 681  | Flabebe            |  0.00005% | 23     |  0.010% | 14     |  0.011% | 
 | 682  | Chingling          |  0.00004% | 8      |  0.004% | 7      |  0.005% | 
 | 683  | Cryogonal          |  0.00004% | 46     |  0.020% | 29     |  0.023% | 
 | 684  | Kricketot          |  0.00004% | 16     |  0.007% | 8      |  0.006% | 
 | 685  | Natu               |  0.00004% | 89     |  0.039% | 19     |  0.015% | 
 | 686  | Cherubi            |  0.00004% | 7      |  0.003% | 6      |  0.005% | 
 | 687  | Bonsly             |  0.00004% | 51     |  0.022% | 30     |  0.023% | 
 | 688  | Skitty             |  0.00004% | 11     |  0.005% | 10     |  0.008% | 
 | 689  | Carvanha           |  0.00003% | 20     |  0.009% | 13     |  0.010% | 
 | 690  | Lombre             |  0.00003% | 10     |  0.004% | 9      |  0.007% | 
 | 691  | Gulpin             |  0.00003% | 10     |  0.004% | 6      |  0.005% | 
 | 692  | Treecko            |  0.00002% | 36     |  0.016% | 26     |  0.020% | 
 | 693  | Doduo              |  0.00002% | 61     |  0.027% | 31     |  0.024% | 
 | 694  | Phanpy             |  0.00002% | 5      |  0.002% | 3      |  0.002% | 
 | 695  | Herdier            |  0.00002% | 24     |  0.011% | 14     |  0.011% | 
 | 696  | Noibat             |  0.00002% | 22     |  0.010% | 11     |  0.009% | 
 | 697  | Huntail            |  0.00002% | 40     |  0.018% | 20     |  0.016% | 
 | 698  | Manectric          |  0.00002% | 45     |  0.020% | 32     |  0.025% | 
 | 699  | Mankey             |  0.00002% | 8      |  0.004% | 6      |  0.005% | 
 | 700  | Klink              |  0.00002% | 3      |  0.001% | 3      |  0.002% | 
 | 701  | Throh              |  0.00002% | 50     |  0.022% | 22     |  0.017% | 
 | 702  | Solrock            |  0.00001% | 55     |  0.024% | 41     |  0.032% | 
 | 703  | Slugma             |  0.00001% | 12     |  0.005% | 6      |  0.005% | 
 | 704  | Mareep             |  0.00001% | 31     |  0.014% | 18     |  0.014% | 
 | 705  | Roggenrola         |  0.00001% | 51     |  0.022% | 34     |  0.027% | 
 | 706  | Purugly            |  0.00001% | 63     |  0.028% | 37     |  0.029% | 
 | 707  | Cascoon            |  0.00001% | 5      |  0.002% | 4      |  0.003% | 
 | 708  | Tyrogue            |  0.00001% | 31     |  0.014% | 13     |  0.010% | 
 | 709  | Seaking            |  0.00001% | 73     |  0.032% | 40     |  0.031% | 
 | 710  | Staravia           |  0.00001% | 38     |  0.017% | 9      |  0.007% | 
 | 711  | Lumineon           |  0.00001% | 22     |  0.010% | 16     |  0.013% | 
 | 712  | Bunnelby           |  0.00001% | 13     |  0.006% | 8      |  0.006% | 
 | 713  | Pumpkaboo-Large    |  0.00001% | 6      |  0.003% | 3      |  0.002% | 
 | 714  | Nidorino           |  0.00001% | 11     |  0.005% | 6      |  0.005% | 
 | 715  | Turtwig            |  0.00000% | 36     |  0.016% | 25     |  0.020% | 
 | 716  | Palpitoad          |  0.00000% | 27     |  0.012% | 22     |  0.017% | 
 | 717  | Volbeat            |  0.00000% | 34     |  0.015% | 22     |  0.017% | 
 | 718  | Grimer             |  0.00000% | 20     |  0.009% | 12     |  0.009% | 
 | 719  | Marill             |  0.00000% | 17     |  0.007% | 13     |  0.010% | 
 | 720  | Pawniard           |  0.00000% | 95     |  0.042% | 48     |  0.038% | 
 | 721  | Grumpig            |  0.00000% | 19     |  0.008% | 12     |  0.009% | 
 | 722  | Piloswine          |  0.00000% | 12     |  0.005% | 10     |  0.008% | 
 | 723  | Mime Jr.           |  0.00000% | 45     |  0.020% | 42     |  0.033% | 
 | 724  | Burmy              |  0.00000% | 15     |  0.007% | 13     |  0.010% | 
 | 725  | Swoobat            |  0.00000% | 31     |  0.014% | 20     |  0.016% | 
 | 726  | Psyduck            |  0.00000% | 81     |  0.036% | 58     |  0.045% | 
 | 727  | Quilladin          |  0.00000% | 8      |  0.004% | 4      |  0.003% | 
 | 728  | Cleffa             |  0.00000% | 28     |  0.012% | 19     |  0.015% | 
 | 729  | Ekans              |  0.00000% | 38     |  0.017% | 31     |  0.024% | 
 | 730  | Sandshrew          |  0.00000% | 49     |  0.022% | 21     |  0.016% | 
 | 731  | Nidorina           |  0.00000% | 7      |  0.003% | 6      |  0.005% | 
 | 732  | Ledyba             |  0.00000% | 7      |  0.003% | 6      |  0.005% | 
 | 733  | Dwebble            |  0.00000% | 10     |  0.004% | 9      |  0.007% | 
 | 734  | Gourgeist-Large    |  0.00000% | 10     |  0.004% | 4      |  0.003% | 
 | 735  | Scraggy            |  0.00000% | 20     |  0.009% | 11     |  0.009% | 
 | 736  | Patrat             |  0.00000% | 8      |  0.004% | 5      |  0.004% | 
 | 737  | Electabuzz         |  0.00000% | 30     |  0.013% | 15     |  0.012% | 
 | 738  | Bronzor            |  0.00000% | 14     |  0.006% | 13     |  0.010% | 
 | 739  | Larvesta           |  0.00000% | 5      |  0.002% | 4      |  0.003% | 
 | 740  | Chinchou           |  0.00000% | 3      |  0.001% | 3      |  0.002% | 
 | 741  | Staryu             |  0.00000% | 6      |  0.003% | 5      |  0.004% | 
 | 742  | Mienfoo            |  0.00000% | 13     |  0.006% | 8      |  0.006% | 
 | 743  | Kabuto             |  0.00000% | 15     |  0.007% | 10     |  0.008% | 
 | 744  | Sealeo             |  0.00000% | 19     |  0.008% | 12     |  0.009% | 
 | 745  | Carnivine          |  0.00000% | 8      |  0.004% | 7      |  0.005% | 
 | 746  | Snover             |  0.00000% | 16     |  0.007% | 14     |  0.011% | 
 | 747  | Larvitar           |  0.00000% | 18     |  0.008% | 15     |  0.012% | 
 | 748  | Glameow            |  0.00000% | 41     |  0.018% | 16     |  0.013% | 
 | 749  | Litleo             |  0.00000% | 18     |  0.008% | 14     |  0.011% | 
 | 750  | Espurr             |  0.00000% | 13     |  0.006% | 9      |  0.007% | 
 | 751  | Chespin            |  0.00000% | 30     |  0.013% | 22     |  0.017% | 
 | 752  | Pupitar            |  0.00000% | 13     |  0.006% | 11     |  0.009% | 
 | 753  | Whismur            |  0.00000% | 8      |  0.004% | 4      |  0.003% | 
 | 754  | Blitzle            |  0.00000% | 6      |  0.003% | 4      |  0.003% | 
 | 755  | Sandile            |  0.00000% | 24     |  0.011% | 12     |  0.009% | 
 | 756  | Elgyem             |  0.00000% | 1      |  0.000% | 1      |  0.001% | 
 | 757  | Nuzleaf            |  0.00000% | 1      |  0.000% | 1      |  0.001% | 
 | 758  | Combee             |  0.00000% | 26     |  0.011% | 19     |  0.015% | 
 | 759  | Shinx              |  0.00000% | 19     |  0.008% | 16     |  0.013% | 
 | 760  | Growlithe          |  0.00000% | 19     |  0.008% | 16     |  0.013% | 
 | 761  | Shroomish          |  0.00000% | 29     |  0.013% | 14     |  0.011% | 
 | 762  | Cranidos           |  0.00000% | 41     |  0.018% | 23     |  0.018% | 
 | 763  | Drilbur            |  0.00000% | 15     |  0.007% | 6      |  0.005% | 
 | 764  | Pidove             |  0.00000% | 62     |  0.027% | 43     |  0.034% | 
 | 765  | Poochyena          |  0.00000% | 67     |  0.029% | 24     |  0.019% | 
 | 766  | Makuhita           |  0.00000% | 9      |  0.004% | 5      |  0.004% | 
 | 767  | Boldore            |  0.00000% | 6      |  0.003% | 4      |  0.003% | 
 | 768  | Skiddo             |  0.00000% | 6      |  0.003% | 5      |  0.004% | 
 | 769  | Inkay              |  0.00000% | 6      |  0.003% | 4      |  0.003% | 
 | 770  | Shellder           |  0.00000% | 16     |  0.007% | 7      |  0.005% | 
 | 771  | Woobat             |  0.00000% | 5      |  0.002% | 3      |  0.002% | 
 | 772  | Anorith            |  0.00000% | 8      |  0.004% | 5      |  0.004% | 
 | 773  | Seel               |  0.00000% | 14     |  0.006% | 10     |  0.008% | 
 | 774  | Fletchling         |  0.00000% | 62     |  0.027% | 33     |  0.026% | 
 | 775  | Shieldon           |  0.00000% | 27     |  0.012% | 14     |  0.011% | 
 | 776  | Dustox             |  0.00000% | 18     |  0.008% | 8      |  0.006% | 
 | 777  | Loudred            |  0.00000% | 5      |  0.002% | 3      |  0.002% | 
 | 778  | Graveler           |  0.00000% | 11     |  0.005% | 8      |  0.006% | 
 | 779  | Xatu               |  0.00000% | 35     |  0.015% | 26     |  0.020% | 
 | 780  | Eelektrik          |  0.00000% | 4      |  0.002% | 3      |  0.002% | 
 | 781  | Rufflet            |  0.00000% | 12     |  0.005% | 5      |  0.004% | 
 | 782  | Skiploom           |  0.00000% | 11     |  0.005% | 8      |  0.006% | 
 | 783  | Goldeen            |  0.00000% | 1      |  0.000% | 0      |  0.000% | 
 | 784  | Poliwag            |  0.00000% | 2      |  0.001% | 2      |  0.002% | 
 | 785  | NidoranF           |  0.00000% | 2      |  0.001% | 2      |  0.002% | 
 | 786  | Baltoy             |  0.00000% | 3      |  0.001% | 3      |  0.002% | 
 | 787  | Purrloin           |  0.00000% | 24     |  0.011% | 17     |  0.013% | 
 | 788  | Horsea             |  0.00000% | 7      |  0.003% | 6      |  0.005% | 
 | 789  | Luxio              |  0.00000% | 15     |  0.007% | 8      |  0.006% | 
 | 790  | Spoink             |  0.00000% | 9      |  0.004% | 7      |  0.005% | 
 | 791  | Wormadam           |  0.00000% | 3      |  0.001% | 0      |  0.000% | 
 | 792  | Poliwhirl          |  0.00000% | 5      |  0.002% | 3      |  0.002% | 
 | 793  | Skorupi            |  0.00000% | 1      |  0.000% | 1      |  0.001% | 
 | 794  | Tympole            |  0.00000% | 12     |  0.005% | 8      |  0.006% | 
 | 795  | Solosis            |  0.00000% | 3      |  0.001% | 2      |  0.002% | 
 | 796  | Timburr            |  0.00000% | 1      |  0.000% | 0      |  0.000% | 
 | 797  | Karrablast         |  0.00000% | 6      |  0.003% | 4      |  0.003% | 
 | 798  | Fraxure            |  0.00000% | 6      |  0.003% | 5      |  0.004% | 
 | 799  | Petilil            |  0.00000% | 2      |  0.001% | 2      |  0.002% | 
 | 800  | Munna              |  0.00000% | 1      |  0.000% | 1      |  0.001% | 
 | 801  | Cacnea             |  0.00000% | 9      |  0.004% | 8      |  0.006% | 
 | 802  | Lileep             |  0.00000% | 2      |  0.001% | 2      |  0.002% | 
 | 803  | Aipom              |  0.00000% | 16     |  0.007% | 8      |  0.006% | 
 | 804  | Deerling           |  0.00000% | 3      |  0.001% | 2      |  0.002% | 
 | 805  | Grotle             |  0.00000% | 6      |  0.003% | 3      |  0.002% | 
 | 806  | Exeggcute          |  0.00000% | 16     |  0.007% | 15     |  0.012% | 
 | 807  | Axew               |  0.00000% | 4      |  0.002% | 3      |  0.002% | 
 | 808  | Krabby             |  0.00000% | 18     |  0.008% | 13     |  0.010% | 
 + ---- + ------------------ + --------- + ------ + ------- + ------ + ------- + 
