 Total battles: 5591
 Avg. weight/team: 0.046
 + ---- + ------------------ + --------- + ------ + ------- + ------ + ------- + 
 | Rank | Pokemon            | Usage %   | Raw    | %       | Real   | %       | 
 + ---- + ------------------ + --------- + ------ + ------- + ------ + ------- + 
 | 1    | Landorus-Therian   | 38.51487% | 1147   | 10.258% | 0      |  0.000% | 
 | 2    | Hitmontop          | 30.54361% | 835    |  7.467% | 0      |  0.000% | 
 | 3    | Sylveon            | 29.85831% | 1554   | 13.897% | 0      |  0.000% | 
 | 4    | Aegislash          | 27.41579% | 888    |  7.941% | 0      |  0.000% | 
 | 5    | Charizard-Mega-Y   | 23.87542% | 1026   |  9.175% | 0      |  0.000% | 
 | 6    | Smeargle           | 23.03993% | 928    |  8.299% | 0      |  0.000% | 
 | 7    | Amoonguss          | 21.80116% | 569    |  5.089% | 0      |  0.000% | 
 | 8    | Talonflame         | 21.30715% | 1052   |  9.408% | 0      |  0.000% | 
 | 9    | Kangaskhan-Mega    | 20.45351% | 650    |  5.813% | 0      |  0.000% | 
 | 10   | Gothitelle         | 18.98793% | 385    |  3.443% | 0      |  0.000% | 
 | 11   | Heatran            | 18.68640% | 484    |  4.328% | 0      |  0.000% | 
 | 12   | Tyranitar          | 18.61678% | 708    |  6.332% | 0      |  0.000% | 
 | 13   | Salamence-Mega     | 16.37855% | 920    |  8.228% | 0      |  0.000% | 
 | 14   | Excadrill          | 16.37340% | 357    |  3.193% | 0      |  0.000% | 
 | 15   | Hariyama           | 15.09399% | 241    |  2.155% | 0      |  0.000% | 
 | 16   | Whimsicott         | 14.92744% | 766    |  6.850% | 0      |  0.000% | 
 | 17   | Terrakion          | 14.48359% | 342    |  3.058% | 0      |  0.000% | 
 | 18   | Gastrodon          | 10.55122% | 152    |  1.359% | 0      |  0.000% | 
 | 19   | Gengar-Mega        |  8.12164% | 554    |  4.954% | 0      |  0.000% | 
 | 20   | Cresselia          |  7.25831% | 337    |  3.014% | 0      |  0.000% | 
 | 21   | Hydreigon          |  6.52283% | 525    |  4.695% | 0      |  0.000% | 
 | 22   | Azumarill          |  5.73399% | 388    |  3.470% | 0      |  0.000% | 
 | 23   | Jellicent          |  5.36511% | 425    |  3.801% | 0      |  0.000% | 
 | 24   | Thundurus          |  5.32465% | 262    |  2.343% | 0      |  0.000% | 
 | 25   | Politoed           |  5.24257% | 564    |  5.044% | 0      |  0.000% | 
 | 26   | Aerodactyl         |  4.78646% | 200    |  1.789% | 0      |  0.000% | 
 | 27   | Clefable           |  4.68372% | 327    |  2.924% | 0      |  0.000% | 
 | 28   | Meowstic           |  4.59473% | 534    |  4.776% | 0      |  0.000% | 
 | 29   | Blastoise-Mega     |  4.12506% | 404    |  3.613% | 0      |  0.000% | 
 | 30   | Jigglypuff         |  3.99807% | 81     |  0.724% | 0      |  0.000% | 
 | 31   | Milotic            |  3.80678% | 293    |  2.620% | 0      |  0.000% | 
 | 32   | Gardevoir-Mega     |  3.74473% | 618    |  5.527% | 0      |  0.000% | 
 | 33   | Vivillon           |  3.27441% | 85     |  0.760% | 0      |  0.000% | 
 | 34   | Audino-Mega        |  3.21597% | 184    |  1.646% | 0      |  0.000% | 
 | 35   | Ambipom            |  3.08772% | 515    |  4.606% | 0      |  0.000% | 
 | 36   | Aurorus            |  3.07205% | 663    |  5.929% | 0      |  0.000% | 
 | 37   | Camerupt-Mega      |  3.00379% | 291    |  2.602% | 0      |  0.000% | 
 | 38   | Krookodile         |  3.00221% | 251    |  2.245% | 0      |  0.000% | 
 | 39   | Liepard            |  2.94579% | 134    |  1.198% | 0      |  0.000% | 
 | 40   | Garchomp           |  2.88838% | 544    |  4.865% | 0      |  0.000% | 
 | 41   | Mawile-Mega        |  2.80288% | 223    |  1.994% | 0      |  0.000% | 
 | 42   | Ludicolo           |  2.69813% | 284    |  2.540% | 0      |  0.000% | 
 | 43   | Greninja           |  2.50217% | 1599   | 14.300% | 0      |  0.000% | 
 | 44   | Regigigas          |  2.39302% | 136    |  1.216% | 0      |  0.000% | 
 | 45   | Goodra             |  2.32619% | 234    |  2.093% | 0      |  0.000% | 
 | 46   | Toxicroak          |  2.28829% | 171    |  1.529% | 0      |  0.000% | 
 | 47   | Scizor             |  2.10931% | 142    |  1.270% | 0      |  0.000% | 
 | 48   | Durant             |  1.96442% | 53     |  0.474% | 0      |  0.000% | 
 | 49   | Electrode          |  1.91240% | 536    |  4.793% | 0      |  0.000% | 
 | 50   | Bisharp            |  1.90544% | 389    |  3.479% | 0      |  0.000% | 
 | 51   | Weavile            |  1.87375% | 727    |  6.502% | 0      |  0.000% | 
 | 52   | Aromatisse         |  1.87001% | 88     |  0.787% | 0      |  0.000% | 
 | 53   | Metagross-Mega     |  1.84891% | 266    |  2.379% | 0      |  0.000% | 
 | 54   | Zapdos             |  1.83917% | 258    |  2.307% | 0      |  0.000% | 
 | 55   | Metagross          |  1.82814% | 212    |  1.896% | 0      |  0.000% | 
 | 56   | Hippowdon          |  1.82630% | 407    |  3.640% | 0      |  0.000% | 
 | 57   | Ferrothorn         |  1.77095% | 392    |  3.506% | 0      |  0.000% | 
 | 58   | Suicune            |  1.73480% | 156    |  1.395% | 0      |  0.000% | 
 | 59   | Kingdra            |  1.66674% | 319    |  2.853% | 0      |  0.000% | 
 | 60   | Porygon-Z          |  1.59294% | 441    |  3.944% | 0      |  0.000% | 
 | 61   | Tyranitar-Mega     |  1.58811% | 244    |  2.182% | 0      |  0.000% | 
 | 62   | Snorlax            |  1.54834% | 842    |  7.530% | 0      |  0.000% | 
 | 63   | Cofagrigus         |  1.53614% | 156    |  1.395% | 0      |  0.000% | 
 | 64   | Dusclops           |  1.52756% | 137    |  1.225% | 0      |  0.000% | 
 | 65   | Scrafty            |  1.47844% | 186    |  1.663% | 0      |  0.000% | 
 | 66   | Accelgor           |  1.47500% | 375    |  3.354% | 0      |  0.000% | 
 | 67   | Garchomp-Mega      |  1.41100% | 500    |  4.471% | 0      |  0.000% | 
 | 68   | Aerodactyl-Mega    |  1.39901% | 204    |  1.824% | 0      |  0.000% | 
 | 69   | Togekiss           |  1.39219% | 423    |  3.783% | 0      |  0.000% | 
 | 70   | Reuniclus          |  1.36591% | 166    |  1.485% | 0      |  0.000% | 
 | 71   | Abomasnow-Mega     |  1.34075% | 170    |  1.520% | 0      |  0.000% | 
 | 72   | Klefki             |  1.32823% | 178    |  1.592% | 0      |  0.000% | 
 | 73   | Bronzong           |  1.29750% | 265    |  2.370% | 0      |  0.000% | 
 | 74   | Swampert-Mega      |  1.28977% | 335    |  2.996% | 0      |  0.000% | 
 | 75   | Kecleon            |  1.18478% | 33     |  0.295% | 0      |  0.000% | 
 | 76   | Dragonite          |  1.14854% | 557    |  4.981% | 0      |  0.000% | 
 | 77   | Dragalge           |  1.12581% | 64     |  0.572% | 0      |  0.000% | 
 | 78   | Lapras             |  1.04225% | 449    |  4.015% | 0      |  0.000% | 
 | 79   | Mr. Mime           |  1.03454% | 167    |  1.493% | 0      |  0.000% | 
 | 80   | Golem              |  1.00867% | 154    |  1.377% | 0      |  0.000% | 
 | 81   | Rotom-Wash         |  0.94660% | 305    |  2.728% | 0      |  0.000% | 
 | 82   | Aggron             |  0.90978% | 117    |  1.046% | 0      |  0.000% | 
 | 83   | Vaporeon           |  0.88891% | 486    |  4.346% | 0      |  0.000% | 
 | 84   | Typhlosion         |  0.87413% | 204    |  1.824% | 0      |  0.000% | 
 | 85   | Ninetales          |  0.86782% | 398    |  3.559% | 0      |  0.000% | 
 | 86   | Sceptile-Mega      |  0.83945% | 871    |  7.789% | 0      |  0.000% | 
 | 87   | Venusaur           |  0.79999% | 293    |  2.620% | 0      |  0.000% | 
 | 88   | Slowking           |  0.79961% | 66     |  0.590% | 0      |  0.000% | 
 | 89   | Probopass          |  0.78441% | 49     |  0.438% | 0      |  0.000% | 
 | 90   | Machamp            |  0.75919% | 219    |  1.959% | 0      |  0.000% | 
 | 91   | Steelix-Mega       |  0.75717% | 156    |  1.395% | 0      |  0.000% | 
 | 92   | Sableye            |  0.74120% | 275    |  2.459% | 0      |  0.000% | 
 | 93   | Slowbro            |  0.73890% | 96     |  0.859% | 0      |  0.000% | 
 | 94   | Gardevoir          |  0.73052% | 463    |  4.141% | 0      |  0.000% | 
 | 95   | Dusknoir           |  0.72565% | 114    |  1.019% | 0      |  0.000% | 
 | 96   | Florges            |  0.72435% | 263    |  2.352% | 0      |  0.000% | 
 | 97   | Cradily            |  0.71396% | 97     |  0.867% | 0      |  0.000% | 
 | 98   | Electivire         |  0.70098% | 535    |  4.784% | 0      |  0.000% | 
 | 99   | Chandelure         |  0.69606% | 571    |  5.106% | 0      |  0.000% | 
 | 100  | Musharna           |  0.69297% | 68     |  0.608% | 0      |  0.000% | 
 | 101  | Arcanine           |  0.68996% | 275    |  2.459% | 0      |  0.000% | 
 | 102  | Noivern            |  0.66613% | 329    |  2.942% | 0      |  0.000% | 
 | 103  | Raikou             |  0.65248% | 119    |  1.064% | 0      |  0.000% | 
 | 104  | Rotom-Mow          |  0.64726% | 86     |  0.769% | 0      |  0.000% | 
 | 105  | Latias             |  0.59978% | 48     |  0.429% | 0      |  0.000% | 
 | 106  | Weezing            |  0.58870% | 93     |  0.832% | 0      |  0.000% | 
 | 107  | Feraligatr         |  0.58841% | 161    |  1.440% | 0      |  0.000% | 
 | 108  | Stoutland          |  0.58519% | 121    |  1.082% | 0      |  0.000% | 
 | 109  | Gigalith           |  0.57650% | 104    |  0.930% | 0      |  0.000% | 
 | 110  | Thundurus-Therian  |  0.57244% | 430    |  3.845% | 0      |  0.000% | 
 | 111  | Gliscor            |  0.56033% | 297    |  2.656% | 0      |  0.000% | 
 | 112  | Conkeldurr         |  0.55593% | 155    |  1.386% | 0      |  0.000% | 
 | 113  | Marowak            |  0.53602% | 105    |  0.939% | 0      |  0.000% | 
 | 114  | Doublade           |  0.52906% | 84     |  0.751% | 0      |  0.000% | 
 | 115  | Volcarona          |  0.51081% | 162    |  1.449% | 0      |  0.000% | 
 | 116  | Torterra           |  0.50655% | 193    |  1.726% | 0      |  0.000% | 
 | 117  | Lanturn            |  0.50438% | 443    |  3.962% | 0      |  0.000% | 
 | 118  | Roserade           |  0.49289% | 164    |  1.467% | 0      |  0.000% | 
 | 119  | Machop             |  0.48055% | 6      |  0.054% | 0      |  0.000% | 
 | 120  | Chesnaught         |  0.47973% | 155    |  1.386% | 0      |  0.000% | 
 | 121  | Seismitoad         |  0.47900% | 66     |  0.590% | 0      |  0.000% | 
 | 122  | Tauros             |  0.47863% | 104    |  0.930% | 0      |  0.000% | 
 | 123  | Manectric-Mega     |  0.47322% | 324    |  2.898% | 0      |  0.000% | 
 | 124  | Mienshao           |  0.44469% | 164    |  1.467% | 0      |  0.000% | 
 | 125  | Serperior          |  0.43487% | 545    |  4.874% | 0      |  0.000% | 
 | 126  | Rotom-Heat         |  0.42472% | 58     |  0.519% | 0      |  0.000% | 
 | 127  | Machoke            |  0.42269% | 10     |  0.089% | 0      |  0.000% | 
 | 128  | Exploud            |  0.41637% | 269    |  2.406% | 0      |  0.000% | 
 | 129  | Gallade            |  0.41381% | 89     |  0.796% | 0      |  0.000% | 
 | 130  | Infernape          |  0.40127% | 273    |  2.441% | 0      |  0.000% | 
 | 131  | Jolteon            |  0.38959% | 382    |  3.416% | 0      |  0.000% | 
 | 132  | Ampharos-Mega      |  0.38603% | 150    |  1.341% | 0      |  0.000% | 
 | 133  | Heliolisk          |  0.37933% | 199    |  1.780% | 0      |  0.000% | 
 | 134  | Lopunny-Mega       |  0.37816% | 214    |  1.914% | 0      |  0.000% | 
 | 135  | Dedenne            |  0.37611% | 43     |  0.385% | 0      |  0.000% | 
 | 136  | Moltres            |  0.37533% | 43     |  0.385% | 0      |  0.000% | 
 | 137  | Dewgong            |  0.37234% | 67     |  0.599% | 0      |  0.000% | 
 | 138  | Poliwrath          |  0.35596% | 154    |  1.377% | 0      |  0.000% | 
 | 139  | Mantine            |  0.34985% | 155    |  1.386% | 0      |  0.000% | 
 | 140  | Articuno           |  0.34071% | 88     |  0.787% | 0      |  0.000% | 
 | 141  | Pyroar             |  0.33286% | 97     |  0.867% | 0      |  0.000% | 
 | 142  | Blastoise          |  0.33283% | 193    |  1.726% | 0      |  0.000% | 
 | 143  | Gyarados           |  0.33282% | 196    |  1.753% | 0      |  0.000% | 
 | 144  | Crobat             |  0.32068% | 186    |  1.663% | 0      |  0.000% | 
 | 145  | Cherrim            |  0.30149% | 66     |  0.590% | 0      |  0.000% | 
 | 146  | Magnezone          |  0.30119% | 209    |  1.869% | 0      |  0.000% | 
 | 147  | Uxie               |  0.29838% | 8      |  0.072% | 0      |  0.000% | 
 | 148  | Houndoom-Mega      |  0.29651% | 130    |  1.163% | 0      |  0.000% | 
 | 149  | Hypno              |  0.26856% | 39     |  0.349% | 0      |  0.000% | 
 | 150  | Shiftry            |  0.26280% | 20     |  0.179% | 0      |  0.000% | 
 | 151  | Shuckle            |  0.26114% | 141    |  1.261% | 0      |  0.000% | 
 | 152  | Manectric          |  0.25996% | 286    |  2.558% | 0      |  0.000% | 
 | 153  | Quagsire           |  0.25757% | 146    |  1.306% | 0      |  0.000% | 
 | 154  | Dunsparce          |  0.24175% | 46     |  0.411% | 0      |  0.000% | 
 | 155  | Masquerain         |  0.24146% | 17     |  0.152% | 0      |  0.000% | 
 | 156  | Leafeon            |  0.23698% | 133    |  1.189% | 0      |  0.000% | 
 | 157  | Shedinja           |  0.23364% | 410    |  3.667% | 0      |  0.000% | 
 | 158  | Victreebel         |  0.23168% | 64     |  0.572% | 0      |  0.000% | 
 | 159  | Muk                |  0.22964% | 81     |  0.724% | 0      |  0.000% | 
 | 160  | Starmie            |  0.22541% | 94     |  0.841% | 0      |  0.000% | 
 | 161  | Porygon2           |  0.22048% | 111    |  0.993% | 0      |  0.000% | 
 | 162  | Breloom            |  0.21977% | 153    |  1.368% | 0      |  0.000% | 
 | 163  | Claydol            |  0.21948% | 99     |  0.885% | 0      |  0.000% | 
 | 164  | Gengar             |  0.21657% | 401    |  3.586% | 0      |  0.000% | 
 | 165  | Togetic            |  0.21624% | 85     |  0.760% | 0      |  0.000% | 
 | 166  | Meganium           |  0.21014% | 70     |  0.626% | 0      |  0.000% | 
 | 167  | Glaceon            |  0.20699% | 109    |  0.975% | 0      |  0.000% | 
 | 168  | Bouffalant         |  0.20575% | 44     |  0.393% | 0      |  0.000% | 
 | 169  | Lilligant          |  0.19854% | 91     |  0.814% | 0      |  0.000% | 
 | 170  | Sableye-Mega       |  0.19562% | 224    |  2.003% | 0      |  0.000% | 
 | 171  | Linoone            |  0.18869% | 84     |  0.751% | 0      |  0.000% | 
 | 172  | Gyarados-Mega      |  0.18623% | 176    |  1.574% | 0      |  0.000% | 
 | 173  | Murkrow            |  0.18508% | 83     |  0.742% | 0      |  0.000% | 
 | 174  | Tornadus-Therian   |  0.18184% | 60     |  0.537% | 0      |  0.000% | 
 | 175  | Abomasnow          |  0.18135% | 65     |  0.581% | 0      |  0.000% | 
 | 176  | Ampharos           |  0.18097% | 78     |  0.698% | 0      |  0.000% | 
 | 177  | Seaking            |  0.18052% | 59     |  0.528% | 0      |  0.000% | 
 | 178  | Klinklang          |  0.17909% | 83     |  0.742% | 0      |  0.000% | 
 | 179  | Purugly            |  0.17894% | 64     |  0.572% | 0      |  0.000% | 
 | 180  | Furret             |  0.17815% | 48     |  0.429% | 0      |  0.000% | 
 | 181  | Rhyperior          |  0.17488% | 125    |  1.118% | 0      |  0.000% | 
 | 182  | Venusaur-Mega      |  0.17301% | 273    |  2.441% | 0      |  0.000% | 
 | 183  | Escavalier         |  0.17184% | 44     |  0.393% | 0      |  0.000% | 
 | 184  | Archeops           |  0.16151% | 108    |  0.966% | 0      |  0.000% | 
 | 185  | Spiritomb          |  0.16038% | 54     |  0.483% | 0      |  0.000% | 
 | 186  | Zebstrika          |  0.15909% | 167    |  1.493% | 0      |  0.000% | 
 | 187  | Beedrill-Mega      |  0.15724% | 67     |  0.599% | 0      |  0.000% | 
 | 188  | Medicham           |  0.15248% | 82     |  0.733% | 0      |  0.000% | 
 | 189  | Pelipper           |  0.15145% | 23     |  0.206% | 0      |  0.000% | 
 | 190  | Spinda             |  0.15144% | 25     |  0.224% | 0      |  0.000% | 
 | 191  | Chansey            |  0.14742% | 170    |  1.520% | 0      |  0.000% | 
 | 192  | Minun              |  0.14686% | 73     |  0.653% | 0      |  0.000% | 
 | 193  | Hitmonlee          |  0.14318% | 99     |  0.885% | 0      |  0.000% | 
 | 194  | Golurk             |  0.14309% | 75     |  0.671% | 0      |  0.000% | 
 | 195  | Blissey            |  0.14236% | 170    |  1.520% | 0      |  0.000% | 
 | 196  | Tornadus           |  0.13977% | 56     |  0.501% | 0      |  0.000% | 
 | 197  | Delphox            |  0.13839% | 145    |  1.297% | 0      |  0.000% | 
 | 198  | Sandslash          |  0.12994% | 25     |  0.224% | 0      |  0.000% | 
 | 199  | Scolipede          |  0.12916% | 81     |  0.724% | 0      |  0.000% | 
 | 200  | Malamar            |  0.12658% | 92     |  0.823% | 0      |  0.000% | 
 | 201  | Slurpuff           |  0.12612% | 53     |  0.474% | 0      |  0.000% | 
 | 202  | Qwilfish           |  0.12251% | 34     |  0.304% | 0      |  0.000% | 
 | 203  | Seel               |  0.12249% | 27     |  0.241% | 0      |  0.000% | 
 | 204  | Swampert           |  0.12102% | 109    |  0.975% | 0      |  0.000% | 
 | 205  | Salamence          |  0.11974% | 72     |  0.644% | 0      |  0.000% | 
 | 206  | Carbink            |  0.11862% | 230    |  2.057% | 0      |  0.000% | 
 | 207  | Kabutops           |  0.11843% | 41     |  0.367% | 0      |  0.000% | 
 | 208  | Armaldo            |  0.11700% | 37     |  0.331% | 0      |  0.000% | 
 | 209  | Charizard-Mega-X   |  0.11669% | 714    |  6.385% | 0      |  0.000% | 
 | 210  | Banette-Mega       |  0.11367% | 103    |  0.921% | 0      |  0.000% | 
 | 211  | Octillery          |  0.11247% | 44     |  0.393% | 0      |  0.000% | 
 | 212  | Carnivine          |  0.11059% | 22     |  0.197% | 0      |  0.000% | 
 | 213  | Espeon             |  0.10838% | 246    |  2.200% | 0      |  0.000% | 
 | 214  | Rampardos          |  0.10370% | 73     |  0.653% | 0      |  0.000% | 
 | 215  | Clefairy           |  0.10045% | 134    |  1.198% | 0      |  0.000% | 
 | 216  | Alomomola          |  0.09737% | 50     |  0.447% | 0      |  0.000% | 
 | 217  | Raichu             |  0.09519% | 358    |  3.202% | 0      |  0.000% | 
 | 218  | Pikachu            |  0.08797% | 293    |  2.620% | 0      |  0.000% | 
 | 219  | Aggron-Mega        |  0.08690% | 92     |  0.823% | 0      |  0.000% | 
 | 220  | Trevenant          |  0.08681% | 66     |  0.590% | 0      |  0.000% | 
 | 221  | Ditto              |  0.08628% | 116    |  1.037% | 0      |  0.000% | 
 | 222  | Eelektross         |  0.08591% | 136    |  1.216% | 0      |  0.000% | 
 | 223  | Lucario            |  0.08535% | 152    |  1.359% | 0      |  0.000% | 
 | 224  | Xatu               |  0.08401% | 46     |  0.411% | 0      |  0.000% | 
 | 225  | Cloyster           |  0.08368% | 159    |  1.422% | 0      |  0.000% | 
 | 226  | Tentacruel         |  0.08323% | 64     |  0.572% | 0      |  0.000% | 
 | 227  | Ursaring           |  0.08231% | 45     |  0.402% | 0      |  0.000% | 
 | 228  | Blaziken           |  0.08081% | 172    |  1.538% | 0      |  0.000% | 
 | 229  | Drifblim           |  0.07909% | 44     |  0.393% | 0      |  0.000% | 
 | 230  | Haxorus            |  0.07601% | 93     |  0.832% | 0      |  0.000% | 
 | 231  | Landorus           |  0.07479% | 44     |  0.393% | 0      |  0.000% | 
 | 232  | Steelix            |  0.07315% | 28     |  0.250% | 0      |  0.000% | 
 | 233  | Audino             |  0.07143% | 111    |  0.993% | 0      |  0.000% | 
 | 234  | Mamoswine          |  0.07012% | 65     |  0.581% | 0      |  0.000% | 
 | 235  | Latios             |  0.06917% | 83     |  0.742% | 0      |  0.000% | 
 | 236  | Wobbuffet          |  0.06915% | 60     |  0.537% | 0      |  0.000% | 
 | 237  | Darmanitan         |  0.06905% | 103    |  0.921% | 0      |  0.000% | 
 | 238  | Kangaskhan         |  0.06859% | 54     |  0.483% | 0      |  0.000% | 
 | 239  | Charizard          |  0.06845% | 177    |  1.583% | 0      |  0.000% | 
 | 240  | Altaria-Mega       |  0.06701% | 117    |  1.046% | 0      |  0.000% | 
 | 241  | Virizion           |  0.06671% | 21     |  0.188% | 0      |  0.000% | 
 | 242  | Swellow            |  0.06658% | 33     |  0.295% | 0      |  0.000% | 
 | 243  | Latias-Mega        |  0.06637% | 47     |  0.420% | 0      |  0.000% | 
 | 244  | Mightyena          |  0.06623% | 21     |  0.188% | 0      |  0.000% | 
 | 245  | Mesprit            |  0.06623% | 9      |  0.080% | 0      |  0.000% | 
 | 246  | Glalie-Mega        |  0.06532% | 82     |  0.733% | 0      |  0.000% | 
 | 247  | Sceptile           |  0.06367% | 114    |  1.019% | 0      |  0.000% | 
 | 248  | Gogoat             |  0.06358% | 98     |  0.876% | 0      |  0.000% | 
 | 249  | Floatzel           |  0.06189% | 38     |  0.340% | 0      |  0.000% | 
 | 250  | Alakazam           |  0.06100% | 157    |  1.404% | 0      |  0.000% | 
 | 251  | Flareon            |  0.06092% | 170    |  1.520% | 0      |  0.000% | 
 | 252  | Samurott           |  0.06049% | 73     |  0.653% | 0      |  0.000% | 
 | 253  | Mandibuzz          |  0.05949% | 27     |  0.241% | 0      |  0.000% | 
 | 254  | Sandile            |  0.05786% | 3      |  0.027% | 0      |  0.000% | 
 | 255  | Drifloon           |  0.05786% | 2      |  0.018% | 0      |  0.000% | 
 | 256  | Eevee              |  0.05579% | 48     |  0.429% | 0      |  0.000% | 
 | 257  | Swanna             |  0.05563% | 32     |  0.286% | 0      |  0.000% | 
 | 258  | Delcatty           |  0.05511% | 62     |  0.554% | 0      |  0.000% | 
 | 259  | Camerupt           |  0.05193% | 47     |  0.420% | 0      |  0.000% | 
 | 260  | Golduck            |  0.05001% | 144    |  1.288% | 0      |  0.000% | 
 | 261  | Medicham-Mega      |  0.04870% | 100    |  0.894% | 0      |  0.000% | 
 | 262  | Trapinch           |  0.04844% | 7      |  0.063% | 0      |  0.000% | 
 | 263  | Emboar             |  0.04449% | 84     |  0.751% | 0      |  0.000% | 
 | 264  | Empoleon           |  0.04373% | 140    |  1.252% | 0      |  0.000% | 
 | 265  | Umbreon            |  0.04273% | 284    |  2.540% | 0      |  0.000% | 
 | 266  | Sunflora           |  0.04254% | 65     |  0.581% | 0      |  0.000% | 
 | 267  | Magmortar          |  0.04178% | 66     |  0.590% | 0      |  0.000% | 
 | 268  | Beartic            |  0.04107% | 29     |  0.259% | 0      |  0.000% | 
 | 269  | Cobalion           |  0.03950% | 20     |  0.179% | 0      |  0.000% | 
 | 270  | Stantler           |  0.03768% | 20     |  0.179% | 0      |  0.000% | 
 | 271  | Blaziken-Mega      |  0.03750% | 292    |  2.611% | 0      |  0.000% | 
 | 272  | Lucario-Mega       |  0.03715% | 391    |  3.497% | 0      |  0.000% | 
 | 273  | Donphan            |  0.03703% | 37     |  0.331% | 0      |  0.000% | 
 | 274  | Jynx               |  0.03689% | 55     |  0.492% | 0      |  0.000% | 
 | 275  | Regice             |  0.03645% | 55     |  0.492% | 0      |  0.000% | 
 | 276  | Honchkrow          |  0.03582% | 24     |  0.215% | 0      |  0.000% | 
 | 277  | Registeel          |  0.03388% | 23     |  0.206% | 0      |  0.000% | 
 | 278  | Regirock           |  0.03315% | 21     |  0.188% | 0      |  0.000% | 
 | 279  | Staraptor          |  0.03302% | 158    |  1.413% | 0      |  0.000% | 
 | 280  | Parasect           |  0.03254% | 54     |  0.483% | 0      |  0.000% | 
 | 281  | Mawile             |  0.03074% | 20     |  0.179% | 0      |  0.000% | 
 | 282  | Cacturne           |  0.02965% | 83     |  0.742% | 0      |  0.000% | 
 | 283  | Mismagius          |  0.02933% | 47     |  0.420% | 0      |  0.000% | 
 | 284  | Pidgeot-Mega       |  0.02808% | 162    |  1.449% | 0      |  0.000% | 
 | 285  | Emolga             |  0.02787% | 87     |  0.778% | 0      |  0.000% | 
 | 286  | Wynaut             |  0.02643% | 7      |  0.063% | 0      |  0.000% | 
 | 287  | Froslass           |  0.02521% | 60     |  0.537% | 0      |  0.000% | 
 | 288  | Absol-Mega         |  0.02516% | 138    |  1.234% | 0      |  0.000% | 
 | 289  | Aron               |  0.02378% | 20     |  0.179% | 0      |  0.000% | 
 | 290  | Sigilyph           |  0.02325% | 59     |  0.528% | 0      |  0.000% | 
 | 291  | Lickilicky         |  0.02058% | 87     |  0.778% | 0      |  0.000% | 
 | 292  | Magnemite          |  0.01999% | 17     |  0.152% | 0      |  0.000% | 
 | 293  | Tropius            |  0.01873% | 26     |  0.233% | 0      |  0.000% | 
 | 294  | Flygon             |  0.01737% | 68     |  0.608% | 0      |  0.000% | 
 | 295  | Alakazam-Mega      |  0.01675% | 163    |  1.458% | 0      |  0.000% | 
 | 296  | Gorebyss           |  0.01543% | 6      |  0.054% | 0      |  0.000% | 
 | 297  | Omastar            |  0.01512% | 33     |  0.295% | 0      |  0.000% | 
 | 298  | Clawitzer          |  0.01461% | 31     |  0.277% | 0      |  0.000% | 
 | 299  | Tyrantrum          |  0.01366% | 99     |  0.885% | 0      |  0.000% | 
 | 300  | Azelf              |  0.01349% | 53     |  0.474% | 0      |  0.000% | 
 | 301  | Braviary           |  0.01336% | 33     |  0.295% | 0      |  0.000% | 
 | 302  | Bastiodon          |  0.01330% | 60     |  0.537% | 0      |  0.000% | 
 | 303  | Lileep             |  0.01292% | 2      |  0.018% | 0      |  0.000% | 
 | 304  | Wigglytuff         |  0.01277% | 55     |  0.492% | 0      |  0.000% | 
 | 305  | Hawlucha           |  0.01268% | 150    |  1.341% | 0      |  0.000% | 
 | 306  | Skarmory           |  0.01242% | 100    |  0.894% | 0      |  0.000% | 
 | 307  | Plusle             |  0.01235% | 43     |  0.385% | 0      |  0.000% | 
 | 308  | Dugtrio            |  0.01221% | 65     |  0.581% | 0      |  0.000% | 
 | 309  | Vileplume          |  0.01212% | 12     |  0.107% | 0      |  0.000% | 
 | 310  | Slowbro-Mega       |  0.01143% | 111    |  0.993% | 0      |  0.000% | 
 | 311  | Nidoking           |  0.01095% | 109    |  0.975% | 0      |  0.000% | 
 | 312  | Miltank            |  0.00989% | 24     |  0.215% | 0      |  0.000% | 
 | 313  | Wailord            |  0.00942% | 53     |  0.474% | 0      |  0.000% | 
 | 314  | Girafarig          |  0.00921% | 10     |  0.089% | 0      |  0.000% | 
 | 315  | Sliggoo            |  0.00921% | 3      |  0.027% | 0      |  0.000% | 
 | 316  | Houndoom           |  0.00899% | 32     |  0.286% | 0      |  0.000% | 
 | 317  | Scizor-Mega        |  0.00846% | 115    |  1.028% | 0      |  0.000% | 
 | 318  | Scyther            |  0.00785% | 20     |  0.179% | 0      |  0.000% | 
 | 319  | Tangrowth          |  0.00760% | 29     |  0.259% | 0      |  0.000% | 
 | 320  | Illumise           |  0.00724% | 18     |  0.161% | 0      |  0.000% | 
 | 321  | Electrike          |  0.00707% | 3      |  0.027% | 0      |  0.000% | 
 | 322  | Ninjask            |  0.00663% | 53     |  0.474% | 0      |  0.000% | 
 | 323  | Zoroark            |  0.00639% | 96     |  0.859% | 0      |  0.000% | 
 | 324  | Rotom-Fan          |  0.00637% | 12     |  0.107% | 0      |  0.000% | 
 | 325  | Walrein            |  0.00607% | 44     |  0.393% | 0      |  0.000% | 
 | 326  | Absol              |  0.00575% | 72     |  0.644% | 0      |  0.000% | 
 | 327  | Throh              |  0.00559% | 32     |  0.286% | 0      |  0.000% | 
 | 328  | Chatot             |  0.00500% | 20     |  0.179% | 0      |  0.000% | 
 | 329  | Lopunny            |  0.00495% | 22     |  0.197% | 0      |  0.000% | 
 | 330  | Persian            |  0.00486% | 35     |  0.313% | 0      |  0.000% | 
 | 331  | Crustle            |  0.00452% | 8      |  0.072% | 0      |  0.000% | 
 | 332  | Floette            |  0.00384% | 13     |  0.116% | 0      |  0.000% | 
 | 333  | Butterfree         |  0.00372% | 34     |  0.304% | 0      |  0.000% | 
 | 334  | Bulbasaur          |  0.00362% | 23     |  0.206% | 0      |  0.000% | 
 | 335  | Psyduck            |  0.00361% | 5      |  0.045% | 0      |  0.000% | 
 | 336  | Caterpie           |  0.00361% | 5      |  0.045% | 0      |  0.000% | 
 | 337  | Leavanny           |  0.00353% | 30     |  0.268% | 0      |  0.000% | 
 | 338  | Castform           |  0.00345% | 35     |  0.313% | 0      |  0.000% | 
 | 339  | Lumineon           |  0.00336% | 24     |  0.215% | 0      |  0.000% | 
 | 340  | Sawsbuck           |  0.00333% | 18     |  0.161% | 0      |  0.000% | 
 | 341  | Altaria            |  0.00332% | 25     |  0.224% | 0      |  0.000% | 
 | 342  | Roselia            |  0.00332% | 6      |  0.054% | 0      |  0.000% | 
 | 343  | Forretress         |  0.00327% | 33     |  0.295% | 0      |  0.000% | 
 | 344  | Pachirisu          |  0.00298% | 81     |  0.724% | 0      |  0.000% | 
 | 345  | Jumpluff           |  0.00295% | 21     |  0.188% | 0      |  0.000% | 
 | 346  | Grotle             |  0.00291% | 5      |  0.045% | 0      |  0.000% | 
 | 347  | Sudowoodo          |  0.00244% | 36     |  0.322% | 0      |  0.000% | 
 | 348  | Luxray             |  0.00230% | 115    |  1.028% | 0      |  0.000% | 
 | 349  | Yanmega            |  0.00223% | 33     |  0.295% | 0      |  0.000% | 
 | 350  | Sharpedo-Mega      |  0.00175% | 39     |  0.349% | 0      |  0.000% | 
 | 351  | Klang              |  0.00166% | 3      |  0.027% | 0      |  0.000% | 
 | 352  | Zangoose           |  0.00132% | 14     |  0.125% | 0      |  0.000% | 
 | 353  | Gallade-Mega       |  0.00131% | 160    |  1.431% | 0      |  0.000% | 
 | 354  | Magikarp           |  0.00121% | 14     |  0.125% | 0      |  0.000% | 
 | 355  | Magcargo           |  0.00108% | 14     |  0.125% | 0      |  0.000% | 
 | 356  | Duskull            |  0.00108% | 9      |  0.080% | 0      |  0.000% | 
 | 357  | Rotom-Frost        |  0.00107% | 7      |  0.063% | 0      |  0.000% | 
 | 358  | Huntail            |  0.00107% | 5      |  0.045% | 0      |  0.000% | 
 | 359  | Dodrio             |  0.00102% | 33     |  0.295% | 0      |  0.000% | 
 | 360  | Dragonair          |  0.00096% | 13     |  0.116% | 0      |  0.000% | 
 | 361  | Maractus           |  0.00096% | 42     |  0.376% | 0      |  0.000% | 
 | 362  | Heracross-Mega     |  0.00095% | 92     |  0.823% | 0      |  0.000% | 
 | 363  | Bibarel            |  0.00094% | 35     |  0.313% | 0      |  0.000% | 
 | 364  | Exeggutor          |  0.00091% | 76     |  0.680% | 0      |  0.000% | 
 | 365  | Cinccino           |  0.00081% | 30     |  0.268% | 0      |  0.000% | 
 | 366  | Rhydon             |  0.00080% | 22     |  0.197% | 0      |  0.000% | 
 | 367  | Chimecho           |  0.00075% | 9      |  0.080% | 0      |  0.000% | 
 | 368  | Avalugg            |  0.00065% | 31     |  0.277% | 0      |  0.000% | 
 | 369  | Pidgeot            |  0.00046% | 25     |  0.224% | 0      |  0.000% | 
 | 370  | Drapion            |  0.00044% | 68     |  0.608% | 0      |  0.000% | 
 | 371  | Heracross          |  0.00043% | 35     |  0.313% | 0      |  0.000% | 
 | 372  | Gourgeist-Super    |  0.00041% | 48     |  0.429% | 0      |  0.000% | 
 | 373  | Druddigon          |  0.00040% | 26     |  0.233% | 0      |  0.000% | 
 | 374  | Haunter            |  0.00032% | 10     |  0.089% | 0      |  0.000% | 
 | 375  | Noctowl            |  0.00032% | 27     |  0.241% | 0      |  0.000% | 
 | 376  | Kingler            |  0.00028% | 17     |  0.152% | 0      |  0.000% | 
 | 377  | Farfetch'd         |  0.00026% | 24     |  0.215% | 0      |  0.000% | 
 | 378  | Simisear           |  0.00024% | 12     |  0.107% | 0      |  0.000% | 
 | 379  | Swoobat            |  0.00024% | 36     |  0.322% | 0      |  0.000% | 
 | 380  | Heatmor            |  0.00022% | 19     |  0.170% | 0      |  0.000% | 
 | 381  | Larvitar           |  0.00022% | 3      |  0.027% | 0      |  0.000% | 
 | 382  | Gible              |  0.00022% | 2      |  0.018% | 0      |  0.000% | 
 | 383  | Gastly             |  0.00022% | 3      |  0.027% | 0      |  0.000% | 
 | 384  | Voltorb            |  0.00020% | 6      |  0.054% | 0      |  0.000% | 
 | 385  | Togepi             |  0.00017% | 13     |  0.116% | 0      |  0.000% | 
 | 386  | Clamperl           |  0.00017% | 7      |  0.063% | 0      |  0.000% | 
 | 387  | Mantyke            |  0.00017% | 7      |  0.063% | 0      |  0.000% | 
 | 388  | Foongus            |  0.00017% | 9      |  0.080% | 0      |  0.000% | 
 | 389  | Diglett            |  0.00017% | 9      |  0.080% | 0      |  0.000% | 
 | 390  | Unfezant           |  0.00016% | 29     |  0.259% | 0      |  0.000% | 
 | 391  | Vanillish          |  0.00016% | 6      |  0.054% | 0      |  0.000% | 
 | 392  | Pangoro            |  0.00015% | 57     |  0.510% | 0      |  0.000% | 
 | 393  | Sharpedo           |  0.00014% | 9      |  0.080% | 0      |  0.000% | 
 | 394  | Gligar             |  0.00014% | 6      |  0.054% | 0      |  0.000% | 
 | 395  | Weepinbell         |  0.00014% | 4      |  0.036% | 0      |  0.000% | 
 | 396  | Ariados            |  0.00014% | 18     |  0.161% | 0      |  0.000% | 
 | 397  | Silcoon            |  0.00014% | 2      |  0.018% | 0      |  0.000% | 
 | 398  | Barbaracle         |  0.00014% | 25     |  0.224% | 0      |  0.000% | 
 | 399  | Rapidash           |  0.00013% | 45     |  0.402% | 0      |  0.000% | 
 | 400  | Crawdaunt          |  0.00012% | 54     |  0.483% | 0      |  0.000% | 
 | 401  | Carracosta         |  0.00012% | 29     |  0.259% | 0      |  0.000% | 
 | 402  | Furfrou            |  0.00012% | 11     |  0.098% | 0      |  0.000% | 
 | 403  | Chinchou           |  0.00011% | 8      |  0.072% | 0      |  0.000% | 
 | 404  | Charmeleon         |  0.00011% | 22     |  0.197% | 0      |  0.000% | 
 | 405  | Volbeat            |  0.00011% | 11     |  0.098% | 0      |  0.000% | 
 | 406  | Growlithe          |  0.00011% | 8      |  0.072% | 0      |  0.000% | 
 | 407  | Simipour           |  0.00007% | 12     |  0.107% | 0      |  0.000% | 
 | 408  | Skuntank           |  0.00006% | 20     |  0.179% | 0      |  0.000% | 
 | 409  | Fearow             |  0.00006% | 4      |  0.036% | 0      |  0.000% | 
 | 410  | Swalot             |  0.00005% | 3      |  0.027% | 0      |  0.000% | 
 | 411  | Simisage           |  0.00005% | 9      |  0.080% | 0      |  0.000% | 
 | 412  | Granbull           |  0.00005% | 20     |  0.179% | 0      |  0.000% | 
 | 413  | Slaking            |  0.00005% | 59     |  0.528% | 0      |  0.000% | 
 | 414  | Basculin           |  0.00004% | 3      |  0.027% | 0      |  0.000% | 
 | 415  | Corsola            |  0.00004% | 23     |  0.206% | 0      |  0.000% | 
 | 416  | Pignite            |  0.00004% | 14     |  0.125% | 0      |  0.000% | 
 | 417  | Diggersby          |  0.00004% | 19     |  0.170% | 0      |  0.000% | 
 | 418  | Snivy              |  0.00004% | 6      |  0.054% | 0      |  0.000% | 
 | 419  | Vanillite          |  0.00003% | 1      |  0.009% | 0      |  0.000% | 
 | 420  | Primeape           |  0.00002% | 34     |  0.304% | 0      |  0.000% | 
 | 421  | Pinsir             |  0.00002% | 2      |  0.018% | 0      |  0.000% | 
 | 422  | Buizel             |  0.00001% | 4      |  0.036% | 0      |  0.000% | 
 | 423  | Raticate           |  0.00001% | 18     |  0.161% | 0      |  0.000% | 
 | 424  | Graveler           |  0.00001% | 16     |  0.143% | 0      |  0.000% | 
 | 425  | Beheeyem           |  0.00001% | 31     |  0.277% | 0      |  0.000% | 
 | 426  | Squirtle           |  0.00001% | 22     |  0.197% | 0      |  0.000% | 
 | 427  | Charmander         |  0.00001% | 23     |  0.206% | 0      |  0.000% | 
 | 428  | Totodile           |  0.00001% | 11     |  0.098% | 0      |  0.000% | 
 | 429  | Chikorita          |  0.00001% | 5      |  0.045% | 0      |  0.000% | 
 | 430  | Cyndaquil          |  0.00001% | 7      |  0.063% | 0      |  0.000% | 
 | 431  | Luvdisc            |  0.00001% | 6      |  0.054% | 0      |  0.000% | 
 | 432  | Grovyle            |  0.00001% | 12     |  0.107% | 0      |  0.000% | 
 | 433  | Gurdurr            |  0.00001% | 6      |  0.054% | 0      |  0.000% | 
 | 434  | Ledian             |  0.00001% | 8      |  0.072% | 0      |  0.000% | 
 | 435  | Nosepass           |  0.00001% | 1      |  0.009% | 0      |  0.000% | 
 | 436  | Marshtomp          |  0.00000% | 8      |  0.072% | 0      |  0.000% | 
 | 437  | Combusken          |  0.00000% | 6      |  0.054% | 0      |  0.000% | 
 | 438  | Wartortle          |  0.00000% | 11     |  0.098% | 0      |  0.000% | 
 | 439  | Ivysaur            |  0.00000% | 8      |  0.072% | 0      |  0.000% | 
 | 440  | Grumpig            |  0.00000% | 14     |  0.125% | 0      |  0.000% | 
 | 441  | Galvantula         |  0.00000% | 43     |  0.385% | 0      |  0.000% | 
 | 442  | Watchog            |  0.00000% | 14     |  0.125% | 0      |  0.000% | 
 | 443  | Stunfisk           |  0.00000% | 8      |  0.072% | 0      |  0.000% | 
 | 444  | Croconaw           |  0.00000% | 1      |  0.009% | 0      |  0.000% | 
 | 445  | Monferno           |  0.00000% | 2      |  0.018% | 0      |  0.000% | 
 | 446  | Entei              |  0.00000% | 54     |  0.483% | 0      |  0.000% | 
 | 447  | Pinsir-Mega        |  0.00000% | 41     |  0.367% | 0      |  0.000% | 
 | 448  | Bellossom          |  0.00000% | 13     |  0.116% | 0      |  0.000% | 
 | 449  | Beautifly          |  0.00000% | 6      |  0.054% | 0      |  0.000% | 
 | 450  | Latios-Mega        |  0.00000% | 52     |  0.465% | 0      |  0.000% | 
 | 451  | Hitmonchan         |  0.00000% | 19     |  0.170% | 0      |  0.000% | 
 | 452  | Goomy              |  0.00000% | 6      |  0.054% | 0      |  0.000% | 
 | 453  | Garbodor           |  0.00000% | 5      |  0.045% | 0      |  0.000% | 
 | 454  | Vespiquen          |  0.00000% | 6      |  0.054% | 0      |  0.000% | 
 | 455  | Nidoqueen          |  0.00000% | 27     |  0.241% | 0      |  0.000% | 
 | 456  | Treecko            |  0.00000% | 8      |  0.072% | 0      |  0.000% | 
 | 457  | Pansage            |  0.00000% | 4      |  0.036% | 0      |  0.000% | 
 | 458  | Servine            |  0.00000% | 8      |  0.072% | 0      |  0.000% | 
 | 459  | Vanilluxe          |  0.00000% | 17     |  0.152% | 0      |  0.000% | 
 | 460  | Cryogonal          |  0.00000% | 31     |  0.277% | 0      |  0.000% | 
 | 461  | Solrock            |  0.00000% | 10     |  0.089% | 0      |  0.000% | 
 | 462  | Lunatone           |  0.00000% | 3      |  0.027% | 0      |  0.000% | 
 | 463  | Kricketune         |  0.00000% | 9      |  0.080% | 0      |  0.000% | 
 | 464  | Piloswine          |  0.00000% | 11     |  0.098% | 0      |  0.000% | 
 | 465  | Banette            |  0.00000% | 12     |  0.107% | 0      |  0.000% | 
 | 466  | Arbok              |  0.00000% | 21     |  0.188% | 0      |  0.000% | 
 | 467  | Mudkip             |  0.00000% | 10     |  0.089% | 0      |  0.000% | 
 | 468  | Torchic            |  0.00000% | 4      |  0.036% | 0      |  0.000% | 
 | 469  | Shroomish          |  0.00000% | 2      |  0.018% | 0      |  0.000% | 
 | 470  | Abra               |  0.00000% | 6      |  0.054% | 0      |  0.000% | 
 | 471  | Braixen            |  0.00000% | 11     |  0.098% | 0      |  0.000% | 
 | 472  | Pancham            |  0.00000% | 8      |  0.072% | 0      |  0.000% | 
 | 473  | Amaura             |  0.00000% | 1      |  0.009% | 0      |  0.000% | 
 | 474  | Noibat             |  0.00000% | 2      |  0.018% | 0      |  0.000% | 
 | 475  | Seviper            |  0.00000% | 13     |  0.116% | 0      |  0.000% | 
 | 476  | Sawk               |  0.00000% | 26     |  0.233% | 0      |  0.000% | 
 | 477  | Fletchinder        |  0.00000% | 11     |  0.098% | 0      |  0.000% | 
 | 478  | Duosion            |  0.00000% | 1      |  0.009% | 0      |  0.000% | 
 | 479  | Tangela            |  0.00000% | 1      |  0.009% | 0      |  0.000% | 
 | 480  | Frogadier          |  0.00000% | 9      |  0.080% | 0      |  0.000% | 
 | 481  | Azurill            |  0.00000% | 1      |  0.009% | 0      |  0.000% | 
 | 482  | Lillipup           |  0.00000% | 4      |  0.036% | 0      |  0.000% | 
 | 483  | Cleffa             |  0.00000% | 2      |  0.018% | 0      |  0.000% | 
 | 484  | Mankey             |  0.00000% | 3      |  0.027% | 0      |  0.000% | 
 | 485  | Surskit            |  0.00000% | 1      |  0.009% | 0      |  0.000% | 
 | 486  | Zorua              |  0.00000% | 2      |  0.018% | 0      |  0.000% | 
 | 487  | Swirlix            |  0.00000% | 2      |  0.018% | 0      |  0.000% | 
 | 488  | Rufflet            |  0.00000% | 3      |  0.027% | 0      |  0.000% | 
 | 489  | Pansear            |  0.00000% | 1      |  0.009% | 0      |  0.000% | 
 | 490  | Rotom              |  0.00000% | 15     |  0.134% | 0      |  0.000% | 
 | 491  | Whirlipede         |  0.00000% | 3      |  0.027% | 0      |  0.000% | 
 | 492  | Mime Jr.           |  0.00000% | 4      |  0.036% | 0      |  0.000% | 
 | 493  | Remoraid           |  0.00000% | 2      |  0.018% | 0      |  0.000% | 
 | 494  | Minccino           |  0.00000% | 1      |  0.009% | 0      |  0.000% | 
 | 495  | Zweilous           |  0.00000% | 1      |  0.009% | 0      |  0.000% | 
 | 496  | Elekid             |  0.00000% | 12     |  0.107% | 0      |  0.000% | 
 | 497  | Fennekin           |  0.00000% | 6      |  0.054% | 0      |  0.000% | 
 | 498  | Torkoal            |  0.00000% | 5      |  0.045% | 0      |  0.000% | 
 | 499  | Espurr             |  0.00000% | 3      |  0.027% | 0      |  0.000% | 
 | 500  | Metang             |  0.00000% | 3      |  0.027% | 0      |  0.000% | 
 | 501  | NidoranF           |  0.00000% | 2      |  0.018% | 0      |  0.000% | 
 | 502  | Gourgeist          |  0.00000% | 3      |  0.027% | 0      |  0.000% | 
 | 503  | Electabuzz         |  0.00000% | 11     |  0.098% | 0      |  0.000% | 
 | 504  | Pumpkaboo          |  0.00000% | 1      |  0.009% | 0      |  0.000% | 
 | 505  | Scraggy            |  0.00000% | 6      |  0.054% | 0      |  0.000% | 
 | 506  | Numel              |  0.00000% | 6      |  0.054% | 0      |  0.000% | 
 | 507  | Bunnelby           |  0.00000% | 2      |  0.018% | 0      |  0.000% | 
 | 508  | Baltoy             |  0.00000% | 1      |  0.009% | 0      |  0.000% | 
 | 509  | Phanpy             |  0.00000% | 2      |  0.018% | 0      |  0.000% | 
 | 510  | Glalie             |  0.00000% | 1      |  0.009% | 0      |  0.000% | 
 | 511  | Joltik             |  0.00000% | 1      |  0.009% | 0      |  0.000% | 
 | 512  | Wingull            |  0.00000% | 3      |  0.027% | 0      |  0.000% | 
 | 513  | Wormadam-Sandy     |  0.00000% | 3      |  0.027% | 0      |  0.000% | 
 | 514  | Mareep             |  0.00000% | 2      |  0.018% | 0      |  0.000% | 
 | 515  | Paras              |  0.00000% | 3      |  0.027% | 0      |  0.000% | 
 | 516  | Pidove             |  0.00000% | 1      |  0.009% | 0      |  0.000% | 
 | 517  | Omanyte            |  0.00000% | 1      |  0.009% | 0      |  0.000% | 
 | 518  | Slowpoke           |  0.00000% | 2      |  0.018% | 0      |  0.000% | 
 | 519  | Pumpkaboo-Super    |  0.00000% | 1      |  0.009% | 0      |  0.000% | 
 | 520  | Cubchoo            |  0.00000% | 4      |  0.036% | 0      |  0.000% | 
 | 521  | Piplup             |  0.00000% | 4      |  0.036% | 0      |  0.000% | 
 | 522  | Ralts              |  0.00000% | 5      |  0.045% | 0      |  0.000% | 
 | 523  | Boldore            |  0.00000% | 4      |  0.036% | 0      |  0.000% | 
 | 524  | Pidgeotto          |  0.00000% | 2      |  0.018% | 0      |  0.000% | 
 | 525  | Rattata            |  0.00000% | 24     |  0.215% | 0      |  0.000% | 
 | 526  | Venipede           |  0.00000% | 1      |  0.009% | 0      |  0.000% | 
 | 527  | Bellsprout         |  0.00000% | 1      |  0.009% | 0      |  0.000% | 
 | 528  | Phantump           |  0.00000% | 1      |  0.009% | 0      |  0.000% | 
 | 529  | Axew               |  0.00000% | 3      |  0.027% | 0      |  0.000% | 
 | 530  | Metapod            |  0.00000% | 3      |  0.027% | 0      |  0.000% | 
 | 531  | Bayleef            |  0.00000% | 5      |  0.045% | 0      |  0.000% | 
 | 532  | Ponyta             |  0.00000% | 2      |  0.018% | 0      |  0.000% | 
 | 533  | Quilava            |  0.00000% | 2      |  0.018% | 0      |  0.000% | 
 | 534  | Whiscash           |  0.00000% | 6      |  0.054% | 0      |  0.000% | 
 | 535  | Onix               |  0.00000% | 18     |  0.161% | 0      |  0.000% | 
 | 536  | Dustox             |  0.00000% | 1      |  0.009% | 0      |  0.000% | 
 | 537  | Meditite           |  0.00000% | 2      |  0.018% | 0      |  0.000% | 
 | 538  | Venomoth           |  0.00000% | 10     |  0.089% | 0      |  0.000% | 
 | 539  | Golbat             |  0.00000% | 1      |  0.009% | 0      |  0.000% | 
 | 540  | Finneon            |  0.00000% | 6      |  0.054% | 0      |  0.000% | 
 | 541  | Pichu              |  0.00000% | 13     |  0.116% | 0      |  0.000% | 
 | 542  | Magby              |  0.00000% | 12     |  0.107% | 0      |  0.000% | 
 | 543  | Kakuna             |  0.00000% | 2      |  0.018% | 0      |  0.000% | 
 | 544  | Riolu              |  0.00000% | 7      |  0.063% | 0      |  0.000% | 
 | 545  | Frillish           |  0.00000% | 1      |  0.009% | 0      |  0.000% | 
 | 546  | Beedrill           |  0.00000% | 19     |  0.170% | 0      |  0.000% | 
 | 547  | Lampent            |  0.00000% | 5      |  0.045% | 0      |  0.000% | 
 | 548  | Poliwhirl          |  0.00000% | 5      |  0.045% | 0      |  0.000% | 
 | 549  | Sunkern            |  0.00000% | 1      |  0.009% | 0      |  0.000% | 
 | 550  | Koffing            |  0.00000% | 4      |  0.036% | 0      |  0.000% | 
 | 551  | Skorupi            |  0.00000% | 2      |  0.018% | 0      |  0.000% | 
 | 552  | Dratini            |  0.00000% | 2      |  0.018% | 0      |  0.000% | 
 | 553  | Starly             |  0.00000% | 1      |  0.009% | 0      |  0.000% | 
 | 554  | Pineco             |  0.00000% | 1      |  0.009% | 0      |  0.000% | 
 | 555  | Shellos            |  0.00000% | 10     |  0.089% | 0      |  0.000% | 
 | 556  | Corphish           |  0.00000% | 3      |  0.027% | 0      |  0.000% | 
 | 557  | Hippopotas         |  0.00000% | 4      |  0.036% | 0      |  0.000% | 
 | 558  | Igglybuff          |  0.00000% | 6      |  0.054% | 0      |  0.000% | 
 | 559  | Purrloin           |  0.00000% | 3      |  0.027% | 0      |  0.000% | 
 | 560  | Relicanth          |  0.00000% | 3      |  0.027% | 0      |  0.000% | 
 | 561  | Chimchar           |  0.00000% | 9      |  0.080% | 0      |  0.000% | 
 | 562  | Flaaffy            |  0.00000% | 2      |  0.018% | 0      |  0.000% | 
 | 563  | Cottonee           |  0.00000% | 1      |  0.009% | 0      |  0.000% | 
 | 564  | Dewott             |  0.00000% | 8      |  0.072% | 0      |  0.000% | 
 | 565  | Smoochum           |  0.00000% | 1      |  0.009% | 0      |  0.000% | 
 | 566  | Mothim             |  0.00000% | 1      |  0.009% | 0      |  0.000% | 
 | 567  | Teddiursa          |  0.00000% | 4      |  0.036% | 0      |  0.000% | 
 | 568  | Chespin            |  0.00000% | 11     |  0.098% | 0      |  0.000% | 
 | 569  | Spritzee           |  0.00000% | 1      |  0.009% | 0      |  0.000% | 
 | 570  | Bronzor            |  0.00000% | 1      |  0.009% | 0      |  0.000% | 
 | 571  | Dwebble            |  0.00000% | 1      |  0.009% | 0      |  0.000% | 
 | 572  | Nincada            |  0.00000% | 1      |  0.009% | 0      |  0.000% | 
 | 573  | Kabuto             |  0.00000% | 1      |  0.009% | 0      |  0.000% | 
 | 574  | Turtwig            |  0.00000% | 6      |  0.054% | 0      |  0.000% | 
 | 575  | Delibird           |  0.00000% | 7      |  0.063% | 0      |  0.000% | 
 | 576  | Horsea             |  0.00000% | 1      |  0.009% | 0      |  0.000% | 
 | 577  | Shinx              |  0.00000% | 1      |  0.009% | 0      |  0.000% | 
 | 578  | Bagon              |  0.00000% | 3      |  0.027% | 0      |  0.000% | 
 | 579  | Magneton           |  0.00000% | 9      |  0.080% | 0      |  0.000% | 
 | 580  | Unown              |  0.00000% | 1      |  0.009% | 0      |  0.000% | 
 | 581  | Oddish             |  0.00000% | 1      |  0.009% | 0      |  0.000% | 
 | 582  | Munna              |  0.00000% | 1      |  0.009% | 0      |  0.000% | 
 | 583  | Magmar             |  0.00000% | 10     |  0.089% | 0      |  0.000% | 
 | 584  | Feebas             |  0.00000% | 2      |  0.018% | 0      |  0.000% | 
 | 585  | Palpitoad          |  0.00000% | 4      |  0.036% | 0      |  0.000% | 
 | 586  | Oshawott           |  0.00000% | 8      |  0.072% | 0      |  0.000% | 
 | 587  | Gourgeist-Large    |  0.00000% | 3      |  0.027% | 0      |  0.000% | 
 | 588  | Yamask             |  0.00000% | 2      |  0.018% | 0      |  0.000% | 
 | 589  | Happiny            |  0.00000% | 3      |  0.027% | 0      |  0.000% | 
 | 590  | Lickitung          |  0.00000% | 3      |  0.027% | 0      |  0.000% | 
 | 591  | Pidgey             |  0.00000% | 5      |  0.045% | 0      |  0.000% | 
 | 592  | Darumaka           |  0.00000% | 1      |  0.009% | 0      |  0.000% | 
 | 593  | Gabite             |  0.00000% | 2      |  0.018% | 0      |  0.000% | 
 | 594  | Tyrunt             |  0.00000% | 3      |  0.027% | 0      |  0.000% | 
 | 595  | Misdreavus         |  0.00000% | 2      |  0.018% | 0      |  0.000% | 
 | 596  | Litwick            |  0.00000% | 6      |  0.054% | 0      |  0.000% | 
 | 597  | Quilladin          |  0.00000% | 3      |  0.027% | 0      |  0.000% | 
 | 598  | Meowth             |  0.00000% | 5      |  0.045% | 0      |  0.000% | 
 | 599  | Inkay              |  0.00000% | 3      |  0.027% | 0      |  0.000% | 
 | 600  | Drowzee            |  0.00000% | 3      |  0.027% | 0      |  0.000% | 
 | 601  | Zubat              |  0.00000% | 4      |  0.036% | 0      |  0.000% | 
 | 602  | Shelmet            |  0.00000% | 2      |  0.018% | 0      |  0.000% | 
 | 603  | Deerling           |  0.00000% | 1      |  0.009% | 0      |  0.000% | 
 | 604  | Tynamo             |  0.00000% | 1      |  0.009% | 0      |  0.000% | 
 | 605  | Scatterbug         |  0.00000% | 1      |  0.009% | 0      |  0.000% | 
 | 606  | Exeggcute          |  0.00000% | 1      |  0.009% | 0      |  0.000% | 
 | 607  | Wormadam-Trash     |  0.00000% | 2      |  0.018% | 0      |  0.000% | 
 | 608  | Hoppip             |  0.00000% | 2      |  0.018% | 0      |  0.000% | 
 | 609  | Gloom              |  0.00000% | 1      |  0.009% | 0      |  0.000% | 
 | 610  | Drilbur            |  0.00000% | 3      |  0.027% | 0      |  0.000% | 
 | 611  | Bidoof             |  0.00000% | 2      |  0.018% | 0      |  0.000% | 
 | 612  | Munchlax           |  0.00000% | 5      |  0.045% | 0      |  0.000% | 
 | 613  | Weedle             |  0.00000% | 7      |  0.063% | 0      |  0.000% | 
 | 614  | Seadra             |  0.00000% | 1      |  0.009% | 0      |  0.000% | 
 | 615  | Fletchling         |  0.00000% | 4      |  0.036% | 0      |  0.000% | 
 | 616  | Froakie            |  0.00000% | 18     |  0.161% | 0      |  0.000% | 
 | 617  | Nidorina           |  0.00000% | 4      |  0.036% | 0      |  0.000% | 
 | 618  | Cubone             |  0.00000% | 2      |  0.018% | 0      |  0.000% | 
 | 619  | Flabebe            |  0.00000% | 3      |  0.027% | 0      |  0.000% | 
 | 620  | Sneasel            |  0.00000% | 7      |  0.063% | 0      |  0.000% | 
 + ---- + ------------------ + --------- + ------ + ------- + ------ + ------- + 
