 Total battles: 162657
 Avg. weight/team: 0.124
 + ---- + ------------------ + --------- + ------ + ------- + ------ + ------- + 
 | Rank | Pokemon            | Usage %   | Raw    | %       | Real   | %       | 
 + ---- + ------------------ + --------- + ------ + ------- + ------ + ------- + 
 | 1    | Flygon             |  5.20183% | 17005  |  5.227% | 12196  |  5.086% | 
 | 2    | Latios             |  5.03249% | 16770  |  5.155% | 11027  |  4.599% | 
 | 3    | Tyranitar          |  4.80173% | 16124  |  4.956% | 12573  |  5.244% | 
 | 4    | Latias             |  4.80065% | 15418  |  4.739% | 10009  |  4.174% | 
 | 5    | Cryogonal          |  4.27026% | 13955  |  4.290% | 9941   |  4.146% | 
 | 6    | Ferrothorn         |  4.24506% | 14054  |  4.320% | 11739  |  4.896% | 
 | 7    | Roselia            |  3.94450% | 12701  |  3.904% | 9366   |  3.906% | 
 | 8    | Klefki             |  3.61267% | 11863  |  3.647% | 9934   |  4.143% | 
 | 9    | Clefairy           |  3.60305% | 11434  |  3.515% | 8831   |  3.683% | 
 | 10   | Excadrill          |  3.57485% | 12137  |  3.731% | 8625   |  3.597% | 
 | 11   | Prinplup           |  3.44757% | 10867  |  3.340% | 9068   |  3.782% | 
 | 12   | Archeops           |  3.43457% | 11283  |  3.468% | 8658   |  3.611% | 
 | 13   | Blissey            |  3.43081% | 11256  |  3.460% | 8105   |  3.380% | 
 | 14   | Scizor-Mega        |  3.33951% | 10815  |  3.324% | 8114   |  3.384% | 
 | 15   | Rhyperior          |  3.19235% | 10457  |  3.214% | 7698   |  3.210% | 
 | 16   | Bronzong           |  3.12291% | 10482  |  3.222% | 8736   |  3.643% | 
 | 17   | Pawniard           |  3.01931% | 9588   |  2.947% | 7107   |  2.964% | 
 | 18   | Diancie            |  2.98053% | 9471   |  2.911% | 7222   |  3.012% | 
 | 19   | Diancie-Mega       |  2.97039% | 9656   |  2.968% | 7729   |  3.223% | 
 | 20   | Camerupt           |  2.92411% | 9425   |  2.897% | 7556   |  3.151% | 
 | 21   | Blastoise          |  2.86856% | 9228   |  2.837% | 6953   |  2.900% | 
 | 22   | Dialga             |  2.86573% | 9003   |  2.767% | 7020   |  2.928% | 
 | 23   | Hitmonlee          |  2.84302% | 9168   |  2.818% | 6425   |  2.680% | 
 | 24   | Mesprit            |  2.83592% | 9478   |  2.913% | 7469   |  3.115% | 
 | 25   | Rotom              |  2.81715% | 9002   |  2.767% | 7185   |  2.996% | 
 | 26   | Feraligatr         |  2.80454% | 9297   |  2.858% | 6394   |  2.667% | 
 | 27   | Manectric          |  2.78121% | 8878   |  2.729% | 6789   |  2.831% | 
 | 28   | Aromatisse         |  2.74989% | 8941   |  2.748% | 6162   |  2.570% | 
 | 29   | Hoopa              |  2.74224% | 8816   |  2.710% | 6064   |  2.529% | 
 | 30   | Misdreavus         |  2.73659% | 8893   |  2.734% | 6728   |  2.806% | 
 | 31   | Hitmontop          |  2.71302% | 8980   |  2.760% | 6483   |  2.704% | 
 | 32   | Gligar             |  2.66449% | 8678   |  2.668% | 6651   |  2.774% | 
 | 33   | Malamar            |  2.65304% | 8467   |  2.603% | 6365   |  2.655% | 
 | 34   | Tangela            |  2.63223% | 8269   |  2.542% | 5975   |  2.492% | 
 | 35   | Vibrava            |  2.62368% | 8373   |  2.574% | 6032   |  2.516% | 
 | 36   | Piloswine          |  2.60254% | 8423   |  2.589% | 6715   |  2.800% | 
 | 37   | Ho-Oh              |  2.60210% | 8527   |  2.621% | 6335   |  2.642% | 
 | 38   | Skarmory           |  2.59640% | 8328   |  2.560% | 6574   |  2.742% | 
 | 39   | Ninetales          |  2.53970% | 7989   |  2.456% | 5915   |  2.467% | 
 | 40   | Armaldo            |  2.53295% | 8117   |  2.495% | 5968   |  2.489% | 
 | 41   | Empoleon           |  2.51934% | 8303   |  2.552% | 6782   |  2.828% | 
 | 42   | Abomasnow          |  2.51342% | 7974   |  2.451% | 5599   |  2.335% | 
 | 43   | Grumpig            |  2.51133% | 8594   |  2.642% | 5947   |  2.480% | 
 | 44   | Skuntank           |  2.50256% | 8175   |  2.513% | 5970   |  2.490% | 
 | 45   | Mew                |  2.49599% | 8263   |  2.540% | 6291   |  2.624% | 
 | 46   | Vivillon           |  2.44303% | 7890   |  2.425% | 5738   |  2.393% | 
 | 47   | Audino-Mega        |  2.40455% | 7764   |  2.387% | 5488   |  2.289% | 
 | 48   | Poliwrath          |  2.39850% | 7941   |  2.441% | 5802   |  2.420% | 
 | 49   | Swanna             |  2.38483% | 7922   |  2.435% | 5629   |  2.348% | 
 | 50   | Basculin           |  2.38066% | 7565   |  2.325% | 5379   |  2.243% | 
 | 51   | Samurott           |  2.36802% | 7679   |  2.360% | 5374   |  2.241% | 
 | 52   | Genesect           |  2.36225% | 7699   |  2.367% | 6162   |  2.570% | 
 | 53   | Scrafty            |  2.36191% | 7773   |  2.389% | 5455   |  2.275% | 
 | 54   | Avalugg            |  2.35993% | 7098   |  2.182% | 5098   |  2.126% | 
 | 55   | Xerneas            |  2.33525% | 7499   |  2.305% | 5042   |  2.103% | 
 | 56   | Omastar            |  2.32618% | 7385   |  2.270% | 5754   |  2.400% | 
 | 57   | Articuno           |  2.32529% | 7362   |  2.263% | 5159   |  2.152% | 
 | 58   | Hitmonchan         |  2.31784% | 7448   |  2.289% | 5377   |  2.242% | 
 | 59   | Darkrai            |  2.31327% | 7349   |  2.259% | 5394   |  2.250% | 
 | 60   | Donphan            |  2.30699% | 7670   |  2.358% | 6059   |  2.527% | 
 | 61   | Mantine            |  2.28278% | 7178   |  2.206% | 5473   |  2.283% | 
 | 62   | Togekiss           |  2.27290% | 7355   |  2.261% | 5192   |  2.165% | 
 | 63   | Greninja           |  2.27126% | 7670   |  2.358% | 6152   |  2.566% | 
 | 64   | Vullaby            |  2.25312% | 7053   |  2.168% | 4909   |  2.047% | 
 | 65   | Claydol            |  2.24416% | 7211   |  2.217% | 5122   |  2.136% | 
 | 66   | Mamoswine          |  2.24195% | 7431   |  2.284% | 5924   |  2.471% | 
 | 67   | Landorus           |  2.23808% | 7435   |  2.285% | 5430   |  2.265% | 
 | 68   | Crobat             |  2.23710% | 7177   |  2.206% | 5422   |  2.261% | 
 | 69   | Deoxys-Speed       |  2.23568% | 7595   |  2.335% | 6090   |  2.540% | 
 | 70   | Chatot             |  2.23321% | 7315   |  2.249% | 5168   |  2.155% | 
 | 71   | Gyarados           |  2.20444% | 7391   |  2.272% | 5565   |  2.321% | 
 | 72   | Heatran            |  2.18494% | 7308   |  2.246% | 5965   |  2.488% | 
 | 73   | Pelipper           |  2.18393% | 7145   |  2.196% | 5143   |  2.145% | 
 | 74   | Shaymin-Sky        |  2.15762% | 7331   |  2.254% | 4747   |  1.980% | 
 | 75   | Groudon-Primal     |  2.15484% | 6856   |  2.108% | 5737   |  2.393% | 
 | 76   | Dodrio             |  2.15086% | 7081   |  2.177% | 4897   |  2.042% | 
 | 77   | Yveltal            |  2.13879% | 6910   |  2.124% | 4854   |  2.024% | 
 | 78   | Aegislash          |  2.13293% | 7228   |  2.222% | 5444   |  2.270% | 
 | 79   | Chansey            |  2.12264% | 7234   |  2.224% | 5366   |  2.238% | 
 | 80   | Forretress         |  2.06658% | 6749   |  2.075% | 5555   |  2.317% | 
 | 81   | Terrakion          |  2.05505% | 6862   |  2.109% | 4948   |  2.064% | 
 | 82   | Giratina-Origin    |  2.05085% | 6715   |  2.064% | 4734   |  1.974% | 
 | 83   | Registeel          |  2.04148% | 6505   |  2.000% | 5221   |  2.177% | 
 | 84   | Marowak            |  2.02172% | 6459   |  1.985% | 4980   |  2.077% | 
 | 85   | Blaziken           |  2.01783% | 6462   |  1.986% | 4852   |  2.024% | 
 | 86   | Tentacruel         |  1.98895% | 6478   |  1.991% | 5267   |  2.197% | 
 | 87   | Clefable           |  1.98516% | 6827   |  2.099% | 5332   |  2.224% | 
 | 88   | Deoxys             |  1.98185% | 6453   |  1.984% | 4942   |  2.061% | 
 | 89   | Cloyster           |  1.97108% | 6383   |  1.962% | 4714   |  1.966% | 
 | 90   | Sableye-Mega       |  1.92731% | 6461   |  1.986% | 5344   |  2.229% | 
 | 91   | Reshiram           |  1.91842% | 6370   |  1.958% | 4280   |  1.785% | 
 | 92   | Zapdos             |  1.89526% | 6437   |  1.979% | 4855   |  2.025% | 
 | 93   | Palkia             |  1.86540% | 6380   |  1.961% | 4394   |  1.833% | 
 | 94   | Kyurem-White       |  1.86365% | 6086   |  1.871% | 3819   |  1.593% | 
 | 95   | Lugia              |  1.84513% | 6358   |  1.954% | 4368   |  1.822% | 
 | 96   | Celebi             |  1.82673% | 5906   |  1.815% | 4328   |  1.805% | 
 | 97   | Druddigon          |  1.81147% | 5864   |  1.803% | 4509   |  1.880% | 
 | 98   | Garchomp           |  1.80360% | 6010   |  1.847% | 4757   |  1.984% | 
 | 99   | Zekrom             |  1.79220% | 5900   |  1.814% | 3892   |  1.623% | 
 | 100  | Rayquaza           |  1.78924% | 6159   |  1.893% | 4092   |  1.707% | 
 | 101  | Mandibuzz          |  1.76259% | 5852   |  1.799% | 4031   |  1.681% | 
 | 102  | Landorus-Therian   |  1.76174% | 5840   |  1.795% | 4804   |  2.003% | 
 | 103  | Monferno           |  1.76137% | 5771   |  1.774% | 4560   |  1.902% | 
 | 104  | Keldeo             |  1.73420% | 5469   |  1.681% | 3939   |  1.643% | 
 | 105  | Cobalion           |  1.71441% | 5465   |  1.680% | 4173   |  1.740% | 
 | 106  | Rotom-Wash         |  1.70991% | 5854   |  1.799% | 4829   |  2.014% | 
 | 107  | Ferroseed          |  1.69878% | 5458   |  1.678% | 4717   |  1.967% | 
 | 108  | Torterra           |  1.68298% | 5355   |  1.646% | 3958   |  1.651% | 
 | 109  | Relicanth          |  1.68134% | 5398   |  1.659% | 4067   |  1.696% | 
 | 110  | Azelf              |  1.65899% | 5377   |  1.653% | 4413   |  1.840% | 
 | 111  | Azumarill          |  1.63566% | 5582   |  1.716% | 4100   |  1.710% | 
 | 112  | Crawdaunt          |  1.61532% | 5326   |  1.637% | 3639   |  1.518% | 
 | 113  | Golurk             |  1.59175% | 5158   |  1.586% | 3973   |  1.657% | 
 | 114  | Magnezone          |  1.59145% | 5397   |  1.659% | 4118   |  1.717% | 
 | 115  | Blastoise-Mega     |  1.58965% | 5089   |  1.564% | 4072   |  1.698% | 
 | 116  | Volcarona          |  1.57939% | 5212   |  1.602% | 3591   |  1.498% | 
 | 117  | Deoxys-Attack      |  1.57869% | 5080   |  1.562% | 3397   |  1.417% | 
 | 118  | Magneton           |  1.57868% | 4904   |  1.507% | 3731   |  1.556% | 
 | 119  | Escavalier         |  1.57724% | 5118   |  1.573% | 3910   |  1.631% | 
 | 120  | Infernape          |  1.57205% | 5115   |  1.572% | 4174   |  1.741% | 
 | 121  | Bisharp            |  1.56679% | 5269   |  1.620% | 3571   |  1.489% | 
 | 122  | Hippowdon          |  1.56586% | 5097   |  1.567% | 4154   |  1.732% | 
 | 123  | Krookodile         |  1.55949% | 5075   |  1.560% | 3921   |  1.635% | 
 | 124  | Rhydon             |  1.55792% | 5183   |  1.593% | 3968   |  1.655% | 
 | 125  | Golbat             |  1.54966% | 4780   |  1.469% | 3617   |  1.508% | 
 | 126  | Klinklang          |  1.54651% | 4641   |  1.427% | 3418   |  1.425% | 
 | 127  | Conkeldurr         |  1.53275% | 4990   |  1.534% | 3666   |  1.529% | 
 | 128  | Drapion            |  1.53023% | 4800   |  1.475% | 3622   |  1.511% | 
 | 129  | Arbok              |  1.52961% | 4921   |  1.513% | 3523   |  1.469% | 
 | 130  | Uxie               |  1.52509% | 4770   |  1.466% | 4010   |  1.672% | 
 | 131  | Klang              |  1.52115% | 4840   |  1.488% | 3602   |  1.502% | 
 | 132  | Fletchinder        |  1.51980% | 4854   |  1.492% | 3384   |  1.411% | 
 | 133  | Gengar             |  1.51979% | 4918   |  1.512% | 3445   |  1.437% | 
 | 134  | Mawile             |  1.51847% | 4793   |  1.473% | 3493   |  1.457% | 
 | 135  | Swampert           |  1.51126% | 5053   |  1.553% | 4111   |  1.714% | 
 | 136  | Eelektross         |  1.48334% | 4618   |  1.420% | 3774   |  1.574% | 
 | 137  | Raikou             |  1.48028% | 5105   |  1.569% | 3784   |  1.578% | 
 | 138  | Carracosta         |  1.47848% | 4905   |  1.508% | 3694   |  1.541% | 
 | 139  | Venusaur           |  1.47473% | 4679   |  1.438% | 3496   |  1.458% | 
 | 140  | Fraxure            |  1.46621% | 4697   |  1.444% | 3093   |  1.290% | 
 | 141  | Mawile-Mega        |  1.46516% | 4794   |  1.474% | 3772   |  1.573% | 
 | 142  | Giratina           |  1.46475% | 5051   |  1.553% | 3514   |  1.466% | 
 | 143  | Dusknoir           |  1.45760% | 4647   |  1.428% | 3633   |  1.515% | 
 | 144  | Mr. Mime           |  1.45692% | 4621   |  1.420% | 3126   |  1.304% | 
 | 145  | Diggersby          |  1.44942% | 4652   |  1.430% | 3289   |  1.372% | 
 | 146  | Braviary           |  1.44689% | 4643   |  1.427% | 3148   |  1.313% | 
 | 147  | Scolipede          |  1.44548% | 4961   |  1.525% | 3346   |  1.395% | 
 | 148  | Zweilous           |  1.44332% | 4418   |  1.358% | 2929   |  1.222% | 
 | 149  | Rotom-Heat         |  1.43455% | 4529   |  1.392% | 3698   |  1.542% | 
 | 150  | Houndoom           |  1.43374% | 4645   |  1.428% | 3271   |  1.364% | 
 | 151  | Probopass          |  1.43222% | 4582   |  1.408% | 3911   |  1.631% | 
 | 152  | Pinsir             |  1.43175% | 4509   |  1.386% | 3256   |  1.358% | 
 | 153  | Togetic            |  1.42931% | 4710   |  1.448% | 3417   |  1.425% | 
 | 154  | Floatzel           |  1.42747% | 4778   |  1.469% | 3500   |  1.460% | 
 | 155  | Aggron             |  1.42745% | 4599   |  1.414% | 3230   |  1.347% | 
 | 156  | Sliggoo            |  1.42597% | 4446   |  1.367% | 3113   |  1.298% | 
 | 157  | Dugtrio            |  1.42555% | 4467   |  1.373% | 2917   |  1.217% | 
 | 158  | Miltank            |  1.42216% | 4648   |  1.429% | 3565   |  1.487% | 
 | 159  | Ampharos           |  1.42215% | 4472   |  1.375% | 3281   |  1.368% | 
 | 160  | Granbull           |  1.41981% | 4691   |  1.442% | 3444   |  1.436% | 
 | 161  | Seismitoad         |  1.41573% | 4590   |  1.411% | 3807   |  1.588% | 
 | 162  | Serperior          |  1.41457% | 4902   |  1.507% | 3393   |  1.415% | 
 | 163  | Jirachi            |  1.41302% | 4678   |  1.438% | 3414   |  1.424% | 
 | 164  | Smeargle           |  1.41136% | 4526   |  1.391% | 3874   |  1.616% | 
 | 165  | Victini            |  1.41094% | 4838   |  1.487% | 3570   |  1.489% | 
 | 166  | Jolteon            |  1.40959% | 4483   |  1.378% | 3506   |  1.462% | 
 | 167  | Rotom-Mow          |  1.40949% | 4626   |  1.422% | 3668   |  1.530% | 
 | 168  | Delphox            |  1.40942% | 4546   |  1.397% | 3230   |  1.347% | 
 | 169  | Meloetta           |  1.40804% | 4633   |  1.424% | 3285   |  1.370% | 
 | 170  | Spiritomb          |  1.40462% | 4534   |  1.394% | 3462   |  1.444% | 
 | 171  | Sylveon            |  1.40450% | 4586   |  1.410% | 3188   |  1.330% | 
 | 172  | Weavile            |  1.40236% | 4622   |  1.421% | 3170   |  1.322% | 
 | 173  | Lanturn            |  1.40005% | 4472   |  1.375% | 3526   |  1.471% | 
 | 174  | Lucario-Mega       |  1.39934% | 4396   |  1.351% | 3174   |  1.324% | 
 | 175  | Kyurem-Black       |  1.39873% | 4783   |  1.470% | 3157   |  1.317% | 
 | 176  | Breloom            |  1.39274% | 4778   |  1.469% | 3317   |  1.383% | 
 | 177  | Kadabra            |  1.39274% | 4389   |  1.349% | 3022   |  1.260% | 
 | 178  | Deoxys-Defense     |  1.39148% | 4612   |  1.418% | 3669   |  1.530% | 
 | 179  | Raichu             |  1.38815% | 4369   |  1.343% | 3370   |  1.405% | 
 | 180  | Sigilyph           |  1.38523% | 4261   |  1.310% | 3122   |  1.302% | 
 | 181  | Gourgeist-Super    |  1.38423% | 4436   |  1.364% | 3303   |  1.378% | 
 | 182  | Electrode          |  1.38360% | 4349   |  1.337% | 3408   |  1.421% | 
 | 183  | Accelgor           |  1.38176% | 4456   |  1.370% | 3277   |  1.367% | 
 | 184  | Purugly            |  1.36716% | 4137   |  1.272% | 3241   |  1.352% | 
 | 185  | Duosion            |  1.36365% | 4356   |  1.339% | 2971   |  1.239% | 
 | 186  | Groudon            |  1.36013% | 4412   |  1.356% | 3582   |  1.494% | 
 | 187  | Talonflame         |  1.35597% | 4555   |  1.400% | 3292   |  1.373% | 
 | 188  | Qwilfish           |  1.35430% | 4415   |  1.357% | 3534   |  1.474% | 
 | 189  | Gourgeist-Small    |  1.34431% | 4347   |  1.336% | 3256   |  1.358% | 
 | 190  | Snorlax            |  1.34414% | 4032   |  1.239% | 2937   |  1.225% | 
 | 191  | Noivern            |  1.34325% | 4172   |  1.282% | 2931   |  1.222% | 
 | 192  | Sneasel            |  1.34256% | 4283   |  1.317% | 2993   |  1.248% | 
 | 193  | Hydreigon          |  1.34242% | 4201   |  1.291% | 2950   |  1.230% | 
 | 194  | Glalie-Mega        |  1.34112% | 4241   |  1.304% | 2965   |  1.237% | 
 | 195  | Jellicent          |  1.33761% | 4335   |  1.333% | 3416   |  1.425% | 
 | 196  | Gastrodon          |  1.33716% | 4336   |  1.333% | 3357   |  1.400% | 
 | 197  | Bouffalant         |  1.33681% | 4042   |  1.242% | 2856   |  1.191% | 
 | 198  | Zygarde            |  1.33425% | 4531   |  1.393% | 3078   |  1.284% | 
 | 199  | Heliolisk          |  1.33095% | 4238   |  1.303% | 3147   |  1.312% | 
 | 200  | Emboar             |  1.32950% | 4417   |  1.358% | 3114   |  1.299% | 
 | 201  | Cresselia          |  1.32567% | 4064   |  1.249% | 3000   |  1.251% | 
 | 202  | Mightyena          |  1.32547% | 4194   |  1.289% | 2846   |  1.187% | 
 | 203  | Slowking           |  1.32538% | 4230   |  1.300% | 3096   |  1.291% | 
 | 204  | Stunfisk           |  1.32243% | 4359   |  1.340% | 3632   |  1.515% | 
 | 205  | Banette-Mega       |  1.32171% | 4202   |  1.292% | 3096   |  1.291% | 
 | 206  | Tornadus           |  1.32160% | 4159   |  1.278% | 3009   |  1.255% | 
 | 207  | Golem              |  1.31953% | 4289   |  1.318% | 3530   |  1.472% | 
 | 208  | Virizion           |  1.31929% | 4325   |  1.329% | 3149   |  1.313% | 
 | 209  | Liepard            |  1.31546% | 4240   |  1.303% | 3067   |  1.279% | 
 | 210  | Electivire         |  1.31286% | 4508   |  1.386% | 3314   |  1.382% | 
 | 211  | Simisear           |  1.30963% | 4040   |  1.242% | 2867   |  1.196% | 
 | 212  | Simisage           |  1.30641% | 4222   |  1.298% | 3030   |  1.264% | 
 | 213  | Sawsbuck           |  1.30549% | 4200   |  1.291% | 2984   |  1.244% | 
 | 214  | Kangaskhan-Mega    |  1.30440% | 4174   |  1.283% | 3422   |  1.427% | 
 | 215  | Zebstrika          |  1.30428% | 4360   |  1.340% | 3356   |  1.400% | 
 | 216  | Rapidash           |  1.30377% | 4119   |  1.266% | 3088   |  1.288% | 
 | 217  | Gardevoir          |  1.30375% | 4284   |  1.317% | 3032   |  1.264% | 
 | 218  | Gabite             |  1.30368% | 3947   |  1.213% | 3249   |  1.355% | 
 | 219  | Galvantula         |  1.30032% | 4282   |  1.316% | 3361   |  1.402% | 
 | 220  | Exploud            |  1.30003% | 4355   |  1.339% | 3050   |  1.272% | 
 | 221  | Rotom-Frost        |  1.29817% | 4037   |  1.241% | 3174   |  1.324% | 
 | 222  | Staraptor          |  1.29719% | 4111   |  1.264% | 2899   |  1.209% | 
 | 223  | Whimsicott         |  1.29269% | 4385   |  1.348% | 3421   |  1.427% | 
 | 224  | Toxicroak          |  1.29224% | 4005   |  1.231% | 2922   |  1.219% | 
 | 225  | Medicham           |  1.29180% | 3902   |  1.199% | 2741   |  1.143% | 
 | 226  | Camerupt-Mega      |  1.28993% | 4276   |  1.314% | 3095   |  1.291% | 
 | 227  | Florges            |  1.28757% | 4115   |  1.265% | 2888   |  1.204% | 
 | 228  | Arceus-Fairy       |  1.28724% | 4214   |  1.295% | 2940   |  1.226% | 
 | 229  | Metagross          |  1.28630% | 4054   |  1.246% | 3203   |  1.336% | 
 | 230  | Slurpuff           |  1.28575% | 4144   |  1.274% | 2833   |  1.181% | 
 | 231  | Lickilicky         |  1.28467% | 3999   |  1.229% | 2869   |  1.197% | 
 | 232  | Thundurus-Therian  |  1.28367% | 4035   |  1.240% | 2996   |  1.249% | 
 | 233  | Gothitelle         |  1.28347% | 4276   |  1.314% | 2769   |  1.155% | 
 | 234  | Shaymin            |  1.28250% | 4144   |  1.274% | 2969   |  1.238% | 
 | 235  | Metang             |  1.28048% | 4260   |  1.310% | 3563   |  1.486% | 
 | 236  | Aggron-Mega        |  1.27938% | 4202   |  1.292% | 3283   |  1.369% | 
 | 237  | Absol              |  1.27869% | 4382   |  1.347% | 2995   |  1.249% | 
 | 238  | Aerodactyl         |  1.27739% | 4277   |  1.315% | 2940   |  1.226% | 
 | 239  | Aurorus            |  1.27668% | 4284   |  1.317% | 3234   |  1.349% | 
 | 240  | Haxorus            |  1.27149% | 4180   |  1.285% | 2630   |  1.097% | 
 | 241  | Dragalge           |  1.26619% | 4021   |  1.236% | 2782   |  1.160% | 
 | 242  | Weezing            |  1.26520% | 4234   |  1.302% | 3296   |  1.375% | 
 | 243  | Huntail            |  1.26296% | 3706   |  1.139% | 2595   |  1.082% | 
 | 244  | Chandelure         |  1.26100% | 3953   |  1.215% | 2892   |  1.206% | 
 | 245  | Primeape           |  1.26057% | 4021   |  1.236% | 2931   |  1.222% | 
 | 246  | Porygon2           |  1.25925% | 3947   |  1.213% | 2997   |  1.250% | 
 | 247  | Arcanine           |  1.25899% | 3987   |  1.226% | 2880   |  1.201% | 
 | 248  | Dragonite          |  1.25869% | 4262   |  1.310% | 2727   |  1.137% | 
 | 249  | Gengar-Mega        |  1.25649% | 4109   |  1.263% | 2998   |  1.250% | 
 | 250  | Kingdra            |  1.25179% | 3898   |  1.198% | 2728   |  1.138% | 
 | 251  | Stoutland          |  1.24944% | 3919   |  1.205% | 2795   |  1.166% | 
 | 252  | Venipede           |  1.24516% | 3944   |  1.212% | 3065   |  1.278% | 
 | 253  | Alomomola          |  1.24200% | 3815   |  1.173% | 2806   |  1.170% | 
 | 254  | Hariyama           |  1.24139% | 3958   |  1.217% | 3021   |  1.260% | 
 | 255  | Kyogre-Primal      |  1.23913% | 4032   |  1.239% | 3113   |  1.298% | 
 | 256  | Lilligant          |  1.23350% | 4002   |  1.230% | 2739   |  1.142% | 
 | 257  | Kyurem             |  1.23218% | 3983   |  1.224% | 2678   |  1.117% | 
 | 258  | Gallade            |  1.23196% | 3968   |  1.220% | 2823   |  1.177% | 
 | 259  | Altaria            |  1.23096% | 4021   |  1.236% | 2684   |  1.119% | 
 | 260  | Darmanitan         |  1.23074% | 3975   |  1.222% | 2922   |  1.219% | 
 | 261  | Drifblim           |  1.22456% | 3873   |  1.191% | 2669   |  1.113% | 
 | 262  | Barbaracle         |  1.22405% | 3792   |  1.166% | 2544   |  1.061% | 
 | 263  | Pyroar             |  1.22302% | 3921   |  1.205% | 2886   |  1.204% | 
 | 264  | Muk                |  1.22194% | 4115   |  1.265% | 3036   |  1.266% | 
 | 265  | Quilladin          |  1.22074% | 4083   |  1.255% | 2992   |  1.248% | 
 | 266  | Mismagius          |  1.21922% | 4061   |  1.248% | 3044   |  1.269% | 
 | 267  | Beheeyem           |  1.21642% | 3730   |  1.147% | 2589   |  1.080% | 
 | 268  | Lucario            |  1.21287% | 3943   |  1.212% | 2783   |  1.161% | 
 | 269  | Kangaskhan         |  1.20792% | 3754   |  1.154% | 2990   |  1.247% | 
 | 270  | Thundurus          |  1.20546% | 3817   |  1.173% | 2780   |  1.159% | 
 | 271  | Exeggutor          |  1.20207% | 3866   |  1.188% | 2574   |  1.073% | 
 | 272  | Magmortar          |  1.20137% | 3971   |  1.221% | 2905   |  1.212% | 
 | 273  | Arceus-Poison      |  1.20115% | 4008   |  1.232% | 2671   |  1.114% | 
 | 274  | Zangoose           |  1.19926% | 3816   |  1.173% | 2780   |  1.159% | 
 | 275  | Jumpluff           |  1.19788% | 3923   |  1.206% | 2915   |  1.216% | 
 | 276  | Nidoqueen          |  1.19782% | 3739   |  1.149% | 2950   |  1.230% | 
 | 277  | Zoroark            |  1.19301% | 3749   |  1.152% | 1468   |  0.612% | 
 | 278  | Cacturne           |  1.19299% | 3852   |  1.184% | 2640   |  1.101% | 
 | 279  | Sableye            |  1.19265% | 4129   |  1.269% | 3330   |  1.389% | 
 | 280  | Rotom-Fan          |  1.19180% | 3766   |  1.158% | 3029   |  1.263% | 
 | 281  | Entei              |  1.19173% | 3867   |  1.189% | 2813   |  1.173% | 
 | 282  | Tauros             |  1.18747% | 3699   |  1.137% | 2622   |  1.093% | 
 | 283  | Espeon             |  1.18663% | 3897   |  1.198% | 2787   |  1.162% | 
 | 284  | Gliscor            |  1.18517% | 3960   |  1.217% | 3071   |  1.281% | 
 | 285  | Hawlucha           |  1.18456% | 4050   |  1.245% | 2699   |  1.126% | 
 | 286  | Tornadus-Therian   |  1.18242% | 4092   |  1.258% | 3009   |  1.255% | 
 | 287  | Musharna           |  1.18201% | 3721   |  1.144% | 2592   |  1.081% | 
 | 288  | Clawitzer          |  1.18199% | 3906   |  1.201% | 2770   |  1.155% | 
 | 289  | Garbodor           |  1.17433% | 3768   |  1.158% | 2881   |  1.202% | 
 | 290  | Simipour           |  1.17244% | 3664   |  1.126% | 2692   |  1.123% | 
 | 291  | Honchkrow          |  1.16829% | 3828   |  1.177% | 2669   |  1.113% | 
 | 292  | Audino             |  1.15822% | 3978   |  1.223% | 2830   |  1.180% | 
 | 293  | Ninjask            |  1.15707% | 3610   |  1.110% | 2623   |  1.094% | 
 | 294  | Vileplume          |  1.15335% | 3911   |  1.202% | 2760   |  1.151% | 
 | 295  | Solrock            |  1.15272% | 3439   |  1.057% | 2828   |  1.179% | 
 | 296  | Reuniclus          |  1.14935% | 3904   |  1.200% | 2737   |  1.141% | 
 | 297  | Haunter            |  1.14805% | 3861   |  1.187% | 2779   |  1.159% | 
 | 298  | Porygon-Z          |  1.14590% | 3820   |  1.174% | 2704   |  1.128% | 
 | 299  | Mienshao           |  1.14416% | 3736   |  1.148% | 2804   |  1.169% | 
 | 300  | Yanmega            |  1.14352% | 3861   |  1.187% | 2711   |  1.131% | 
 | 301  | Rampardos          |  1.14200% | 3747   |  1.152% | 2934   |  1.224% | 
 | 302  | Seaking            |  1.14099% | 3688   |  1.134% | 2666   |  1.112% | 
 | 303  | Goodra             |  1.14063% | 4172   |  1.282% | 2895   |  1.207% | 
 | 304  | Machamp            |  1.13457% | 3767   |  1.158% | 2798   |  1.167% | 
 | 305  | Politoed           |  1.12778% | 3708   |  1.140% | 2842   |  1.185% | 
 | 306  | Arceus-Dragon      |  1.11813% | 3610   |  1.110% | 2251   |  0.939% | 
 | 307  | Umbreon            |  1.11320% | 3878   |  1.192% | 2612   |  1.089% | 
 | 308  | Charizard          |  1.11152% | 3818   |  1.174% | 2706   |  1.129% | 
 | 309  | Milotic            |  1.11024% | 3593   |  1.104% | 2719   |  1.134% | 
 | 310  | Arceus-Water       |  1.10723% | 3863   |  1.187% | 2742   |  1.144% | 
 | 311  | Heracross          |  1.10291% | 3480   |  1.070% | 2204   |  0.919% | 
 | 312  | Vaporeon           |  1.10188% | 3629   |  1.116% | 2707   |  1.129% | 
 | 313  | Pangoro            |  1.08973% | 3764   |  1.157% | 2576   |  1.074% | 
 | 314  | Gurdurr            |  1.08911% | 3244   |  0.997% | 2432   |  1.014% | 
 | 315  | Arceus-Grass       |  1.08857% | 3540   |  1.088% | 2304   |  0.961% | 
 | 316  | Suicune            |  1.08621% | 3652   |  1.123% | 2783   |  1.161% | 
 | 317  | Jynx               |  1.08201% | 3495   |  1.074% | 2491   |  1.039% | 
 | 318  | Scyther            |  1.07325% | 3377   |  1.038% | 2510   |  1.047% | 
 | 319  | Alakazam           |  1.07085% | 3665   |  1.127% | 2405   |  1.003% | 
 | 320  | Roserade           |  1.07006% | 3574   |  1.099% | 2543   |  1.061% | 
 | 321  | Murkrow            |  1.06824% | 3565   |  1.096% | 2420   |  1.009% | 
 | 322  | Froslass           |  1.06233% | 3488   |  1.072% | 2776   |  1.158% | 
 | 323  | Regirock           |  1.06095% | 3441   |  1.058% | 2770   |  1.155% | 
 | 324  | Arceus-Rock        |  1.04901% | 3344   |  1.028% | 2225   |  0.928% | 
 | 325  | Shuckle            |  1.04508% | 3399   |  1.045% | 2963   |  1.236% | 
 | 326  | Chesnaught         |  1.03623% | 3357   |  1.032% | 2555   |  1.066% | 
 | 327  | Swellow            |  1.03498% | 3509   |  1.079% | 2607   |  1.087% | 
 | 328  | Salamence-Mega     |  1.01344% | 3352   |  1.030% | 2279   |  0.950% | 
 | 329  | Regice             |  0.98568% | 3196   |  0.982% | 2403   |  1.002% | 
 | 330  | Sawk               |  0.98448% | 3197   |  0.983% | 2235   |  0.932% | 
 | 331  | Glalie             |  0.96572% | 3165   |  0.973% | 2384   |  0.994% | 
 | 332  | Xatu               |  0.95157% | 3312   |  1.018% | 2391   |  0.997% | 
 | 333  | Abomasnow-Mega     |  0.92564% | 2935   |  0.902% | 2098   |  0.875% | 
 | 334  | Slowbro            |  0.92448% | 3126   |  0.961% | 2328   |  0.971% | 
 | 335  | Metagross-Mega     |  0.92115% | 2906   |  0.893% | 2104   |  0.877% | 
 | 336  | Sceptile-Mega      |  0.91802% | 2951   |  0.907% | 2088   |  0.871% | 
 | 337  | Houndoom-Mega      |  0.91031% | 2849   |  0.876% | 1982   |  0.827% | 
 | 338  | Manectric-Mega     |  0.90764% | 2988   |  0.918% | 2345   |  0.978% | 
 | 339  | Ampharos-Mega      |  0.89822% | 2973   |  0.914% | 2166   |  0.903% | 
 | 340  | Crustle            |  0.88697% | 2900   |  0.891% | 2348   |  0.979% | 
 | 341  | Mewtwo             |  0.88031% | 2755   |  0.847% | 1753   |  0.731% | 
 | 342  | Pinsir-Mega        |  0.87969% | 2700   |  0.830% | 1756   |  0.732% | 
 | 343  | Aerodactyl-Mega    |  0.84622% | 2764   |  0.850% | 1943   |  0.810% | 
 | 344  | Beedrill-Mega      |  0.83646% | 2857   |  0.878% | 2148   |  0.896% | 
 | 345  | Gardevoir-Mega     |  0.83245% | 2703   |  0.831% | 1857   |  0.774% | 
 | 346  | Medicham-Mega      |  0.83175% | 2696   |  0.829% | 2140   |  0.892% | 
 | 347  | Lopunny-Mega       |  0.81997% | 2788   |  0.857% | 2170   |  0.905% | 
 | 348  | Arceus-Steel       |  0.81299% | 2649   |  0.814% | 1901   |  0.793% | 
 | 349  | Absol-Mega         |  0.79303% | 2778   |  0.854% | 1942   |  0.810% | 
 | 350  | Scizor             |  0.77536% | 2482   |  0.763% | 1880   |  0.784% | 
 | 351  | Arceus-Fire        |  0.76632% | 2632   |  0.809% | 1862   |  0.777% | 
 | 352  | Gallade-Mega       |  0.74919% | 2590   |  0.796% | 1730   |  0.721% | 
 | 353  | Altaria-Mega       |  0.73490% | 2538   |  0.780% | 1782   |  0.743% | 
 | 354  | Kyogre             |  0.72829% | 2388   |  0.734% | 1817   |  0.758% | 
 | 355  | Arceus-Ice         |  0.72471% | 2269   |  0.697% | 1465   |  0.611% | 
 | 356  | Arceus-Dark        |  0.71433% | 2246   |  0.690% | 1501   |  0.626% | 
 | 357  | Arceus-Fighting    |  0.70327% | 2257   |  0.694% | 1537   |  0.641% | 
 | 358  | Arceus-Electric    |  0.70007% | 2304   |  0.708% | 1513   |  0.631% | 
 | 359  | Arceus-Flying      |  0.69171% | 2253   |  0.693% | 1460   |  0.609% | 
 | 360  | Arceus-Bug         |  0.67673% | 2230   |  0.685% | 1487   |  0.620% | 
 | 361  | Arceus             |  0.67644% | 2414   |  0.742% | 1599   |  0.667% | 
 | 362  | Arceus-Ground      |  0.65876% | 2204   |  0.677% | 1573   |  0.656% | 
 | 363  | Sharpedo-Mega      |  0.64454% | 2073   |  0.637% | 1469   |  0.613% | 
 | 364  | Charizard-Mega-X   |  0.62154% | 2171   |  0.667% | 1538   |  0.641% | 
 | 365  | Slowbro-Mega       |  0.58525% | 1962   |  0.603% | 1473   |  0.614% | 
 | 366  | Arceus-Ghost       |  0.58192% | 1953   |  0.600% | 1365   |  0.569% | 
 | 367  | Arceus-Psychic     |  0.54690% | 1782   |  0.548% | 1098   |  0.458% | 
 | 368  | Blaziken-Mega      |  0.52693% | 1771   |  0.544% | 1339   |  0.558% | 
 | 369  | Sharpedo           |  0.48467% | 1766   |  0.543% | 1225   |  0.511% | 
 | 370  | Leavanny           |  0.46883% | 1418   |  0.436% | 1141   |  0.476% | 
 | 371  | Manaphy            |  0.45150% | 1256   |  0.386% | 920    |  0.384% | 
 | 372  | Mewtwo-Mega-X      |  0.42857% | 1456   |  0.448% | 1049   |  0.437% | 
 | 373  | Heracross-Mega     |  0.41873% | 1416   |  0.435% | 984    |  0.410% | 
 | 374  | Gyarados-Mega      |  0.40061% | 1393   |  0.428% | 1004   |  0.419% | 
 | 375  | Sandslash          |  0.39639% | 1277   |  0.393% | 984    |  0.410% | 
 | 376  | Shiftry            |  0.38870% | 1218   |  0.374% | 865    |  0.361% | 
 | 377  | Leafeon            |  0.36864% | 1274   |  0.392% | 915    |  0.382% | 
 | 378  | Ludicolo           |  0.33689% | 1134   |  0.349% | 800    |  0.334% | 
 | 379  | Golduck            |  0.33228% | 1124   |  0.346% | 809    |  0.337% | 
 | 380  | Gorebyss           |  0.32206% | 1067   |  0.328% | 759    |  0.317% | 
 | 381  | Kabutops           |  0.29042% | 1025   |  0.315% | 708    |  0.295% | 
 | 382  | Latias-Mega        |  0.27543% | 812    |  0.250% | 522    |  0.218% | 
 | 383  | Venusaur-Mega      |  0.20052% | 726    |  0.223% | 528    |  0.220% | 
 | 384  | Garchomp-Mega      |  0.19910% | 655    |  0.201% | 492    |  0.205% | 
 | 385  | Mewtwo-Mega-Y      |  0.19302% | 717    |  0.220% | 500    |  0.209% | 
 | 386  | Charizard-Mega-Y   |  0.19093% | 557    |  0.171% | 422    |  0.176% | 
 | 387  | Alakazam-Mega      |  0.15851% | 603    |  0.185% | 384    |  0.160% | 
 | 388  | Tyranitar-Mega     |  0.14516% | 435    |  0.134% | 303    |  0.126% | 
 | 389  | Swampert-Mega      |  0.11605% | 403    |  0.124% | 302    |  0.126% | 
 | 390  | Latios-Mega        |  0.11248% | 373    |  0.115% | 262    |  0.109% | 
 + ---- + ------------------ + --------- + ------ + ------- + ------ + ------- + 
