 Total battles: 315331
 Avg. weight/team: 1.0
 + ---- + ------------------ + --------- + ------ + ------- + ------ + ------- + 
 | Rank | Pokemon            | Usage %   | Raw    | %       | Real   | %       | 
 + ---- + ------------------ + --------- + ------ + ------- + ------ + ------- + 
 | 1    | Volcarona          |  9.00011% | 56760  |  9.000% | 38399  |  8.429% | 
 | 2    | Azumarill          |  7.51935% | 47422  |  7.519% | 33442  |  7.341% | 
 | 3    | Gengar             |  7.38425% | 46570  |  7.384% | 33176  |  7.283% | 
 | 4    | Skarmory           |  7.29094% | 45981  |  7.291% | 37846  |  8.308% | 
 | 5    | Breloom            |  7.15525% | 45125  |  7.155% | 32368  |  7.105% | 
 | 6    | Dragonite          |  7.13095% | 44972  |  7.131% | 31142  |  6.836% | 
 | 7    | Infernape          |  6.87443% | 43354  |  6.874% | 33291  |  7.308% | 
 | 8    | Galvantula         |  6.80177% | 42896  |  6.802% | 34468  |  7.566% | 
 | 9    | Charizard-Mega-Y   |  6.59199% | 41573  |  6.592% | 30191  |  6.628% | 
 | 10   | Keldeo             |  6.40175% | 40373  |  6.402% | 27583  |  6.055% | 
 | 11   | Heatran            |  6.36207% | 40123  |  6.362% | 30953  |  6.795% | 
 | 12   | Bisharp            |  6.35481% | 40077  |  6.355% | 27489  |  6.034% | 
 | 13   | Togekiss           |  6.24536% | 39387  |  6.245% | 27353  |  6.005% | 
 | 14   | Hydreigon          |  6.19070% | 39042  |  6.191% | 27042  |  5.936% | 
 | 15   | Venusaur-Mega      |  6.16029% | 38851  |  6.160% | 27387  |  6.012% | 
 | 16   | Ferrothorn         |  5.64083% | 35575  |  5.641% | 29093  |  6.387% | 
 | 17   | Weavile            |  5.41876% | 34174  |  5.419% | 24889  |  5.464% | 
 | 18   | Tentacruel         |  5.00039% | 31536  |  5.000% | 24534  |  5.386% | 
 | 19   | Victini            |  4.99499% | 31502  |  4.995% | 22933  |  5.034% | 
 | 20   | Heracross          |  4.98128% | 31416  |  4.981% | 20561  |  4.514% | 
 | 21   | Hawlucha           |  4.97212% | 31357  |  4.972% | 21799  |  4.785% | 
 | 22   | Medicham-Mega      |  4.87036% | 30716  |  4.870% | 23049  |  5.060% | 
 | 23   | Excadrill          |  4.81749% | 30382  |  4.817% | 21680  |  4.759% | 
 | 24   | Staraptor          |  4.81213% | 30348  |  4.812% | 21270  |  4.669% | 
 | 25   | Scizor-Mega        |  4.80833% | 30324  |  4.808% | 20885  |  4.585% | 
 | 26   | Volcanion          |  4.70114% | 29648  |  4.701% | 21197  |  4.653% | 
 | 27   | Sableye            |  4.69020% | 29579  |  4.690% | 24035  |  5.276% | 
 | 28   | Chandelure         |  4.65769% | 29374  |  4.658% | 20855  |  4.578% | 
 | 29   | Zapdos             |  4.63292% | 29218  |  4.633% | 21919  |  4.812% | 
 | 30   | Nidoking           |  4.61805% | 29124  |  4.618% | 21008  |  4.612% | 
 | 31   | Scolipede          |  4.59145% | 28957  |  4.592% | 20477  |  4.495% | 
 | 32   | Scizor             |  4.53683% | 28613  |  4.537% | 19473  |  4.275% | 
 | 33   | Kyurem-Black       |  4.47780% | 28240  |  4.478% | 20056  |  4.403% | 
 | 34   | Lopunny-Mega       |  4.46757% | 28175  |  4.468% | 21778  |  4.781% | 
 | 35   | Terrakion          |  4.41778% | 27861  |  4.418% | 18697  |  4.104% | 
 | 36   | Klefki             |  4.36387% | 27521  |  4.364% | 23142  |  5.080% | 
 | 37   | Magnezone          |  4.33771% | 27356  |  4.338% | 19727  |  4.330% | 
 | 38   | Drapion            |  4.24118% | 26748  |  4.241% | 19990  |  4.388% | 
 | 39   | Slowbro            |  4.16217% | 26249  |  4.162% | 18949  |  4.160% | 
 | 40   | Mamoswine          |  4.14771% | 26158  |  4.148% | 19551  |  4.292% | 
 | 41   | Gliscor            |  4.14438% | 26137  |  4.144% | 18949  |  4.160% | 
 | 42   | Rotom-Wash         |  4.09399% | 25819  |  4.094% | 20164  |  4.426% | 
 | 43   | Jirachi            |  3.97431% | 25065  |  3.974% | 18396  |  4.038% | 
 | 44   | Forretress         |  3.94046% | 24852  |  3.941% | 21155  |  4.644% | 
 | 45   | Garchomp           |  3.87482% | 24437  |  3.875% | 19504  |  4.282% | 
 | 46   | Cloyster           |  3.86439% | 24371  |  3.864% | 17835  |  3.915% | 
 | 47   | Lucario            |  3.86388% | 24368  |  3.864% | 16243  |  3.566% | 
 | 48   | Gardevoir-Mega     |  3.76291% | 23731  |  3.763% | 15314  |  3.362% | 
 | 49   | Empoleon           |  3.71502% | 23429  |  3.715% | 17323  |  3.803% | 
 | 50   | Hoopa-Unbound      |  3.66999% | 23145  |  3.670% | 15988  |  3.510% | 
 | 51   | Cradily            |  3.61088% | 22773  |  3.611% | 16554  |  3.634% | 
 | 52   | Crobat             |  3.59388% | 22665  |  3.594% | 16464  |  3.614% | 
 | 53   | Tyranitar          |  3.54853% | 22379  |  3.548% | 17129  |  3.760% | 
 | 54   | Gallade-Mega       |  3.53648% | 22303  |  3.536% | 15257  |  3.349% | 
 | 55   | Diancie-Mega       |  3.53568% | 22298  |  3.536% | 16629  |  3.650% | 
 | 56   | Starmie            |  3.45212% | 21771  |  3.452% | 14943  |  3.280% | 
 | 57   | Dragalge           |  3.38410% | 21342  |  3.384% | 15115  |  3.318% | 
 | 58   | Swampert-Mega      |  3.37002% | 21254  |  3.370% | 15733  |  3.454% | 
 | 59   | Pinsir-Mega        |  3.35900% | 21184  |  3.359% | 13961  |  3.065% | 
 | 60   | Froslass           |  3.34251% | 21080  |  3.343% | 16900  |  3.710% | 
 | 61   | Metagross          |  3.33653% | 21043  |  3.337% | 14939  |  3.279% | 
 | 62   | Mandibuzz          |  3.31655% | 20916  |  3.317% | 15738  |  3.455% | 
 | 63   | Kingdra            |  3.31389% | 20900  |  3.314% | 14924  |  3.276% | 
 | 64   | Whimsicott         |  3.29879% | 20804  |  3.299% | 14641  |  3.214% | 
 | 65   | Pidgeot-Mega       |  3.23140% | 20379  |  3.231% | 14279  |  3.135% | 
 | 66   | Gyarados-Mega      |  3.21078% | 20249  |  3.211% | 14544  |  3.193% | 
 | 67   | Latios             |  3.20218% | 20195  |  3.202% | 13698  |  3.007% | 
 | 68   | Politoed           |  3.12710% | 19722  |  3.127% | 16715  |  3.669% | 
 | 69   | Chansey            |  3.07125% | 19369  |  3.071% | 14737  |  3.235% | 
 | 70   | Garchomp-Mega      |  3.02162% | 19056  |  3.022% | 13223  |  2.903% | 
 | 71   | Heracross-Mega     |  2.99212% | 18870  |  2.992% | 12478  |  2.739% | 
 | 72   | Toxicroak          |  2.87181% | 18112  |  2.872% | 12613  |  2.769% | 
 | 73   | Porygon2           |  2.86115% | 18044  |  2.861% | 13823  |  3.034% | 
 | 74   | Hippowdon          |  2.80613% | 17697  |  2.806% | 15457  |  3.393% | 
 | 75   | Doublade           |  2.78504% | 17564  |  2.785% | 12617  |  2.770% | 
 | 76   | Shuckle            |  2.76934% | 17465  |  2.769% | 14617  |  3.209% | 
 | 77   | Salamence          |  2.76134% | 17415  |  2.761% | 11955  |  2.624% | 
 | 78   | Meloetta           |  2.74904% | 17337  |  2.749% | 12027  |  2.640% | 
 | 79   | Ludicolo           |  2.74381% | 17304  |  2.744% | 12155  |  2.668% | 
 | 80   | Beedrill-Mega      |  2.68482% | 16933  |  2.685% | 11442  |  2.512% | 
 | 81   | Thundurus          |  2.64138% | 16658  |  2.641% | 12435  |  2.730% | 
 | 82   | Scrafty            |  2.58096% | 16277  |  2.581% | 11498  |  2.524% | 
 | 83   | Diggersby          |  2.57716% | 16253  |  2.577% | 11322  |  2.485% | 
 | 84   | Clefable           |  2.54211% | 16032  |  2.542% | 10938  |  2.401% | 
 | 85   | Landorus-Therian   |  2.53910% | 16013  |  2.539% | 12497  |  2.743% | 
 | 86   | Yanmega            |  2.49883% | 15759  |  2.499% | 10427  |  2.289% | 
 | 87   | Krookodile         |  2.49058% | 15707  |  2.491% | 11399  |  2.502% | 
 | 88   | Golurk             |  2.48329% | 15661  |  2.483% | 11984  |  2.631% | 
 | 89   | Serperior          |  2.47920% | 15636  |  2.479% | 10562  |  2.319% | 
 | 90   | Jellicent          |  2.43302% | 15344  |  2.433% | 11033  |  2.422% | 
 | 91   | Ditto              |  2.40131% | 15144  |  2.401% | 11078  |  2.432% | 
 | 92   | Gyarados           |  2.32456% | 14660  |  2.325% | 10289  |  2.259% | 
 | 93   | Sharpedo-Mega      |  2.32187% | 14643  |  2.322% | 10231  |  2.246% | 
 | 94   | Landorus           |  2.27303% | 14335  |  2.273% | 10281  |  2.257% | 
 | 95   | Umbreon            |  2.26938% | 14312  |  2.269% | 9750   |  2.140% | 
 | 96   | Gardevoir          |  2.24897% | 14184  |  2.249% | 9243   |  2.029% | 
 | 97   | Armaldo            |  2.23192% | 14076  |  2.232% | 10356  |  2.273% | 
 | 98   | Heliolisk          |  2.21151% | 13947  |  2.211% | 9641   |  2.116% | 
 | 99   | Houndoom-Mega      |  2.20643% | 13915  |  2.206% | 9379   |  2.059% | 
 | 100  | Honchkrow          |  2.19787% | 13861  |  2.198% | 9543   |  2.095% | 
 | 101  | Rotom-Heat         |  2.19311% | 13831  |  2.193% | 10636  |  2.335% | 
 | 102  | Lanturn            |  2.13686% | 13477  |  2.137% | 9687   |  2.127% | 
 | 103  | Goodra             |  2.11557% | 13342  |  2.116% | 9525   |  2.091% | 
 | 104  | Banette-Mega       |  2.07197% | 13067  |  2.072% | 9106   |  1.999% | 
 | 105  | Sylveon            |  2.04882% | 12921  |  2.049% | 7867   |  1.727% | 
 | 106  | Porygon-Z          |  2.01092% | 12682  |  2.011% | 8666   |  1.902% | 
 | 107  | Tyrantrum          |  1.98476% | 12517  |  1.985% | 8471   |  1.860% | 
 | 108  | Manectric-Mega     |  1.96383% | 12385  |  1.964% | 9313   |  2.044% | 
 | 109  | Cobalion           |  1.96129% | 12369  |  1.961% | 10005  |  2.196% | 
 | 110  | Malamar            |  1.95622% | 12337  |  1.956% | 9051   |  1.987% | 
 | 111  | Electivire         |  1.95483% | 12329  |  1.955% | 8879   |  1.949% | 
 | 112  | Trevenant          |  1.91642% | 12086  |  1.916% | 7975   |  1.751% | 
 | 113  | Snorlax            |  1.91578% | 12082  |  1.916% | 8519   |  1.870% | 
 | 114  | Torkoal            |  1.89216% | 11933  |  1.892% | 9934   |  2.181% | 
 | 115  | Avalugg            |  1.89168% | 11930  |  1.892% | 9091   |  1.996% | 
 | 116  | Abomasnow-Mega     |  1.87392% | 11818  |  1.874% | 8903   |  1.954% | 
 | 117  | Conkeldurr         |  1.84744% | 11651  |  1.847% | 8553   |  1.878% | 
 | 118  | Gastrodon          |  1.80764% | 11400  |  1.808% | 8425   |  1.849% | 
 | 119  | Tyranitar-Mega     |  1.76071% | 11104  |  1.761% | 7857   |  1.725% | 
 | 120  | Weezing            |  1.73395% | 10936  |  1.734% | 8902   |  1.954% | 
 | 121  | Mew                |  1.72788% | 10897  |  1.728% | 8825   |  1.937% | 
 | 122  | Arcanine           |  1.69474% | 10688  |  1.695% | 7827   |  1.718% | 
 | 123  | Crawdaunt          |  1.68190% | 10607  |  1.682% | 7362   |  1.616% | 
 | 124  | Ninetales          |  1.64813% | 10394  |  1.648% | 7986   |  1.753% | 
 | 125  | Noivern            |  1.61562% | 10189  |  1.616% | 7092   |  1.557% | 
 | 126  | Aurorus            |  1.57356% | 9924   |  1.574% | 7662   |  1.682% | 
 | 127  | Eelektross         |  1.55774% | 9824   |  1.558% | 7509   |  1.648% | 
 | 128  | Aerodactyl-Mega    |  1.55077% | 9780   |  1.551% | 6954   |  1.527% | 
 | 129  | Machamp            |  1.46657% | 9249   |  1.467% | 6767   |  1.486% | 
 | 130  | Latias             |  1.45039% | 9147   |  1.450% | 6244   |  1.371% | 
 | 131  | Amoonguss          |  1.43997% | 9082   |  1.440% | 6299   |  1.383% | 
 | 132  | Darmanitan         |  1.43295% | 9037   |  1.433% | 6274   |  1.377% | 
 | 133  | Omastar            |  1.42154% | 8965   |  1.422% | 6255   |  1.373% | 
 | 134  | Latias-Mega        |  1.41056% | 8896   |  1.411% | 5938   |  1.304% | 
 | 135  | Ampharos-Mega      |  1.39969% | 8828   |  1.400% | 6017   |  1.321% | 
 | 136  | Lapras             |  1.39363% | 8789   |  1.394% | 6287   |  1.380% | 
 | 137  | Espeon             |  1.39030% | 8768   |  1.390% | 6379   |  1.400% | 
 | 138  | Absol-Mega         |  1.38919% | 8761   |  1.389% | 6444   |  1.415% | 
 | 139  | Roserade           |  1.38602% | 8741   |  1.386% | 5918   |  1.299% | 
 | 140  | Spiritomb          |  1.38554% | 8738   |  1.386% | 6606   |  1.450% | 
 | 141  | Vivillon           |  1.38364% | 8726   |  1.384% | 5983   |  1.313% | 
 | 142  | Crustle            |  1.38031% | 8705   |  1.380% | 5949   |  1.306% | 
 | 143  | Alakazam           |  1.37888% | 8696   |  1.379% | 5800   |  1.273% | 
 | 144  | Zoroark            |  1.33861% | 8442   |  1.339% | 3920   |  0.861% | 
 | 145  | Haxorus            |  1.32719% | 8370   |  1.327% | 5661   |  1.243% | 
 | 146  | Thundurus-Therian  |  1.32005% | 8325   |  1.320% | 5948   |  1.306% | 
 | 147  | Ambipom            |  1.31561% | 8297   |  1.316% | 6677   |  1.466% | 
 | 148  | Cofagrigus         |  1.30721% | 8244   |  1.307% | 6457   |  1.417% | 
 | 149  | Nidoqueen          |  1.26297% | 7965   |  1.263% | 6652   |  1.460% | 
 | 150  | Pyroar             |  1.25362% | 7906   |  1.254% | 5362   |  1.177% | 
 | 151  | Delphox            |  1.24363% | 7843   |  1.244% | 5268   |  1.156% | 
 | 152  | Rotom-Mow          |  1.20985% | 7630   |  1.210% | 5628   |  1.235% | 
 | 153  | Sceptile-Mega      |  1.20842% | 7621   |  1.208% | 5036   |  1.106% | 
 | 154  | Swampert           |  1.20842% | 7621   |  1.208% | 6064   |  1.331% | 
 | 155  | Quagsire           |  1.19748% | 7552   |  1.197% | 5448   |  1.196% | 
 | 156  | Cinccino           |  1.19558% | 7540   |  1.196% | 5293   |  1.162% | 
 | 157  | Chesnaught         |  1.19463% | 7534   |  1.195% | 5053   |  1.109% | 
 | 158  | Skuntank           |  1.18987% | 7504   |  1.190% | 5458   |  1.198% | 
 | 159  | Aggron-Mega        |  1.16767% | 7364   |  1.168% | 5324   |  1.169% | 
 | 160  | Bronzong           |  1.15340% | 7274   |  1.153% | 5877   |  1.290% | 
 | 161  | Seismitoad         |  1.14547% | 7224   |  1.145% | 5525   |  1.213% | 
 | 162  | Rhyperior          |  1.12423% | 7090   |  1.124% | 4888   |  1.073% | 
 | 163  | Celebi             |  1.10504% | 6969   |  1.105% | 4605   |  1.011% | 
 | 164  | Entei              |  1.09457% | 6903   |  1.095% | 4788   |  1.051% | 
 | 165  | Smeargle           |  1.08744% | 6858   |  1.087% | 6232   |  1.368% | 
 | 166  | Shedinja           |  1.08522% | 6845   |  1.085% | 4503   |  0.989% | 
 | 167  | Slurpuff           |  1.04605% | 6597   |  1.046% | 4370   |  0.959% | 
 | 168  | Sigilyph           |  1.01149% | 6379   |  1.011% | 4298   |  0.944% | 
 | 169  | Latios-Mega        |  1.00562% | 6342   |  1.006% | 3957   |  0.869% | 
 | 170  | Manaphy            |  0.99167% | 6254   |  0.992% | 4229   |  0.928% | 
 | 171  | Gourgeist-Super    |  0.97835% | 6170   |  0.978% | 4536   |  0.996% | 
 | 172  | Durant             |  0.97133% | 6126   |  0.971% | 3952   |  0.868% | 
 | 173  | Pangoro            |  0.96598% | 6092   |  0.966% | 4167   |  0.915% | 
 | 174  | Shiftry            |  0.96312% | 6074   |  0.963% | 4125   |  0.906% | 
 | 175  | Articuno           |  0.95821% | 6043   |  0.958% | 4268   |  0.937% | 
 | 176  | Luxray             |  0.95666% | 6034   |  0.957% | 4386   |  0.963% | 
 | 177  | Gallade            |  0.91302% | 5758   |  0.913% | 3966   |  0.871% | 
 | 178  | Exploud            |  0.90858% | 5730   |  0.909% | 4098   |  0.900% | 
 | 179  | Aerodactyl         |  0.90683% | 5719   |  0.907% | 4487   |  0.985% | 
 | 180  | Hitmonlee          |  0.89003% | 5613   |  0.890% | 4193   |  0.920% | 
 | 181  | Torterra           |  0.88150% | 5560   |  0.882% | 3934   |  0.864% | 
 | 182  | Poliwrath          |  0.87908% | 5544   |  0.879% | 3833   |  0.841% | 
 | 183  | Blastoise-Mega     |  0.87861% | 5541   |  0.879% | 3801   |  0.834% | 
 | 184  | Sharpedo           |  0.87591% | 5524   |  0.876% | 3833   |  0.841% | 
 | 185  | Steelix-Mega       |  0.86513% | 5456   |  0.865% | 3994   |  0.877% | 
 | 186  | Glalie-Mega        |  0.86192% | 5436   |  0.862% | 3534   |  0.776% | 
 | 187  | Florges            |  0.85657% | 5402   |  0.857% | 3273   |  0.718% | 
 | 188  | Houndoom           |  0.82961% | 5232   |  0.830% | 3522   |  0.773% | 
 | 189  | Raikou             |  0.82375% | 5195   |  0.824% | 3782   |  0.830% | 
 | 190  | Miltank            |  0.81994% | 5171   |  0.820% | 4028   |  0.884% | 
 | 191  | Alakazam-Mega      |  0.81598% | 5146   |  0.816% | 3505   |  0.769% | 
 | 192  | Scyther            |  0.80710% | 5090   |  0.807% | 3358   |  0.737% | 
 | 193  | Camerupt-Mega      |  0.80028% | 5047   |  0.800% | 3508   |  0.770% | 
 | 194  | Venomoth           |  0.79679% | 5025   |  0.797% | 3244   |  0.712% | 
 | 195  | Azelf              |  0.79124% | 4990   |  0.791% | 4296   |  0.943% | 
 | 196  | Exeggutor          |  0.79076% | 4987   |  0.791% | 3062   |  0.672% | 
 | 197  | Jolteon            |  0.77459% | 4885   |  0.775% | 3534   |  0.776% | 
 | 198  | Escavalier         |  0.74224% | 4681   |  0.742% | 3093   |  0.679% | 
 | 199  | Milotic            |  0.74002% | 4667   |  0.740% | 3130   |  0.687% | 
 | 200  | Flygon             |  0.73875% | 4659   |  0.739% | 3320   |  0.729% | 
 | 201  | Dusclops           |  0.73130% | 4612   |  0.731% | 3481   |  0.764% | 
 | 202  | Drifblim           |  0.72084% | 4546   |  0.721% | 3329   |  0.731% | 
 | 203  | Rotom-Frost        |  0.71735% | 4524   |  0.717% | 3414   |  0.749% | 
 | 204  | Swellow            |  0.71418% | 4504   |  0.714% | 3107   |  0.682% | 
 | 205  | Vaporeon           |  0.70339% | 4436   |  0.703% | 3091   |  0.679% | 
 | 206  | Blissey            |  0.69880% | 4407   |  0.699% | 3103   |  0.681% | 
 | 207  | Medicham           |  0.68897% | 4345   |  0.689% | 3025   |  0.664% | 
 | 208  | Dusknoir           |  0.67628% | 4265   |  0.676% | 3099   |  0.680% | 
 | 209  | Kabutops           |  0.66994% | 4225   |  0.670% | 2898   |  0.636% | 
 | 210  | Hoopa              |  0.66883% | 4218   |  0.669% | 2909   |  0.639% | 
 | 211  | Aggron             |  0.66788% | 4212   |  0.668% | 2957   |  0.649% | 
 | 212  | Dedenne            |  0.66724% | 4208   |  0.667% | 2900   |  0.637% | 
 | 213  | Granbull           |  0.66470% | 4192   |  0.665% | 2860   |  0.628% | 
 | 214  | Glaceon            |  0.65979% | 4161   |  0.660% | 2709   |  0.595% | 
 | 215  | Emboar             |  0.64790% | 4086   |  0.648% | 2892   |  0.635% | 
 | 216  | Tangrowth          |  0.64584% | 4073   |  0.646% | 2682   |  0.589% | 
 | 217  | Slowking           |  0.63378% | 3997   |  0.634% | 2682   |  0.589% | 
 | 218  | Hitmontop          |  0.63252% | 3989   |  0.633% | 2926   |  0.642% | 
 | 219  | Chatot             |  0.62554% | 3945   |  0.626% | 3072   |  0.674% | 
 | 220  | Claydol            |  0.62237% | 3925   |  0.622% | 2979   |  0.654% | 
 | 221  | Muk                |  0.62015% | 3911   |  0.620% | 2865   |  0.629% | 
 | 222  | Mismagius          |  0.61904% | 3904   |  0.619% | 2744   |  0.602% | 
 | 223  | Archeops           |  0.60699% | 3828   |  0.607% | 2783   |  0.611% | 
 | 224  | Walrein            |  0.60445% | 3812   |  0.604% | 2698   |  0.592% | 
 | 225  | Kecleon            |  0.60207% | 3797   |  0.602% | 3022   |  0.663% | 
 | 226  | Zygarde            |  0.60191% | 3796   |  0.602% | 2712   |  0.595% | 
 | 227  | Golem              |  0.59969% | 3782   |  0.600% | 2840   |  0.623% | 
 | 228  | Slaking            |  0.59636% | 3761   |  0.596% | 2786   |  0.612% | 
 | 229  | Diancie            |  0.58891% | 3714   |  0.589% | 2751   |  0.604% | 
 | 230  | Abomasnow          |  0.58843% | 3711   |  0.588% | 2732   |  0.600% | 
 | 231  | Leavanny           |  0.58653% | 3699   |  0.587% | 2634   |  0.578% | 
 | 232  | Mawile             |  0.58542% | 3692   |  0.585% | 2651   |  0.582% | 
 | 233  | Meowstic           |  0.58467% | 3688   |  0.585% | 3063   |  0.672% | 
 | 234  | Jynx               |  0.58082% | 3663   |  0.581% | 2556   |  0.561% | 
 | 235  | Feraligatr         |  0.57004% | 3595   |  0.570% | 2333   |  0.512% | 
 | 236  | Accelgor           |  0.56830% | 3584   |  0.568% | 2434   |  0.534% | 
 | 237  | Tornadus-Therian   |  0.56576% | 3568   |  0.566% | 2491   |  0.547% | 
 | 238  | Mienshao           |  0.55529% | 3502   |  0.555% | 2539   |  0.557% | 
 | 239  | Ninjask            |  0.54657% | 3447   |  0.547% | 2449   |  0.538% | 
 | 240  | Liepard            |  0.53960% | 3403   |  0.540% | 2696   |  0.592% | 
 | 241  | Virizion           |  0.53595% | 3380   |  0.536% | 2141   |  0.470% | 
 | 242  | Regice             |  0.53151% | 3352   |  0.532% | 2464   |  0.541% | 
 | 243  | Stunfisk           |  0.48905% | 3085   |  0.489% | 2563   |  0.563% | 
 | 244  | Hitmonchan         |  0.48505% | 3059   |  0.485% | 2216   |  0.486% | 
 | 245  | Tauros             |  0.48109% | 3034   |  0.481% | 2182   |  0.479% | 
 | 246  | Xatu               |  0.47538% | 2998   |  0.475% | 2293   |  0.503% | 
 | 247  | Cresselia          |  0.46333% | 2922   |  0.463% | 2008   |  0.441% | 
 | 248  | Typhlosion         |  0.46111% | 2908   |  0.461% | 1938   |  0.425% | 
 | 249  | Moltres            |  0.46000% | 2901   |  0.460% | 2049   |  0.450% | 
 | 250  | Braviary           |  0.45920% | 2896   |  0.459% | 1924   |  0.422% | 
 | 251  | Wigglytuff         |  0.45397% | 2863   |  0.454% | 2041   |  0.448% | 
 | 252  | Druddigon          |  0.45254% | 2854   |  0.453% | 2362   |  0.519% | 
 | 253  | Carracosta         |  0.44985% | 2837   |  0.450% | 2087   |  0.458% | 
 | 254  | Cacturne           |  0.44493% | 2806   |  0.445% | 1976   |  0.434% | 
 | 255  | Magmortar          |  0.44049% | 2778   |  0.440% | 1928   |  0.423% | 
 | 256  | Rotom              |  0.40688% | 2566   |  0.407% | 1938   |  0.425% | 
 | 257  | Deoxys-Speed       |  0.39990% | 2522   |  0.400% | 2330   |  0.511% | 
 | 258  | Sawsbuck           |  0.39594% | 2497   |  0.396% | 1665   |  0.366% | 
 | 259  | Mr. Mime           |  0.39261% | 2476   |  0.393% | 1657   |  0.364% | 
 | 260  | Suicune            |  0.38817% | 2448   |  0.388% | 1602   |  0.352% | 
 | 261  | Zangoose           |  0.38547% | 2431   |  0.385% | 1660   |  0.364% | 
 | 262  | Charizard          |  0.38452% | 2425   |  0.385% | 1734   |  0.381% | 
 | 263  | Ursaring           |  0.38246% | 2412   |  0.382% | 1704   |  0.374% | 
 | 264  | Wobbuffet          |  0.38167% | 2407   |  0.382% | 1828   |  0.401% | 
 | 265  | Altaria            |  0.37976% | 2395   |  0.380% | 1567   |  0.344% | 
 | 266  | Reuniclus          |  0.37754% | 2381   |  0.378% | 1576   |  0.346% | 
 | 267  | Barbaracle         |  0.37390% | 2358   |  0.374% | 1551   |  0.340% | 
 | 268  | Volbeat            |  0.36866% | 2325   |  0.369% | 1836   |  0.403% | 
 | 269  | Audino-Mega        |  0.36200% | 2283   |  0.362% | 1631   |  0.358% | 
 | 270  | Emolga             |  0.36137% | 2279   |  0.361% | 1781   |  0.391% | 
 | 271  | Bastiodon          |  0.36121% | 2278   |  0.361% | 1773   |  0.389% | 
 | 272  | Raichu             |  0.35966% | 2269   |  0.360% | 1677   |  0.368% | 
 | 273  | Furfrou            |  0.35867% | 2262   |  0.359% | 1635   |  0.359% | 
 | 274  | Ariados            |  0.35633% | 2248   |  0.356% | 1938   |  0.425% | 
 | 275  | Magneton           |  0.34979% | 2206   |  0.350% | 1554   |  0.341% | 
 | 276  | Piloswine          |  0.34868% | 2199   |  0.349% | 1907   |  0.419% | 
 | 277  | Venusaur           |  0.34773% | 2193   |  0.348% | 1512   |  0.332% | 
 | 278  | Deoxys-Defense     |  0.34631% | 2184   |  0.346% | 1882   |  0.413% | 
 | 279  | Cryogonal          |  0.34107% | 2151   |  0.341% | 1493   |  0.328% | 
 | 280  | Victreebel         |  0.32918% | 2076   |  0.329% | 1399   |  0.307% | 
 | 281  | Steelix            |  0.30698% | 1936   |  0.307% | 1434   |  0.315% | 
 | 282  | Clawitzer          |  0.30587% | 1929   |  0.306% | 1325   |  0.291% | 
 | 283  | Rampardos          |  0.30587% | 1929   |  0.306% | 1251   |  0.275% | 
 | 284  | Vespiquen          |  0.29810% | 1880   |  0.298% | 1151   |  0.253% | 
 | 285  | Probopass          |  0.29604% | 1867   |  0.296% | 1350   |  0.296% | 
 | 286  | Flareon            |  0.29557% | 1864   |  0.296% | 1272   |  0.279% | 
 | 287  | Hariyama           |  0.29430% | 1856   |  0.294% | 1325   |  0.291% | 
 | 288  | Pikachu            |  0.29271% | 1846   |  0.293% | 1449   |  0.318% | 
 | 289  | Tropius            |  0.28922% | 1824   |  0.289% | 1223   |  0.268% | 
 | 290  | Lilligant          |  0.28843% | 1819   |  0.288% | 1207   |  0.265% | 
 | 291  | Golbat             |  0.28605% | 1804   |  0.286% | 1388   |  0.305% | 
 | 292  | Mantine            |  0.28256% | 1782   |  0.283% | 1258   |  0.276% | 
 | 293  | Alomomola          |  0.27638% | 1743   |  0.276% | 1255   |  0.275% | 
 | 294  | Kyurem             |  0.27606% | 1741   |  0.276% | 1239   |  0.272% | 
 | 295  | Magcargo           |  0.27574% | 1739   |  0.276% | 1278   |  0.281% | 
 | 296  | Registeel          |  0.27511% | 1735   |  0.275% | 1275   |  0.280% | 
 | 297  | Camerupt           |  0.27416% | 1729   |  0.274% | 1269   |  0.279% | 
 | 298  | Regigigas          |  0.27352% | 1725   |  0.274% | 1352   |  0.297% | 
 | 299  | Leafeon            |  0.26702% | 1684   |  0.267% | 1085   |  0.238% | 
 | 300  | Regirock           |  0.26671% | 1682   |  0.267% | 1259   |  0.276% | 
 | 301  | Swoobat            |  0.26528% | 1673   |  0.265% | 1137   |  0.250% | 
 | 302  | Kangaskhan         |  0.26369% | 1663   |  0.264% | 1256   |  0.276% | 
 | 303  | Blastoise          |  0.26338% | 1661   |  0.263% | 1163   |  0.255% | 
 | 304  | Donphan            |  0.25688% | 1620   |  0.257% | 1207   |  0.265% | 
 | 305  | Linoone            |  0.25577% | 1613   |  0.256% | 1173   |  0.257% | 
 | 306  | Sceptile           |  0.25212% | 1590   |  0.252% | 1072   |  0.235% | 
 | 307  | Vileplume          |  0.25180% | 1588   |  0.252% | 1060   |  0.233% | 
 | 308  | Arbok              |  0.24863% | 1568   |  0.249% | 1067   |  0.234% | 
 | 309  | Butterfree         |  0.24815% | 1565   |  0.248% | 1082   |  0.238% | 
 | 310  | Electrode          |  0.24562% | 1549   |  0.246% | 1259   |  0.276% | 
 | 311  | Murkrow            |  0.24530% | 1547   |  0.245% | 1164   |  0.256% | 
 | 312  | Masquerain         |  0.23864% | 1505   |  0.239% | 1113   |  0.244% | 
 | 313  | Primeape           |  0.23848% | 1504   |  0.238% | 1036   |  0.227% | 
 | 314  | Lickilicky         |  0.23832% | 1503   |  0.238% | 1136   |  0.249% | 
 | 315  | Sawk               |  0.23468% | 1480   |  0.235% | 948    |  0.208% | 
 | 316  | Qwilfish           |  0.23357% | 1473   |  0.234% | 1239   |  0.272% | 
 | 317  | Jumpluff           |  0.23166% | 1461   |  0.232% | 1088   |  0.239% | 
 | 318  | Parasect           |  0.22897% | 1444   |  0.229% | 1024   |  0.225% | 
 | 319  | Meganium           |  0.22342% | 1409   |  0.223% | 965    |  0.212% | 
 | 320  | Girafarig          |  0.22104% | 1394   |  0.221% | 960    |  0.211% | 
 | 321  | Klinklang          |  0.22025% | 1389   |  0.220% | 907    |  0.199% | 
 | 322  | Dugtrio            |  0.21977% | 1386   |  0.220% | 1008   |  0.221% | 
 | 323  | Rhydon             |  0.21834% | 1377   |  0.218% | 941    |  0.207% | 
 | 324  | Stoutland          |  0.21755% | 1372   |  0.218% | 970    |  0.213% | 
 | 325  | Bibarel            |  0.21375% | 1348   |  0.214% | 991    |  0.218% | 
 | 326  | Persian            |  0.21327% | 1345   |  0.213% | 1050   |  0.230% | 
 | 327  | Gigalith           |  0.20756% | 1309   |  0.208% | 1057   |  0.232% | 
 | 328  | Kingler            |  0.20534% | 1295   |  0.205% | 891    |  0.196% | 
 | 329  | Combusken          |  0.19599% | 1236   |  0.196% | 994    |  0.218% | 
 | 330  | Floatzel           |  0.19075% | 1203   |  0.191% | 859    |  0.189% | 
 | 331  | Swanna             |  0.18996% | 1198   |  0.190% | 826    |  0.181% | 
 | 332  | Bouffalant         |  0.18980% | 1197   |  0.190% | 837    |  0.184% | 
 | 333  | Carbink            |  0.18520% | 1168   |  0.185% | 919    |  0.202% | 
 | 334  | Relicanth          |  0.17981% | 1134   |  0.180% | 845    |  0.185% | 
 | 335  | Pinsir             |  0.17347% | 1095   |  0.174% | 686    |  0.151% | 
 | 336  | Aromatisse         |  0.17252% | 1088   |  0.173% | 757    |  0.166% | 
 | 337  | Togetic            |  0.17157% | 1082   |  0.172% | 715    |  0.157% | 
 | 338  | Absol              |  0.17141% | 1081   |  0.171% | 788    |  0.173% | 
 | 339  | Sandslash          |  0.17030% | 1074   |  0.170% | 738    |  0.162% | 
 | 340  | Seaking            |  0.16618% | 1048   |  0.166% | 736    |  0.162% | 
 | 341  | Gothitelle         |  0.16316% | 1029   |  0.163% | 757    |  0.166% | 
 | 342  | Noctowl            |  0.16031% | 1011   |  0.160% | 708    |  0.155% | 
 | 343  | Fletchinder        |  0.15999% | 1009   |  0.160% | 729    |  0.160% | 
 | 344  | Raticate           |  0.15952% | 1006   |  0.160% | 674    |  0.148% | 
 | 345  | Rotom-Fan          |  0.15857% | 1000   |  0.159% | 745    |  0.164% | 
 | 346  | Rapidash           |  0.15191% | 958    |  0.152% | 690    |  0.151% | 
 | 347  | Zebstrika          |  0.15111% | 953    |  0.151% | 688    |  0.151% | 
 | 348  | Dodrio             |  0.14588% | 920    |  0.146% | 661    |  0.145% | 
 | 349  | Vanilluxe          |  0.14525% | 916    |  0.145% | 625    |  0.137% | 
 | 350  | Uxie               |  0.14493% | 914    |  0.145% | 719    |  0.158% | 
 | 351  | Dunsparce          |  0.14382% | 907    |  0.144% | 709    |  0.156% | 
 | 352  | Samurott           |  0.14144% | 892    |  0.141% | 575    |  0.126% | 
 | 353  | Lunatone           |  0.13541% | 854    |  0.135% | 626    |  0.137% | 
 | 354  | Illumise           |  0.13399% | 845    |  0.134% | 637    |  0.140% | 
 | 355  | Marowak            |  0.12701% | 801    |  0.127% | 552    |  0.121% | 
 | 356  | Wailord            |  0.12416% | 783    |  0.124% | 547    |  0.120% | 
 | 357  | Dustox             |  0.12146% | 766    |  0.121% | 526    |  0.115% | 
 | 358  | Throh              |  0.12114% | 764    |  0.121% | 534    |  0.117% | 
 | 359  | Dewgong            |  0.12083% | 762    |  0.121% | 551    |  0.121% | 
 | 360  | Mightyena          |  0.11829% | 746    |  0.118% | 562    |  0.123% | 
 | 361  | Shaymin            |  0.11670% | 736    |  0.117% | 482    |  0.106% | 
 | 362  | Golduck            |  0.11353% | 716    |  0.114% | 486    |  0.107% | 
 | 363  | Garbodor           |  0.11306% | 713    |  0.113% | 565    |  0.124% | 
 | 364  | Pelipper           |  0.10925% | 689    |  0.109% | 480    |  0.105% | 
 | 365  | Gligar             |  0.10846% | 684    |  0.108% | 527    |  0.116% | 
 | 366  | Solrock            |  0.10735% | 677    |  0.107% | 538    |  0.118% | 
 | 367  | Beartic            |  0.10497% | 662    |  0.105% | 455    |  0.100% | 
 | 368  | Unfezant           |  0.10481% | 661    |  0.105% | 434    |  0.095% | 
 | 369  | Gogoat             |  0.10005% | 631    |  0.100% | 370    |  0.081% | 
 | 370  | Ledian             |  0.09942% | 627    |  0.099% | 421    |  0.092% | 
 | 371  | Beedrill           |  0.09942% | 627    |  0.099% | 422    |  0.093% | 
 | 372  | Seviper            |  0.09720% | 613    |  0.097% | 428    |  0.094% | 
 | 373  | Spinda             |  0.09387% | 592    |  0.094% | 470    |  0.103% | 
 | 374  | Beautifly          |  0.09308% | 587    |  0.093% | 421    |  0.092% | 
 | 375  | Musharna           |  0.09292% | 586    |  0.093% | 364    |  0.080% | 
 | 376  | Aron               |  0.09165% | 578    |  0.092% | 385    |  0.085% | 
 | 377  | Haunter            |  0.08959% | 565    |  0.090% | 405    |  0.089% | 
 | 378  | Whiscash           |  0.08547% | 539    |  0.085% | 391    |  0.086% | 
 | 379  | Whirlipede         |  0.08531% | 538    |  0.085% | 402    |  0.088% | 
 | 380  | Tornadus           |  0.08420% | 531    |  0.084% | 326    |  0.072% | 
 | 381  | Tangela            |  0.08356% | 527    |  0.084% | 358    |  0.079% | 
 | 382  | Ampharos           |  0.08230% | 519    |  0.082% | 365    |  0.080% | 
 | 383  | Gorebyss           |  0.08150% | 514    |  0.082% | 344    |  0.076% | 
 | 384  | Purugly            |  0.08071% | 509    |  0.081% | 368    |  0.081% | 
 | 385  | Pidgeot            |  0.08071% | 509    |  0.081% | 352    |  0.077% | 
 | 386  | Staravia           |  0.07960% | 502    |  0.080% | 403    |  0.088% | 
 | 387  | Rattata            |  0.07897% | 498    |  0.079% | 400    |  0.088% | 
 | 388  | Onix               |  0.07817% | 493    |  0.078% | 418    |  0.092% | 
 | 389  | Castform           |  0.07468% | 471    |  0.075% | 366    |  0.080% | 
 | 390  | Lopunny            |  0.07342% | 463    |  0.073% | 396    |  0.087% | 
 | 391  | Swalot             |  0.07167% | 452    |  0.072% | 319    |  0.070% | 
 | 392  | Vigoroth           |  0.07040% | 444    |  0.070% | 284    |  0.062% | 
 | 393  | Furret             |  0.06961% | 439    |  0.070% | 341    |  0.075% | 
 | 394  | Pachirisu          |  0.06929% | 437    |  0.069% | 313    |  0.069% | 
 | 395  | Manectric          |  0.06866% | 433    |  0.069% | 317    |  0.070% | 
 | 396  | Hypno              |  0.06723% | 424    |  0.067% | 302    |  0.066% | 
 | 397  | Bellossom          |  0.06723% | 424    |  0.067% | 304    |  0.067% | 
 | 398  | Kricketune         |  0.06660% | 420    |  0.067% | 279    |  0.061% | 
 | 399  | Beheeyem           |  0.06549% | 413    |  0.065% | 252    |  0.055% | 
 | 400  | Gourgeist-Small    |  0.06422% | 405    |  0.064% | 284    |  0.062% | 
 | 401  | Surskit            |  0.06406% | 404    |  0.064% | 336    |  0.074% | 
 | 402  | Octillery          |  0.06073% | 383    |  0.061% | 259    |  0.057% | 
 | 403  | Glalie             |  0.06010% | 379    |  0.060% | 290    |  0.064% | 
 | 404  | Banette            |  0.05978% | 377    |  0.060% | 260    |  0.057% | 
 | 405  | Gourgeist          |  0.05930% | 374    |  0.059% | 276    |  0.061% | 
 | 406  | Grumpig            |  0.05835% | 368    |  0.058% | 243    |  0.053% | 
 | 407  | Sudowoodo          |  0.05645% | 356    |  0.056% | 278    |  0.061% | 
 | 408  | Delibird           |  0.05613% | 354    |  0.056% | 290    |  0.064% | 
 | 409  | Fearow             |  0.05534% | 349    |  0.055% | 287    |  0.063% | 
 | 410  | Gothorita          |  0.05455% | 344    |  0.055% | 302    |  0.066% | 
 | 411  | Huntail            |  0.05455% | 344    |  0.055% | 233    |  0.051% | 
 | 412  | Mesprit            |  0.05328% | 336    |  0.053% | 231    |  0.051% | 
 | 413  | Corsola            |  0.05264% | 332    |  0.053% | 257    |  0.056% | 
 | 414  | Sneasel            |  0.05264% | 332    |  0.053% | 229    |  0.050% | 
 | 415  | Dragonair          |  0.05106% | 322    |  0.051% | 244    |  0.054% | 
 | 416  | Farfetch'd         |  0.04963% | 313    |  0.050% | 243    |  0.053% | 
 | 417  | Wormadam-Sandy     |  0.04916% | 310    |  0.049% | 235    |  0.052% | 
 | 418  | Simisage           |  0.04678% | 295    |  0.047% | 182    |  0.040% | 
 | 419  | Delcatty           |  0.04678% | 295    |  0.047% | 215    |  0.047% | 
 | 420  | Misdreavus         |  0.04567% | 288    |  0.046% | 214    |  0.047% | 
 | 421  | Lickitung          |  0.04551% | 287    |  0.046% | 219    |  0.048% | 
 | 422  | Shelgon            |  0.04535% | 286    |  0.045% | 196    |  0.043% | 
 | 423  | Basculin           |  0.04424% | 279    |  0.044% | 173    |  0.038% | 
 | 424  | Stantler           |  0.04392% | 277    |  0.044% | 202    |  0.044% | 
 | 425  | Eevee              |  0.04345% | 274    |  0.043% | 193    |  0.042% | 
 | 426  | Machoke            |  0.04218% | 266    |  0.042% | 190    |  0.042% | 
 | 427  | Cherrim            |  0.04107% | 259    |  0.041% | 182    |  0.040% | 
 | 428  | Koffing            |  0.04107% | 259    |  0.041% | 219    |  0.048% | 
 | 429  | Heatmor            |  0.03853% | 243    |  0.039% | 158    |  0.035% | 
 | 430  | Mothim             |  0.03837% | 242    |  0.038% | 166    |  0.036% | 
 | 431  | Munchlax           |  0.03806% | 240    |  0.038% | 175    |  0.038% | 
 | 432  | Electabuzz         |  0.03742% | 236    |  0.037% | 167    |  0.037% | 
 | 433  | Plusle             |  0.03615% | 228    |  0.036% | 157    |  0.034% | 
 | 434  | Audino             |  0.03599% | 227    |  0.036% | 165    |  0.036% | 
 | 435  | Minun              |  0.03584% | 226    |  0.036% | 153    |  0.034% | 
 | 436  | Palpitoad          |  0.03571% | 226    |  0.036% | 203    |  0.045% | 
 | 437  | Frogadier          |  0.03441% | 217    |  0.034% | 180    |  0.040% | 
 | 438  | Wartortle          |  0.03441% | 217    |  0.034% | 155    |  0.034% | 
 | 439  | Lairon             |  0.03377% | 213    |  0.034% | 187    |  0.041% | 
 | 440  | Magmar             |  0.03266% | 206    |  0.033% | 141    |  0.031% | 
 | 441  | Wynaut             |  0.03251% | 205    |  0.033% | 196    |  0.043% | 
 | 442  | Roselia            |  0.03219% | 203    |  0.032% | 148    |  0.032% | 
 | 443  | Riolu              |  0.03219% | 203    |  0.032% | 154    |  0.034% | 
 | 444  | Braixen            |  0.03203% | 202    |  0.032% | 149    |  0.033% | 
 | 445  | Numel              |  0.03140% | 198    |  0.031% | 155    |  0.034% | 
 | 446  | Swadloon           |  0.03092% | 195    |  0.031% | 138    |  0.030% | 
 | 447  | Wormadam-Trash     |  0.02949% | 186    |  0.029% | 125    |  0.027% | 
 | 448  | Sunflora           |  0.02791% | 176    |  0.028% | 117    |  0.026% | 
 | 449  | Watchog            |  0.02648% | 167    |  0.026% | 111    |  0.024% | 
 | 450  | Cottonee           |  0.02616% | 165    |  0.026% | 139    |  0.031% | 
 | 451  | Gourgeist-Large    |  0.02600% | 164    |  0.026% | 123    |  0.027% | 
 | 452  | Bronzor            |  0.02585% | 163    |  0.026% | 144    |  0.032% | 
 | 453  | Maractus           |  0.02553% | 161    |  0.026% | 120    |  0.026% | 
 | 454  | Simisear           |  0.02426% | 153    |  0.024% | 106    |  0.023% | 
 | 455  | Clefairy           |  0.02283% | 144    |  0.023% | 101    |  0.022% | 
 | 456  | Magnemite          |  0.02220% | 140    |  0.022% | 113    |  0.025% | 
 | 457  | Simipour           |  0.02220% | 140    |  0.022% | 92     |  0.020% | 
 | 458  | Snubbull           |  0.01998% | 126    |  0.020% | 70     |  0.015% | 
 | 459  | Mantyke            |  0.01998% | 126    |  0.020% | 96     |  0.021% | 
 | 460  | Carnivine          |  0.01982% | 125    |  0.020% | 87     |  0.019% | 
 | 461  | Doduo              |  0.01966% | 124    |  0.020% | 82     |  0.018% | 
 | 462  | Luvdisc            |  0.01950% | 123    |  0.020% | 103    |  0.023% | 
 | 463  | Ekans              |  0.01934% | 122    |  0.019% | 98     |  0.022% | 
 | 464  | Lileep             |  0.01934% | 122    |  0.019% | 88     |  0.019% | 
 | 465  | Lumineon           |  0.01919% | 121    |  0.019% | 84     |  0.018% | 
 | 466  | Ivysaur            |  0.01823% | 115    |  0.018% | 80     |  0.018% | 
 | 467  | Wormadam           |  0.01776% | 112    |  0.018% | 73     |  0.016% | 
 | 468  | Eelektrik          |  0.01697% | 107    |  0.017% | 89     |  0.020% | 
 | 469  | Chimecho           |  0.01697% | 107    |  0.017% | 87     |  0.019% | 
 | 470  | Nosepass           |  0.01506% | 95     |  0.015% | 83     |  0.018% | 
 | 471  | Pignite            |  0.01459% | 92     |  0.015% | 51     |  0.011% | 
 | 472  | Yanma              |  0.01443% | 91     |  0.014% | 58     |  0.013% | 
 | 473  | Frillish           |  0.01364% | 86     |  0.014% | 68     |  0.015% | 
 | 474  | Lampent            |  0.01364% | 86     |  0.014% | 57     |  0.013% | 
 | 475  | Jigglypuff         |  0.01332% | 84     |  0.013% | 64     |  0.014% | 
 | 476  | Metang             |  0.01300% | 82     |  0.013% | 54     |  0.012% | 
 | 477  | Gurdurr            |  0.01269% | 80     |  0.013% | 62     |  0.014% | 
 | 478  | Kadabra            |  0.01253% | 79     |  0.013% | 45     |  0.010% | 
 | 479  | Sliggoo            |  0.01221% | 77     |  0.012% | 55     |  0.012% | 
 | 480  | Nidorino           |  0.01189% | 75     |  0.012% | 48     |  0.011% | 
 | 481  | Servine            |  0.01173% | 74     |  0.012% | 49     |  0.011% | 
 | 482  | Scraggy            |  0.01142% | 72     |  0.011% | 53     |  0.012% | 
 | 483  | Seadra             |  0.01126% | 71     |  0.011% | 53     |  0.012% | 
 | 484  | Hippopotas         |  0.01110% | 70     |  0.011% | 58     |  0.013% | 
 | 485  | Starly             |  0.01094% | 69     |  0.011% | 38     |  0.008% | 
 | 486  | Meditite           |  0.01094% | 69     |  0.011% | 57     |  0.013% | 
 | 487  | Metapod            |  0.01062% | 67     |  0.011% | 59     |  0.013% | 
 | 488  | Kakuna             |  0.01062% | 67     |  0.011% | 56     |  0.012% | 
 | 489  | Pineco             |  0.01062% | 67     |  0.011% | 47     |  0.010% | 
 | 490  | Monferno           |  0.01062% | 67     |  0.011% | 50     |  0.011% | 
 | 491  | Gabite             |  0.01047% | 66     |  0.010% | 50     |  0.011% | 
 | 492  | Taillow            |  0.01031% | 65     |  0.010% | 41     |  0.009% | 
 | 493  | Vullaby            |  0.01015% | 64     |  0.010% | 46     |  0.010% | 
 | 494  | Marshtomp          |  0.00999% | 63     |  0.010% | 46     |  0.010% | 
 | 495  | Weedle             |  0.00983% | 62     |  0.010% | 46     |  0.010% | 
 | 496  | Mime Jr.           |  0.00951% | 60     |  0.010% | 48     |  0.011% | 
 | 497  | Porygon            |  0.00951% | 60     |  0.010% | 42     |  0.009% | 
 | 498  | Croconaw           |  0.00951% | 60     |  0.010% | 44     |  0.010% | 
 | 499  | Zweilous           |  0.00936% | 59     |  0.009% | 42     |  0.009% | 
 | 500  | Magikarp           |  0.00904% | 57     |  0.009% | 43     |  0.009% | 
 | 501  | Pidgeotto          |  0.00904% | 57     |  0.009% | 43     |  0.009% | 
 | 502  | Psyduck            |  0.00888% | 56     |  0.009% | 43     |  0.009% | 
 | 503  | Sealeo             |  0.00872% | 55     |  0.009% | 45     |  0.010% | 
 | 504  | Honedge            |  0.00872% | 55     |  0.009% | 44     |  0.010% | 
 | 505  | Gloom              |  0.00840% | 53     |  0.008% | 37     |  0.008% | 
 | 506  | Spewpa             |  0.00793% | 50     |  0.008% | 43     |  0.009% | 
 | 507  | Nidorina           |  0.00793% | 50     |  0.008% | 42     |  0.009% | 
 | 508  | Fraxure            |  0.00777% | 49     |  0.008% | 30     |  0.007% | 
 | 509  | Graveler           |  0.00777% | 49     |  0.008% | 38     |  0.008% | 
 | 510  | Gastly             |  0.00761% | 48     |  0.008% | 37     |  0.008% | 
 | 511  | Vibrava            |  0.00745% | 47     |  0.007% | 30     |  0.007% | 
 | 512  | Ferroseed          |  0.00745% | 47     |  0.007% | 40     |  0.009% | 
 | 513  | Pawniard           |  0.00729% | 46     |  0.007% | 34     |  0.007% | 
 | 514  | Tyrogue            |  0.00729% | 46     |  0.007% | 37     |  0.008% | 
 | 515  | Pupitar            |  0.00729% | 46     |  0.007% | 26     |  0.006% | 
 | 516  | Larvesta           |  0.00714% | 45     |  0.007% | 36     |  0.008% | 
 | 517  | Anorith            |  0.00714% | 45     |  0.007% | 33     |  0.007% | 
 | 518  | Bayleef            |  0.00714% | 45     |  0.007% | 29     |  0.006% | 
 | 519  | Pichu              |  0.00698% | 44     |  0.007% | 33     |  0.007% | 
 | 520  | Skorupi            |  0.00698% | 44     |  0.007% | 35     |  0.008% | 
 | 521  | Caterpie           |  0.00698% | 44     |  0.007% | 30     |  0.007% | 
 | 522  | Joltik             |  0.00682% | 43     |  0.007% | 35     |  0.008% | 
 | 523  | Charmeleon         |  0.00666% | 42     |  0.007% | 27     |  0.006% | 
 | 524  | Weepinbell         |  0.00650% | 41     |  0.007% | 27     |  0.006% | 
 | 525  | Cascoon            |  0.00634% | 40     |  0.006% | 38     |  0.008% | 
 | 526  | Aipom              |  0.00618% | 39     |  0.006% | 36     |  0.008% | 
 | 527  | Omanyte            |  0.00618% | 39     |  0.006% | 31     |  0.007% | 
 | 528  | Silcoon            |  0.00618% | 39     |  0.006% | 38     |  0.008% | 
 | 529  | Inkay              |  0.00618% | 39     |  0.006% | 36     |  0.008% | 
 | 530  | Croagunk           |  0.00618% | 39     |  0.006% | 32     |  0.007% | 
 | 531  | Buneary            |  0.00603% | 38     |  0.006% | 18     |  0.004% | 
 | 532  | Shelmet            |  0.00603% | 38     |  0.006% | 27     |  0.006% | 
 | 533  | Klang              |  0.00587% | 37     |  0.006% | 28     |  0.006% | 
 | 534  | Unown              |  0.00587% | 37     |  0.006% | 26     |  0.006% | 
 | 535  | Cacnea             |  0.00587% | 37     |  0.006% | 25     |  0.005% | 
 | 536  | Clamperl           |  0.00571% | 36     |  0.006% | 28     |  0.006% | 
 | 537  | Amaura             |  0.00571% | 36     |  0.006% | 30     |  0.007% | 
 | 538  | Tentacool          |  0.00571% | 36     |  0.006% | 24     |  0.005% | 
 | 539  | Lombre             |  0.00555% | 35     |  0.006% | 22     |  0.005% | 
 | 540  | Carvanha           |  0.00555% | 35     |  0.006% | 26     |  0.006% | 
 | 541  | Prinplup           |  0.00555% | 35     |  0.006% | 31     |  0.007% | 
 | 542  | Pumpkaboo-Super    |  0.00555% | 35     |  0.006% | 20     |  0.004% | 
 | 543  | Swablu             |  0.00555% | 35     |  0.006% | 23     |  0.005% | 
 | 544  | Spinarak           |  0.00555% | 35     |  0.006% | 26     |  0.006% | 
 | 545  | Ledyba             |  0.00555% | 35     |  0.006% | 26     |  0.006% | 
 | 546  | Duosion            |  0.00539% | 34     |  0.005% | 26     |  0.006% | 
 | 547  | Ralts              |  0.00539% | 34     |  0.005% | 27     |  0.006% | 
 | 548  | Zorua              |  0.00523% | 33     |  0.005% | 12     |  0.003% | 
 | 549  | Charmander         |  0.00523% | 33     |  0.005% | 21     |  0.005% | 
 | 550  | Wingull            |  0.00523% | 33     |  0.005% | 26     |  0.006% | 
 | 551  | Skrelp             |  0.00507% | 32     |  0.005% | 22     |  0.005% | 
 | 552  | Bergmite           |  0.00492% | 31     |  0.005% | 28     |  0.006% | 
 | 553  | Bidoof             |  0.00492% | 31     |  0.005% | 21     |  0.005% | 
 | 554  | Nuzleaf            |  0.00492% | 31     |  0.005% | 19     |  0.004% | 
 | 555  | Foongus            |  0.00476% | 30     |  0.005% | 23     |  0.005% | 
 | 556  | Fletchling         |  0.00476% | 30     |  0.005% | 24     |  0.005% | 
 | 557  | Bunnelby           |  0.00460% | 29     |  0.005% | 16     |  0.004% | 
 | 558  | Grovyle            |  0.00460% | 29     |  0.005% | 27     |  0.006% | 
 | 559  | Wooper             |  0.00444% | 28     |  0.004% | 22     |  0.005% | 
 | 560  | Boldore            |  0.00444% | 28     |  0.004% | 24     |  0.005% | 
 | 561  | Phione             |  0.00444% | 28     |  0.004% | 17     |  0.004% | 
 | 562  | Totodile           |  0.00428% | 27     |  0.004% | 24     |  0.005% | 
 | 563  | Goldeen            |  0.00428% | 27     |  0.004% | 19     |  0.004% | 
 | 564  | Squirtle           |  0.00428% | 27     |  0.004% | 17     |  0.004% | 
 | 565  | Shieldon           |  0.00428% | 27     |  0.004% | 19     |  0.004% | 
 | 566  | Meowth             |  0.00412% | 26     |  0.004% | 21     |  0.005% | 
 | 567  | Golett             |  0.00412% | 26     |  0.004% | 21     |  0.005% | 
 | 568  | Swirlix            |  0.00396% | 25     |  0.004% | 10     |  0.002% | 
 | 569  | Bulbasaur          |  0.00396% | 25     |  0.004% | 11     |  0.002% | 
 | 570  | Dwebble            |  0.00381% | 24     |  0.004% | 23     |  0.005% | 
 | 571  | Azurill            |  0.00365% | 23     |  0.004% | 21     |  0.005% | 
 | 572  | Slowpoke           |  0.00365% | 23     |  0.004% | 16     |  0.004% | 
 | 573  | Sewaddle           |  0.00365% | 23     |  0.004% | 19     |  0.004% | 
 | 574  | Smoochum           |  0.00365% | 23     |  0.004% | 16     |  0.004% | 
 | 575  | Drifloon           |  0.00365% | 23     |  0.004% | 20     |  0.004% | 
 | 576  | Tyrunt             |  0.00365% | 23     |  0.004% | 19     |  0.004% | 
 | 577  | Rufflet            |  0.00349% | 22     |  0.003% | 15     |  0.003% | 
 | 578  | Treecko            |  0.00349% | 22     |  0.003% | 13     |  0.003% | 
 | 579  | Chinchou           |  0.00349% | 22     |  0.003% | 19     |  0.004% | 
 | 580  | Bonsly             |  0.00349% | 22     |  0.003% | 17     |  0.004% | 
 | 581  | Yamask             |  0.00349% | 22     |  0.003% | 16     |  0.004% | 
 | 582  | Scatterbug         |  0.00349% | 22     |  0.003% | 18     |  0.004% | 
 | 583  | Tirtouga           |  0.00349% | 22     |  0.003% | 19     |  0.004% | 
 | 584  | Zubat              |  0.00333% | 21     |  0.003% | 20     |  0.004% | 
 | 585  | Venipede           |  0.00333% | 21     |  0.003% | 18     |  0.004% | 
 | 586  | Spoink             |  0.00333% | 21     |  0.003% | 11     |  0.002% | 
 | 587  | Chimchar           |  0.00333% | 21     |  0.003% | 14     |  0.003% | 
 | 588  | Swinub             |  0.00333% | 21     |  0.003% | 19     |  0.004% | 
 | 589  | Snover             |  0.00333% | 21     |  0.003% | 18     |  0.004% | 
 | 590  | Torchic            |  0.00333% | 21     |  0.003% | 15     |  0.003% | 
 | 591  | Geodude            |  0.00317% | 20     |  0.003% | 17     |  0.004% | 
 | 592  | Flaaffy            |  0.00317% | 20     |  0.003% | 13     |  0.003% | 
 | 593  | Wurmple            |  0.00317% | 20     |  0.003% | 16     |  0.004% | 
 | 594  | Dewott             |  0.00317% | 20     |  0.003% | 16     |  0.004% | 
 | 595  | Marill             |  0.00301% | 19     |  0.003% | 11     |  0.002% | 
 | 596  | Ducklett           |  0.00301% | 19     |  0.003% | 17     |  0.004% | 
 | 597  | Spritzee           |  0.00301% | 19     |  0.003% | 14     |  0.003% | 
 | 598  | Cleffa             |  0.00285% | 18     |  0.003% | 17     |  0.004% | 
 | 599  | Togepi             |  0.00285% | 18     |  0.003% | 13     |  0.003% | 
 | 600  | Paras              |  0.00285% | 18     |  0.003% | 10     |  0.002% | 
 | 601  | Combee             |  0.00285% | 18     |  0.003% | 13     |  0.003% | 
 | 602  | Noibat             |  0.00285% | 18     |  0.003% | 11     |  0.002% | 
 | 603  | Turtwig            |  0.00285% | 18     |  0.003% | 15     |  0.003% | 
 | 604  | Staryu             |  0.00270% | 17     |  0.003% | 9      |  0.002% | 
 | 605  | Chingling          |  0.00270% | 17     |  0.003% | 12     |  0.003% | 
 | 606  | Poliwhirl          |  0.00270% | 17     |  0.003% | 13     |  0.003% | 
 | 607  | Purrloin           |  0.00270% | 17     |  0.003% | 17     |  0.004% | 
 | 608  | Venonat            |  0.00254% | 16     |  0.003% | 12     |  0.003% | 
 | 609  | Chikorita          |  0.00254% | 16     |  0.003% | 12     |  0.003% | 
 | 610  | Makuhita           |  0.00254% | 16     |  0.003% | 11     |  0.002% | 
 | 611  | Bagon              |  0.00254% | 16     |  0.003% | 10     |  0.002% | 
 | 612  | Axew               |  0.00254% | 16     |  0.003% | 12     |  0.003% | 
 | 613  | Minccino           |  0.00238% | 15     |  0.002% | 12     |  0.003% | 
 | 614  | Seel               |  0.00238% | 15     |  0.002% | 12     |  0.003% | 
 | 615  | Vulpix             |  0.00238% | 15     |  0.002% | 14     |  0.003% | 
 | 616  | Pancham            |  0.00238% | 15     |  0.002% | 15     |  0.003% | 
 | 617  | Pumpkaboo-Small    |  0.00238% | 15     |  0.002% | 7      |  0.002% | 
 | 618  | Grimer             |  0.00238% | 15     |  0.002% | 15     |  0.003% | 
 | 619  | Natu               |  0.00238% | 15     |  0.002% | 14     |  0.003% | 
 | 620  | Deino              |  0.00222% | 14     |  0.002% | 10     |  0.002% | 
 | 621  | Blitzle            |  0.00222% | 14     |  0.002% | 11     |  0.002% | 
 | 622  | Litwick            |  0.00222% | 14     |  0.002% | 12     |  0.003% | 
 | 623  | Quilladin          |  0.00222% | 14     |  0.002% | 11     |  0.002% | 
 | 624  | Elekid             |  0.00222% | 14     |  0.002% | 13     |  0.003% | 
 | 625  | NidoranF           |  0.00206% | 13     |  0.002% | 11     |  0.002% | 
 | 626  | Igglybuff          |  0.00206% | 13     |  0.002% | 12     |  0.003% | 
 | 627  | Woobat             |  0.00206% | 13     |  0.002% | 12     |  0.003% | 
 | 628  | Patrat             |  0.00206% | 13     |  0.002% | 11     |  0.002% | 
 | 629  | Darumaka           |  0.00206% | 13     |  0.002% | 5      |  0.001% | 
 | 630  | Cranidos           |  0.00206% | 13     |  0.002% | 11     |  0.002% | 
 | 631  | Rhyhorn            |  0.00206% | 13     |  0.002% | 6      |  0.001% | 
 | 632  | Wailmer            |  0.00190% | 12     |  0.002% | 8      |  0.002% | 
 | 633  | Grotle             |  0.00190% | 12     |  0.002% | 10     |  0.002% | 
 | 634  | Piplup             |  0.00190% | 12     |  0.002% | 11     |  0.002% | 
 | 635  | Abra               |  0.00190% | 12     |  0.002% | 9      |  0.002% | 
 | 636  | Gothita            |  0.00190% | 12     |  0.002% | 8      |  0.002% | 
 | 637  | Trubbish           |  0.00190% | 12     |  0.002% | 11     |  0.002% | 
 | 638  | Trapinch           |  0.00190% | 12     |  0.002% | 12     |  0.003% | 
 | 639  | Sentret            |  0.00190% | 12     |  0.002% | 9      |  0.002% | 
 | 640  | Pansear            |  0.00174% | 11     |  0.002% | 11     |  0.002% | 
 | 641  | Oddish             |  0.00174% | 11     |  0.002% | 10     |  0.002% | 
 | 642  | Sandshrew          |  0.00174% | 11     |  0.002% | 10     |  0.002% | 
 | 643  | Kabuto             |  0.00174% | 11     |  0.002% | 6      |  0.001% | 
 | 644  | Mankey             |  0.00159% | 10     |  0.002% | 9      |  0.002% | 
 | 645  | NidoranM           |  0.00159% | 10     |  0.002% | 7      |  0.002% | 
 | 646  | Shuppet            |  0.00159% | 10     |  0.002% | 8      |  0.002% | 
 | 647  | Luxio              |  0.00159% | 10     |  0.002% | 9      |  0.002% | 
 | 648  | Quilava            |  0.00159% | 10     |  0.002% | 7      |  0.002% | 
 | 649  | Buizel             |  0.00159% | 10     |  0.002% | 6      |  0.001% | 
 | 650  | Cyndaquil          |  0.00159% | 10     |  0.002% | 9      |  0.002% | 
 | 651  | Dratini            |  0.00159% | 10     |  0.002% | 8      |  0.002% | 
 | 652  | Kricketot          |  0.00159% | 10     |  0.002% | 6      |  0.001% | 
 | 653  | Solosis            |  0.00159% | 10     |  0.002% | 9      |  0.002% | 
 | 654  | Stunky             |  0.00159% | 10     |  0.002% | 7      |  0.002% | 
 | 655  | Happiny            |  0.00159% | 10     |  0.002% | 5      |  0.001% | 
 | 656  | Cubone             |  0.00159% | 10     |  0.002% | 9      |  0.002% | 
 | 657  | Houndour           |  0.00143% | 9      |  0.001% | 3      |  0.001% | 
 | 658  | Cubchoo            |  0.00143% | 9      |  0.001% | 6      |  0.001% | 
 | 659  | Bellsprout         |  0.00143% | 9      |  0.001% | 9      |  0.002% | 
 | 660  | Phantump           |  0.00143% | 9      |  0.001% | 7      |  0.002% | 
 | 661  | Poochyena          |  0.00143% | 9      |  0.001% | 6      |  0.001% | 
 | 662  | Voltorb            |  0.00143% | 9      |  0.001% | 9      |  0.002% | 
 | 663  | Shinx              |  0.00143% | 9      |  0.001% | 7      |  0.002% | 
 | 664  | Helioptile         |  0.00143% | 9      |  0.001% | 5      |  0.001% | 
 | 665  | Zigzagoon          |  0.00143% | 9      |  0.001% | 8      |  0.002% | 
 | 666  | Herdier            |  0.00143% | 9      |  0.001% | 7      |  0.002% | 
 | 667  | Archen             |  0.00127% | 8      |  0.001% | 8      |  0.002% | 
 | 668  | Fennekin           |  0.00127% | 8      |  0.001% | 7      |  0.002% | 
 | 669  | Gulpin             |  0.00127% | 8      |  0.001% | 5      |  0.001% | 
 | 670  | Mudkip             |  0.00127% | 8      |  0.001% | 5      |  0.001% | 
 | 671  | Shroomish          |  0.00127% | 8      |  0.001% | 8      |  0.002% | 
 | 672  | Larvitar           |  0.00127% | 8      |  0.001% | 7      |  0.002% | 
 | 673  | Floette            |  0.00127% | 8      |  0.001% | 6      |  0.001% | 
 | 674  | Gible              |  0.00127% | 8      |  0.001% | 5      |  0.001% | 
 | 675  | Goomy              |  0.00127% | 8      |  0.001% | 5      |  0.001% | 
 | 676  | Diglett            |  0.00127% | 8      |  0.001% | 5      |  0.001% | 
 | 677  | Krokorok           |  0.00127% | 8      |  0.001% | 7      |  0.002% | 
 | 678  | Vanillite          |  0.00127% | 8      |  0.001% | 4      |  0.001% | 
 | 679  | Roggenrola         |  0.00111% | 7      |  0.001% | 6      |  0.001% | 
 | 680  | Kirlia             |  0.00111% | 7      |  0.001% | 6      |  0.001% | 
 | 681  | Barboach           |  0.00111% | 7      |  0.001% | 4      |  0.001% | 
 | 682  | Budew              |  0.00111% | 7      |  0.001% | 4      |  0.001% | 
 | 683  | Corphish           |  0.00111% | 7      |  0.001% | 5      |  0.001% | 
 | 684  | Glameow            |  0.00111% | 7      |  0.001% | 6      |  0.001% | 
 | 685  | Slakoth            |  0.00095% | 6      |  0.001% | 6      |  0.001% | 
 | 686  | Mareep             |  0.00095% | 6      |  0.001% | 4      |  0.001% | 
 | 687  | Sandile            |  0.00095% | 6      |  0.001% | 5      |  0.001% | 
 | 688  | Timburr            |  0.00095% | 6      |  0.001% | 6      |  0.001% | 
 | 689  | Karrablast         |  0.00095% | 6      |  0.001% | 2      |  0.000% | 
 | 690  | Nincada            |  0.00095% | 6      |  0.001% | 4      |  0.001% | 
 | 691  | Deerling           |  0.00095% | 6      |  0.001% | 4      |  0.001% | 
 | 692  | Exeggcute          |  0.00095% | 6      |  0.001% | 4      |  0.001% | 
 | 693  | Krabby             |  0.00095% | 6      |  0.001% | 3      |  0.001% | 
 | 694  | Binacle            |  0.00079% | 5      |  0.001% | 2      |  0.000% | 
 | 695  | Vanillish          |  0.00079% | 5      |  0.001% | 3      |  0.001% | 
 | 696  | Pumpkaboo-Large    |  0.00079% | 5      |  0.001% | 2      |  0.000% | 
 | 697  | Tepig              |  0.00079% | 5      |  0.001% | 5      |  0.001% | 
 | 698  | Ponyta             |  0.00079% | 5      |  0.001% | 2      |  0.000% | 
 | 699  | Drowzee            |  0.00079% | 5      |  0.001% | 3      |  0.001% | 
 | 700  | Snivy              |  0.00079% | 5      |  0.001% | 4      |  0.001% | 
 | 701  | Duskull            |  0.00063% | 4      |  0.001% | 2      |  0.000% | 
 | 702  | Beldum             |  0.00063% | 4      |  0.001% | 4      |  0.001% | 
 | 703  | Teddiursa          |  0.00063% | 4      |  0.001% | 3      |  0.001% | 
 | 704  | Chespin            |  0.00063% | 4      |  0.001% | 3      |  0.001% | 
 | 705  | Machop             |  0.00063% | 4      |  0.001% | 4      |  0.001% | 
 | 706  | Growlithe          |  0.00063% | 4      |  0.001% | 3      |  0.001% | 
 | 707  | Froakie            |  0.00063% | 4      |  0.001% | 1      |  0.000% | 
 | 708  | Oshawott           |  0.00063% | 4      |  0.001% | 3      |  0.001% | 
 | 709  | Litleo             |  0.00063% | 4      |  0.001% | 4      |  0.001% | 
 | 710  | Poliwag            |  0.00063% | 4      |  0.001% | 2      |  0.000% | 
 | 711  | Mienfoo            |  0.00063% | 4      |  0.001% | 3      |  0.001% | 
 | 712  | Seedot             |  0.00048% | 3      |  0.000% | 3      |  0.001% | 
 | 713  | Spheal             |  0.00048% | 3      |  0.000% | 2      |  0.000% | 
 | 714  | Finneon            |  0.00048% | 3      |  0.000% | 3      |  0.001% | 
 | 715  | Magby              |  0.00048% | 3      |  0.000% | 3      |  0.001% | 
 | 716  | Electrike          |  0.00048% | 3      |  0.000% | 2      |  0.000% | 
 | 717  | Shellder           |  0.00048% | 3      |  0.000% | 3      |  0.001% | 
 | 718  | Skitty             |  0.00048% | 3      |  0.000% | 2      |  0.000% | 
 | 719  | Tranquill          |  0.00048% | 3      |  0.000% | 2      |  0.000% | 
 | 720  | Whismur            |  0.00048% | 3      |  0.000% | 3      |  0.001% | 
 | 721  | Skiploom           |  0.00032% | 2      |  0.000% | 2      |  0.000% | 
 | 722  | Shellos            |  0.00032% | 2      |  0.000% | 0      |  0.000% | 
 | 723  | Baltoy             |  0.00032% | 2      |  0.000% | 1      |  0.000% | 
 | 724  | Munna              |  0.00032% | 2      |  0.000% | 0      |  0.000% | 
 | 725  | Feebas             |  0.00032% | 2      |  0.000% | 2      |  0.000% | 
 | 726  | Hoppip             |  0.00032% | 2      |  0.000% | 2      |  0.000% | 
 | 727  | Flabebe            |  0.00032% | 2      |  0.000% | 2      |  0.000% | 
 | 728  | Lillipup           |  0.00016% | 1      |  0.000% | 1      |  0.000% | 
 | 729  | Espurr             |  0.00016% | 1      |  0.000% | 1      |  0.000% | 
 | 730  | Skiddo             |  0.00016% | 1      |  0.000% | 1      |  0.000% | 
 | 731  | Horsea             |  0.00016% | 1      |  0.000% | 1      |  0.000% | 
 | 732  | Klink              |  0.00016% | 1      |  0.000% | 1      |  0.000% | 
 | 733  | Lotad              |  0.00016% | 1      |  0.000% | 1      |  0.000% | 
 | 734  | Elgyem             |  0.00016% | 1      |  0.000% | 1      |  0.000% | 
 | 735  | Loudred            |  0.00016% | 1      |  0.000% | 0      |  0.000% | 
 | 736  | Hoothoot           |  0.00016% | 1      |  0.000% | 1      |  0.000% | 
 | 737  | Snorunt            |  0.00016% | 1      |  0.000% | 1      |  0.000% | 
 + ---- + ------------------ + --------- + ------ + ------- + ------ + ------- + 
