 Total battles: 315331
 Avg. weight/team: 0.015
 + ---- + ------------------ + --------- + ------ + ------- + ------ + ------- + 
 | Rank | Pokemon            | Usage %   | Raw    | %       | Real   | %       | 
 + ---- + ------------------ + --------- + ------ + ------- + ------ + ------- + 
 | 1    | Skarmory           | 19.31648% | 45981  |  7.291% | 37846  |  8.308% | 
 | 2    | Dragonite          | 14.30178% | 44972  |  7.131% | 31142  |  6.836% | 
 | 3    | Heatran            | 14.26494% | 40123  |  6.362% | 30953  |  6.795% | 
 | 4    | Keldeo             | 12.63569% | 40373  |  6.402% | 27583  |  6.055% | 
 | 5    | Victini            | 12.35454% | 31502  |  4.995% | 22933  |  5.034% | 
 | 6    | Jirachi            | 12.34593% | 25065  |  3.974% | 18396  |  4.038% | 
 | 7    | Scizor-Mega        | 11.80095% | 30324  |  4.808% | 20885  |  4.585% | 
 | 8    | Hoopa-Unbound      | 11.10097% | 23145  |  3.670% | 15988  |  3.510% | 
 | 9    | Slowbro            | 10.65637% | 26249  |  4.162% | 18949  |  4.160% | 
 | 10   | Latios             | 10.56740% | 20195  |  3.202% | 13698  |  3.007% | 
 | 11   | Magnezone          | 10.20700% | 27356  |  4.338% | 19727  |  4.330% | 
 | 12   | Excadrill          | 10.01191% | 30382  |  4.817% | 21680  |  4.759% | 
 | 13   | Zapdos             |  9.68056% | 29218  |  4.633% | 21919  |  4.812% | 
 | 14   | Azumarill          |  8.71979% | 47422  |  7.519% | 33442  |  7.341% | 
 | 15   | Kyurem-Black       |  8.60831% | 28240  |  4.478% | 20056  |  4.403% | 
 | 16   | Medicham-Mega      |  8.38059% | 30716  |  4.870% | 23049  |  5.060% | 
 | 17   | Terrakion          |  8.23871% | 27861  |  4.418% | 18697  |  4.104% | 
 | 18   | Bisharp            |  8.19228% | 40077  |  6.355% | 27489  |  6.034% | 
 | 19   | Doublade           |  8.06355% | 17564  |  2.785% | 12617  |  2.770% | 
 | 20   | Heracross          |  8.03280% | 31416  |  4.981% | 20561  |  4.514% | 
 | 21   | Charizard-Mega-Y   |  7.82214% | 41573  |  6.592% | 30191  |  6.628% | 
 | 22   | Togekiss           |  7.49595% | 39387  |  6.245% | 27353  |  6.005% | 
 | 23   | Hydreigon          |  7.48888% | 39042  |  6.191% | 27042  |  5.936% | 
 | 24   | Garchomp           |  7.45524% | 24437  |  3.875% | 19504  |  4.282% | 
 | 25   | Breloom            |  7.15297% | 45125  |  7.155% | 32368  |  7.105% | 
 | 26   | Landorus           |  7.00908% | 14335  |  2.273% | 10281  |  2.257% | 
 | 27   | Volcarona          |  6.98473% | 56760  |  9.000% | 38399  |  8.429% | 
 | 28   | Infernape          |  6.63164% | 43354  |  6.874% | 33291  |  7.308% | 
 | 29   | Mew                |  6.52229% | 10897  |  1.728% | 8825   |  1.937% | 
 | 30   | Gyarados-Mega      |  6.39935% | 20249  |  3.211% | 14544  |  3.193% | 
 | 31   | Thundurus          |  6.00805% | 16658  |  2.641% | 12435  |  2.730% | 
 | 32   | Landorus-Therian   |  5.89999% | 16013  |  2.539% | 12497  |  2.743% | 
 | 33   | Ferrothorn         |  5.63664% | 35575  |  5.641% | 29093  |  6.387% | 
 | 34   | Staraptor          |  5.61071% | 30348  |  4.812% | 21270  |  4.669% | 
 | 35   | Gardevoir-Mega     |  5.44581% | 23731  |  3.763% | 15314  |  3.362% | 
 | 36   | Galvantula         |  5.37150% | 42896  |  6.802% | 34468  |  7.566% | 
 | 37   | Diggersby          |  5.20462% | 16253  |  2.577% | 11322  |  2.485% | 
 | 38   | Gallade-Mega       |  5.20300% | 22303  |  3.536% | 15257  |  3.349% | 
 | 39   | Hippowdon          |  5.13401% | 17697  |  2.806% | 15457  |  3.393% | 
 | 40   | Garchomp-Mega      |  5.02983% | 19056  |  3.022% | 13223  |  2.903% | 
 | 41   | Mamoswine          |  5.02854% | 26158  |  4.148% | 19551  |  4.292% | 
 | 42   | Sableye            |  4.87016% | 29579  |  4.690% | 24035  |  5.276% | 
 | 43   | Chansey            |  4.50906% | 19369  |  3.071% | 14737  |  3.235% | 
 | 44   | Scizor             |  4.50888% | 28613  |  4.537% | 19473  |  4.275% | 
 | 45   | Porygon2           |  4.43430% | 18044  |  2.861% | 13823  |  3.034% | 
 | 46   | Rotom-Wash         |  4.40356% | 25819  |  4.094% | 20164  |  4.426% | 
 | 47   | Gardevoir          |  4.39910% | 14184  |  2.249% | 9243   |  2.029% | 
 | 48   | Tyranitar          |  4.26190% | 22379  |  3.548% | 17129  |  3.760% | 
 | 49   | Gengar             |  4.13274% | 46570  |  7.384% | 33176  |  7.283% | 
 | 50   | Mandibuzz          |  4.10495% | 20916  |  3.317% | 15738  |  3.455% | 
 | 51   | Volcanion          |  4.06920% | 29648  |  4.701% | 21197  |  4.653% | 
 | 52   | Klefki             |  4.02354% | 27521  |  4.364% | 23142  |  5.080% | 
 | 53   | Armaldo            |  4.01265% | 14076  |  2.232% | 10356  |  2.273% | 
 | 54   | Pinsir-Mega        |  4.00024% | 21184  |  3.359% | 13961  |  3.065% | 
 | 55   | Kingdra            |  3.90865% | 20900  |  3.314% | 14924  |  3.276% | 
 | 56   | Hawlucha           |  3.88416% | 31357  |  4.972% | 21799  |  4.785% | 
 | 57   | Latias-Mega        |  3.72232% | 8896   |  1.411% | 5938   |  1.304% | 
 | 58   | Politoed           |  3.66682% | 19722  |  3.127% | 16715  |  3.669% | 
 | 59   | Latias             |  3.60708% | 9147   |  1.450% | 6244   |  1.371% | 
 | 60   | Empoleon           |  3.60270% | 23429  |  3.715% | 17323  |  3.803% | 
 | 61   | Starmie            |  3.59031% | 21771  |  3.452% | 14943  |  3.280% | 
 | 62   | Meloetta           |  3.58338% | 17337  |  2.749% | 12027  |  2.640% | 
 | 63   | Cobalion           |  3.49115% | 12369  |  1.961% | 10005  |  2.196% | 
 | 64   | Gastrodon          |  3.38842% | 11400  |  1.808% | 8425   |  1.849% | 
 | 65   | Pidgeot-Mega       |  3.37015% | 20379  |  3.231% | 14279  |  3.135% | 
 | 66   | Swampert-Mega      |  3.21149% | 21254  |  3.370% | 15733  |  3.454% | 
 | 67   | Diancie-Mega       |  3.11097% | 22298  |  3.536% | 16629  |  3.650% | 
 | 68   | Ditto              |  3.08905% | 15144  |  2.401% | 11078  |  2.432% | 
 | 69   | Seismitoad         |  2.99644% | 7224   |  1.145% | 5525   |  1.213% | 
 | 70   | Venusaur-Mega      |  2.96388% | 38851  |  6.160% | 27387  |  6.012% | 
 | 71   | Tentacruel         |  2.85409% | 31536  |  5.000% | 24534  |  5.386% | 
 | 72   | Sharpedo-Mega      |  2.83211% | 14643  |  2.322% | 10231  |  2.246% | 
 | 73   | Nidoking           |  2.80062% | 29124  |  4.618% | 21008  |  4.612% | 
 | 74   | Chandelure         |  2.75736% | 29374  |  4.658% | 20855  |  4.578% | 
 | 75   | Cloyster           |  2.65094% | 24371  |  3.864% | 17835  |  3.915% | 
 | 76   | Weavile            |  2.57154% | 34174  |  5.419% | 24889  |  5.464% | 
 | 77   | Goodra             |  2.52083% | 13342  |  2.116% | 9525   |  2.091% | 
 | 78   | Lopunny-Mega       |  2.51392% | 28175  |  4.468% | 21778  |  4.781% | 
 | 79   | Heracross-Mega     |  2.48693% | 18870  |  2.992% | 12478  |  2.739% | 
 | 80   | Clefable           |  2.43943% | 16032  |  2.542% | 10938  |  2.401% | 
 | 81   | Gliscor            |  2.43223% | 26137  |  4.144% | 18949  |  4.160% | 
 | 82   | Yanmega            |  2.36448% | 15759  |  2.499% | 10427  |  2.289% | 
 | 83   | Gyarados           |  2.31783% | 14660  |  2.325% | 10289  |  2.259% | 
 | 84   | Cradily            |  2.31314% | 22773  |  3.611% | 16554  |  3.634% | 
 | 85   | Forretress         |  2.26695% | 24852  |  3.941% | 21155  |  4.644% | 
 | 86   | Golurk             |  2.14255% | 15661  |  2.483% | 11984  |  2.631% | 
 | 87   | Jellicent          |  2.08911% | 15344  |  2.433% | 11033  |  2.422% | 
 | 88   | Swampert           |  2.07706% | 7621   |  1.208% | 6064   |  1.331% | 
 | 89   | Manaphy            |  2.07673% | 6254   |  0.992% | 4229   |  0.928% | 
 | 90   | Dragalge           |  2.07132% | 21342  |  3.384% | 15115  |  3.318% | 
 | 91   | Salamence          |  2.04942% | 17415  |  2.761% | 11955  |  2.624% | 
 | 92   | Shuckle            |  1.99501% | 17465  |  2.769% | 14617  |  3.209% | 
 | 93   | Ampharos-Mega      |  1.93316% | 8828   |  1.400% | 6017   |  1.321% | 
 | 94   | Scolipede          |  1.84762% | 28957  |  4.592% | 20477  |  4.495% | 
 | 95   | Torkoal            |  1.83665% | 11933  |  1.892% | 9934   |  2.181% | 
 | 96   | Lanturn            |  1.78147% | 13477  |  2.137% | 9687   |  2.127% | 
 | 97   | Thundurus-Therian  |  1.74026% | 8325   |  1.320% | 5948   |  1.306% | 
 | 98   | Whimsicott         |  1.73266% | 20804  |  3.299% | 14641  |  3.214% | 
 | 99   | Krookodile         |  1.52583% | 15707  |  2.491% | 11399  |  2.502% | 
 | 100  | Crawdaunt          |  1.49806% | 10607  |  1.682% | 7362   |  1.616% | 
 | 101  | Rhyperior          |  1.47810% | 7090   |  1.124% | 4888   |  1.073% | 
 | 102  | Lucario            |  1.43952% | 24368  |  3.864% | 16243  |  3.566% | 
 | 103  | Omastar            |  1.43233% | 8965   |  1.422% | 6255   |  1.373% | 
 | 104  | Conkeldurr         |  1.40794% | 11651  |  1.847% | 8553   |  1.878% | 
 | 105  | Sylveon            |  1.37929% | 12921  |  2.049% | 7867   |  1.727% | 
 | 106  | Nidoqueen          |  1.29700% | 7965   |  1.263% | 6652   |  1.460% | 
 | 107  | Deoxys-Speed       |  1.24001% | 2522   |  0.400% | 2330   |  0.511% | 
 | 108  | Aggron-Mega        |  1.21888% | 7364   |  1.168% | 5324   |  1.169% | 
 | 109  | Tyranitar-Mega     |  1.21052% | 11104  |  1.761% | 7857   |  1.725% | 
 | 110  | Manectric-Mega     |  1.18892% | 12385  |  1.964% | 9313   |  2.044% | 
 | 111  | Raikou             |  1.16611% | 5195   |  0.824% | 3782   |  0.830% | 
 | 112  | Aerodactyl         |  1.16566% | 5719   |  0.907% | 4487   |  0.985% | 
 | 113  | Drapion            |  1.15311% | 26748  |  4.241% | 19990  |  4.388% | 
 | 114  | Gourgeist-Super    |  1.12172% | 6170   |  0.978% | 4536   |  0.996% | 
 | 115  | Bronzong           |  1.10707% | 7274   |  1.153% | 5877   |  1.290% | 
 | 116  | Escavalier         |  1.07530% | 4681   |  0.742% | 3093   |  0.679% | 
 | 117  | Avalugg            |  1.05901% | 11930  |  1.892% | 9091   |  1.996% | 
 | 118  | Froslass           |  1.02781% | 21080  |  3.343% | 16900  |  3.710% | 
 | 119  | Camerupt-Mega      |  1.02493% | 5047   |  0.800% | 3508   |  0.770% | 
 | 120  | Rotom-Heat         |  0.99647% | 13831  |  2.193% | 10636  |  2.335% | 
 | 121  | Sharpedo           |  0.99516% | 5524   |  0.876% | 3833   |  0.841% | 
 | 122  | Eelektross         |  0.98955% | 9824   |  1.558% | 7509   |  1.648% | 
 | 123  | Diancie            |  0.98599% | 3714   |  0.589% | 2751   |  0.604% | 
 | 124  | Metagross          |  0.95902% | 21043  |  3.337% | 14939  |  3.279% | 
 | 125  | Stunfisk           |  0.94669% | 3085   |  0.489% | 2563   |  0.563% | 
 | 126  | Entei              |  0.90658% | 6903   |  1.095% | 4788   |  1.051% | 
 | 127  | Aurorus            |  0.87683% | 9924   |  1.574% | 7662   |  1.682% | 
 | 128  | Tornadus-Therian   |  0.86572% | 3568   |  0.566% | 2491   |  0.547% | 
 | 129  | Darmanitan         |  0.84346% | 9037   |  1.433% | 6274   |  1.377% | 
 | 130  | Skuntank           |  0.83991% | 7504   |  1.190% | 5458   |  1.198% | 
 | 131  | Smeargle           |  0.82672% | 6858   |  1.087% | 6232   |  1.368% | 
 | 132  | Quagsire           |  0.81854% | 7552   |  1.197% | 5448   |  1.196% | 
 | 133  | Alakazam           |  0.77009% | 8696   |  1.379% | 5800   |  1.273% | 
 | 134  | Beedrill-Mega      |  0.76985% | 16933  |  2.685% | 11442  |  2.512% | 
 | 135  | Rotom-Mow          |  0.76005% | 7630   |  1.210% | 5628   |  1.235% | 
 | 136  | Latios-Mega        |  0.74417% | 6342   |  1.006% | 3957   |  0.869% | 
 | 137  | Haxorus            |  0.70986% | 8370   |  1.327% | 5661   |  1.243% | 
 | 138  | Houndoom-Mega      |  0.70963% | 13915  |  2.206% | 9379   |  2.059% | 
 | 139  | Scrafty            |  0.69134% | 16277  |  2.581% | 11498  |  2.524% | 
 | 140  | Heliolisk          |  0.69116% | 13947  |  2.211% | 9641   |  2.116% | 
 | 141  | Crobat             |  0.68048% | 22665  |  3.594% | 16464  |  3.614% | 
 | 142  | Combusken          |  0.68023% | 1236   |  0.196% | 994    |  0.218% | 
 | 143  | Toxicroak          |  0.67510% | 18112  |  2.872% | 12613  |  2.769% | 
 | 144  | Celebi             |  0.67132% | 6969   |  1.105% | 4605   |  1.011% | 
 | 145  | Slurpuff           |  0.66362% | 6597   |  1.046% | 4370   |  0.959% | 
 | 146  | Amoonguss          |  0.65032% | 9082   |  1.440% | 6299   |  1.383% | 
 | 147  | Ludicolo           |  0.65018% | 17304  |  2.744% | 12155  |  2.668% | 
 | 148  | Vaporeon           |  0.64157% | 4436   |  0.703% | 3091   |  0.679% | 
 | 149  | Cresselia          |  0.57137% | 2922   |  0.463% | 2008   |  0.441% | 
 | 150  | Hoopa              |  0.57025% | 4218   |  0.669% | 2909   |  0.639% | 
 | 151  | Absol-Mega         |  0.56580% | 8761   |  1.389% | 6444   |  1.415% | 
 | 152  | Porygon-Z          |  0.54186% | 12682  |  2.011% | 8666   |  1.902% | 
 | 153  | Aerodactyl-Mega    |  0.52222% | 9780   |  1.551% | 6954   |  1.527% | 
 | 154  | Honchkrow          |  0.50253% | 13861  |  2.198% | 9543   |  2.095% | 
 | 155  | Aggron             |  0.49086% | 4212   |  0.668% | 2957   |  0.649% | 
 | 156  | Zygarde            |  0.48855% | 3796   |  0.602% | 2712   |  0.595% | 
 | 157  | Lapras             |  0.48296% | 8789   |  1.394% | 6287   |  1.380% | 
 | 158  | Tyrantrum          |  0.48295% | 12517  |  1.985% | 8471   |  1.860% | 
 | 159  | Registeel          |  0.47755% | 1735   |  0.275% | 1275   |  0.280% | 
 | 160  | Gallade            |  0.47354% | 5758   |  0.913% | 3966   |  0.871% | 
 | 161  | Alomomola          |  0.46572% | 1743   |  0.276% | 1255   |  0.275% | 
 | 162  | Arcanine           |  0.45823% | 10688  |  1.695% | 7827   |  1.718% | 
 | 163  | Fletchinder        |  0.41496% | 1009   |  0.160% | 729    |  0.160% | 
 | 164  | Azelf              |  0.40831% | 4990   |  0.791% | 4296   |  0.943% | 
 | 165  | Furfrou            |  0.39458% | 2262   |  0.359% | 1635   |  0.359% | 
 | 166  | Serperior          |  0.39199% | 15636  |  2.479% | 10562  |  2.319% | 
 | 167  | Durant             |  0.37682% | 6126   |  0.971% | 3952   |  0.868% | 
 | 168  | Umbreon            |  0.37396% | 14312  |  2.269% | 9750   |  2.140% | 
 | 169  | Electivire         |  0.36530% | 12329  |  1.955% | 8879   |  1.949% | 
 | 170  | Ninetales          |  0.36520% | 10394  |  1.648% | 7986   |  1.753% | 
 | 171  | Spiritomb          |  0.36280% | 8738   |  1.386% | 6606   |  1.450% | 
 | 172  | Audino-Mega        |  0.35455% | 2283   |  0.362% | 1631   |  0.358% | 
 | 173  | Abomasnow-Mega     |  0.33765% | 11818  |  1.874% | 8903   |  1.954% | 
 | 174  | Weezing            |  0.33517% | 10936  |  1.734% | 8902   |  1.954% | 
 | 175  | Suicune            |  0.33390% | 2448   |  0.388% | 1602   |  0.352% | 
 | 176  | Machamp            |  0.32745% | 9249   |  1.467% | 6767   |  1.486% | 
 | 177  | Trevenant          |  0.32003% | 12086  |  1.916% | 7975   |  1.751% | 
 | 178  | Medicham           |  0.31691% | 4345   |  0.689% | 3025   |  0.664% | 
 | 179  | Shiftry            |  0.31229% | 6074   |  0.963% | 4125   |  0.906% | 
 | 180  | Steelix-Mega       |  0.31043% | 5456   |  0.865% | 3994   |  0.877% | 
 | 181  | Kabutops           |  0.30120% | 4225   |  0.670% | 2898   |  0.636% | 
 | 182  | Rotom-Frost        |  0.29709% | 4524   |  0.717% | 3414   |  0.749% | 
 | 183  | Blissey            |  0.29513% | 4407   |  0.699% | 3103   |  0.681% | 
 | 184  | Crustle            |  0.28567% | 8705   |  1.380% | 5949   |  1.306% | 
 | 185  | Noivern            |  0.28338% | 10189  |  1.616% | 7092   |  1.557% | 
 | 186  | Banette-Mega       |  0.26843% | 13067  |  2.072% | 9106   |  1.999% | 
 | 187  | Malamar            |  0.26678% | 12337  |  1.956% | 9051   |  1.987% | 
 | 188  | Luxray             |  0.26630% | 6034   |  0.957% | 4386   |  0.963% | 
 | 189  | Druddigon          |  0.25187% | 2854   |  0.453% | 2362   |  0.519% | 
 | 190  | Snorlax            |  0.25115% | 12082  |  1.916% | 8519   |  1.870% | 
 | 191  | Espeon             |  0.24686% | 8768   |  1.390% | 6379   |  1.400% | 
 | 192  | Deoxys-Defense     |  0.24575% | 2184   |  0.346% | 1882   |  0.413% | 
 | 193  | Vivillon           |  0.24227% | 8726   |  1.384% | 5983   |  1.313% | 
 | 194  | Glalie-Mega        |  0.23766% | 5436   |  0.862% | 3534   |  0.776% | 
 | 195  | Articuno           |  0.23543% | 6043   |  0.958% | 4268   |  0.937% | 
 | 196  | Exploud            |  0.23416% | 5730   |  0.909% | 4098   |  0.900% | 
 | 197  | Staravia           |  0.22573% | 502    |  0.080% | 403    |  0.088% | 
 | 198  | Granbull           |  0.21698% | 4192   |  0.665% | 2860   |  0.628% | 
 | 199  | Chesnaught         |  0.20912% | 7534   |  1.195% | 5053   |  1.109% | 
 | 200  | Cinccino           |  0.20742% | 7540   |  1.196% | 5293   |  1.162% | 
 | 201  | Cofagrigus         |  0.20730% | 8244   |  1.307% | 6457   |  1.417% | 
 | 202  | Zoroark            |  0.20515% | 8442   |  1.339% | 3920   |  0.861% | 
 | 203  | Blastoise-Mega     |  0.20285% | 5541   |  0.879% | 3801   |  0.834% | 
 | 204  | Walrein            |  0.19054% | 3812   |  0.604% | 2698   |  0.592% | 
 | 205  | Torterra           |  0.18740% | 5560   |  0.882% | 3934   |  0.864% | 
 | 206  | Pangoro            |  0.18402% | 6092   |  0.966% | 4167   |  0.915% | 
 | 207  | Alakazam-Mega      |  0.18367% | 5146   |  0.816% | 3505   |  0.769% | 
 | 208  | Emboar             |  0.18011% | 4086   |  0.648% | 2892   |  0.635% | 
 | 209  | Sceptile-Mega      |  0.17823% | 7621   |  1.208% | 5036   |  1.106% | 
 | 210  | Mawile             |  0.17394% | 3692   |  0.585% | 2651   |  0.582% | 
 | 211  | Hitmonlee          |  0.17356% | 5613   |  0.890% | 4193   |  0.920% | 
 | 212  | Pyroar             |  0.16978% | 7906   |  1.254% | 5362   |  1.177% | 
 | 213  | Gothitelle         |  0.16591% | 1029   |  0.163% | 757    |  0.166% | 
 | 214  | Piloswine          |  0.16016% | 2199   |  0.349% | 1907   |  0.419% | 
 | 215  | Wobbuffet          |  0.15831% | 2407   |  0.382% | 1828   |  0.401% | 
 | 216  | Roserade           |  0.15222% | 8741   |  1.386% | 5918   |  1.299% | 
 | 217  | Miltank            |  0.15041% | 5171   |  0.820% | 4028   |  0.884% | 
 | 218  | Kecleon            |  0.14931% | 3797   |  0.602% | 3022   |  0.663% | 
 | 219  | Archeops           |  0.14067% | 3828   |  0.607% | 2783   |  0.611% | 
 | 220  | Gothorita          |  0.12439% | 344    |  0.055% | 302    |  0.066% | 
 | 221  | Venomoth           |  0.12156% | 5025   |  0.797% | 3244   |  0.712% | 
 | 222  | Dugtrio            |  0.11611% | 1386   |  0.220% | 1008   |  0.221% | 
 | 223  | Magneton           |  0.11590% | 2206   |  0.350% | 1554   |  0.341% | 
 | 224  | Slowking           |  0.11046% | 3997   |  0.634% | 2682   |  0.589% | 
 | 225  | Virizion           |  0.11038% | 3380   |  0.536% | 2141   |  0.470% | 
 | 226  | Rotom              |  0.11027% | 2566   |  0.407% | 1938   |  0.425% | 
 | 227  | Shedinja           |  0.10900% | 6845   |  1.085% | 4503   |  0.989% | 
 | 228  | Xatu               |  0.10795% | 2998   |  0.475% | 2293   |  0.503% | 
 | 229  | Mantine            |  0.10747% | 1782   |  0.283% | 1258   |  0.276% | 
 | 230  | Houndoom           |  0.10543% | 5232   |  0.830% | 3522   |  0.773% | 
 | 231  | Golem              |  0.10456% | 3782   |  0.600% | 2840   |  0.623% | 
 | 232  | Mienshao           |  0.10334% | 3502   |  0.555% | 2539   |  0.557% | 
 | 233  | Sigilyph           |  0.10177% | 6379   |  1.011% | 4298   |  0.944% | 
 | 234  | Swellow            |  0.09808% | 4504   |  0.714% | 3107   |  0.682% | 
 | 235  | Accelgor           |  0.09543% | 3584   |  0.568% | 2434   |  0.534% | 
 | 236  | Ambipom            |  0.09372% | 8297   |  1.316% | 6677   |  1.466% | 
 | 237  | Hitmontop          |  0.09346% | 3989   |  0.633% | 2926   |  0.642% | 
 | 238  | Tangrowth          |  0.09149% | 4073   |  0.646% | 2682   |  0.589% | 
 | 239  | Jolteon            |  0.08535% | 4885   |  0.775% | 3534   |  0.776% | 
 | 240  | Meowstic           |  0.08375% | 3688   |  0.585% | 3063   |  0.672% | 
 | 241  | Cacturne           |  0.08334% | 2806   |  0.445% | 1976   |  0.434% | 
 | 242  | Pikachu            |  0.08196% | 1846   |  0.293% | 1449   |  0.318% | 
 | 243  | Jynx               |  0.08078% | 3663   |  0.581% | 2556   |  0.561% | 
 | 244  | Mantyke            |  0.07935% | 126    |  0.020% | 96     |  0.021% | 
 | 245  | Moltres            |  0.07855% | 2901   |  0.460% | 2049   |  0.450% | 
 | 246  | Florges            |  0.07776% | 5402   |  0.857% | 3273   |  0.718% | 
 | 247  | Milotic            |  0.07716% | 4667   |  0.740% | 3130   |  0.687% | 
 | 248  | Flygon             |  0.07715% | 4659   |  0.739% | 3320   |  0.729% | 
 | 249  | Golbat             |  0.07706% | 1804   |  0.286% | 1388   |  0.305% | 
 | 250  | Carbink            |  0.07662% | 1168   |  0.185% | 919    |  0.202% | 
 | 251  | Donphan            |  0.07478% | 1620   |  0.257% | 1207   |  0.265% | 
 | 252  | Delphox            |  0.07116% | 7843   |  1.244% | 5268   |  1.156% | 
 | 253  | Aron               |  0.06877% | 578    |  0.092% | 385    |  0.085% | 
 | 254  | Lopunny            |  0.06821% | 463    |  0.073% | 396    |  0.087% | 
 | 255  | Kyurem             |  0.06799% | 1741   |  0.276% | 1239   |  0.272% | 
 | 256  | Regice             |  0.06745% | 3352   |  0.532% | 2464   |  0.541% | 
 | 257  | Sceptile           |  0.06370% | 1590   |  0.252% | 1072   |  0.235% | 
 | 258  | Dusclops           |  0.06003% | 4612   |  0.731% | 3481   |  0.764% | 
 | 259  | Zangoose           |  0.05697% | 2431   |  0.385% | 1660   |  0.364% | 
 | 260  | Tauros             |  0.05253% | 3034   |  0.481% | 2182   |  0.479% | 
 | 261  | Tornadus           |  0.05226% | 531    |  0.084% | 326    |  0.072% | 
 | 262  | Scyther            |  0.05117% | 5090   |  0.807% | 3358   |  0.737% | 
 | 263  | Claydol            |  0.05044% | 3925   |  0.622% | 2979   |  0.654% | 
 | 264  | Barbaracle         |  0.05024% | 2358   |  0.374% | 1551   |  0.340% | 
 | 265  | Muk                |  0.04934% | 3911   |  0.620% | 2865   |  0.629% | 
 | 266  | Hitmonchan         |  0.04919% | 3059   |  0.485% | 2216   |  0.486% | 
 | 267  | Murkrow            |  0.04853% | 1547   |  0.245% | 1164   |  0.256% | 
 | 268  | Cryogonal          |  0.04706% | 2151   |  0.341% | 1493   |  0.328% | 
 | 269  | Solrock            |  0.04621% | 677    |  0.107% | 538    |  0.118% | 
 | 270  | Glaceon            |  0.04496% | 4161   |  0.660% | 2709   |  0.595% | 
 | 271  | Sawk               |  0.04476% | 1480   |  0.235% | 948    |  0.208% | 
 | 272  | Reuniclus          |  0.04457% | 2381   |  0.378% | 1576   |  0.346% | 
 | 273  | Drifblim           |  0.04300% | 4546   |  0.721% | 3329   |  0.731% | 
 | 274  | Rampardos          |  0.04300% | 1929   |  0.306% | 1251   |  0.275% | 
 | 275  | Ursaring           |  0.04212% | 2412   |  0.382% | 1704   |  0.374% | 
 | 276  | Abomasnow          |  0.04195% | 3711   |  0.588% | 2732   |  0.600% | 
 | 277  | Illumise           |  0.04170% | 845    |  0.134% | 637    |  0.140% | 
 | 278  | Liepard            |  0.04157% | 3403   |  0.540% | 2696   |  0.592% | 
 | 279  | Mismagius          |  0.04152% | 3904   |  0.619% | 2744   |  0.602% | 
 | 280  | Poliwrath          |  0.04044% | 5544   |  0.879% | 3833   |  0.841% | 
 | 281  | Slaking            |  0.04032% | 3761   |  0.596% | 2786   |  0.612% | 
 | 282  | Chatot             |  0.04026% | 3945   |  0.626% | 3072   |  0.674% | 
 | 283  | Volbeat            |  0.03922% | 2325   |  0.369% | 1836   |  0.403% | 
 | 284  | Feraligatr         |  0.03918% | 3595   |  0.570% | 2333   |  0.512% | 
 | 285  | Regigigas          |  0.03824% | 1725   |  0.274% | 1352   |  0.297% | 
 | 286  | Uxie               |  0.03760% | 914    |  0.145% | 719    |  0.158% | 
 | 287  | Zebstrika          |  0.03745% | 953    |  0.151% | 688    |  0.151% | 
 | 288  | Ekans              |  0.03505% | 122    |  0.019% | 98     |  0.022% | 
 | 289  | Masquerain         |  0.03375% | 1505   |  0.239% | 1113   |  0.244% | 
 | 290  | Hariyama           |  0.03326% | 1856   |  0.294% | 1325   |  0.291% | 
 | 291  | Braviary           |  0.03214% | 2896   |  0.459% | 1924   |  0.422% | 
 | 292  | Rhydon             |  0.03211% | 1377   |  0.218% | 941    |  0.207% | 
 | 293  | Floatzel           |  0.03183% | 1203   |  0.191% | 859    |  0.189% | 
 | 294  | Sudowoodo          |  0.02962% | 356    |  0.056% | 278    |  0.061% | 
 | 295  | Leavanny           |  0.02926% | 3699   |  0.587% | 2634   |  0.578% | 
 | 296  | Steelix            |  0.02903% | 1936   |  0.307% | 1434   |  0.315% | 
 | 297  | Pinsir             |  0.02865% | 1095   |  0.174% | 686    |  0.151% | 
 | 298  | Persian            |  0.02862% | 1345   |  0.213% | 1050   |  0.230% | 
 | 299  | Carracosta         |  0.02762% | 2837   |  0.450% | 2087   |  0.458% | 
 | 300  | Dedenne            |  0.02710% | 4208   |  0.667% | 2900   |  0.637% | 
 | 301  | Primeape           |  0.02621% | 1504   |  0.238% | 1036   |  0.227% | 
 | 302  | Arbok              |  0.02605% | 1568   |  0.249% | 1067   |  0.234% | 
 | 303  | Victreebel         |  0.02538% | 2076   |  0.329% | 1399   |  0.307% | 
 | 304  | Linoone            |  0.02530% | 1613   |  0.256% | 1173   |  0.257% | 
 | 305  | Vespiquen          |  0.02515% | 1880   |  0.298% | 1151   |  0.253% | 
 | 306  | Magcargo           |  0.02491% | 1739   |  0.276% | 1278   |  0.281% | 
 | 307  | Raichu             |  0.02462% | 2269   |  0.360% | 1677   |  0.368% | 
 | 308  | Bastiodon          |  0.02394% | 2278   |  0.361% | 1773   |  0.389% | 
 | 309  | Throh              |  0.02379% | 764    |  0.121% | 534    |  0.117% | 
 | 310  | Mr. Mime           |  0.02357% | 2476   |  0.393% | 1657   |  0.364% | 
 | 311  | Gourgeist-Large    |  0.02291% | 164    |  0.026% | 123    |  0.027% | 
 | 312  | Venusaur           |  0.02231% | 2193   |  0.348% | 1512   |  0.332% | 
 | 313  | Typhlosion         |  0.02197% | 2908   |  0.461% | 1938   |  0.425% | 
 | 314  | Emolga             |  0.02192% | 2279   |  0.361% | 1781   |  0.391% | 
 | 315  | Vigoroth           |  0.02095% | 444    |  0.070% | 284    |  0.062% | 
 | 316  | Charizard          |  0.02067% | 2425   |  0.385% | 1734   |  0.381% | 
 | 317  | Wigglytuff         |  0.02031% | 2863   |  0.454% | 2041   |  0.448% | 
 | 318  | Exeggutor          |  0.02001% | 4987   |  0.791% | 3062   |  0.672% | 
 | 319  | Jumpluff           |  0.01982% | 1461   |  0.232% | 1088   |  0.239% | 
 | 320  | Fletchling         |  0.01982% | 30     |  0.005% | 24     |  0.005% | 
 | 321  | Sandslash          |  0.01940% | 1074   |  0.170% | 738    |  0.162% | 
 | 322  | Dunsparce          |  0.01879% | 907    |  0.144% | 709    |  0.156% | 
 | 323  | Dragonair          |  0.01822% | 322    |  0.051% | 244    |  0.054% | 
 | 324  | Clefairy           |  0.01776% | 144    |  0.023% | 101    |  0.022% | 
 | 325  | Kadabra            |  0.01708% | 79     |  0.013% | 45     |  0.010% | 
 | 326  | Eevee              |  0.01701% | 274    |  0.043% | 193    |  0.042% | 
 | 327  | Probopass          |  0.01686% | 1867   |  0.296% | 1350   |  0.296% | 
 | 328  | Musharna           |  0.01685% | 586    |  0.093% | 364    |  0.080% | 
 | 329  | Abra               |  0.01673% | 12     |  0.002% | 9      |  0.002% | 
 | 330  | Dusknoir           |  0.01658% | 4265   |  0.676% | 3099   |  0.680% | 
 | 331  | Ariados            |  0.01641% | 2248   |  0.356% | 1938   |  0.425% | 
 | 332  | Shaymin            |  0.01632% | 736    |  0.117% | 482    |  0.106% | 
 | 333  | Sawsbuck           |  0.01498% | 2497   |  0.396% | 1665   |  0.366% | 
 | 334  | Regirock           |  0.01493% | 1682   |  0.267% | 1259   |  0.276% | 
 | 335  | Kingler            |  0.01490% | 1295   |  0.205% | 891    |  0.196% | 
 | 336  | Seaking            |  0.01485% | 1048   |  0.166% | 736    |  0.162% | 
 | 337  | Swanna             |  0.01464% | 1198   |  0.190% | 826    |  0.181% | 
 | 338  | Flareon            |  0.01456% | 1864   |  0.296% | 1272   |  0.279% | 
 | 339  | Kangaskhan         |  0.01449% | 1663   |  0.264% | 1256   |  0.276% | 
 | 340  | Raticate           |  0.01410% | 1006   |  0.160% | 674    |  0.148% | 
 | 341  | Relicanth          |  0.01255% | 1134   |  0.180% | 845    |  0.185% | 
 | 342  | Gurdurr            |  0.01200% | 80     |  0.013% | 62     |  0.014% | 
 | 343  | Camerupt           |  0.01185% | 1729   |  0.274% | 1269   |  0.279% | 
 | 344  | Swoobat            |  0.01180% | 1673   |  0.265% | 1137   |  0.250% | 
 | 345  | Togetic            |  0.01164% | 1082   |  0.172% | 715    |  0.157% | 
 | 346  | Gigalith           |  0.01159% | 1309   |  0.208% | 1057   |  0.232% | 
 | 347  | Ninjask            |  0.01136% | 3447   |  0.547% | 2449   |  0.538% | 
 | 348  | Machoke            |  0.01070% | 266    |  0.042% | 190    |  0.042% | 
 | 349  | Lilligant          |  0.01058% | 1819   |  0.288% | 1207   |  0.265% | 
 | 350  | Gligar             |  0.00974% | 684    |  0.108% | 527    |  0.116% | 
 | 351  | Dustox             |  0.00969% | 766    |  0.121% | 526    |  0.115% | 
 | 352  | Magmortar          |  0.00944% | 2778   |  0.440% | 1928   |  0.423% | 
 | 353  | Dodrio             |  0.00934% | 920    |  0.146% | 661    |  0.145% | 
 | 354  | Surskit            |  0.00931% | 404    |  0.064% | 336    |  0.074% | 
 | 355  | Dewgong            |  0.00885% | 762    |  0.121% | 551    |  0.121% | 
 | 356  | Stoutland          |  0.00841% | 1372   |  0.218% | 970    |  0.213% | 
 | 357  | Gourgeist-Small    |  0.00773% | 405    |  0.064% | 284    |  0.062% | 
 | 358  | Marowak            |  0.00765% | 801    |  0.127% | 552    |  0.121% | 
 | 359  | Garbodor           |  0.00735% | 713    |  0.113% | 565    |  0.124% | 
 | 360  | Meganium           |  0.00693% | 1409   |  0.223% | 965    |  0.212% | 
 | 361  | Sneasel            |  0.00676% | 332    |  0.053% | 229    |  0.050% | 
 | 362  | Altaria            |  0.00667% | 2395   |  0.380% | 1567   |  0.344% | 
 | 363  | Gourgeist          |  0.00664% | 374    |  0.059% | 276    |  0.061% | 
 | 364  | Absol              |  0.00661% | 1081   |  0.171% | 788    |  0.173% | 
 | 365  | Misdreavus         |  0.00660% | 288    |  0.046% | 214    |  0.047% | 
 | 366  | Lickilicky         |  0.00654% | 1503   |  0.238% | 1136   |  0.249% | 
 | 367  | Wooper             |  0.00596% | 28     |  0.004% | 22     |  0.005% | 
 | 368  | Klinklang          |  0.00586% | 1389   |  0.220% | 907    |  0.199% | 
 | 369  | Electrode          |  0.00585% | 1549   |  0.246% | 1259   |  0.276% | 
 | 370  | Clawitzer          |  0.00583% | 1929   |  0.306% | 1325   |  0.291% | 
 | 371  | Girafarig          |  0.00548% | 1394   |  0.221% | 960    |  0.211% | 
 | 372  | Whirlipede         |  0.00533% | 538    |  0.085% | 402    |  0.088% | 
 | 373  | Qwilfish           |  0.00523% | 1473   |  0.234% | 1239   |  0.272% | 
 | 374  | Golduck            |  0.00520% | 716    |  0.114% | 486    |  0.107% | 
 | 375  | Rapidash           |  0.00494% | 958    |  0.152% | 690    |  0.151% | 
 | 376  | Wynaut             |  0.00462% | 205    |  0.033% | 196    |  0.043% | 
 | 377  | Delcatty           |  0.00451% | 295    |  0.047% | 215    |  0.047% | 
 | 378  | Bibarel            |  0.00449% | 1348   |  0.214% | 991    |  0.218% | 
 | 379  | Rotom-Fan          |  0.00437% | 1000   |  0.159% | 745    |  0.164% | 
 | 380  | Lunatone           |  0.00433% | 854    |  0.135% | 626    |  0.137% | 
 | 381  | Blastoise          |  0.00433% | 1661   |  0.263% | 1163   |  0.255% | 
 | 382  | Basculin           |  0.00430% | 279    |  0.044% | 173    |  0.038% | 
 | 383  | Swalot             |  0.00420% | 452    |  0.072% | 319    |  0.070% | 
 | 384  | Haunter            |  0.00387% | 565    |  0.090% | 405    |  0.089% | 
 | 385  | Tropius            |  0.00381% | 1824   |  0.289% | 1223   |  0.268% | 
 | 386  | Wailord            |  0.00380% | 783    |  0.124% | 547    |  0.120% | 
 | 387  | Whiscash           |  0.00366% | 539    |  0.085% | 391    |  0.086% | 
 | 388  | Mesprit            |  0.00352% | 336    |  0.053% | 231    |  0.051% | 
 | 389  | Purugly            |  0.00346% | 509    |  0.081% | 368    |  0.081% | 
 | 390  | Vileplume          |  0.00346% | 1588   |  0.252% | 1060   |  0.233% | 
 | 391  | Bouffalant         |  0.00343% | 1197   |  0.190% | 837    |  0.184% | 
 | 392  | Butterfree         |  0.00342% | 1565   |  0.248% | 1082   |  0.238% | 
 | 393  | Gogoat             |  0.00339% | 631    |  0.100% | 370    |  0.081% | 
 | 394  | Leafeon            |  0.00335% | 1684   |  0.267% | 1085   |  0.238% | 
 | 395  | Parasect           |  0.00310% | 1444   |  0.229% | 1024   |  0.225% | 
 | 396  | Aromatisse         |  0.00291% | 1088   |  0.173% | 757    |  0.166% | 
 | 397  | Gorebyss           |  0.00283% | 514    |  0.082% | 344    |  0.076% | 
 | 398  | Noctowl            |  0.00280% | 1011   |  0.160% | 708    |  0.155% | 
 | 399  | Samurott           |  0.00272% | 892    |  0.141% | 575    |  0.126% | 
 | 400  | Castform           |  0.00271% | 471    |  0.075% | 366    |  0.080% | 
 | 401  | Beartic            |  0.00247% | 662    |  0.105% | 455    |  0.100% | 
 | 402  | Munchlax           |  0.00232% | 240    |  0.038% | 175    |  0.038% | 
 | 403  | Yanma              |  0.00221% | 91     |  0.014% | 58     |  0.013% | 
 | 404  | Kricketune         |  0.00210% | 420    |  0.067% | 279    |  0.061% | 
 | 405  | Venonat            |  0.00202% | 16     |  0.003% | 12     |  0.003% | 
 | 406  | Pachirisu          |  0.00198% | 437    |  0.069% | 313    |  0.069% | 
 | 407  | Riolu              |  0.00198% | 203    |  0.032% | 154    |  0.034% | 
 | 408  | Seviper            |  0.00192% | 613    |  0.097% | 428    |  0.094% | 
 | 409  | Pelipper           |  0.00180% | 689    |  0.109% | 480    |  0.105% | 
 | 410  | Shelgon            |  0.00175% | 286    |  0.045% | 196    |  0.043% | 
 | 411  | Unfezant           |  0.00172% | 661    |  0.105% | 434    |  0.095% | 
 | 412  | Eelektrik          |  0.00171% | 107    |  0.017% | 89     |  0.020% | 
 | 413  | Rattata            |  0.00157% | 498    |  0.079% | 400    |  0.088% | 
 | 414  | Banette            |  0.00147% | 377    |  0.060% | 260    |  0.057% | 
 | 415  | Tentacool          |  0.00141% | 36     |  0.006% | 24     |  0.005% | 
 | 416  | Vullaby            |  0.00135% | 64     |  0.010% | 46     |  0.010% | 
 | 417  | Magikarp           |  0.00134% | 57     |  0.009% | 43     |  0.009% | 
 | 418  | Prinplup           |  0.00134% | 35     |  0.006% | 31     |  0.007% | 
 | 419  | Starly             |  0.00132% | 69     |  0.011% | 38     |  0.008% | 
 | 420  | Wormadam-Sandy     |  0.00129% | 310    |  0.049% | 235    |  0.052% | 
 | 421  | Pidgeot            |  0.00127% | 509    |  0.081% | 352    |  0.077% | 
 | 422  | Beheeyem           |  0.00127% | 413    |  0.065% | 252    |  0.055% | 
 | 423  | Spinda             |  0.00119% | 592    |  0.094% | 470    |  0.103% | 
 | 424  | Cottonee           |  0.00119% | 165    |  0.026% | 139    |  0.031% | 
 | 425  | Vanilluxe          |  0.00116% | 916    |  0.145% | 625    |  0.137% | 
 | 426  | Octillery          |  0.00115% | 383    |  0.061% | 259    |  0.057% | 
 | 427  | Mothim             |  0.00105% | 242    |  0.038% | 166    |  0.036% | 
 | 428  | Hypno              |  0.00099% | 424    |  0.067% | 302    |  0.066% | 
 | 429  | Farfetch'd         |  0.00099% | 313    |  0.050% | 243    |  0.053% | 
 | 430  | Pawniard           |  0.00099% | 46     |  0.007% | 34     |  0.007% | 
 | 431  | Tangela            |  0.00092% | 527    |  0.084% | 358    |  0.079% | 
 | 432  | Minun              |  0.00090% | 226    |  0.036% | 153    |  0.034% | 
 | 433  | Ampharos           |  0.00089% | 519    |  0.082% | 365    |  0.080% | 
 | 434  | Mightyena          |  0.00087% | 746    |  0.118% | 562    |  0.123% | 
 | 435  | Gothita            |  0.00086% | 12     |  0.002% | 8      |  0.002% | 
 | 436  | Wormadam-Trash     |  0.00085% | 186    |  0.029% | 125    |  0.027% | 
 | 437  | Onix               |  0.00080% | 493    |  0.078% | 418    |  0.092% | 
 | 438  | Plusle             |  0.00080% | 228    |  0.036% | 157    |  0.034% | 
 | 439  | Smoochum           |  0.00074% | 23     |  0.004% | 16     |  0.004% | 
 | 440  | Monferno           |  0.00073% | 67     |  0.011% | 50     |  0.011% | 
 | 441  | Stantler           |  0.00073% | 277    |  0.044% | 202    |  0.044% | 
 | 442  | Electabuzz         |  0.00072% | 236    |  0.037% | 167    |  0.037% | 
 | 443  | Audino             |  0.00072% | 227    |  0.036% | 165    |  0.036% | 
 | 444  | Pignite            |  0.00072% | 92     |  0.015% | 51     |  0.011% | 
 | 445  | Bellossom          |  0.00069% | 424    |  0.067% | 304    |  0.067% | 
 | 446  | Watchog            |  0.00068% | 167    |  0.026% | 111    |  0.024% | 
 | 447  | Marshtomp          |  0.00065% | 63     |  0.010% | 46     |  0.010% | 
 | 448  | Delibird           |  0.00063% | 354    |  0.056% | 290    |  0.064% | 
 | 449  | Wartortle          |  0.00060% | 217    |  0.034% | 155    |  0.034% | 
 | 450  | Ledian             |  0.00059% | 627    |  0.099% | 421    |  0.092% | 
 | 451  | Frogadier          |  0.00059% | 217    |  0.034% | 180    |  0.040% | 
 | 452  | Simipour           |  0.00058% | 140    |  0.022% | 92     |  0.020% | 
 | 453  | Beautifly          |  0.00058% | 587    |  0.093% | 421    |  0.092% | 
 | 454  | Graveler           |  0.00056% | 49     |  0.008% | 38     |  0.008% | 
 | 455  | Jigglypuff         |  0.00056% | 84     |  0.013% | 64     |  0.014% | 
 | 456  | Simisage           |  0.00055% | 295    |  0.047% | 182    |  0.040% | 
 | 457  | Sunflora           |  0.00055% | 176    |  0.028% | 117    |  0.026% | 
 | 458  | Furret             |  0.00053% | 439    |  0.070% | 341    |  0.075% | 
 | 459  | Heatmor            |  0.00051% | 243    |  0.039% | 158    |  0.035% | 
 | 460  | Fearow             |  0.00051% | 349    |  0.055% | 287    |  0.063% | 
 | 461  | Nosepass           |  0.00049% | 95     |  0.015% | 83     |  0.018% | 
 | 462  | Magmar             |  0.00047% | 206    |  0.033% | 141    |  0.031% | 
 | 463  | Grumpig            |  0.00046% | 368    |  0.058% | 243    |  0.053% | 
 | 464  | Psyduck            |  0.00042% | 56     |  0.009% | 43     |  0.009% | 
 | 465  | Glalie             |  0.00042% | 379    |  0.060% | 290    |  0.064% | 
 | 466  | Beedrill           |  0.00042% | 627    |  0.099% | 422    |  0.093% | 
 | 467  | Swadloon           |  0.00040% | 195    |  0.031% | 138    |  0.030% | 
 | 468  | Wormadam           |  0.00039% | 112    |  0.018% | 73     |  0.016% | 
 | 469  | Metapod            |  0.00039% | 67     |  0.011% | 59     |  0.013% | 
 | 470  | Klang              |  0.00036% | 37     |  0.006% | 28     |  0.006% | 
 | 471  | Ducklett           |  0.00034% | 19     |  0.003% | 17     |  0.004% | 
 | 472  | Spewpa             |  0.00033% | 50     |  0.008% | 43     |  0.009% | 
 | 473  | Kakuna             |  0.00033% | 67     |  0.011% | 56     |  0.012% | 
 | 474  | Cascoon            |  0.00033% | 40     |  0.006% | 38     |  0.008% | 
 | 475  | Silcoon            |  0.00033% | 39     |  0.006% | 38     |  0.008% | 
 | 476  | Bronzor            |  0.00029% | 163    |  0.026% | 144    |  0.032% | 
 | 477  | Cherrim            |  0.00026% | 259    |  0.041% | 182    |  0.040% | 
 | 478  | Anorith            |  0.00023% | 45     |  0.007% | 33     |  0.007% | 
 | 479  | Wingull            |  0.00023% | 33     |  0.005% | 26     |  0.006% | 
 | 480  | Metang             |  0.00022% | 82     |  0.013% | 54     |  0.012% | 
 | 481  | Bidoof             |  0.00021% | 31     |  0.005% | 21     |  0.005% | 
 | 482  | Pupitar            |  0.00020% | 46     |  0.007% | 26     |  0.006% | 
 | 483  | Geodude            |  0.00019% | 20     |  0.003% | 17     |  0.004% | 
 | 484  | Palpitoad          |  0.00019% | 226    |  0.036% | 203    |  0.045% | 
 | 485  | Lickitung          |  0.00018% | 287    |  0.046% | 219    |  0.048% | 
 | 486  | Meditite           |  0.00017% | 69     |  0.011% | 57     |  0.013% | 
 | 487  | Gloom              |  0.00016% | 53     |  0.008% | 37     |  0.008% | 
 | 488  | Braixen            |  0.00016% | 202    |  0.032% | 149    |  0.033% | 
 | 489  | Sewaddle           |  0.00015% | 23     |  0.004% | 19     |  0.004% | 
 | 490  | Phione             |  0.00015% | 28     |  0.004% | 17     |  0.004% | 
 | 491  | Magnemite          |  0.00014% | 140    |  0.022% | 113    |  0.025% | 
 | 492  | Manectric          |  0.00014% | 433    |  0.069% | 317    |  0.070% | 
 | 493  | Lumineon           |  0.00014% | 121    |  0.019% | 84     |  0.018% | 
 | 494  | Numel              |  0.00013% | 198    |  0.031% | 155    |  0.034% | 
 | 495  | Sealeo             |  0.00012% | 55     |  0.009% | 45     |  0.010% | 
 | 496  | Skorupi            |  0.00012% | 44     |  0.007% | 35     |  0.008% | 
 | 497  | Maractus           |  0.00012% | 161    |  0.026% | 120    |  0.026% | 
 | 498  | Gulpin             |  0.00011% | 8      |  0.001% | 5      |  0.001% | 
 | 499  | Shelmet            |  0.00010% | 38     |  0.006% | 27     |  0.006% | 
 | 500  | Munna              |  0.00010% | 2      |  0.000% | 0      |  0.000% | 
 | 501  | Lairon             |  0.00009% | 213    |  0.034% | 187    |  0.041% | 
 | 502  | Ralts              |  0.00009% | 34     |  0.005% | 27     |  0.006% | 
 | 503  | Drifloon           |  0.00008% | 23     |  0.004% | 20     |  0.004% | 
 | 504  | Huntail            |  0.00008% | 344    |  0.055% | 233    |  0.051% | 
 | 505  | Simisear           |  0.00008% | 153    |  0.024% | 106    |  0.023% | 
 | 506  | Corsola            |  0.00008% | 332    |  0.053% | 257    |  0.056% | 
 | 507  | Chinchou           |  0.00008% | 22     |  0.003% | 19     |  0.004% | 
 | 508  | Gabite             |  0.00007% | 66     |  0.010% | 50     |  0.011% | 
 | 509  | Luvdisc            |  0.00006% | 123    |  0.020% | 103    |  0.023% | 
 | 510  | Koffing            |  0.00006% | 259    |  0.041% | 219    |  0.048% | 
 | 511  | Duosion            |  0.00006% | 34     |  0.005% | 26     |  0.006% | 
 | 512  | Nidorina           |  0.00006% | 50     |  0.008% | 42     |  0.009% | 
 | 513  | Tyrunt             |  0.00005% | 23     |  0.004% | 19     |  0.004% | 
 | 514  | Bagon              |  0.00005% | 16     |  0.003% | 10     |  0.002% | 
 | 515  | Buneary            |  0.00005% | 38     |  0.006% | 18     |  0.004% | 
 | 516  | Paras              |  0.00005% | 18     |  0.003% | 10     |  0.002% | 
 | 517  | Charmeleon         |  0.00005% | 42     |  0.007% | 27     |  0.006% | 
 | 518  | Pineco             |  0.00005% | 67     |  0.011% | 47     |  0.010% | 
 | 519  | Carnivine          |  0.00005% | 125    |  0.020% | 87     |  0.019% | 
 | 520  | Roselia            |  0.00005% | 203    |  0.032% | 148    |  0.032% | 
 | 521  | Lampent            |  0.00005% | 86     |  0.014% | 57     |  0.013% | 
 | 522  | Bayleef            |  0.00004% | 45     |  0.007% | 29     |  0.006% | 
 | 523  | Doduo              |  0.00004% | 124    |  0.020% | 82     |  0.018% | 
 | 524  | Deino              |  0.00004% | 14     |  0.002% | 10     |  0.002% | 
 | 525  | Scraggy            |  0.00004% | 72     |  0.011% | 53     |  0.012% | 
 | 526  | Ivysaur            |  0.00004% | 115    |  0.018% | 80     |  0.018% | 
 | 527  | Chimecho           |  0.00003% | 107    |  0.017% | 87     |  0.019% | 
 | 528  | Dwebble            |  0.00003% | 24     |  0.004% | 23     |  0.005% | 
 | 529  | Joltik             |  0.00003% | 43     |  0.007% | 35     |  0.008% | 
 | 530  | Weedle             |  0.00003% | 62     |  0.010% | 46     |  0.010% | 
 | 531  | Lileep             |  0.00003% | 122    |  0.019% | 88     |  0.019% | 
 | 532  | Karrablast         |  0.00002% | 6      |  0.001% | 2      |  0.000% | 
 | 533  | Larvesta           |  0.00002% | 45     |  0.007% | 36     |  0.008% | 
 | 534  | Archen             |  0.00002% | 8      |  0.001% | 8      |  0.002% | 
 | 535  | Frillish           |  0.00002% | 86     |  0.014% | 68     |  0.015% | 
 | 536  | Poliwhirl          |  0.00002% | 17     |  0.003% | 13     |  0.003% | 
 | 537  | Dewott             |  0.00002% | 20     |  0.003% | 16     |  0.004% | 
 | 538  | Pumpkaboo-Super    |  0.00001% | 35     |  0.006% | 20     |  0.004% | 
 | 539  | Shieldon           |  0.00001% | 27     |  0.004% | 19     |  0.004% | 
 | 540  | Zubat              |  0.00001% | 21     |  0.003% | 20     |  0.004% | 
 | 541  | Cacnea             |  0.00001% | 37     |  0.006% | 25     |  0.005% | 
 | 542  | Helioptile         |  0.00001% | 9      |  0.001% | 5      |  0.001% | 
 | 543  | Wailmer            |  0.00001% | 12     |  0.002% | 8      |  0.002% | 
 | 544  | Unown              |  0.00001% | 37     |  0.006% | 26     |  0.006% | 
 | 545  | Porygon            |  0.00001% | 60     |  0.010% | 42     |  0.009% | 
 | 546  | Goldeen            |  0.00001% | 27     |  0.004% | 19     |  0.004% | 
 | 547  | Staryu             |  0.00001% | 17     |  0.003% | 9      |  0.002% | 
 | 548  | Omanyte            |  0.00001% | 39     |  0.006% | 31     |  0.007% | 
 | 549  | Krabby             |  0.00001% | 6      |  0.001% | 3      |  0.001% | 
 | 550  | Sliggoo            |  0.00001% | 77     |  0.012% | 55     |  0.012% | 
 | 551  | Combee             |  0.00001% | 18     |  0.003% | 13     |  0.003% | 
 | 552  | Grotle             |  0.00001% | 12     |  0.002% | 10     |  0.002% | 
 | 553  | Nidorino           |  0.00001% | 75     |  0.012% | 48     |  0.011% | 
 | 554  | Grovyle            |  0.00001% | 29     |  0.005% | 27     |  0.006% | 
 | 555  | Noibat             |  0.00001% | 18     |  0.003% | 11     |  0.002% | 
 | 556  | Woobat             |  0.00001% | 13     |  0.002% | 12     |  0.003% | 
 | 557  | Natu               |  0.00001% | 15     |  0.002% | 14     |  0.003% | 
 | 558  | Flaaffy            |  0.00000% | 20     |  0.003% | 13     |  0.003% | 
 | 559  | Bergmite           |  0.00000% | 31     |  0.005% | 28     |  0.006% | 
 | 560  | Taillow            |  0.00000% | 65     |  0.010% | 41     |  0.009% | 
 | 561  | Aipom              |  0.00000% | 39     |  0.006% | 36     |  0.008% | 
 | 562  | Seadra             |  0.00000% | 71     |  0.011% | 53     |  0.012% | 
 | 563  | Charmander         |  0.00000% | 33     |  0.005% | 21     |  0.005% | 
 | 564  | Floette            |  0.00000% | 8      |  0.001% | 6      |  0.001% | 
 | 565  | Poochyena          |  0.00000% | 9      |  0.001% | 6      |  0.001% | 
 | 566  | Swablu             |  0.00000% | 35     |  0.006% | 23     |  0.005% | 
 | 567  | Litwick            |  0.00000% | 14     |  0.002% | 12     |  0.003% | 
 | 568  | Boldore            |  0.00000% | 28     |  0.004% | 24     |  0.005% | 
 | 569  | Axew               |  0.00000% | 16     |  0.003% | 12     |  0.003% | 
 | 570  | Igglybuff          |  0.00000% | 13     |  0.002% | 12     |  0.003% | 
 | 571  | Cleffa             |  0.00000% | 18     |  0.003% | 17     |  0.004% | 
 | 572  | Togepi             |  0.00000% | 18     |  0.003% | 13     |  0.003% | 
 | 573  | Azurill            |  0.00000% | 23     |  0.004% | 21     |  0.005% | 
 | 574  | Mime Jr.           |  0.00000% | 60     |  0.010% | 48     |  0.011% | 
 | 575  | Amaura             |  0.00000% | 36     |  0.006% | 30     |  0.007% | 
 | 576  | Croconaw           |  0.00000% | 60     |  0.010% | 44     |  0.010% | 
 | 577  | Marill             |  0.00000% | 19     |  0.003% | 11     |  0.002% | 
 | 578  | Hippopotas         |  0.00000% | 70     |  0.011% | 58     |  0.013% | 
 | 579  | Totodile           |  0.00000% | 27     |  0.004% | 24     |  0.005% | 
 | 580  | Snorunt            |  0.00000% | 1      |  0.000% | 1      |  0.000% | 
 | 581  | Zweilous           |  0.00000% | 59     |  0.009% | 42     |  0.009% | 
 | 582  | Makuhita           |  0.00000% | 16     |  0.003% | 11     |  0.002% | 
 | 583  | Swinub             |  0.00000% | 21     |  0.003% | 19     |  0.004% | 
 | 584  | Yamask             |  0.00000% | 22     |  0.003% | 16     |  0.004% | 
 | 585  | Inkay              |  0.00000% | 39     |  0.006% | 36     |  0.008% | 
 | 586  | Lombre             |  0.00000% | 35     |  0.006% | 22     |  0.005% | 
 | 587  | NidoranM           |  0.00000% | 10     |  0.002% | 7      |  0.002% | 
 | 588  | NidoranF           |  0.00000% | 13     |  0.002% | 11     |  0.002% | 
 | 589  | Nuzleaf            |  0.00000% | 31     |  0.005% | 19     |  0.004% | 
 | 590  | Herdier            |  0.00000% | 9      |  0.001% | 7      |  0.002% | 
 | 591  | Slakoth            |  0.00000% | 6      |  0.001% | 6      |  0.001% | 
 | 592  | Stunky             |  0.00000% | 10     |  0.002% | 7      |  0.002% | 
 | 593  | Turtwig            |  0.00000% | 18     |  0.003% | 15     |  0.003% | 
 | 594  | Tyrogue            |  0.00000% | 46     |  0.007% | 37     |  0.008% | 
 | 595  | Patrat             |  0.00000% | 13     |  0.002% | 11     |  0.002% | 
 | 596  | Spinarak           |  0.00000% | 35     |  0.006% | 26     |  0.006% | 
 | 597  | Wurmple            |  0.00000% | 20     |  0.003% | 16     |  0.004% | 
 | 598  | Scatterbug         |  0.00000% | 22     |  0.003% | 18     |  0.004% | 
 | 599  | Chingling          |  0.00000% | 17     |  0.003% | 12     |  0.003% | 
 | 600  | Kricketot          |  0.00000% | 10     |  0.002% | 6      |  0.001% | 
 | 601  | Caterpie           |  0.00000% | 44     |  0.007% | 30     |  0.007% | 
 | 602  | Bulbasaur          |  0.00000% | 25     |  0.004% | 11     |  0.002% | 
 | 603  | Buizel             |  0.00000% | 10     |  0.002% | 6      |  0.001% | 
 | 604  | Zorua              |  0.00000% | 33     |  0.005% | 12     |  0.003% | 
 | 605  | Honedge            |  0.00000% | 55     |  0.009% | 44     |  0.010% | 
 | 606  | Bunnelby           |  0.00000% | 29     |  0.005% | 16     |  0.004% | 
 | 607  | Fraxure            |  0.00000% | 49     |  0.008% | 30     |  0.007% | 
 | 608  | Vibrava            |  0.00000% | 47     |  0.007% | 30     |  0.007% | 
 | 609  | Corphish           |  0.00000% | 7      |  0.001% | 5      |  0.001% | 
 | 610  | Pumpkaboo-Small    |  0.00000% | 15     |  0.002% | 7      |  0.002% | 
 | 611  | Pichu              |  0.00000% | 44     |  0.007% | 33     |  0.007% | 
 | 612  | Chikorita          |  0.00000% | 16     |  0.003% | 12     |  0.003% | 
 | 613  | Squirtle           |  0.00000% | 27     |  0.004% | 17     |  0.004% | 
 | 614  | Piplup             |  0.00000% | 12     |  0.002% | 11     |  0.002% | 
 | 615  | Grimer             |  0.00000% | 15     |  0.002% | 15     |  0.003% | 
 | 616  | Barboach           |  0.00000% | 7      |  0.001% | 4      |  0.001% | 
 | 617  | Duskull            |  0.00000% | 4      |  0.001% | 2      |  0.000% | 
 | 618  | Clamperl           |  0.00000% | 36     |  0.006% | 28     |  0.006% | 
 | 619  | Shellder           |  0.00000% | 3      |  0.000% | 3      |  0.001% | 
 | 620  | Vulpix             |  0.00000% | 15     |  0.002% | 14     |  0.003% | 
 | 621  | Luxio              |  0.00000% | 10     |  0.002% | 9      |  0.002% | 
 | 622  | Electrike          |  0.00000% | 3      |  0.000% | 2      |  0.000% | 
 | 623  | Gastly             |  0.00000% | 48     |  0.008% | 37     |  0.008% | 
 | 624  | Swirlix            |  0.00000% | 25     |  0.004% | 10     |  0.002% | 
 | 625  | Lillipup           |  0.00000% | 1      |  0.000% | 1      |  0.000% | 
 | 626  | Seel               |  0.00000% | 15     |  0.002% | 12     |  0.003% | 
 | 627  | Kirlia             |  0.00000% | 7      |  0.001% | 6      |  0.001% | 
 | 628  | Sentret            |  0.00000% | 12     |  0.002% | 9      |  0.002% | 
 | 629  | Zigzagoon          |  0.00000% | 9      |  0.001% | 8      |  0.002% | 
 | 630  | Weepinbell         |  0.00000% | 41     |  0.007% | 27     |  0.006% | 
 | 631  | Ledyba             |  0.00000% | 35     |  0.006% | 26     |  0.006% | 
 | 632  | Golett             |  0.00000% | 26     |  0.004% | 21     |  0.005% | 
 | 633  | Snover             |  0.00000% | 21     |  0.003% | 18     |  0.004% | 
 | 634  | Pancham            |  0.00000% | 15     |  0.002% | 15     |  0.003% | 
 | 635  | Vanillish          |  0.00000% | 5      |  0.001% | 3      |  0.001% | 
 | 636  | Slowpoke           |  0.00000% | 23     |  0.004% | 16     |  0.004% | 
 | 637  | Quilladin          |  0.00000% | 14     |  0.002% | 11     |  0.002% | 
 | 638  | Mudkip             |  0.00000% | 8      |  0.001% | 5      |  0.001% | 
 | 639  | Carvanha           |  0.00000% | 35     |  0.006% | 26     |  0.006% | 
 | 640  | Spritzee           |  0.00000% | 19     |  0.003% | 14     |  0.003% | 
 | 641  | Foongus            |  0.00000% | 30     |  0.005% | 23     |  0.005% | 
 | 642  | Sandile            |  0.00000% | 6      |  0.001% | 5      |  0.001% | 
 | 643  | Houndour           |  0.00000% | 9      |  0.001% | 3      |  0.001% | 
 | 644  | Rhyhorn            |  0.00000% | 13     |  0.002% | 6      |  0.001% | 
 | 645  | Cyndaquil          |  0.00000% | 10     |  0.002% | 9      |  0.002% | 
 | 646  | Treecko            |  0.00000% | 22     |  0.003% | 13     |  0.003% | 
 | 647  | Bellsprout         |  0.00000% | 9      |  0.001% | 9      |  0.002% | 
 | 648  | Trubbish           |  0.00000% | 12     |  0.002% | 11     |  0.002% | 
 | 649  | Dratini            |  0.00000% | 10     |  0.002% | 8      |  0.002% | 
 | 650  | Gible              |  0.00000% | 8      |  0.001% | 5      |  0.001% | 
 | 651  | Mankey             |  0.00000% | 10     |  0.002% | 9      |  0.002% | 
 | 652  | Shroomish          |  0.00000% | 8      |  0.001% | 8      |  0.002% | 
 | 653  | Budew              |  0.00000% | 7      |  0.001% | 4      |  0.001% | 
 | 654  | Seedot             |  0.00000% | 3      |  0.000% | 3      |  0.001% | 
 | 655  | Exeggcute          |  0.00000% | 6      |  0.001% | 4      |  0.001% | 
 | 656  | Poliwag            |  0.00000% | 4      |  0.001% | 2      |  0.000% | 
 | 657  | Rufflet            |  0.00000% | 22     |  0.003% | 15     |  0.003% | 
 | 658  | Finneon            |  0.00000% | 3      |  0.000% | 3      |  0.001% | 
 | 659  | Servine            |  0.00000% | 74     |  0.012% | 49     |  0.011% | 
 | 660  | Skiploom           |  0.00000% | 2      |  0.000% | 2      |  0.000% | 
 | 661  | Croagunk           |  0.00000% | 39     |  0.006% | 32     |  0.007% | 
 | 662  | Ferroseed          |  0.00000% | 47     |  0.007% | 40     |  0.009% | 
 | 663  | Machop             |  0.00000% | 4      |  0.001% | 4      |  0.001% | 
 | 664  | Mienfoo            |  0.00000% | 4      |  0.001% | 3      |  0.001% | 
 | 665  | Sandshrew          |  0.00000% | 11     |  0.002% | 10     |  0.002% | 
 | 666  | Chespin            |  0.00000% | 4      |  0.001% | 3      |  0.001% | 
 | 667  | Snivy              |  0.00000% | 5      |  0.001% | 4      |  0.001% | 
 | 668  | Goomy              |  0.00000% | 8      |  0.001% | 5      |  0.001% | 
 | 669  | Torchic            |  0.00000% | 21     |  0.003% | 15     |  0.003% | 
 | 670  | Fennekin           |  0.00000% | 8      |  0.001% | 7      |  0.002% | 
 | 671  | Tepig              |  0.00000% | 5      |  0.001% | 5      |  0.001% | 
 | 672  | Chimchar           |  0.00000% | 21     |  0.003% | 14     |  0.003% | 
 | 673  | Minccino           |  0.00000% | 15     |  0.002% | 12     |  0.003% | 
 | 674  | Meowth             |  0.00000% | 26     |  0.004% | 21     |  0.005% | 
 | 675  | Glameow            |  0.00000% | 7      |  0.001% | 6      |  0.001% | 
 | 676  | Krokorok           |  0.00000% | 8      |  0.001% | 7      |  0.002% | 
 | 677  | Whismur            |  0.00000% | 3      |  0.000% | 3      |  0.001% | 
 | 678  | Mareep             |  0.00000% | 6      |  0.001% | 4      |  0.001% | 
 | 679  | Snubbull           |  0.00000% | 126    |  0.020% | 70     |  0.015% | 
 | 680  | Larvitar           |  0.00000% | 8      |  0.001% | 7      |  0.002% | 
 | 681  | Bonsly             |  0.00000% | 22     |  0.003% | 17     |  0.004% | 
 | 682  | Skrelp             |  0.00000% | 32     |  0.005% | 22     |  0.005% | 
 | 683  | Blitzle            |  0.00000% | 14     |  0.002% | 11     |  0.002% | 
 | 684  | Shinx              |  0.00000% | 9      |  0.001% | 7      |  0.002% | 
 | 685  | Elekid             |  0.00000% | 14     |  0.002% | 13     |  0.003% | 
 | 686  | Cubone             |  0.00000% | 10     |  0.002% | 9      |  0.002% | 
 | 687  | Ponyta             |  0.00000% | 5      |  0.001% | 2      |  0.000% | 
 | 688  | Solosis            |  0.00000% | 10     |  0.002% | 9      |  0.002% | 
 | 689  | Tirtouga           |  0.00000% | 22     |  0.003% | 19     |  0.004% | 
 | 690  | Trapinch           |  0.00000% | 12     |  0.002% | 12     |  0.003% | 
 | 691  | Pidgeotto          |  0.00000% | 57     |  0.009% | 43     |  0.009% | 
 | 692  | Shuppet            |  0.00000% | 10     |  0.002% | 8      |  0.002% | 
 | 693  | Pumpkaboo-Large    |  0.00000% | 5      |  0.001% | 2      |  0.000% | 
 | 694  | Deerling           |  0.00000% | 6      |  0.001% | 4      |  0.001% | 
 | 695  | Skitty             |  0.00000% | 3      |  0.000% | 2      |  0.000% | 
 | 696  | Lotad              |  0.00000% | 1      |  0.000% | 1      |  0.000% | 
 | 697  | Phantump           |  0.00000% | 9      |  0.001% | 7      |  0.002% | 
 | 698  | Nincada            |  0.00000% | 6      |  0.001% | 4      |  0.001% | 
 | 699  | Roggenrola         |  0.00000% | 7      |  0.001% | 6      |  0.001% | 
 | 700  | Binacle            |  0.00000% | 5      |  0.001% | 2      |  0.000% | 
 | 701  | Pansear            |  0.00000% | 11     |  0.002% | 11     |  0.002% | 
 | 702  | Espurr             |  0.00000% | 1      |  0.000% | 1      |  0.000% | 
 | 703  | Skiddo             |  0.00000% | 1      |  0.000% | 1      |  0.000% | 
 | 704  | Oddish             |  0.00000% | 11     |  0.002% | 10     |  0.002% | 
 | 705  | Horsea             |  0.00000% | 1      |  0.000% | 1      |  0.000% | 
 | 706  | Klink              |  0.00000% | 1      |  0.000% | 1      |  0.000% | 
 | 707  | Shellos            |  0.00000% | 2      |  0.000% | 0      |  0.000% | 
 | 708  | Cubchoo            |  0.00000% | 9      |  0.001% | 6      |  0.001% | 
 | 709  | Baltoy             |  0.00000% | 2      |  0.000% | 1      |  0.000% | 
 | 710  | Venipede           |  0.00000% | 21     |  0.003% | 18     |  0.004% | 
 | 711  | Spheal             |  0.00000% | 3      |  0.000% | 2      |  0.000% | 
 | 712  | Quilava            |  0.00000% | 10     |  0.002% | 7      |  0.002% | 
 | 713  | Beldum             |  0.00000% | 4      |  0.001% | 4      |  0.001% | 
 | 714  | Spoink             |  0.00000% | 21     |  0.003% | 11     |  0.002% | 
 | 715  | Elgyem             |  0.00000% | 1      |  0.000% | 1      |  0.000% | 
 | 716  | Magby              |  0.00000% | 3      |  0.000% | 3      |  0.001% | 
 | 717  | Drowzee            |  0.00000% | 5      |  0.001% | 3      |  0.001% | 
 | 718  | Loudred            |  0.00000% | 1      |  0.000% | 0      |  0.000% | 
 | 719  | Hoothoot           |  0.00000% | 1      |  0.000% | 1      |  0.000% | 
 | 720  | Voltorb            |  0.00000% | 9      |  0.001% | 9      |  0.002% | 
 | 721  | Teddiursa          |  0.00000% | 4      |  0.001% | 3      |  0.001% | 
 | 722  | Timburr            |  0.00000% | 6      |  0.001% | 6      |  0.001% | 
 | 723  | Kabuto             |  0.00000% | 11     |  0.002% | 6      |  0.001% | 
 | 724  | Growlithe          |  0.00000% | 4      |  0.001% | 3      |  0.001% | 
 | 725  | Froakie            |  0.00000% | 4      |  0.001% | 1      |  0.000% | 
 | 726  | Purrloin           |  0.00000% | 17     |  0.003% | 17     |  0.004% | 
 | 727  | Diglett            |  0.00000% | 8      |  0.001% | 5      |  0.001% | 
 | 728  | Feebas             |  0.00000% | 2      |  0.000% | 2      |  0.000% | 
 | 729  | Oshawott           |  0.00000% | 4      |  0.001% | 3      |  0.001% | 
 | 730  | Litleo             |  0.00000% | 4      |  0.001% | 4      |  0.001% | 
 | 731  | Happiny            |  0.00000% | 10     |  0.002% | 5      |  0.001% | 
 | 732  | Darumaka           |  0.00000% | 13     |  0.002% | 5      |  0.001% | 
 | 733  | Tranquill          |  0.00000% | 3      |  0.000% | 2      |  0.000% | 
 | 734  | Vanillite          |  0.00000% | 8      |  0.001% | 4      |  0.001% | 
 | 735  | Hoppip             |  0.00000% | 2      |  0.000% | 2      |  0.000% | 
 | 736  | Cranidos           |  0.00000% | 13     |  0.002% | 11     |  0.002% | 
 | 737  | Flabebe            |  0.00000% | 2      |  0.000% | 2      |  0.000% | 
 + ---- + ------------------ + --------- + ------ + ------- + ------ + ------- + 
