 Total battles: 48019
 Avg. weight/team: 0.002
 + ---- + ------------------ + --------- + ------ + ------- + ------ + ------- + 
 | Rank | Pokemon            | Usage %   | Raw    | %       | Real   | %       | 
 + ---- + ------------------ + --------- + ------ + ------- + ------ + ------- + 
 | 1    | Landorus-Therian   | 41.84702% | 33315  | 34.689% | 28576  | 37.348% | 
 | 2    | Latios             | 24.72785% | 20179  | 21.011% | 15198  | 19.864% | 
 | 3    | Excadrill          | 19.26498% | 16608  | 17.293% | 12466  | 16.293% | 
 | 4    | Clefable           | 18.64551% | 15136  | 15.760% | 12297  | 16.072% | 
 | 5    | Talonflame         | 17.38028% | 12479  | 12.994% | 9377   | 12.256% | 
 | 6    | Heatran            | 17.11389% | 13872  | 14.444% | 11733  | 15.335% | 
 | 7    | Keldeo             | 16.53587% | 16660  | 17.347% | 13052  | 17.059% | 
 | 8    | Manaphy            | 16.45290% | 8950   |  9.319% | 7078   |  9.251% | 
 | 9    | Rotom-Wash         | 16.33569% | 15732  | 16.381% | 13539  | 17.695% | 
 | 10   | Garchomp           | 16.22923% | 13911  | 14.485% | 11795  | 15.416% | 
 | 11   | Skarmory           | 14.69312% | 8108   |  8.442% | 7017   |  9.171% | 
 | 12   | Medicham-Mega      | 14.40896% | 9789   | 10.193% | 8504   | 11.115% | 
 | 13   | Scizor-Mega        | 13.76887% | 9293   |  9.676% | 7512   |  9.818% | 
 | 14   | Bisharp            | 13.28547% | 11422  | 11.893% | 8489   | 11.095% | 
 | 15   | Zapdos             | 13.07823% | 6499   |  6.767% | 5389   |  7.043% | 
 | 16   | Ferrothorn         | 12.84952% | 10109  | 10.526% | 8797   | 11.498% | 
 | 17   | Tyranitar          | 12.79273% | 12721  | 13.246% | 10220  | 13.357% | 
 | 18   | Tornadus-Therian   | 12.61309% | 9442   |  9.832% | 7673   | 10.028% | 
 | 19   | Azelf              | 10.73694% | 6159   |  6.413% | 5873   |  7.676% | 
 | 20   | Dragonite          | 10.51239% | 7903   |  8.229% | 5520   |  7.215% | 
 | 21   | Pinsir-Mega        | 10.38957% | 5538   |  5.766% | 4049   |  5.292% | 
 | 22   | Jirachi            | 10.03674% | 10468  | 10.900% | 8662   | 11.321% | 
 | 23   | Chansey            |  9.76610% | 4430   |  4.613% | 3526   |  4.608% | 
 | 24   | Weavile            |  9.20688% | 9240   |  9.621% | 6942   |  9.073% | 
 | 25   | Tangrowth          |  8.80774% | 5936   |  6.181% | 4975   |  6.502% | 
 | 26   | Dugtrio            |  8.78472% | 2259   |  2.352% | 1704   |  2.227% | 
 | 27   | Starmie            |  8.39287% | 8979   |  9.349% | 7005   |  9.155% | 
 | 28   | Thundurus          |  8.13870% | 7564   |  7.876% | 5885   |  7.692% | 
 | 29   | Lopunny-Mega       |  7.99790% | 8130   |  8.465% | 6684   |  8.736% | 
 | 30   | Venusaur-Mega      |  7.77870% | 3238   |  3.372% | 2602   |  3.401% | 
 | 31   | Magnezone          |  6.38411% | 5254   |  5.471% | 4254   |  5.560% | 
 | 32   | Metagross-Mega     |  6.32372% | 6718   |  6.995% | 5235   |  6.842% | 
 | 33   | Diancie-Mega       |  6.28305% | 6241   |  6.498% | 5278   |  6.898% | 
 | 34   | Amoonguss          |  6.25469% | 5072   |  5.281% | 4079   |  5.331% | 
 | 35   | Azumarill          |  6.11030% | 8856   |  9.221% | 6916   |  9.039% | 
 | 36   | Kyurem-Black       |  6.08722% | 6634   |  6.908% | 5045   |  6.594% | 
 | 37   | Klefki             |  5.17979% | 3636   |  3.786% | 3089   |  4.037% | 
 | 38   | Gengar             |  5.13586% | 8089   |  8.423% | 6065   |  7.927% | 
 | 39   | Latias             |  4.43280% | 5624   |  5.856% | 4165   |  5.444% | 
 | 40   | Slowbro            |  4.24996% | 4201   |  4.374% | 3399   |  4.442% | 
 | 41   | Slowbro-Mega       |  4.09854% | 1759   |  1.832% | 1435   |  1.876% | 
 | 42   | Hydreigon          |  4.07069% | 2526   |  2.630% | 1997   |  2.610% | 
 | 43   | Alakazam-Mega      |  3.97441% | 2684   |  2.795% | 2015   |  2.634% | 
 | 44   | Serperior          |  3.92988% | 6552   |  6.822% | 5027   |  6.570% | 
 | 45   | Breloom            |  3.84943% | 5018   |  5.225% | 3807   |  4.976% | 
 | 46   | Cresselia          |  3.65793% | 834    |  0.868% | 666    |  0.870% | 
 | 47   | Mew                |  3.59133% | 4195   |  4.368% | 3496   |  4.569% | 
 | 48   | Latias-Mega        |  3.57105% | 1669   |  1.738% | 1334   |  1.744% | 
 | 49   | Volcanion          |  3.40256% | 4522   |  4.709% | 3674   |  4.802% | 
 | 50   | Suicune            |  3.21528% | 2025   |  2.109% | 1566   |  2.047% | 
 | 51   | Manectric-Mega     |  3.13300% | 4007   |  4.172% | 3315   |  4.333% | 
 | 52   | Gardevoir-Mega     |  3.07638% | 3819   |  3.977% | 2998   |  3.918% | 
 | 53   | Heracross-Mega     |  3.04136% | 3556   |  3.703% | 2564   |  3.351% | 
 | 54   | Reuniclus          |  2.84315% | 1015   |  1.057% | 804    |  1.051% | 
 | 55   | Hippowdon          |  2.60191% | 3646   |  3.796% | 3168   |  4.141% | 
 | 56   | Diggersby          |  2.54155% | 1872   |  1.949% | 1454   |  1.900% | 
 | 57   | Raikou             |  2.46326% | 3798   |  3.955% | 3004   |  3.926% | 
 | 58   | Gliscor            |  2.43178% | 4663   |  4.855% | 3703   |  4.840% | 
 | 59   | Dragalge           |  2.34227% | 800    |  0.833% | 646    |  0.844% | 
 | 60   | Charizard-Mega-X   |  2.25309% | 5035   |  5.243% | 3783   |  4.944% | 
 | 61   | Terrakion          |  2.07886% | 3091   |  3.219% | 2295   |  3.000% | 
 | 62   | Crawdaunt          |  2.05056% | 1734   |  1.806% | 1303   |  1.703% | 
 | 63   | Conkeldurr         |  2.03819% | 1640   |  1.708% | 1322   |  1.728% | 
 | 64   | Charizard-Mega-Y   |  1.95931% | 4542   |  4.729% | 3654   |  4.776% | 
 | 65   | Kingdra            |  1.95140% | 1563   |  1.627% | 1118   |  1.461% | 
 | 66   | Politoed           |  1.88736% | 1832   |  1.908% | 1693   |  2.213% | 
 | 67   | Volcarona          |  1.86871% | 2663   |  2.773% | 1962   |  2.564% | 
 | 68   | Jellicent          |  1.66727% | 729    |  0.759% | 609    |  0.796% | 
 | 69   | Alomomola          |  1.47930% | 628    |  0.654% | 501    |  0.655% | 
 | 70   | Nidoking           |  1.41987% | 1814   |  1.889% | 1453   |  1.899% | 
 | 71   | Altaria-Mega       |  1.29967% | 2039   |  2.123% | 1561   |  2.040% | 
 | 72   | Scizor             |  1.26485% | 4409   |  4.591% | 3441   |  4.497% | 
 | 73   | Thundurus-Therian  |  1.25779% | 1524   |  1.587% | 1146   |  1.498% | 
 | 74   | Swampert-Mega      |  1.22412% | 1224   |  1.274% | 962    |  1.257% | 
 | 75   | Tentacruel         |  1.18260% | 2422   |  2.522% | 1995   |  2.607% | 
 | 76   | Scolipede          |  1.16530% | 2250   |  2.343% | 2000   |  2.614% | 
 | 77   | Gyarados-Mega      |  1.16423% | 2560   |  2.666% | 2012   |  2.630% | 
 | 78   | Donphan            |  1.14017% | 799    |  0.832% | 687    |  0.898% | 
 | 79   | Espeon             |  0.96264% | 1560   |  1.624% | 1034   |  1.351% | 
 | 80   | Kabutops           |  0.94980% | 632    |  0.658% | 426    |  0.557% | 
 | 81   | Celebi             |  0.89874% | 1140   |  1.187% | 919    |  1.201% | 
 | 82   | Feraligatr         |  0.88856% | 647    |  0.674% | 477    |  0.623% | 
 | 83   | Gastrodon          |  0.85903% | 707    |  0.736% | 604    |  0.789% | 
 | 84   | Shuckle            |  0.77321% | 828    |  0.862% | 752    |  0.983% | 
 | 85   | Togekiss           |  0.74890% | 2423   |  2.523% | 1866   |  2.439% | 
 | 86   | Gallade-Mega       |  0.73284% | 1524   |  1.587% | 1145   |  1.496% | 
 | 87   | Mamoswine          |  0.71597% | 1222   |  1.272% | 1012   |  1.323% | 
 | 88   | Victini            |  0.71539% | 2519   |  2.623% | 1947   |  2.545% | 
 | 89   | Empoleon           |  0.69512% | 1026   |  1.068% | 878    |  1.148% | 
 | 90   | Quagsire           |  0.66710% | 762    |  0.793% | 600    |  0.784% | 
 | 91   | Slowking           |  0.66679% | 564    |  0.587% | 470    |  0.614% | 
 | 92   | Seismitoad         |  0.65468% | 931    |  0.969% | 833    |  1.089% | 
 | 93   | Garchomp-Mega      |  0.65392% | 1162   |  1.210% | 859    |  1.123% | 
 | 94   | Tyranitar-Mega     |  0.64435% | 1117   |  1.163% | 839    |  1.097% | 
 | 95   | Chesnaught         |  0.62261% | 734    |  0.764% | 553    |  0.723% | 
 | 96   | Cofagrigus         |  0.61886% | 1046   |  1.089% | 837    |  1.094% | 
 | 97   | Infernape          |  0.61176% | 1636   |  1.703% | 1290   |  1.686% | 
 | 98   | Cobalion           |  0.56478% | 433    |  0.451% | 346    |  0.452% | 
 | 99   | Alakazam           |  0.56144% | 1697   |  1.767% | 1235   |  1.614% | 
 | 100  | Sylveon            |  0.49539% | 2172   |  2.262% | 1663   |  2.174% | 
 | 101  | Doublade           |  0.45311% | 521    |  0.542% | 409    |  0.535% | 
 | 102  | Kyurem             |  0.43003% | 404    |  0.421% | 322    |  0.421% | 
 | 103  | Aerodactyl         |  0.41246% | 321    |  0.334% | 303    |  0.396% | 
 | 104  | Sceptile-Mega      |  0.38332% | 1154   |  1.202% | 894    |  1.168% | 
 | 105  | Entei              |  0.37365% | 473    |  0.493% | 363    |  0.474% | 
 | 106  | Lucario            |  0.37085% | 1042   |  1.085% | 773    |  1.010% | 
 | 107  | Umbreon            |  0.36924% | 1159   |  1.207% | 858    |  1.121% | 
 | 108  | Vaporeon           |  0.35961% | 580    |  0.604% | 477    |  0.623% | 
 | 109  | Magneton           |  0.35424% | 669    |  0.697% | 546    |  0.714% | 
 | 110  | Nidoqueen          |  0.33539% | 369    |  0.384% | 311    |  0.406% | 
 | 111  | Aerodactyl-Mega    |  0.32256% | 604    |  0.629% | 451    |  0.589% | 
 | 112  | Ditto              |  0.30406% | 660    |  0.687% | 514    |  0.672% | 
 | 113  | Milotic            |  0.30054% | 834    |  0.868% | 619    |  0.809% | 
 | 114  | Blastoise-Mega     |  0.30014% | 744    |  0.775% | 620    |  0.810% | 
 | 115  | Forretress         |  0.27399% | 763    |  0.794% | 687    |  0.898% | 
 | 116  | Sableye            |  0.23481% | 645    |  0.672% | 529    |  0.691% | 
 | 117  | Chandelure         |  0.23238% | 1008   |  1.050% | 783    |  1.023% | 
 | 118  | Metagross          |  0.23054% | 829    |  0.863% | 661    |  0.864% | 
 | 119  | Cloyster           |  0.22846% | 955    |  0.994% | 727    |  0.950% | 
 | 120  | Porygon-Z          |  0.22264% | 673    |  0.701% | 492    |  0.643% | 
 | 121  | Hawlucha           |  0.19872% | 1355   |  1.411% | 976    |  1.276% | 
 | 122  | Medicham           |  0.19243% | 219    |  0.228% | 177    |  0.231% | 
 | 123  | Xatu               |  0.18581% | 222    |  0.231% | 172    |  0.225% | 
 | 124  | Ampharos-Mega      |  0.18334% | 415    |  0.432% | 324    |  0.423% | 
 | 125  | Pangoro            |  0.18179% | 240    |  0.250% | 172    |  0.225% | 
 | 126  | Gyarados           |  0.17299% | 989    |  1.030% | 738    |  0.965% | 
 | 127  | Goodra             |  0.14679% | 1079   |  1.124% | 860    |  1.124% | 
 | 128  | Toxicroak          |  0.14591% | 431    |  0.449% | 287    |  0.375% | 
 | 129  | Latios-Mega        |  0.13991% | 566    |  0.589% | 428    |  0.559% | 
 | 130  | Shedinja           |  0.13505% | 247    |  0.257% | 194    |  0.254% | 
 | 131  | Galvantula         |  0.13493% | 803    |  0.836% | 699    |  0.914% | 
 | 132  | Salamence          |  0.12872% | 922    |  0.960% | 658    |  0.860% | 
 | 133  | Omastar            |  0.12840% | 268    |  0.279% | 192    |  0.251% | 
 | 134  | Crobat             |  0.12354% | 730    |  0.760% | 565    |  0.738% | 
 | 135  | Whimsicott         |  0.12277% | 649    |  0.676% | 493    |  0.644% | 
 | 136  | Abomasnow-Mega     |  0.12231% | 336    |  0.350% | 273    |  0.357% | 
 | 137  | Haxorus            |  0.12079% | 486    |  0.506% | 347    |  0.454% | 
 | 138  | Noivern            |  0.11089% | 430    |  0.448% | 328    |  0.429% | 
 | 139  | Absol-Mega         |  0.10864% | 531    |  0.553% | 425    |  0.555% | 
 | 140  | Smeargle           |  0.10755% | 343    |  0.357% | 304    |  0.397% | 
 | 141  | Venusaur           |  0.09818% | 390    |  0.406% | 281    |  0.367% | 
 | 142  | Ninetales          |  0.09792% | 331    |  0.345% | 276    |  0.361% | 
 | 143  | Emboar             |  0.09742% | 303    |  0.316% | 230    |  0.301% | 
 | 144  | Mandibuzz          |  0.09656% | 788    |  0.821% | 600    |  0.784% | 
 | 145  | Slaking            |  0.09452% | 275    |  0.286% | 213    |  0.278% | 
 | 146  | Pidgeot-Mega       |  0.09162% | 1017   |  1.059% | 791    |  1.034% | 
 | 147  | Slurpuff           |  0.09090% | 331    |  0.345% | 234    |  0.306% | 
 | 148  | Krookodile         |  0.08738% | 464    |  0.483% | 358    |  0.468% | 
 | 149  | Arcanine           |  0.08530% | 982    |  1.023% | 799    |  1.044% | 
 | 150  | Registeel          |  0.08411% | 289    |  0.301% | 252    |  0.329% | 
 | 151  | Porygon2           |  0.08391% | 418    |  0.435% | 350    |  0.457% | 
 | 152  | Ludicolo           |  0.08174% | 375    |  0.390% | 279    |  0.365% | 
 | 153  | Staraptor          |  0.08059% | 1079   |  1.124% | 841    |  1.099% | 
 | 154  | Rotom-Heat         |  0.07644% | 434    |  0.452% | 376    |  0.491% | 
 | 155  | Stunfisk           |  0.07542% | 106    |  0.110% | 91     |  0.119% | 
 | 156  | Lanturn            |  0.06487% | 201    |  0.209% | 160    |  0.209% | 
 | 157  | Sigilyph           |  0.06361% | 214    |  0.223% | 157    |  0.205% | 
 | 158  | Sharpedo-Mega      |  0.06322% | 527    |  0.549% | 381    |  0.498% | 
 | 159  | Rhyperior          |  0.06298% | 457    |  0.476% | 357    |  0.467% | 
 | 160  | Swampert           |  0.06056% | 385    |  0.401% | 329    |  0.430% | 
 | 161  | Poliwrath          |  0.05928% | 101    |  0.105% | 79     |  0.103% | 
 | 162  | Gardevoir          |  0.05901% | 479    |  0.499% | 327    |  0.427% | 
 | 163  | Bronzong           |  0.05479% | 308    |  0.321% | 267    |  0.349% | 
 | 164  | Jolteon            |  0.05181% | 710    |  0.739% | 543    |  0.710% | 
 | 165  | Beedrill-Mega      |  0.05158% | 678    |  0.706% | 554    |  0.724% | 
 | 166  | Shaymin            |  0.04982% | 167    |  0.174% | 135    |  0.176% | 
 | 167  | Meloetta           |  0.04807% | 115    |  0.120% | 90     |  0.118% | 
 | 168  | Mienshao           |  0.04580% | 415    |  0.432% | 330    |  0.431% | 
 | 169  | Diancie            |  0.04421% | 209    |  0.218% | 172    |  0.225% | 
 | 170  | Zoroark            |  0.04261% | 382    |  0.398% | 167    |  0.218% | 
 | 171  | Chatot             |  0.03855% | 115    |  0.120% | 89     |  0.116% | 
 | 172  | Lopunny            |  0.03825% | 54     |  0.056% | 48     |  0.063% | 
 | 173  | Mightyena          |  0.03613% | 9      |  0.009% | 5      |  0.007% | 
 | 174  | Simisage           |  0.03603% | 4      |  0.004% | 3      |  0.004% | 
 | 175  | Glalie-Mega        |  0.03345% | 177    |  0.184% | 138    |  0.180% | 
 | 176  | Honchkrow          |  0.03275% | 324    |  0.337% | 215    |  0.281% | 
 | 177  | Houndoom-Mega      |  0.03251% | 406    |  0.423% | 310    |  0.405% | 
 | 178  | Banette-Mega       |  0.03212% | 308    |  0.321% | 255    |  0.333% | 
 | 179  | Eelektross         |  0.03145% | 255    |  0.266% | 207    |  0.271% | 
 | 180  | Vivillon           |  0.03106% | 91     |  0.095% | 69     |  0.090% | 
 | 181  | Drapion            |  0.03086% | 209    |  0.218% | 162    |  0.212% | 
 | 182  | Cradily            |  0.03044% | 103    |  0.107% | 82     |  0.107% | 
 | 183  | Blissey            |  0.03040% | 495    |  0.515% | 350    |  0.457% | 
 | 184  | Gourgeist-Super    |  0.02812% | 215    |  0.224% | 182    |  0.238% | 
 | 185  | Dusclops           |  0.02742% | 204    |  0.212% | 159    |  0.208% | 
 | 186  | Darmanitan         |  0.02592% | 552    |  0.575% | 416    |  0.544% | 
 | 187  | Tornadus           |  0.02564% | 183    |  0.191% | 142    |  0.186% | 
 | 188  | Tyrantrum          |  0.02548% | 372    |  0.387% | 279    |  0.365% | 
 | 189  | Jumpluff           |  0.02540% | 16     |  0.017% | 14     |  0.018% | 
 | 190  | Heracross          |  0.02535% | 338    |  0.352% | 254    |  0.332% | 
 | 191  | Dusknoir           |  0.02483% | 135    |  0.141% | 114    |  0.149% | 
 | 192  | Uxie               |  0.02482% | 142    |  0.148% | 128    |  0.167% | 
 | 193  | Wailord            |  0.02475% | 65     |  0.068% | 49     |  0.064% | 
 | 194  | Marowak            |  0.02362% | 128    |  0.133% | 106    |  0.139% | 
 | 195  | Hoopa              |  0.02302% | 177    |  0.184% | 134    |  0.175% | 
 | 196  | Zygarde            |  0.02291% | 383    |  0.399% | 290    |  0.379% | 
 | 197  | Misdreavus         |  0.02269% | 29     |  0.030% | 25     |  0.033% | 
 | 198  | Electivire         |  0.02234% | 493    |  0.513% | 398    |  0.520% | 
 | 199  | Rotom-Mow          |  0.02234% | 128    |  0.133% | 92     |  0.120% | 
 | 200  | Archeops           |  0.02224% | 82     |  0.085% | 71     |  0.093% | 
 | 201  | Malamar            |  0.02161% | 249    |  0.259% | 209    |  0.273% | 
 | 202  | Escavalier         |  0.02146% | 104    |  0.108% | 80     |  0.105% | 
 | 203  | Drifblim           |  0.02142% | 70     |  0.073% | 51     |  0.067% | 
 | 204  | Accelgor           |  0.02083% | 139    |  0.145% | 116    |  0.152% | 
 | 205  | Snorlax            |  0.02066% | 601    |  0.626% | 444    |  0.580% | 
 | 206  | Linoone            |  0.02017% | 69     |  0.072% | 46     |  0.060% | 
 | 207  | Pikachu            |  0.01944% | 353    |  0.368% | 247    |  0.323% | 
 | 208  | Tropius            |  0.01857% | 32     |  0.033% | 29     |  0.038% | 
 | 209  | Machamp            |  0.01838% | 548    |  0.571% | 430    |  0.562% | 
 | 210  | Hitmonlee          |  0.01816% | 165    |  0.172% | 114    |  0.149% | 
 | 211  | Aggron-Mega        |  0.01769% | 336    |  0.350% | 273    |  0.357% | 
 | 212  | Cinccino           |  0.01746% | 165    |  0.172% | 129    |  0.169% | 
 | 213  | Ambipom            |  0.01631% | 261    |  0.272% | 227    |  0.297% | 
 | 214  | Raichu             |  0.01553% | 138    |  0.144% | 111    |  0.145% | 
 | 215  | Roserade           |  0.01484% | 524    |  0.546% | 401    |  0.524% | 
 | 216  | Camerupt-Mega      |  0.01464% | 140    |  0.146% | 116    |  0.152% | 
 | 217  | Kecleon            |  0.01464% | 67     |  0.070% | 51     |  0.067% | 
 | 218  | Hitmontop          |  0.01417% | 183    |  0.191% | 142    |  0.186% | 
 | 219  | Sawsbuck           |  0.01371% | 25     |  0.026% | 17     |  0.022% | 
 | 220  | Moltres            |  0.01317% | 143    |  0.149% | 104    |  0.136% | 
 | 221  | Sharpedo           |  0.01304% | 80     |  0.083% | 59     |  0.077% | 
 | 222  | Samurott           |  0.01277% | 129    |  0.134% | 91     |  0.119% | 
 | 223  | Hitmonchan         |  0.01275% | 104    |  0.108% | 79     |  0.103% | 
 | 224  | Durant             |  0.01231% | 141    |  0.147% | 117    |  0.153% | 
 | 225  | Sawk               |  0.01202% | 25     |  0.026% | 21     |  0.027% | 
 | 226  | Florges            |  0.01018% | 290    |  0.302% | 198    |  0.259% | 
 | 227  | Druddigon          |  0.01002% | 200    |  0.208% | 169    |  0.221% | 
 | 228  | Typhlosion         |  0.00898% | 250    |  0.260% | 166    |  0.217% | 
 | 229  | Rampardos          |  0.00869% | 100    |  0.104% | 67     |  0.088% | 
 | 230  | Virizion           |  0.00855% | 125    |  0.130% | 98     |  0.128% | 
 | 231  | Musharna           |  0.00840% | 27     |  0.028% | 23     |  0.030% | 
 | 232  | Heliolisk          |  0.00835% | 242    |  0.252% | 168    |  0.220% | 
 | 233  | Exeggutor          |  0.00813% | 161    |  0.168% | 121    |  0.158% | 
 | 234  | Flygon             |  0.00797% | 256    |  0.267% | 196    |  0.256% | 
 | 235  | Golurk             |  0.00784% | 144    |  0.150% | 114    |  0.149% | 
 | 236  | Froslass           |  0.00736% | 292    |  0.304% | 251    |  0.328% | 
 | 237  | Yanmega            |  0.00710% | 133    |  0.138% | 89     |  0.116% | 
 | 238  | Lilligant          |  0.00707% | 44     |  0.046% | 32     |  0.042% | 
 | 239  | Marshtomp          |  0.00695% | 76     |  0.079% | 74     |  0.097% | 
 | 240  | Gourgeist-Large    |  0.00681% | 16     |  0.017% | 14     |  0.018% | 
 | 241  | Ninjask            |  0.00678% | 120    |  0.125% | 99     |  0.129% | 
 | 242  | Rotom-Fan          |  0.00674% | 45     |  0.047% | 39     |  0.051% | 
 | 243  | Pyroar             |  0.00643% | 82     |  0.085% | 60     |  0.078% | 
 | 244  | Larvesta           |  0.00593% | 5      |  0.005% | 5      |  0.007% | 
 | 245  | Aron               |  0.00516% | 30     |  0.031% | 15     |  0.020% | 
 | 246  | Mismagius          |  0.00515% | 57     |  0.059% | 43     |  0.056% | 
 | 247  | Farfetch'd         |  0.00448% | 8      |  0.008% | 6      |  0.008% | 
 | 248  | Swalot             |  0.00442% | 10     |  0.010% | 5      |  0.007% | 
 | 249  | Throh              |  0.00423% | 17     |  0.018% | 8      |  0.010% | 
 | 250  | Meowstic           |  0.00421% | 67     |  0.070% | 52     |  0.068% | 
 | 251  | Claydol            |  0.00404% | 141    |  0.147% | 118    |  0.154% | 
 | 252  | Stoutland          |  0.00397% | 90     |  0.094% | 67     |  0.088% | 
 | 253  | Jynx               |  0.00378% | 63     |  0.066% | 46     |  0.060% | 
 | 254  | Zangoose           |  0.00341% | 110    |  0.115% | 83     |  0.108% | 
 | 255  | Blastoise          |  0.00341% | 258    |  0.269% | 207    |  0.271% | 
 | 256  | Glaceon            |  0.00333% | 75     |  0.078% | 50     |  0.065% | 
 | 257  | Exploud            |  0.00327% | 128    |  0.133% | 106    |  0.139% | 
 | 258  | Miltank            |  0.00305% | 123    |  0.128% | 96     |  0.125% | 
 | 259  | Gabite             |  0.00293% | 12     |  0.012% | 6      |  0.008% | 
 | 260  | Vileplume          |  0.00290% | 41     |  0.043% | 31     |  0.041% | 
 | 261  | Absol              |  0.00283% | 116    |  0.121% | 66     |  0.086% | 
 | 262  | Magmortar          |  0.00266% | 154    |  0.160% | 115    |  0.150% | 
 | 263  | Frogadier          |  0.00258% | 44     |  0.046% | 33     |  0.043% | 
 | 264  | Nosepass           |  0.00255% | 31     |  0.032% | 28     |  0.037% | 
 | 265  | Swellow            |  0.00244% | 135    |  0.141% | 91     |  0.119% | 
 | 266  | Combusken          |  0.00241% | 38     |  0.040% | 28     |  0.037% | 
 | 267  | Flareon            |  0.00225% | 123    |  0.128% | 93     |  0.122% | 
 | 268  | Shiftry            |  0.00225% | 75     |  0.078% | 55     |  0.072% | 
 | 269  | Octillery          |  0.00221% | 57     |  0.059% | 39     |  0.051% | 
 | 270  | Scrafty            |  0.00220% | 278    |  0.289% | 215    |  0.281% | 
 | 271  | Dunsparce          |  0.00213% | 11     |  0.011% | 9      |  0.012% | 
 | 272  | Torterra           |  0.00212% | 120    |  0.125% | 90     |  0.118% | 
 | 273  | Magcargo           |  0.00207% | 25     |  0.026% | 21     |  0.027% | 
 | 274  | Walrein            |  0.00205% | 52     |  0.054% | 43     |  0.056% | 
 | 275  | Steelix-Mega       |  0.00184% | 118    |  0.123% | 96     |  0.125% | 
 | 276  | Probopass          |  0.00184% | 62     |  0.065% | 57     |  0.074% | 
 | 277  | Zebstrika          |  0.00167% | 54     |  0.056% | 44     |  0.058% | 
 | 278  | Gigalith           |  0.00155% | 90     |  0.094% | 78     |  0.102% | 
 | 279  | Clawitzer          |  0.00154% | 114    |  0.119% | 89     |  0.116% | 
 | 280  | Spiritomb          |  0.00135% | 153    |  0.159% | 130    |  0.170% | 
 | 281  | Audino             |  0.00130% | 20     |  0.021% | 12     |  0.016% | 
 | 282  | Delphox            |  0.00128% | 228    |  0.237% | 164    |  0.214% | 
 | 283  | Raticate           |  0.00126% | 41     |  0.043% | 29     |  0.038% | 
 | 284  | Venomoth           |  0.00121% | 51     |  0.053% | 33     |  0.043% | 
 | 285  | Barbaracle         |  0.00117% | 73     |  0.076% | 58     |  0.076% | 
 | 286  | Muk                |  0.00115% | 148    |  0.154% | 111    |  0.145% | 
 | 287  | Scyther            |  0.00114% | 73     |  0.076% | 50     |  0.065% | 
 | 288  | Articuno           |  0.00107% | 141    |  0.147% | 111    |  0.145% | 
 | 289  | Audino-Mega        |  0.00101% | 48     |  0.050% | 32     |  0.042% | 
 | 290  | Ledian             |  0.00094% | 16     |  0.017% | 15     |  0.020% | 
 | 291  | Gligar             |  0.00094% | 61     |  0.064% | 52     |  0.068% | 
 | 292  | Houndoom           |  0.00089% | 116    |  0.121% | 87     |  0.114% | 
 | 293  | Mantine            |  0.00088% | 24     |  0.025% | 20     |  0.026% | 
 | 294  | Pelipper           |  0.00085% | 20     |  0.021% | 16     |  0.021% | 
 | 295  | Primeape           |  0.00084% | 50     |  0.052% | 40     |  0.052% | 
 | 296  | Liepard            |  0.00083% | 78     |  0.081% | 61     |  0.080% | 
 | 297  | Victreebel         |  0.00083% | 44     |  0.046% | 34     |  0.044% | 
 | 298  | Gogoat             |  0.00081% | 51     |  0.053% | 44     |  0.058% | 
 | 299  | Piloswine          |  0.00079% | 35     |  0.036% | 31     |  0.041% | 
 | 300  | Tauros             |  0.00074% | 67     |  0.070% | 48     |  0.063% | 
 | 301  | Maractus           |  0.00072% | 20     |  0.021% | 11     |  0.014% | 
 | 302  | Combee             |  0.00070% | 3      |  0.003% | 3      |  0.004% | 
 | 303  | Ursaring           |  0.00065% | 56     |  0.058% | 39     |  0.051% | 
 | 304  | Gallade            |  0.00064% | 171    |  0.178% | 125    |  0.163% | 
 | 305  | Trevenant          |  0.00061% | 195    |  0.203% | 152    |  0.199% | 
 | 306  | Beedrill           |  0.00057% | 9      |  0.009% | 9      |  0.012% | 
 | 307  | Electrode          |  0.00053% | 41     |  0.043% | 36     |  0.047% | 
 | 308  | Aurorus            |  0.00051% | 53     |  0.055% | 40     |  0.052% | 
 | 309  | Sceptile           |  0.00049% | 197    |  0.205% | 143    |  0.187% | 
 | 310  | Hypno              |  0.00048% | 27     |  0.028% | 19     |  0.025% | 
 | 311  | Aromatisse         |  0.00046% | 27     |  0.028% | 19     |  0.025% | 
 | 312  | Bibarel            |  0.00046% | 40     |  0.042% | 31     |  0.041% | 
 | 313  | Weezing            |  0.00045% | 142    |  0.148% | 109    |  0.142% | 
 | 314  | Wormadam-Trash     |  0.00044% | 8      |  0.008% | 7      |  0.009% | 
 | 315  | Golem              |  0.00042% | 144    |  0.150% | 120    |  0.157% | 
 | 316  | Dodrio             |  0.00042% | 21     |  0.022% | 9      |  0.012% | 
 | 317  | Volbeat            |  0.00038% | 13     |  0.014% | 12     |  0.016% | 
 | 318  | Beheeyem           |  0.00036% | 17     |  0.018% | 11     |  0.014% | 
 | 319  | Eevee              |  0.00031% | 24     |  0.025% | 18     |  0.024% | 
 | 320  | Beartic            |  0.00031% | 45     |  0.047% | 34     |  0.044% | 
 | 321  | Clefairy           |  0.00028% | 14     |  0.015% | 5      |  0.007% | 
 | 322  | Aggron             |  0.00028% | 137    |  0.143% | 99     |  0.129% | 
 | 323  | Charizard          |  0.00027% | 152    |  0.158% | 102    |  0.133% | 
 | 324  | Pumpkaboo          |  0.00027% | 4      |  0.004% | 3      |  0.004% | 
 | 325  | Hariyama           |  0.00026% | 69     |  0.072% | 51     |  0.067% | 
 | 326  | Lairon             |  0.00024% | 5      |  0.005% | 4      |  0.005% | 
 | 327  | Regice             |  0.00024% | 52     |  0.054% | 36     |  0.047% | 
 | 328  | Taillow            |  0.00024% | 12     |  0.012% | 9      |  0.012% | 
 | 329  | Vespiquen          |  0.00023% | 30     |  0.031% | 23     |  0.030% | 
 | 330  | Lapras             |  0.00022% | 254    |  0.264% | 199    |  0.260% | 
 | 331  | Skuntank           |  0.00021% | 51     |  0.053% | 47     |  0.061% | 
 | 332  | Sneasel            |  0.00019% | 27     |  0.028% | 18     |  0.024% | 
 | 333  | Whiscash           |  0.00018% | 22     |  0.023% | 17     |  0.022% | 
 | 334  | Rotom              |  0.00017% | 30     |  0.031% | 25     |  0.033% | 
 | 335  | Murkrow            |  0.00016% | 33     |  0.034% | 24     |  0.031% | 
 | 336  | Fletchinder        |  0.00016% | 15     |  0.016% | 12     |  0.016% | 
 | 337  | Luxray             |  0.00016% | 185    |  0.193% | 143    |  0.187% | 
 | 338  | Purugly            |  0.00015% | 18     |  0.019% | 15     |  0.020% | 
 | 339  | Garbodor           |  0.00013% | 66     |  0.069% | 54     |  0.071% | 
 | 340  | Swoobat            |  0.00013% | 20     |  0.021% | 13     |  0.017% | 
 | 341  | Kricketune         |  0.00012% | 29     |  0.030% | 23     |  0.030% | 
 | 342  | Vanilluxe          |  0.00011% | 12     |  0.012% | 12     |  0.016% | 
 | 343  | Carbink            |  0.00010% | 77     |  0.080% | 62     |  0.081% | 
 | 344  | Mesprit            |  0.00009% | 19     |  0.020% | 14     |  0.018% | 
 | 345  | Bouffalant         |  0.00009% | 58     |  0.060% | 47     |  0.061% | 
 | 346  | Dedenne            |  0.00008% | 55     |  0.057% | 47     |  0.061% | 
 | 347  | Golduck            |  0.00008% | 29     |  0.030% | 22     |  0.029% | 
 | 348  | Gorebyss           |  0.00008% | 32     |  0.033% | 26     |  0.034% | 
 | 349  | Torkoal            |  0.00008% | 93     |  0.097% | 75     |  0.098% | 
 | 350  | Bastiodon          |  0.00007% | 117    |  0.122% | 106    |  0.139% | 
 | 351  | Solrock            |  0.00007% | 13     |  0.014% | 12     |  0.016% | 
 | 352  | Rhydon             |  0.00006% | 99     |  0.103% | 81     |  0.106% | 
 | 353  | Steelix            |  0.00006% | 69     |  0.072% | 59     |  0.077% | 
 | 354  | Crustle            |  0.00006% | 26     |  0.027% | 20     |  0.026% | 
 | 355  | Haunter            |  0.00006% | 14     |  0.015% | 7      |  0.009% | 
 | 356  | Clamperl           |  0.00005% | 24     |  0.025% | 21     |  0.027% | 
 | 357  | Gourgeist          |  0.00005% | 45     |  0.047% | 39     |  0.051% | 
 | 358  | Lumineon           |  0.00005% | 15     |  0.016% | 11     |  0.014% | 
 | 359  | Regigigas          |  0.00005% | 55     |  0.057% | 46     |  0.060% | 
 | 360  | Leavanny           |  0.00005% | 53     |  0.055% | 40     |  0.052% | 
 | 361  | Wobbuffet          |  0.00005% | 29     |  0.030% | 21     |  0.027% | 
 | 362  | Emolga             |  0.00005% | 53     |  0.055% | 40     |  0.052% | 
 | 363  | Regirock           |  0.00004% | 61     |  0.064% | 51     |  0.067% | 
 | 364  | Leafeon            |  0.00004% | 116    |  0.121% | 79     |  0.103% | 
 | 365  | Meganium           |  0.00004% | 112    |  0.117% | 70     |  0.091% | 
 | 366  | Delibird           |  0.00002% | 10     |  0.010% | 7      |  0.009% | 
 | 367  | Lickilicky         |  0.00002% | 32     |  0.033% | 30     |  0.039% | 
 | 368  | Seviper            |  0.00002% | 7      |  0.007% | 6      |  0.008% | 
 | 369  | Arbok              |  0.00002% | 20     |  0.021% | 16     |  0.021% | 
 | 370  | Camerupt           |  0.00002% | 26     |  0.027% | 24     |  0.031% | 
 | 371  | Heatmor            |  0.00002% | 17     |  0.018% | 15     |  0.020% | 
 | 372  | Cryogonal          |  0.00002% | 153    |  0.159% | 138    |  0.180% | 
 | 373  | Sunflora           |  0.00002% | 21     |  0.022% | 19     |  0.025% | 
 | 374  | Ferroseed          |  0.00002% | 3      |  0.003% | 3      |  0.004% | 
 | 375  | Carracosta         |  0.00002% | 26     |  0.027% | 19     |  0.025% | 
 | 376  | Persian            |  0.00002% | 61     |  0.064% | 44     |  0.058% | 
 | 377  | Abomasnow          |  0.00002% | 30     |  0.031% | 24     |  0.031% | 
 | 378  | Mantyke            |  0.00001% | 7      |  0.007% | 6      |  0.008% | 
 | 379  | Vigoroth           |  0.00001% | 6      |  0.006% | 5      |  0.007% | 
 | 380  | Shieldon           |  0.00001% | 9      |  0.009% | 9      |  0.012% | 
 | 381  | Granbull           |  0.00001% | 87     |  0.091% | 71     |  0.093% | 
 | 382  | Mr. Mime           |  0.00001% | 37     |  0.039% | 26     |  0.034% | 
 | 383  | Wingull            |  0.00001% | 9      |  0.009% | 9      |  0.012% | 
 | 384  | Swanna             |  0.00001% | 20     |  0.021% | 17     |  0.022% | 
 | 385  | Floette            |  0.00001% | 6      |  0.006% | 6      |  0.008% | 
 | 386  | Magikarp           |  0.00001% | 15     |  0.016% | 15     |  0.020% | 
 | 387  | Munchlax           |  0.00001% | 11     |  0.011% | 10     |  0.013% | 
 | 388  | Spinda             |  0.00001% | 25     |  0.026% | 23     |  0.030% | 
 | 389  | Skiploom           |  0.00001% | 10     |  0.010% | 9      |  0.012% | 
 | 390  | Mawile             |  0.00001% | 17     |  0.018% | 15     |  0.020% | 
 | 391  | Diglett            |  0.00000% | 3      |  0.003% | 3      |  0.004% | 
 | 392  | Braviary           |  0.00000% | 42     |  0.044% | 32     |  0.042% | 
 | 393  | Magby              |  0.00000% | 8      |  0.008% | 7      |  0.009% | 
 | 394  | Mime Jr.           |  0.00000% | 2      |  0.002% | 2      |  0.003% | 
 | 395  | Riolu              |  0.00000% | 10     |  0.010% | 8      |  0.010% | 
 | 396  | Bonsly             |  0.00000% | 2      |  0.002% | 2      |  0.003% | 
 | 397  | Smoochum           |  0.00000% | 2      |  0.002% | 2      |  0.003% | 
 | 398  | Kingler            |  0.00000% | 48     |  0.050% | 34     |  0.044% | 
 | 399  | Magnemite          |  0.00000% | 21     |  0.022% | 13     |  0.017% | 
 | 400  | Qwilfish           |  0.00000% | 27     |  0.028% | 25     |  0.033% | 
 | 401  | Sudowoodo          |  0.00000% | 29     |  0.030% | 27     |  0.035% | 
 | 402  | Avalugg            |  0.00000% | 57     |  0.059% | 44     |  0.058% | 
 | 403  | Furfrou            |  0.00000% | 16     |  0.017% | 14     |  0.018% | 
 | 404  | Wormadam-Sandy     |  0.00000% | 9      |  0.009% | 9      |  0.012% | 
 | 405  | Golbat             |  0.00000% | 26     |  0.027% | 21     |  0.027% | 
 | 406  | Chimecho           |  0.00000% | 6      |  0.006% | 5      |  0.007% | 
 | 407  | Tangela            |  0.00000% | 19     |  0.020% | 17     |  0.022% | 
 | 408  | Cherrim            |  0.00000% | 6      |  0.006% | 2      |  0.003% | 
 | 409  | Ariados            |  0.00000% | 13     |  0.014% | 9      |  0.012% | 
 | 410  | Wynaut             |  0.00000% | 1      |  0.001% | 1      |  0.001% | 
 | 411  | Manectric          |  0.00000% | 55     |  0.057% | 39     |  0.051% | 
 | 412  | Ampharos           |  0.00000% | 53     |  0.055% | 40     |  0.052% | 
 | 413  | Unfezant           |  0.00000% | 38     |  0.040% | 29     |  0.038% | 
 | 414  | Masquerain         |  0.00000% | 15     |  0.016% | 13     |  0.017% | 
 | 415  | Vulpix             |  0.00000% | 29     |  0.030% | 16     |  0.021% | 
 | 416  | Rapidash           |  0.00000% | 28     |  0.029% | 22     |  0.029% | 
 | 417  | Rattata            |  0.00000% | 38     |  0.040% | 34     |  0.044% | 
 | 418  | Shellos            |  0.00000% | 6      |  0.006% | 6      |  0.008% | 
 | 419  | Machoke            |  0.00000% | 9      |  0.009% | 7      |  0.009% | 
 | 420  | Pachirisu          |  0.00000% | 13     |  0.014% | 11     |  0.014% | 
 | 421  | Floatzel           |  0.00000% | 45     |  0.047% | 33     |  0.043% | 
 | 422  | Cacturne           |  0.00000% | 48     |  0.050% | 38     |  0.050% | 
 | 423  | Basculin           |  0.00000% | 7      |  0.007% | 7      |  0.009% | 
 | 424  | Klinklang          |  0.00000% | 15     |  0.016% | 7      |  0.009% | 
 | 425  | Altaria            |  0.00000% | 17     |  0.018% | 13     |  0.017% | 
 | 426  | Noctowl            |  0.00000% | 43     |  0.045% | 38     |  0.050% | 
 | 427  | Armaldo            |  0.00000% | 58     |  0.060% | 39     |  0.051% | 
 | 428  | Slakoth            |  0.00000% | 1      |  0.001% | 1      |  0.001% | 
 | 429  | Jigglypuff         |  0.00000% | 5      |  0.005% | 2      |  0.003% | 
 | 430  | Carnivine          |  0.00000% | 3      |  0.003% | 1      |  0.001% | 
 | 431  | Beautifly          |  0.00000% | 5      |  0.005% | 4      |  0.005% | 
 | 432  | Zorua              |  0.00000% | 2      |  0.002% | 1      |  0.001% | 
 | 433  | Gothitelle         |  0.00000% | 11     |  0.011% | 11     |  0.014% | 
 | 434  | Girafarig          |  0.00000% | 55     |  0.057% | 39     |  0.051% | 
 | 435  | Stantler           |  0.00000% | 3      |  0.003% | 3      |  0.004% | 
 | 436  | Lunatone           |  0.00000% | 6      |  0.006% | 5      |  0.007% | 
 | 437  | Wigglytuff         |  0.00000% | 37     |  0.039% | 32     |  0.042% | 
 | 438  | Bellossom          |  0.00000% | 7      |  0.007% | 4      |  0.005% | 
 | 439  | Graveler           |  0.00000% | 5      |  0.005% | 4      |  0.005% | 
 | 440  | Kangaskhan         |  0.00000% | 12     |  0.012% | 12     |  0.016% | 
 | 441  | Koffing            |  0.00000% | 2      |  0.002% | 2      |  0.003% | 
 | 442  | Grovyle            |  0.00000% | 7      |  0.007% | 2      |  0.003% | 
 | 443  | Bagon              |  0.00000% | 6      |  0.006% | 5      |  0.007% | 
 | 444  | Axew               |  0.00000% | 3      |  0.003% | 3      |  0.004% | 
 | 445  | Pidgeot            |  0.00000% | 98     |  0.102% | 77     |  0.101% | 
 | 446  | Furret             |  0.00000% | 8      |  0.008% | 7      |  0.009% | 
 | 447  | Duosion            |  0.00000% | 3      |  0.003% | 2      |  0.003% | 
 | 448  | Butterfree         |  0.00000% | 22     |  0.023% | 18     |  0.024% | 
 | 449  | Azurill            |  0.00000% | 1      |  0.001% | 1      |  0.001% | 
 | 450  | Wailmer            |  0.00000% | 2      |  0.002% | 1      |  0.001% | 
 | 451  | Lillipup           |  0.00000% | 1      |  0.001% | 1      |  0.001% | 
 | 452  | Cleffa             |  0.00000% | 17     |  0.018% | 14     |  0.018% | 
 | 453  | Mankey             |  0.00000% | 2      |  0.002% | 1      |  0.001% | 
 | 454  | Kadabra            |  0.00000% | 4      |  0.004% | 4      |  0.005% | 
 | 455  | Skrelp             |  0.00000% | 1      |  0.001% | 1      |  0.001% | 
 | 456  | Huntail            |  0.00000% | 6      |  0.006% | 5      |  0.007% | 
 | 457  | Rufflet            |  0.00000% | 5      |  0.005% | 5      |  0.007% | 
 | 458  | Doduo              |  0.00000% | 2      |  0.002% | 0      |  0.000% | 
 | 459  | Pansage            |  0.00000% | 1      |  0.001% | 1      |  0.001% | 
 | 460  | Buizel             |  0.00000% | 9      |  0.009% | 6      |  0.008% | 
 | 461  | Whirlipede         |  0.00000% | 3      |  0.003% | 2      |  0.003% | 
 | 462  | Archen             |  0.00000% | 2      |  0.002% | 0      |  0.000% | 
 | 463  | Zubat              |  0.00000% | 1      |  0.001% | 1      |  0.001% | 
 | 464  | Totodile           |  0.00000% | 2      |  0.002% | 2      |  0.003% | 
 | 465  | Charmander         |  0.00000% | 6      |  0.006% | 5      |  0.007% | 
 | 466  | Makuhita           |  0.00000% | 1      |  0.001% | 1      |  0.001% | 
 | 467  | Vanillish          |  0.00000% | 2      |  0.002% | 1      |  0.001% | 
 | 468  | Zweilous           |  0.00000% | 10     |  0.010% | 4      |  0.005% | 
 | 469  | Aipom              |  0.00000% | 1      |  0.001% | 1      |  0.001% | 
 | 470  | Yanma              |  0.00000% | 4      |  0.004% | 3      |  0.004% | 
 | 471  | Meowth             |  0.00000% | 1      |  0.001% | 1      |  0.001% | 
 | 472  | Kirlia             |  0.00000% | 3      |  0.003% | 3      |  0.004% | 
 | 473  | Metang             |  0.00000% | 1      |  0.001% | 1      |  0.001% | 
 | 474  | Simipour           |  0.00000% | 1      |  0.001% | 1      |  0.001% | 
 | 475  | Weepinbell         |  0.00000% | 3      |  0.003% | 2      |  0.003% | 
 | 476  | NidoranM           |  0.00000% | 2      |  0.002% | 1      |  0.001% | 
 | 477  | Gourgeist-Small    |  0.00000% | 5      |  0.005% | 4      |  0.005% | 
 | 478  | Electabuzz         |  0.00000% | 3      |  0.003% | 3      |  0.004% | 
 | 479  | Treecko            |  0.00000% | 3      |  0.003% | 1      |  0.001% | 
 | 480  | Fletchling         |  0.00000% | 3      |  0.003% | 2      |  0.003% | 
 | 481  | Phanpy             |  0.00000% | 1      |  0.001% | 1      |  0.001% | 
 | 482  | Glalie             |  0.00000% | 6      |  0.006% | 4      |  0.005% | 
 | 483  | Prinplup           |  0.00000% | 1      |  0.001% | 0      |  0.000% | 
 | 484  | Tympole            |  0.00000% | 1      |  0.001% | 1      |  0.001% | 
 | 485  | Omanyte            |  0.00000% | 1      |  0.001% | 1      |  0.001% | 
 | 486  | Slowpoke           |  0.00000% | 1      |  0.001% | 1      |  0.001% | 
 | 487  | Parasect           |  0.00000% | 7      |  0.007% | 4      |  0.005% | 
 | 488  | Minun              |  0.00000% | 6      |  0.006% | 6      |  0.008% | 
 | 489  | Mudkip             |  0.00000% | 1      |  0.001% | 1      |  0.001% | 
 | 490  | Tepig              |  0.00000% | 1      |  0.001% | 1      |  0.001% | 
 | 491  | Marill             |  0.00000% | 1      |  0.001% | 1      |  0.001% | 
 | 492  | Bulbasaur          |  0.00000% | 13     |  0.014% | 9      |  0.012% | 
 | 493  | Abra               |  0.00000% | 1      |  0.001% | 0      |  0.000% | 
 | 494  | Ralts              |  0.00000% | 5      |  0.005% | 2      |  0.003% | 
 | 495  | Boldore            |  0.00000% | 5      |  0.005% | 1      |  0.001% | 
 | 496  | Wartortle          |  0.00000% | 9      |  0.009% | 3      |  0.004% | 
 | 497  | Pignite            |  0.00000% | 13     |  0.014% | 7      |  0.009% | 
 | 498  | Pidgeotto          |  0.00000% | 3      |  0.003% | 2      |  0.003% | 
 | 499  | Chikorita          |  0.00000% | 3      |  0.003% | 3      |  0.004% | 
 | 500  | Togetic            |  0.00000% | 29     |  0.030% | 23     |  0.030% | 
 | 501  | Duskull            |  0.00000% | 2      |  0.002% | 2      |  0.003% | 
 | 502  | Luvdisc            |  0.00000% | 1      |  0.001% | 0      |  0.000% | 
 | 503  | Dragonair          |  0.00000% | 12     |  0.012% | 8      |  0.010% | 
 | 504  | Pinsir             |  0.00000% | 6      |  0.006% | 5      |  0.007% | 
 | 505  | Bayleef            |  0.00000% | 4      |  0.004% | 4      |  0.005% | 
 | 506  | Watchog            |  0.00000% | 2      |  0.002% | 2      |  0.003% | 
 | 507  | Quilava            |  0.00000% | 2      |  0.002% | 2      |  0.003% | 
 | 508  | Ivysaur            |  0.00000% | 1      |  0.001% | 1      |  0.001% | 
 | 509  | Onix               |  0.00000% | 11     |  0.011% | 10     |  0.013% | 
 | 510  | Dustox             |  0.00000% | 4      |  0.004% | 3      |  0.004% | 
 | 511  | Beldum             |  0.00000% | 1      |  0.001% | 1      |  0.001% | 
 | 512  | Shroomish          |  0.00000% | 2      |  0.002% | 2      |  0.003% | 
 | 513  | Larvitar           |  0.00000% | 2      |  0.002% | 0      |  0.000% | 
 | 514  | Lickitung          |  0.00000% | 3      |  0.003% | 1      |  0.001% | 
 | 515  | Pichu              |  0.00000% | 2      |  0.002% | 2      |  0.003% | 
 | 516  | Illumise           |  0.00000% | 7      |  0.007% | 2      |  0.003% | 
 | 517  | Seaking            |  0.00000% | 14     |  0.015% | 9      |  0.012% | 
 | 518  | Cyndaquil          |  0.00000% | 1      |  0.001% | 1      |  0.001% | 
 | 519  | Braixen            |  0.00000% | 2      |  0.002% | 1      |  0.001% | 
 | 520  | Starly             |  0.00000% | 5      |  0.005% | 2      |  0.003% | 
 | 521  | Rotom-Frost        |  0.00000% | 33     |  0.034% | 23     |  0.030% | 
 | 522  | Corsola            |  0.00000% | 15     |  0.016% | 14     |  0.018% | 
 | 523  | Plusle             |  0.00000% | 5      |  0.005% | 5      |  0.007% | 
 | 524  | Skorupi            |  0.00000% | 1      |  0.001% | 1      |  0.001% | 
 | 525  | Dratini            |  0.00000% | 1      |  0.001% | 0      |  0.000% | 
 | 526  | Pineco             |  0.00000% | 7      |  0.007% | 5      |  0.007% | 
 | 527  | Sandslash          |  0.00000% | 27     |  0.028% | 20     |  0.026% | 
 | 528  | Roselia            |  0.00000% | 3      |  0.003% | 2      |  0.003% | 
 | 529  | Banette            |  0.00000% | 4      |  0.004% | 4      |  0.005% | 
 | 530  | Servine            |  0.00000% | 3      |  0.003% | 3      |  0.004% | 
 | 531  | Squirtle           |  0.00000% | 13     |  0.014% | 9      |  0.012% | 
 | 532  | Woobat             |  0.00000% | 1      |  0.001% | 1      |  0.001% | 
 | 533  | Geodude            |  0.00000% | 18     |  0.019% | 12     |  0.016% | 
 | 534  | Relicanth          |  0.00000% | 18     |  0.019% | 14     |  0.018% | 
 | 535  | Grotle             |  0.00000% | 1      |  0.001% | 1      |  0.001% | 
 | 536  | Chimchar           |  0.00000% | 1      |  0.001% | 1      |  0.001% | 
 | 537  | Gible              |  0.00000% | 3      |  0.003% | 3      |  0.004% | 
 | 538  | Voltorb            |  0.00000% | 1      |  0.001% | 0      |  0.000% | 
 | 539  | Cottonee           |  0.00000% | 4      |  0.004% | 3      |  0.004% | 
 | 540  | Dewott             |  0.00000% | 4      |  0.004% | 3      |  0.004% | 
 | 541  | Gastly             |  0.00000% | 3      |  0.003% | 2      |  0.003% | 
 | 542  | Mothim             |  0.00000% | 1      |  0.001% | 0      |  0.000% | 
 | 543  | Tranquill          |  0.00000% | 2      |  0.002% | 1      |  0.001% | 
 | 544  | Solosis            |  0.00000% | 3      |  0.003% | 3      |  0.004% | 
 | 545  | Gurdurr            |  0.00000% | 6      |  0.006% | 2      |  0.003% | 
 | 546  | Timburr            |  0.00000% | 1      |  0.001% | 1      |  0.001% | 
 | 547  | Swinub             |  0.00000% | 1      |  0.001% | 1      |  0.001% | 
 | 548  | Bronzor            |  0.00000% | 6      |  0.006% | 5      |  0.007% | 
 | 549  | Pumpkaboo-Small    |  0.00000% | 1      |  0.001% | 1      |  0.001% | 
 | 550  | Kabuto             |  0.00000% | 1      |  0.001% | 1      |  0.001% | 
 | 551  | Trapinch           |  0.00000% | 1      |  0.001% | 1      |  0.001% | 
 | 552  | Minccino           |  0.00000% | 2      |  0.002% | 1      |  0.001% | 
 | 553  | Petilil            |  0.00000% | 1      |  0.001% | 1      |  0.001% | 
 | 554  | Honedge            |  0.00000% | 1      |  0.001% | 1      |  0.001% | 
 | 555  | Snover             |  0.00000% | 1      |  0.001% | 1      |  0.001% | 
 | 556  | Sliggoo            |  0.00000% | 1      |  0.001% | 1      |  0.001% | 
 | 557  | Unown              |  0.00000% | 5      |  0.005% | 3      |  0.004% | 
 | 558  | Delcatty           |  0.00000% | 9      |  0.009% | 7      |  0.009% | 
 | 559  | Growlithe          |  0.00000% | 2      |  0.002% | 2      |  0.003% | 
 | 560  | Lileep             |  0.00000% | 2      |  0.002% | 2      |  0.003% | 
 | 561  | Magmar             |  0.00000% | 9      |  0.009% | 6      |  0.008% | 
 | 562  | Charmeleon         |  0.00000% | 3      |  0.003% | 2      |  0.003% | 
 | 563  | Swadloon           |  0.00000% | 2      |  0.002% | 1      |  0.001% | 
 | 564  | Vullaby            |  0.00000% | 1      |  0.001% | 0      |  0.000% | 
 | 565  | Phione             |  0.00000% | 3      |  0.003% | 1      |  0.001% | 
 | 566  | Oshawott           |  0.00000% | 5      |  0.005% | 3      |  0.004% | 
 | 567  | Meditite           |  0.00000% | 9      |  0.009% | 8      |  0.010% | 
 | 568  | Yamask             |  0.00000% | 14     |  0.015% | 14     |  0.018% | 
 | 569  | Croconaw           |  0.00000% | 3      |  0.003% | 1      |  0.001% | 
 | 570  | Palpitoad          |  0.00000% | 1      |  0.001% | 1      |  0.001% | 
 | 571  | Happiny            |  0.00000% | 2      |  0.002% | 1      |  0.001% | 
 | 572  | Tyrunt             |  0.00000% | 1      |  0.001% | 1      |  0.001% | 
 | 573  | Litwick            |  0.00000% | 1      |  0.001% | 1      |  0.001% | 
 | 574  | Poliwag            |  0.00000% | 5      |  0.005% | 5      |  0.007% | 
 | 575  | Tynamo             |  0.00000% | 1      |  0.001% | 1      |  0.001% | 
 | 576  | Simisear           |  0.00000% | 9      |  0.009% | 7      |  0.009% | 
 | 577  | Castform           |  0.00000% | 11     |  0.011% | 10     |  0.013% | 
 | 578  | Fearow             |  0.00000% | 8      |  0.008% | 6      |  0.008% | 
 | 579  | Golett             |  0.00000% | 5      |  0.005% | 5      |  0.007% | 
 | 580  | Natu               |  0.00000% | 1      |  0.001% | 1      |  0.001% | 
 | 581  | Pupitar            |  0.00000% | 1      |  0.001% | 0      |  0.000% | 
 | 582  | Weedle             |  0.00000% | 2      |  0.002% | 2      |  0.003% | 
 | 583  | Seadra             |  0.00000% | 2      |  0.002% | 0      |  0.000% | 
 | 584  | Snivy              |  0.00000% | 6      |  0.006% | 5      |  0.007% | 
 | 585  | Caterpie           |  0.00000% | 2      |  0.002% | 2      |  0.003% | 
 | 586  | Dewgong            |  0.00000% | 5      |  0.005% | 2      |  0.003% | 
 | 587  | Cubone             |  0.00000% | 1      |  0.001% | 1      |  0.001% | 
 + ---- + ------------------ + --------- + ------ + ------- + ------ + ------- + 
