 Total battles: 23099
 Avg. weight/team: 1.0
 + ---- + ------------------ + --------- + ------ + ------- + ------ + ------- + 
 | Rank | Pokemon            | Usage %   | Raw    | %       | Real   | %       | 
 + ---- + ------------------ + --------- + ------ + ------- + ------ + ------- + 
 | 1    | Azumarill          | 35.74309% | 16513  | 35.744% | 12150  | 35.189% | 
 | 2    | Talonflame         | 27.72856% | 12810  | 27.728% | 9426   | 27.300% | 
 | 3    | Doublade           | 21.49707% | 9931   | 21.497% | 7719   | 22.356% | 
 | 4    | Metagross-Mega     | 17.71544% | 8184   | 17.715% | 6277   | 18.180% | 
 | 5    | Weavile            | 15.81972% | 7309   | 15.821% | 5125   | 14.843% | 
 | 6    | Lopunny-Mega       | 15.10055% | 6976   | 15.100% | 5693   | 16.488% | 
 | 7    | Pinsir-Mega        | 14.82780% | 6850   | 14.827% | 4966   | 14.383% | 
 | 8    | Tyranitar          | 13.97111% | 6455   | 13.972% | 4796   | 13.890% | 
 | 9    | Rotom-Wash         | 13.00301% | 6007   | 13.003% | 4958   | 14.359% | 
 | 10   | Lucario            | 10.73879% | 4961   | 10.739% | 3548   | 10.276% | 
 | 11   | Landorus-Therian   | 10.10455% | 4668   | 10.104% | 4059   | 11.756% | 
 | 12   | Crawdaunt          | 10.01364% | 4626   | 10.013% | 3445   |  9.977% | 
 | 13   | Zapdos             |  9.49196% | 4385   |  9.492% | 3549   | 10.279% | 
 | 14   | Diggersby          |  8.52220% | 3937   |  8.522% | 2815   |  8.153% | 
 | 15   | Beedrill-Mega      |  8.38150% | 3873   |  8.383% | 2685   |  7.776% | 
 | 16   | Klefki             |  7.82302% | 3614   |  7.823% | 2968   |  8.596% | 
 | 17   | Infernape          |  7.61305% | 3517   |  7.613% | 2779   |  8.049% | 
 | 18   | Zangoose           |  7.53296% | 3480   |  7.533% | 2482   |  7.188% | 
 | 19   | Skarmory           |  7.25372% | 3351   |  7.254% | 2825   |  8.182% | 
 | 20   | Breloom            |  7.24455% | 3347   |  7.245% | 2496   |  7.229% | 
 | 21   | Scizor             |  7.19744% | 3325   |  7.197% | 2572   |  7.449% | 
 | 22   | Conkeldurr         |  6.84893% | 3164   |  6.849% | 2335   |  6.763% | 
 | 23   | Heatran            |  6.77317% | 3129   |  6.773% | 2498   |  7.235% | 
 | 24   | Excadrill          |  6.60865% | 3053   |  6.609% | 2095   |  6.068% | 
 | 25   | Dragonite          |  6.43332% | 2972   |  6.433% | 2129   |  6.166% | 
 | 26   | Metagross          |  6.37869% | 2947   |  6.379% | 2200   |  6.372% | 
 | 27   | Volcanion          |  6.33158% | 2925   |  6.331% | 2273   |  6.583% | 
 | 28   | Bisharp            |  5.60426% | 2589   |  5.604% | 1872   |  5.422% | 
 | 29   | Gengar             |  5.52417% | 2552   |  5.524% | 1762   |  5.103% | 
 | 30   | Keldeo             |  5.37315% | 2483   |  5.375% | 1690   |  4.895% | 
 | 31   | Garchomp           |  5.37048% | 2481   |  5.370% | 2108   |  6.105% | 
 | 32   | Ferrothorn         |  5.24709% | 2424   |  5.247% | 2090   |  6.053% | 
 | 33   | Jirachi            |  5.22112% | 2412   |  5.221% | 1767   |  5.118% | 
 | 34   | Magnezone          |  4.81417% | 2224   |  4.814% | 1693   |  4.903% | 
 | 35   | Tangrowth          |  4.56956% | 2111   |  4.569% | 1650   |  4.779% | 
 | 36   | Sylveon            |  4.37691% | 2022   |  4.377% | 1321   |  3.826% | 
 | 37   | Ditto              |  4.25352% | 1965   |  4.253% | 1405   |  4.069% | 
 | 38   | Heliolisk          |  4.22322% | 1951   |  4.223% | 1473   |  4.266% | 
 | 39   | Mamoswine          |  4.17560% | 1929   |  4.176% | 1598   |  4.628% | 
 | 40   | Latios             |  4.02191% | 1858   |  4.022% | 1205   |  3.490% | 
 | 41   | Gliscor            |  3.86822% | 1787   |  3.868% | 1363   |  3.948% | 
 | 42   | Scizor-Mega        |  3.78163% | 1747   |  3.782% | 1360   |  3.939% | 
 | 43   | Mew                |  3.48291% | 1609   |  3.483% | 1228   |  3.557% | 
 | 44   | Medicham-Mega      |  3.46343% | 1600   |  3.463% | 1322   |  3.829% | 
 | 45   | Togekiss           |  3.45261% | 1595   |  3.453% | 1135   |  3.287% | 
 | 46   | Slowbro            |  3.36385% | 1554   |  3.364% | 1216   |  3.522% | 
 | 47   | Serperior          |  3.27727% | 1514   |  3.277% | 1037   |  3.003% | 
 | 48   | Amoonguss          |  3.23398% | 1494   |  3.234% | 1114   |  3.226% | 
 | 49   | Banette-Mega       |  3.20584% | 1481   |  3.206% | 1185   |  3.432% | 
 | 50   | Cloyster           |  3.09760% | 1431   |  3.098% | 1012   |  2.931% | 
 | 51   | Ambipom            |  2.86599% | 1324   |  2.866% | 1114   |  3.226% | 
 | 52   | Thundurus          |  2.75126% | 1271   |  2.751% | 951    |  2.754% | 
 | 53   | Magneton           |  2.66251% | 1230   |  2.662% | 981    |  2.841% | 
 | 54   | Diancie-Mega       |  2.66035% | 1229   |  2.660% | 967    |  2.801% | 
 | 55   | Charizard-Mega-X   |  2.65169% | 1225   |  2.652% | 945    |  2.737% | 
 | 56   | Clefable           |  2.63437% | 1217   |  2.634% | 848    |  2.456% | 
 | 57   | Raichu             |  2.62571% | 1213   |  2.626% | 974    |  2.821% | 
 | 58   | Raikou             |  2.48501% | 1148   |  2.485% | 815    |  2.360% | 
 | 59   | Latias             |  2.40708% | 1112   |  2.407% | 736    |  2.132% | 
 | 60   | Tentacruel         |  2.36812% | 1094   |  2.368% | 836    |  2.421% | 
 | 61   | Gardevoir-Mega     |  2.22309% | 1027   |  2.223% | 680    |  1.969% | 
 | 62   | Gardevoir          |  2.21010% | 1021   |  2.210% | 650    |  1.883% | 
 | 63   | Starmie            |  2.12135% | 980    |  2.121% | 659    |  1.909% | 
 | 64   | Jellicent          |  2.10403% | 972    |  2.104% | 732    |  2.120% | 
 | 65   | Blastoise-Mega     |  2.07156% | 957    |  2.072% | 756    |  2.190% | 
 | 66   | Chansey            |  2.05641% | 950    |  2.056% | 658    |  1.906% | 
 | 67   | Regirock           |  2.02394% | 935    |  2.024% | 683    |  1.978% | 
 | 68   | Krookodile         |  1.88757% | 872    |  1.888% | 684    |  1.981% | 
 | 69   | Heracross-Mega     |  1.87891% | 868    |  1.879% | 646    |  1.871% | 
 | 70   | Azelf              |  1.85943% | 859    |  1.859% | 733    |  2.123% | 
 | 71   | Arcanine           |  1.81397% | 838    |  1.814% | 708    |  2.051% | 
 | 72   | Goodra             |  1.71656% | 793    |  1.717% | 574    |  1.662% | 
 | 73   | Alakazam           |  1.67110% | 772    |  1.671% | 510    |  1.477% | 
 | 74   | Porygon-Z          |  1.65379% | 764    |  1.654% | 508    |  1.471% | 
 | 75   | Manectric-Mega     |  1.64513% | 760    |  1.645% | 616    |  1.784% | 
 | 76   | Jolteon            |  1.63647% | 756    |  1.636% | 579    |  1.677% | 
 | 77   | Volcarona          |  1.63214% | 754    |  1.632% | 518    |  1.500% | 
 | 78   | Hawlucha           |  1.61049% | 744    |  1.610% | 539    |  1.561% | 
 | 79   | Quagsire           |  1.57586% | 728    |  1.576% | 574    |  1.662% | 
 | 80   | Thundurus-Therian  |  1.53690% | 710    |  1.537% | 543    |  1.573% | 
 | 81   | Pikachu            |  1.53257% | 708    |  1.533% | 531    |  1.538% | 
 | 82   | Chesnaught         |  1.52824% | 706    |  1.528% | 519    |  1.503% | 
 | 83   | Cofagrigus         |  1.50876% | 697    |  1.509% | 582    |  1.686% | 
 | 84   | Forretress         |  1.44382% | 667    |  1.444% | 592    |  1.715% | 
 | 85   | Galvantula         |  1.37455% | 635    |  1.375% | 558    |  1.616% | 
 | 86   | Manaphy            |  1.30095% | 601    |  1.301% | 431    |  1.248% | 
 | 87   | Mienshao           |  1.25333% | 579    |  1.253% | 454    |  1.315% | 
 | 88   | Kabutops           |  1.23601% | 571    |  1.236% | 408    |  1.182% | 
 | 89   | Salamence          |  1.23601% | 571    |  1.236% | 439    |  1.271% | 
 | 90   | Sableye-Mega       |  1.23385% | 570    |  1.234% | 508    |  1.471% | 
 | 91   | Charizard-Mega-Y   |  1.21869% | 563    |  1.219% | 438    |  1.269% | 
 | 92   | Shuckle            |  1.20787% | 558    |  1.208% | 496    |  1.437% | 
 | 93   | Donphan            |  1.19272% | 551    |  1.193% | 471    |  1.364% | 
 | 94   | Tornadus-Therian   |  1.17540% | 543    |  1.175% | 397    |  1.150% | 
 | 95   | Crobat             |  1.16891% | 540    |  1.169% | 402    |  1.164% | 
 | 96   | Froslass           |  1.16458% | 538    |  1.165% | 425    |  1.231% | 
 | 97   | Venusaur-Mega      |  1.16241% | 537    |  1.162% | 400    |  1.158% | 
 | 98   | Sceptile-Mega      |  1.14077% | 527    |  1.141% | 385    |  1.115% | 
 | 99   | Staraptor          |  1.14077% | 527    |  1.141% | 381    |  1.103% | 
 | 100  | Kyurem-Black       |  1.12561% | 520    |  1.126% | 382    |  1.106% | 
 | 101  | Gallade-Mega       |  1.09964% | 508    |  1.100% | 380    |  1.101% | 
 | 102  | Shedinja           |  1.09747% | 507    |  1.097% | 389    |  1.127% | 
 | 103  | Hippowdon          |  1.06500% | 492    |  1.065% | 412    |  1.193% | 
 | 104  | Avalugg            |  1.03037% | 476    |  1.030% | 333    |  0.964% | 
 | 105  | Hitmonlee          |  1.02821% | 475    |  1.028% | 367    |  1.063% | 
 | 106  | Nidoking           |  1.02171% | 472    |  1.022% | 349    |  1.011% | 
 | 107  | Gastrodon          |  1.01305% | 468    |  1.013% | 381    |  1.103% | 
 | 108  | Dugtrio            |  0.96492% | 446    |  0.965% | 357    |  1.034% | 
 | 109  | Swellow            |  0.95461% | 441    |  0.955% | 319    |  0.924% | 
 | 110  | Espeon             |  0.95244% | 440    |  0.952% | 297    |  0.860% | 
 | 111  | Aerodactyl-Mega    |  0.94811% | 438    |  0.948% | 312    |  0.904% | 
 | 112  | Porygon2           |  0.94595% | 437    |  0.946% | 320    |  0.927% | 
 | 113  | Slowbro-Mega       |  0.92647% | 428    |  0.926% | 327    |  0.947% | 
 | 114  | Audino-Mega        |  0.91781% | 424    |  0.918% | 304    |  0.880% | 
 | 115  | Machamp            |  0.91131% | 421    |  0.911% | 309    |  0.895% | 
 | 116  | Entei              |  0.89833% | 415    |  0.898% | 314    |  0.909% | 
 | 117  | Vaporeon           |  0.89400% | 413    |  0.894% | 324    |  0.938% | 
 | 118  | Altaria-Mega       |  0.88967% | 411    |  0.890% | 300    |  0.869% | 
 | 119  | Clawitzer          |  0.87452% | 404    |  0.874% | 327    |  0.947% | 
 | 120  | Pidgeot-Mega       |  0.87452% | 404    |  0.874% | 274    |  0.794% | 
 | 121  | Scolipede          |  0.86153% | 398    |  0.862% | 289    |  0.837% | 
 | 122  | Escavalier         |  0.82256% | 380    |  0.823% | 298    |  0.863% | 
 | 123  | Suicune            |  0.82040% | 379    |  0.820% | 267    |  0.773% | 
 | 124  | Chatot             |  0.81823% | 378    |  0.818% | 274    |  0.794% | 
 | 125  | Slurpuff           |  0.81607% | 377    |  0.816% | 259    |  0.750% | 
 | 126  | Chandelure         |  0.81174% | 375    |  0.812% | 286    |  0.828% | 
 | 127  | Glaceon            |  0.80958% | 374    |  0.810% | 259    |  0.750% | 
 | 128  | Heracross          |  0.80741% | 373    |  0.807% | 255    |  0.739% | 
 | 129  | Toxicroak          |  0.79226% | 366    |  0.792% | 280    |  0.811% | 
 | 130  | Umbreon            |  0.77711% | 359    |  0.777% | 271    |  0.785% | 
 | 131  | Victini            |  0.76412% | 353    |  0.764% | 269    |  0.779% | 
 | 132  | Spiritomb          |  0.76195% | 352    |  0.762% | 278    |  0.805% | 
 | 133  | Rhyperior          |  0.74031% | 342    |  0.740% | 276    |  0.799% | 
 | 134  | Milotic            |  0.73598% | 340    |  0.736% | 259    |  0.750% | 
 | 135  | Sharpedo-Mega      |  0.73165% | 338    |  0.732% | 271    |  0.785% | 
 | 136  | Kecleon            |  0.71382% | 330    |  0.714% | 277    |  0.802% | 
 | 137  | Aerodactyl         |  0.70784% | 327    |  0.708% | 256    |  0.741% | 
 | 138  | Feraligatr         |  0.70351% | 325    |  0.703% | 248    |  0.718% | 
 | 139  | Absol-Mega         |  0.69485% | 321    |  0.695% | 247    |  0.715% | 
 | 140  | Accelgor           |  0.69052% | 319    |  0.691% | 218    |  0.631% | 
 | 141  | Empoleon           |  0.67753% | 313    |  0.678% | 257    |  0.744% | 
 | 142  | Carracosta         |  0.67104% | 310    |  0.671% | 227    |  0.657% | 
 | 143  | Cinccino           |  0.67104% | 310    |  0.671% | 246    |  0.712% | 
 | 144  | Hydreigon          |  0.64723% | 299    |  0.647% | 205    |  0.594% | 
 | 145  | Aggron-Mega        |  0.62775% | 290    |  0.628% | 232    |  0.672% | 
 | 146  | Kangaskhan         |  0.61259% | 283    |  0.613% | 223    |  0.646% | 
 | 147  | Roserade           |  0.60877% | 282    |  0.610% | 200    |  0.579% | 
 | 148  | Sableye            |  0.60826% | 281    |  0.608% | 211    |  0.611% | 
 | 149  | Dusclops           |  0.60610% | 280    |  0.606% | 227    |  0.657% | 
 | 150  | Mandibuzz          |  0.60177% | 278    |  0.602% | 218    |  0.631% | 
 | 151  | Seismitoad         |  0.59961% | 277    |  0.600% | 235    |  0.681% | 
 | 152  | Tyranitar-Mega     |  0.58662% | 271    |  0.587% | 195    |  0.565% | 
 | 153  | Garchomp-Mega      |  0.57579% | 266    |  0.576% | 198    |  0.573% | 
 | 154  | Zoroark            |  0.54549% | 252    |  0.545% | 128    |  0.371% | 
 | 155  | Sigilyph           |  0.54333% | 251    |  0.543% | 183    |  0.530% | 
 | 156  | Aggron             |  0.54116% | 250    |  0.541% | 198    |  0.573% | 
 | 157  | Cresselia          |  0.53467% | 247    |  0.535% | 181    |  0.524% | 
 | 158  | Jynx               |  0.53467% | 247    |  0.535% | 164    |  0.475% | 
 | 159  | Linoone            |  0.53250% | 246    |  0.532% | 169    |  0.489% | 
 | 160  | Ninjask            |  0.52601% | 243    |  0.526% | 185    |  0.536% | 
 | 161  | Snorlax            |  0.52384% | 242    |  0.524% | 191    |  0.553% | 
 | 162  | Exeggutor          |  0.52384% | 242    |  0.524% | 200    |  0.579% | 
 | 163  | Drapion            |  0.52384% | 242    |  0.524% | 194    |  0.562% | 
 | 164  | Swampert           |  0.51735% | 239    |  0.517% | 200    |  0.579% | 
 | 165  | Rotom-Heat         |  0.51302% | 237    |  0.513% | 206    |  0.597% | 
 | 166  | Blissey            |  0.49570% | 229    |  0.496% | 158    |  0.458% | 
 | 167  | Latias-Mega        |  0.48921% | 226    |  0.489% | 172    |  0.498% | 
 | 168  | Terrakion          |  0.46756% | 216    |  0.468% | 144    |  0.417% | 
 | 169  | Celebi             |  0.46323% | 214    |  0.463% | 155    |  0.449% | 
 | 170  | Politoed           |  0.46107% | 213    |  0.461% | 187    |  0.542% | 
 | 171  | Alomomola          |  0.45674% | 211    |  0.457% | 170    |  0.492% | 
 | 172  | Dusknoir           |  0.45674% | 211    |  0.457% | 173    |  0.501% | 
 | 173  | Pangoro            |  0.45241% | 209    |  0.452% | 162    |  0.469% | 
 | 174  | Zygarde            |  0.44159% | 204    |  0.442% | 158    |  0.458% | 
 | 175  | Delphox            |  0.43942% | 203    |  0.439% | 144    |  0.417% | 
 | 176  | Cradily            |  0.43726% | 202    |  0.437% | 133    |  0.385% | 
 | 177  | Abomasnow-Mega     |  0.43293% | 200    |  0.433% | 135    |  0.391% | 
 | 178  | Hitmonchan         |  0.43076% | 199    |  0.431% | 165    |  0.478% | 
 | 179  | Eelektross         |  0.42643% | 197    |  0.426% | 157    |  0.455% | 
 | 180  | Sharpedo           |  0.42211% | 195    |  0.422% | 139    |  0.403% | 
 | 181  | Meloetta           |  0.41561% | 192    |  0.416% | 135    |  0.391% | 
 | 182  | Dedenne            |  0.41345% | 191    |  0.413% | 134    |  0.388% | 
 | 183  | Swampert-Mega      |  0.40046% | 185    |  0.400% | 153    |  0.443% | 
 | 184  | Steelix            |  0.38098% | 176    |  0.381% | 152    |  0.440% | 
 | 185  | Banette            |  0.38098% | 176    |  0.381% | 133    |  0.385% | 
 | 186  | Kingdra            |  0.37881% | 175    |  0.379% | 124    |  0.359% | 
 | 187  | Lapras             |  0.37448% | 173    |  0.374% | 138    |  0.400% | 
 | 188  | Whimsicott         |  0.36150% | 167    |  0.361% | 131    |  0.379% | 
 | 189  | Electivire         |  0.36150% | 167    |  0.361% | 117    |  0.339% | 
 | 190  | Walrein            |  0.35933% | 166    |  0.359% | 112    |  0.324% | 
 | 191  | Leavanny           |  0.35717% | 165    |  0.357% | 117    |  0.339% | 
 | 192  | Slaking            |  0.35500% | 164    |  0.355% | 120    |  0.348% | 
 | 193  | Ampharos-Mega      |  0.35284% | 163    |  0.353% | 117    |  0.339% | 
 | 194  | Flareon            |  0.35067% | 162    |  0.351% | 134    |  0.388% | 
 | 195  | Golem              |  0.34851% | 161    |  0.348% | 130    |  0.377% | 
 | 196  | Muk                |  0.34418% | 159    |  0.344% | 108    |  0.313% | 
 | 197  | Smeargle           |  0.33985% | 157    |  0.340% | 137    |  0.397% | 
 | 198  | Aurorus            |  0.33552% | 155    |  0.336% | 106    |  0.307% | 
 | 199  | Haxorus            |  0.33335% | 154    |  0.333% | 110    |  0.319% | 
 | 200  | Flygon             |  0.32903% | 152    |  0.329% | 103    |  0.298% | 
 | 201  | Medicham           |  0.31604% | 146    |  0.316% | 103    |  0.298% | 
 | 202  | Hitmontop          |  0.31387% | 145    |  0.314% | 108    |  0.313% | 
 | 203  | Emolga             |  0.30089% | 139    |  0.301% | 114    |  0.330% | 
 | 204  | Yanmega            |  0.30089% | 139    |  0.301% | 98     |  0.284% | 
 | 205  | Steelix-Mega       |  0.30089% | 139    |  0.301% | 126    |  0.365% | 
 | 206  | Noivern            |  0.29872% | 138    |  0.299% | 99     |  0.287% | 
 | 207  | Latios-Mega        |  0.29872% | 138    |  0.299% | 91     |  0.264% | 
 | 208  | Gallade            |  0.29872% | 138    |  0.299% | 89     |  0.258% | 
 | 209  | Floatzel           |  0.29439% | 136    |  0.294% | 101    |  0.293% | 
 | 210  | Claydol            |  0.29439% | 136    |  0.294% | 107    |  0.310% | 
 | 211  | Ninetales          |  0.29439% | 136    |  0.294% | 117    |  0.339% | 
 | 212  | Alakazam-Mega      |  0.29439% | 136    |  0.294% | 112    |  0.324% | 
 | 213  | Darmanitan         |  0.29006% | 134    |  0.290% | 95     |  0.275% | 
 | 214  | Throh              |  0.29006% | 134    |  0.290% | 94     |  0.272% | 
 | 215  | Pinsir             |  0.28790% | 133    |  0.288% | 99     |  0.287% | 
 | 216  | Gyarados-Mega      |  0.28790% | 133    |  0.288% | 105    |  0.304% | 
 | 217  | Ursaring           |  0.28573% | 132    |  0.286% | 90     |  0.261% | 
 | 218  | Absol              |  0.28357% | 131    |  0.284% | 94     |  0.272% | 
 | 219  | Swoobat            |  0.28140% | 130    |  0.281% | 95     |  0.275% | 
 | 220  | Articuno           |  0.28140% | 130    |  0.281% | 99     |  0.287% | 
 | 221  | Gyarados           |  0.28140% | 130    |  0.281% | 104    |  0.301% | 
 | 222  | Hariyama           |  0.28140% | 130    |  0.281% | 103    |  0.298% | 
 | 223  | Drifblim           |  0.27274% | 126    |  0.273% | 87     |  0.252% | 
 | 224  | Scrafty            |  0.27274% | 126    |  0.273% | 98     |  0.284% | 
 | 225  | Lanturn            |  0.27274% | 126    |  0.273% | 106    |  0.307% | 
 | 226  | Aromatisse         |  0.27274% | 126    |  0.273% | 89     |  0.258% | 
 | 227  | Regice             |  0.27274% | 126    |  0.273% | 73     |  0.211% | 
 | 228  | Honchkrow          |  0.27058% | 125    |  0.271% | 93     |  0.269% | 
 | 229  | Tyrantrum          |  0.27058% | 125    |  0.271% | 97     |  0.281% | 
 | 230  | Charizard          |  0.26409% | 122    |  0.264% | 85     |  0.246% | 
 | 231  | Venusaur           |  0.26192% | 121    |  0.262% | 84     |  0.243% | 
 | 232  | Bronzong           |  0.26192% | 121    |  0.262% | 104    |  0.301% | 
 | 233  | Diancie            |  0.25976% | 120    |  0.260% | 89     |  0.258% | 
 | 234  | Poliwrath          |  0.25326% | 117    |  0.253% | 88     |  0.255% | 
 | 235  | Archeops           |  0.25110% | 116    |  0.251% | 78     |  0.226% | 
 | 236  | Typhlosion         |  0.24893% | 115    |  0.249% | 94     |  0.272% | 
 | 237  | Klinklang          |  0.24677% | 114    |  0.247% | 86     |  0.249% | 
 | 238  | Sceptile           |  0.24460% | 113    |  0.245% | 83     |  0.240% | 
 | 239  | Uxie               |  0.24460% | 113    |  0.245% | 100    |  0.290% | 
 | 240  | Emboar             |  0.24244% | 112    |  0.242% | 82     |  0.237% | 
 | 241  | Gourgeist-Super    |  0.24244% | 112    |  0.242% | 76     |  0.220% | 
 | 242  | Florges            |  0.24028% | 111    |  0.240% | 80     |  0.232% | 
 | 243  | Golurk             |  0.23595% | 109    |  0.236% | 80     |  0.232% | 
 | 244  | Omastar            |  0.23162% | 107    |  0.232% | 84     |  0.243% | 
 | 245  | Gigalith           |  0.22945% | 106    |  0.229% | 90     |  0.261% | 
 | 246  | Raticate           |  0.22512% | 104    |  0.225% | 70     |  0.203% | 
 | 247  | Cobalion           |  0.22296% | 103    |  0.223% | 91     |  0.264% | 
 | 248  | Registeel          |  0.20348% | 94     |  0.203% | 72     |  0.209% | 
 | 249  | Blastoise          |  0.19915% | 92     |  0.199% | 72     |  0.209% | 
 | 250  | Scyther            |  0.19915% | 92     |  0.199% | 68     |  0.197% | 
 | 251  | Ludicolo           |  0.19915% | 92     |  0.199% | 64     |  0.185% | 
 | 252  | Liepard            |  0.19698% | 91     |  0.197% | 74     |  0.214% | 
 | 253  | Furfrou            |  0.19698% | 91     |  0.197% | 60     |  0.174% | 
 | 254  | Luxray             |  0.19482% | 90     |  0.195% | 71     |  0.206% | 
 | 255  | Persian            |  0.19049% | 88     |  0.190% | 59     |  0.171% | 
 | 256  | Miltank            |  0.18832% | 87     |  0.188% | 65     |  0.188% | 
 | 257  | Glalie-Mega        |  0.18616% | 86     |  0.186% | 54     |  0.156% | 
 | 258  | Dragalge           |  0.18399% | 85     |  0.184% | 63     |  0.182% | 
 | 259  | Mismagius          |  0.18399% | 85     |  0.184% | 67     |  0.194% | 
 | 260  | Kricketune         |  0.17967% | 83     |  0.180% | 78     |  0.226% | 
 | 261  | Maractus           |  0.17750% | 82     |  0.177% | 58     |  0.168% | 
 | 262  | Druddigon          |  0.17750% | 82     |  0.177% | 69     |  0.200% | 
 | 263  | Gorebyss           |  0.17534% | 81     |  0.175% | 62     |  0.180% | 
 | 264  | Magmortar          |  0.17101% | 79     |  0.171% | 71     |  0.206% | 
 | 265  | Rampardos          |  0.17101% | 79     |  0.171% | 57     |  0.165% | 
 | 266  | Reuniclus          |  0.16884% | 78     |  0.169% | 60     |  0.174% | 
 | 267  | Victreebel         |  0.16884% | 78     |  0.169% | 54     |  0.156% | 
 | 268  | Qwilfish           |  0.16235% | 75     |  0.162% | 64     |  0.185% | 
 | 269  | Leafeon            |  0.15802% | 73     |  0.158% | 48     |  0.139% | 
 | 270  | Moltres            |  0.15585% | 72     |  0.156% | 58     |  0.168% | 
 | 271  | Cryogonal          |  0.15585% | 72     |  0.156% | 49     |  0.142% | 
 | 272  | Weezing            |  0.15369% | 71     |  0.154% | 63     |  0.182% | 
 | 273  | Trevenant          |  0.15152% | 70     |  0.152% | 54     |  0.156% | 
 | 274  | Cacturne           |  0.15152% | 70     |  0.152% | 49     |  0.142% | 
 | 275  | Hoopa              |  0.14503% | 67     |  0.145% | 50     |  0.145% | 
 | 276  | Torkoal            |  0.14287% | 66     |  0.143% | 57     |  0.165% | 
 | 277  | Malamar            |  0.14287% | 66     |  0.143% | 51     |  0.148% | 
 | 278  | Vivillon           |  0.14070% | 65     |  0.141% | 47     |  0.136% | 
 | 279  | Lilligant          |  0.14070% | 65     |  0.141% | 39     |  0.113% | 
 | 280  | Basculin           |  0.13637% | 63     |  0.136% | 49     |  0.142% | 
 | 281  | Combusken          |  0.13637% | 63     |  0.136% | 57     |  0.165% | 
 | 282  | Farfetch'd         |  0.13204% | 61     |  0.132% | 39     |  0.113% | 
 | 283  | Bibarel            |  0.12771% | 59     |  0.128% | 44     |  0.127% | 
 | 284  | Tornadus           |  0.12555% | 58     |  0.126% | 39     |  0.113% | 
 | 285  | Durant             |  0.12338% | 57     |  0.123% | 37     |  0.107% | 
 | 286  | Pachirisu          |  0.12338% | 57     |  0.123% | 46     |  0.133% | 
 | 287  | Bastiodon          |  0.12338% | 57     |  0.123% | 46     |  0.133% | 
 | 288  | Electrode          |  0.11906% | 55     |  0.119% | 46     |  0.133% | 
 | 289  | Trapinch           |  0.11906% | 55     |  0.119% | 45     |  0.130% | 
 | 290  | Lickilicky         |  0.11689% | 54     |  0.117% | 36     |  0.104% | 
 | 291  | Slowking           |  0.11689% | 54     |  0.117% | 38     |  0.110% | 
 | 292  | Lopunny            |  0.11689% | 54     |  0.117% | 44     |  0.127% | 
 | 293  | Tauros             |  0.11689% | 54     |  0.117% | 33     |  0.096% | 
 | 294  | Vespiquen          |  0.11256% | 52     |  0.113% | 40     |  0.116% | 
 | 295  | Pyroar             |  0.11256% | 52     |  0.113% | 40     |  0.116% | 
 | 296  | Kyurem             |  0.11040% | 51     |  0.110% | 41     |  0.119% | 
 | 297  | Houndoom           |  0.11040% | 51     |  0.110% | 36     |  0.104% | 
 | 298  | Shaymin            |  0.11040% | 51     |  0.110% | 35     |  0.101% | 
 | 299  | Togetic            |  0.10823% | 50     |  0.108% | 33     |  0.096% | 
 | 300  | Regigigas          |  0.10607% | 49     |  0.106% | 43     |  0.125% | 
 | 301  | Vileplume          |  0.10607% | 49     |  0.106% | 29     |  0.084% | 
 | 302  | Torterra           |  0.10607% | 49     |  0.106% | 38     |  0.110% | 
 | 303  | Rhydon             |  0.10607% | 49     |  0.106% | 37     |  0.107% | 
 | 304  | Samurott           |  0.10607% | 49     |  0.106% | 39     |  0.113% | 
 | 305  | Ampharos           |  0.10390% | 48     |  0.104% | 39     |  0.113% | 
 | 306  | Xatu               |  0.10390% | 48     |  0.104% | 38     |  0.110% | 
 | 307  | Houndoom-Mega      |  0.10174% | 47     |  0.102% | 30     |  0.087% | 
 | 308  | Marowak            |  0.10174% | 47     |  0.102% | 40     |  0.116% | 
 | 309  | Barbaracle         |  0.10174% | 47     |  0.102% | 40     |  0.116% | 
 | 310  | Nidoqueen          |  0.09957% | 46     |  0.100% | 33     |  0.096% | 
 | 311  | Parasect           |  0.09741% | 45     |  0.097% | 40     |  0.116% | 
 | 312  | Beartic            |  0.09741% | 45     |  0.097% | 37     |  0.107% | 
 | 313  | Stunfisk           |  0.09741% | 45     |  0.097% | 35     |  0.101% | 
 | 314  | Rattata            |  0.09308% | 43     |  0.093% | 37     |  0.107% | 
 | 315  | Meowstic           |  0.09091% | 42     |  0.091% | 34     |  0.098% | 
 | 316  | Gligar             |  0.08875% | 41     |  0.089% | 38     |  0.110% | 
 | 317  | Granbull           |  0.08875% | 41     |  0.089% | 28     |  0.081% | 
 | 318  | Butterfree         |  0.08442% | 39     |  0.084% | 33     |  0.096% | 
 | 319  | Arbok              |  0.08442% | 39     |  0.084% | 29     |  0.084% | 
 | 320  | Abomasnow          |  0.08442% | 39     |  0.084% | 32     |  0.093% | 
 | 321  | Unfezant           |  0.08009% | 37     |  0.080% | 28     |  0.081% | 
 | 322  | Corsola            |  0.08009% | 37     |  0.080% | 29     |  0.084% | 
 | 323  | Spinda             |  0.08009% | 37     |  0.080% | 36     |  0.104% | 
 | 324  | Vanilluxe          |  0.07793% | 36     |  0.078% | 25     |  0.072% | 
 | 325  | Camerupt           |  0.07360% | 34     |  0.074% | 30     |  0.087% | 
 | 326  | Camerupt-Mega      |  0.07360% | 34     |  0.074% | 25     |  0.072% | 
 | 327  | Swalot             |  0.07143% | 33     |  0.071% | 24     |  0.070% | 
 | 328  | Delibird           |  0.06927% | 32     |  0.069% | 26     |  0.075% | 
 | 329  | Exploud            |  0.06710% | 31     |  0.067% | 24     |  0.070% | 
 | 330  | Sawk               |  0.06710% | 31     |  0.067% | 24     |  0.070% | 
 | 331  | Eevee              |  0.06494% | 30     |  0.065% | 22     |  0.064% | 
 | 332  | Rotom              |  0.06494% | 30     |  0.065% | 23     |  0.067% | 
 | 333  | Zebstrika          |  0.06494% | 30     |  0.065% | 27     |  0.078% | 
 | 334  | Solrock            |  0.06061% | 28     |  0.061% | 25     |  0.072% | 
 | 335  | Wobbuffet          |  0.05845% | 27     |  0.058% | 23     |  0.067% | 
 | 336  | Dunsparce          |  0.05845% | 27     |  0.058% | 23     |  0.067% | 
 | 337  | Probopass          |  0.05845% | 27     |  0.058% | 23     |  0.067% | 
 | 338  | Castform           |  0.05845% | 27     |  0.058% | 21     |  0.061% | 
 | 339  | Carbink            |  0.05628% | 26     |  0.056% | 24     |  0.070% | 
 | 340  | Venomoth           |  0.05628% | 26     |  0.056% | 16     |  0.046% | 
 | 341  | Ariados            |  0.05628% | 26     |  0.056% | 20     |  0.058% | 
 | 342  | Armaldo            |  0.05628% | 26     |  0.056% | 19     |  0.055% | 
 | 343  | Sandslash          |  0.05412% | 25     |  0.054% | 22     |  0.064% | 
 | 344  | Bouffalant         |  0.05195% | 24     |  0.052% | 20     |  0.058% | 
 | 345  | Onix               |  0.05195% | 24     |  0.052% | 19     |  0.055% | 
 | 346  | Manectric          |  0.04979% | 23     |  0.050% | 17     |  0.049% | 
 | 347  | Simisear           |  0.04979% | 23     |  0.050% | 12     |  0.035% | 
 | 348  | Tropius            |  0.04762% | 22     |  0.048% | 17     |  0.049% | 
 | 349  | Dragonair          |  0.04762% | 22     |  0.048% | 19     |  0.055% | 
 | 350  | Mawile             |  0.04546% | 21     |  0.045% | 18     |  0.052% | 
 | 351  | Seviper            |  0.04546% | 21     |  0.045% | 13     |  0.038% | 
 | 352  | Rapidash           |  0.04546% | 21     |  0.045% | 17     |  0.049% | 
 | 353  | Shiftry            |  0.04546% | 21     |  0.045% | 17     |  0.049% | 
 | 354  | Sneasel            |  0.04546% | 21     |  0.045% | 16     |  0.046% | 
 | 355  | Wartortle          |  0.04329% | 20     |  0.043% | 12     |  0.035% | 
 | 356  | Whiscash           |  0.04329% | 20     |  0.043% | 14     |  0.041% | 
 | 357  | Braviary           |  0.04329% | 20     |  0.043% | 15     |  0.043% | 
 | 358  | Golbat             |  0.04329% | 20     |  0.043% | 16     |  0.046% | 
 | 359  | Dwebble            |  0.04329% | 20     |  0.043% | 19     |  0.055% | 
 | 360  | Magmar             |  0.04329% | 20     |  0.043% | 14     |  0.041% | 
 | 361  | Meganium           |  0.04329% | 20     |  0.043% | 17     |  0.049% | 
 | 362  | Tangela            |  0.04113% | 19     |  0.041% | 15     |  0.043% | 
 | 363  | Lumineon           |  0.04113% | 19     |  0.041% | 15     |  0.043% | 
 | 364  | Musharna           |  0.04113% | 19     |  0.041% | 10     |  0.029% | 
 | 365  | Mr. Mime           |  0.04113% | 19     |  0.041% | 16     |  0.046% | 
 | 366  | Dodrio             |  0.03896% | 18     |  0.039% | 16     |  0.046% | 
 | 367  | Beedrill           |  0.03896% | 18     |  0.039% | 14     |  0.041% | 
 | 368  | Wailord            |  0.03896% | 18     |  0.039% | 16     |  0.046% | 
 | 369  | Mantine            |  0.03680% | 17     |  0.037% | 13     |  0.038% | 
 | 370  | Delcatty           |  0.03680% | 17     |  0.037% | 12     |  0.035% | 
 | 371  | Mightyena          |  0.03680% | 17     |  0.037% | 8      |  0.023% | 
 | 372  | Dewgong            |  0.03463% | 16     |  0.035% | 12     |  0.035% | 
 | 373  | Octillery          |  0.03247% | 15     |  0.032% | 10     |  0.029% | 
 | 374  | Mesprit            |  0.03247% | 15     |  0.032% | 13     |  0.038% | 
 | 375  | Haunter            |  0.03247% | 15     |  0.032% | 11     |  0.032% | 
 | 376  | Nosepass           |  0.03247% | 15     |  0.032% | 14     |  0.041% | 
 | 377  | Huntail            |  0.03030% | 14     |  0.030% | 13     |  0.038% | 
 | 378  | Charmander         |  0.03030% | 14     |  0.030% | 11     |  0.032% | 
 | 379  | Pignite            |  0.03030% | 14     |  0.030% | 13     |  0.038% | 
 | 380  | Primeape           |  0.03030% | 14     |  0.030% | 13     |  0.038% | 
 | 381  | Virizion           |  0.03030% | 14     |  0.030% | 10     |  0.029% | 
 | 382  | Swadloon           |  0.03030% | 14     |  0.030% | 12     |  0.035% | 
 | 383  | Fletchinder        |  0.02814% | 13     |  0.028% | 10     |  0.029% | 
 | 384  | Totodile           |  0.02814% | 13     |  0.028% | 13     |  0.038% | 
 | 385  | Masquerain         |  0.02814% | 13     |  0.028% | 13     |  0.038% | 
 | 386  | Rotom-Frost        |  0.02814% | 13     |  0.028% | 11     |  0.032% | 
 | 387  | Rotom-Fan          |  0.02814% | 13     |  0.028% | 9      |  0.026% | 
 | 388  | Purugly            |  0.02814% | 13     |  0.028% | 10     |  0.029% | 
 | 389  | Sawsbuck           |  0.02814% | 13     |  0.028% | 11     |  0.032% | 
 | 390  | Jumpluff           |  0.02814% | 13     |  0.028% | 11     |  0.032% | 
 | 391  | Charmeleon         |  0.02814% | 13     |  0.028% | 10     |  0.029% | 
 | 392  | Skuntank           |  0.02598% | 12     |  0.026% | 11     |  0.032% | 
 | 393  | Gothitelle         |  0.02598% | 12     |  0.026% | 10     |  0.029% | 
 | 394  | Unown              |  0.02598% | 12     |  0.026% | 7      |  0.020% | 
 | 395  | Lickitung          |  0.02598% | 12     |  0.026% | 8      |  0.023% | 
 | 396  | Electabuzz         |  0.02381% | 11     |  0.024% | 10     |  0.029% | 
 | 397  | Bayleef            |  0.02381% | 11     |  0.024% | 7      |  0.020% | 
 | 398  | Gloom              |  0.02381% | 11     |  0.024% | 6      |  0.017% | 
 | 399  | Grumpig            |  0.02381% | 11     |  0.024% | 10     |  0.029% | 
 | 400  | Snover             |  0.02381% | 11     |  0.024% | 10     |  0.029% | 
 | 401  | Sliggoo            |  0.02381% | 11     |  0.024% | 7      |  0.020% | 
 | 402  | Volbeat            |  0.02381% | 11     |  0.024% | 7      |  0.020% | 
 | 403  | Riolu              |  0.02381% | 11     |  0.024% | 9      |  0.026% | 
 | 404  | Frogadier          |  0.02165% | 10     |  0.022% | 9      |  0.026% | 
 | 405  | Simipour           |  0.02165% | 10     |  0.022% | 7      |  0.020% | 
 | 406  | Audino             |  0.02165% | 10     |  0.022% | 8      |  0.023% | 
 | 407  | Gogoat             |  0.02165% | 10     |  0.022% | 8      |  0.023% | 
 | 408  | Metang             |  0.02165% | 10     |  0.022% | 10     |  0.029% | 
 | 409  | Ledian             |  0.01948% | 9      |  0.019% | 6      |  0.017% | 
 | 410  | Rotom-Mow          |  0.01948% | 9      |  0.019% | 6      |  0.017% | 
 | 411  | Aron               |  0.01948% | 9      |  0.019% | 6      |  0.017% | 
 | 412  | Wigglytuff         |  0.01948% | 9      |  0.019% | 8      |  0.023% | 
 | 413  | Luvdisc            |  0.01948% | 9      |  0.019% | 7      |  0.020% | 
 | 414  | Corphish           |  0.01948% | 9      |  0.019% | 7      |  0.020% | 
 | 415  | Squirtle           |  0.01948% | 9      |  0.019% | 6      |  0.017% | 
 | 416  | Graveler           |  0.01948% | 9      |  0.019% | 6      |  0.017% | 
 | 417  | Kingler            |  0.01948% | 9      |  0.019% | 7      |  0.020% | 
 | 418  | Noctowl            |  0.01948% | 9      |  0.019% | 6      |  0.017% | 
 | 419  | Kirlia             |  0.01732% | 8      |  0.017% | 8      |  0.023% | 
 | 420  | Prinplup           |  0.01732% | 8      |  0.017% | 6      |  0.017% | 
 | 421  | Starly             |  0.01732% | 8      |  0.017% | 7      |  0.020% | 
 | 422  | Magikarp           |  0.01732% | 8      |  0.017% | 8      |  0.023% | 
 | 423  | Magcargo           |  0.01732% | 8      |  0.017% | 7      |  0.020% | 
 | 424  | Stoutland          |  0.01732% | 8      |  0.017% | 7      |  0.020% | 
 | 425  | Shelgon            |  0.01732% | 8      |  0.017% | 7      |  0.020% | 
 | 426  | Wynaut             |  0.01732% | 8      |  0.017% | 8      |  0.023% | 
 | 427  | Fearow             |  0.01732% | 8      |  0.017% | 8      |  0.023% | 
 | 428  | Gothorita          |  0.01515% | 7      |  0.015% | 7      |  0.020% | 
 | 429  | Cherrim            |  0.01515% | 7      |  0.015% | 5      |  0.014% | 
 | 430  | Gourgeist          |  0.01515% | 7      |  0.015% | 5      |  0.014% | 
 | 431  | Sudowoodo          |  0.01515% | 7      |  0.015% | 5      |  0.014% | 
 | 432  | Altaria            |  0.01515% | 7      |  0.015% | 6      |  0.017% | 
 | 433  | Quilava            |  0.01515% | 7      |  0.015% | 7      |  0.020% | 
 | 434  | Ivysaur            |  0.01515% | 7      |  0.015% | 6      |  0.017% | 
 | 435  | Chimecho           |  0.01515% | 7      |  0.015% | 5      |  0.014% | 
 | 436  | Murkrow            |  0.01515% | 7      |  0.015% | 6      |  0.017% | 
 | 437  | Braixen            |  0.01515% | 7      |  0.015% | 5      |  0.014% | 
 | 438  | Relicanth          |  0.01515% | 7      |  0.015% | 3      |  0.009% | 
 | 439  | Machoke            |  0.01515% | 7      |  0.015% | 5      |  0.014% | 
 | 440  | Garbodor           |  0.01515% | 7      |  0.015% | 5      |  0.014% | 
 | 441  | Piloswine          |  0.01299% | 6      |  0.013% | 4      |  0.012% | 
 | 442  | Swanna             |  0.01299% | 6      |  0.013% | 5      |  0.014% | 
 | 443  | Clamperl           |  0.01299% | 6      |  0.013% | 4      |  0.012% | 
 | 444  | Treecko            |  0.01299% | 6      |  0.013% | 4      |  0.012% | 
 | 445  | Bulbasaur          |  0.01299% | 6      |  0.013% | 5      |  0.014% | 
 | 446  | Jigglypuff         |  0.01299% | 6      |  0.013% | 4      |  0.012% | 
 | 447  | Crustle            |  0.01299% | 6      |  0.013% | 5      |  0.014% | 
 | 448  | Geodude            |  0.01299% | 6      |  0.013% | 3      |  0.009% | 
 | 449  | Hypno              |  0.01299% | 6      |  0.013% | 5      |  0.014% | 
 | 450  | Gurdurr            |  0.01299% | 6      |  0.013% | 3      |  0.009% | 
 | 451  | Vibrava            |  0.01299% | 6      |  0.013% | 6      |  0.017% | 
 | 452  | Kadabra            |  0.01082% | 5      |  0.011% | 3      |  0.009% | 
 | 453  | Buizel             |  0.01082% | 5      |  0.011% | 3      |  0.009% | 
 | 454  | Weepinbell         |  0.01082% | 5      |  0.011% | 4      |  0.012% | 
 | 455  | Bunnelby           |  0.01082% | 5      |  0.011% | 4      |  0.012% | 
 | 456  | Oddish             |  0.01082% | 5      |  0.011% | 4      |  0.012% | 
 | 457  | Metapod            |  0.01082% | 5      |  0.011% | 5      |  0.014% | 
 | 458  | Taillow            |  0.01082% | 5      |  0.011% | 3      |  0.009% | 
 | 459  | Seaking            |  0.01082% | 5      |  0.011% | 3      |  0.009% | 
 | 460  | Dratini            |  0.01082% | 5      |  0.011% | 3      |  0.009% | 
 | 461  | Golduck            |  0.01082% | 5      |  0.011% | 3      |  0.009% | 
 | 462  | Gible              |  0.01082% | 5      |  0.011% | 4      |  0.012% | 
 | 463  | Beautifly          |  0.01082% | 5      |  0.011% | 2      |  0.006% | 
 | 464  | Monferno           |  0.01082% | 5      |  0.011% | 3      |  0.009% | 
 | 465  | Pidgeot            |  0.01082% | 5      |  0.011% | 3      |  0.009% | 
 | 466  | Gabite             |  0.00866% | 4      |  0.009% | 3      |  0.009% | 
 | 467  | Numel              |  0.00866% | 4      |  0.009% | 4      |  0.012% | 
 | 468  | Marill             |  0.00866% | 4      |  0.009% | 3      |  0.009% | 
 | 469  | Abra               |  0.00866% | 4      |  0.009% | 3      |  0.009% | 
 | 470  | Pidgeotto          |  0.00866% | 4      |  0.009% | 4      |  0.012% | 
 | 471  | Vulpix             |  0.00866% | 4      |  0.009% | 3      |  0.009% | 
 | 472  | Servine            |  0.00866% | 4      |  0.009% | 4      |  0.012% | 
 | 473  | Staryu             |  0.00866% | 4      |  0.009% | 3      |  0.009% | 
 | 474  | Sunflora           |  0.00866% | 4      |  0.009% | 3      |  0.009% | 
 | 475  | Skorupi            |  0.00866% | 4      |  0.009% | 3      |  0.009% | 
 | 476  | Chespin            |  0.00866% | 4      |  0.009% | 2      |  0.006% | 
 | 477  | Froakie            |  0.00866% | 4      |  0.009% | 3      |  0.009% | 
 | 478  | Pidgey             |  0.00866% | 4      |  0.009% | 2      |  0.006% | 
 | 479  | Bidoof             |  0.00866% | 4      |  0.009% | 3      |  0.009% | 
 | 480  | Snivy              |  0.00866% | 4      |  0.009% | 3      |  0.009% | 
 | 481  | Simisage           |  0.00866% | 4      |  0.009% | 2      |  0.006% | 
 | 482  | Cubone             |  0.00866% | 4      |  0.009% | 4      |  0.012% | 
 | 483  | Elekid             |  0.00866% | 4      |  0.009% | 2      |  0.006% | 
 | 484  | Zorua              |  0.00649% | 3      |  0.006% | 0      |  0.000% | 
 | 485  | Whirlipede         |  0.00649% | 3      |  0.006% | 1      |  0.003% | 
 | 486  | Seel               |  0.00649% | 3      |  0.006% | 1      |  0.003% | 
 | 487  | Togepi             |  0.00649% | 3      |  0.006% | 2      |  0.006% | 
 | 488  | Woobat             |  0.00649% | 3      |  0.006% | 2      |  0.006% | 
 | 489  | Chinchou           |  0.00649% | 3      |  0.006% | 3      |  0.009% | 
 | 490  | Pawniard           |  0.00649% | 3      |  0.006% | 3      |  0.009% | 
 | 491  | Vigoroth           |  0.00649% | 3      |  0.006% | 2      |  0.006% | 
 | 492  | Pichu              |  0.00649% | 3      |  0.006% | 0      |  0.000% | 
 | 493  | Magby              |  0.00649% | 3      |  0.006% | 3      |  0.009% | 
 | 494  | Illumise           |  0.00649% | 3      |  0.006% | 3      |  0.009% | 
 | 495  | Cyndaquil          |  0.00649% | 3      |  0.006% | 2      |  0.006% | 
 | 496  | Igglybuff          |  0.00649% | 3      |  0.006% | 3      |  0.009% | 
 | 497  | Kabuto             |  0.00649% | 3      |  0.006% | 3      |  0.009% | 
 | 498  | Fraxure            |  0.00649% | 3      |  0.006% | 3      |  0.009% | 
 | 499  | Diglett            |  0.00649% | 3      |  0.006% | 2      |  0.006% | 
 | 500  | Croconaw           |  0.00649% | 3      |  0.006% | 1      |  0.003% | 
 | 501  | Tyrunt             |  0.00649% | 3      |  0.006% | 3      |  0.009% | 
 | 502  | Lunatone           |  0.00649% | 3      |  0.006% | 3      |  0.009% | 
 | 503  | Torchic            |  0.00649% | 3      |  0.006% | 3      |  0.009% | 
 | 504  | Buneary            |  0.00433% | 2      |  0.004% | 1      |  0.003% | 
 | 505  | Lombre             |  0.00433% | 2      |  0.004% | 2      |  0.006% | 
 | 506  | Magnemite          |  0.00433% | 2      |  0.004% | 2      |  0.006% | 
 | 507  | Cleffa             |  0.00433% | 2      |  0.004% | 2      |  0.006% | 
 | 508  | Rufflet            |  0.00433% | 2      |  0.004% | 0      |  0.000% | 
 | 509  | Zubat              |  0.00433% | 2      |  0.004% | 2      |  0.006% | 
 | 510  | Espurr             |  0.00433% | 2      |  0.004% | 2      |  0.006% | 
 | 511  | Larvesta           |  0.00433% | 2      |  0.004% | 2      |  0.006% | 
 | 512  | Clefairy           |  0.00433% | 2      |  0.004% | 2      |  0.006% | 
 | 513  | Glalie             |  0.00433% | 2      |  0.004% | 1      |  0.003% | 
 | 514  | Joltik             |  0.00433% | 2      |  0.004% | 2      |  0.006% | 
 | 515  | Wingull            |  0.00433% | 2      |  0.004% | 2      |  0.006% | 
 | 516  | Mudkip             |  0.00433% | 2      |  0.004% | 2      |  0.006% | 
 | 517  | Tepig              |  0.00433% | 2      |  0.004% | 2      |  0.006% | 
 | 518  | Surskit            |  0.00433% | 2      |  0.004% | 2      |  0.006% | 
 | 519  | Bellsprout         |  0.00433% | 2      |  0.004% | 2      |  0.006% | 
 | 520  | Phantump           |  0.00433% | 2      |  0.004% | 2      |  0.006% | 
 | 521  | Ponyta             |  0.00433% | 2      |  0.004% | 2      |  0.006% | 
 | 522  | Poochyena          |  0.00433% | 2      |  0.004% | 2      |  0.006% | 
 | 523  | Poliwhirl          |  0.00433% | 2      |  0.004% | 1      |  0.003% | 
 | 524  | Frillish           |  0.00433% | 2      |  0.004% | 2      |  0.006% | 
 | 525  | Heatmor            |  0.00433% | 2      |  0.004% | 2      |  0.006% | 
 | 526  | Pumpkaboo-Super    |  0.00433% | 2      |  0.004% | 2      |  0.006% | 
 | 527  | Bonsly             |  0.00433% | 2      |  0.004% | 2      |  0.006% | 
 | 528  | Flaaffy            |  0.00433% | 2      |  0.004% | 2      |  0.006% | 
 | 529  | Pancham            |  0.00433% | 2      |  0.004% | 0      |  0.000% | 
 | 530  | Honedge            |  0.00433% | 2      |  0.004% | 2      |  0.006% | 
 | 531  | Grimer             |  0.00433% | 2      |  0.004% | 2      |  0.006% | 
 | 532  | Fletchling         |  0.00433% | 2      |  0.004% | 1      |  0.003% | 
 | 533  | Burmy              |  0.00433% | 2      |  0.004% | 2      |  0.006% | 
 | 534  | Bellossom          |  0.00433% | 2      |  0.004% | 0      |  0.000% | 
 | 535  | Mienfoo            |  0.00433% | 2      |  0.004% | 2      |  0.006% | 
 | 536  | Shelmet            |  0.00433% | 2      |  0.004% | 2      |  0.006% | 
 | 537  | Krokorok           |  0.00433% | 2      |  0.004% | 2      |  0.006% | 
 | 538  | Porygon            |  0.00433% | 2      |  0.004% | 2      |  0.006% | 
 | 539  | Lairon             |  0.00433% | 2      |  0.004% | 1      |  0.003% | 
 | 540  | Krabby             |  0.00433% | 2      |  0.004% | 2      |  0.006% | 
 | 541  | Carnivine          |  0.00433% | 2      |  0.004% | 2      |  0.006% | 
 | 542  | Weedle             |  0.00433% | 2      |  0.004% | 2      |  0.006% | 
 | 543  | Seadra             |  0.00433% | 2      |  0.004% | 2      |  0.006% | 
 | 544  | Ferroseed          |  0.00433% | 2      |  0.004% | 2      |  0.006% | 
 | 545  | Flabebe            |  0.00433% | 2      |  0.004% | 2      |  0.006% | 
 | 546  | Azurill            |  0.00216% | 1      |  0.002% | 1      |  0.003% | 
 | 547  | Bronzor            |  0.00216% | 1      |  0.002% | 1      |  0.003% | 
 | 548  | Doduo              |  0.00216% | 1      |  0.002% | 0      |  0.000% | 
 | 549  | Deino              |  0.00216% | 1      |  0.002% | 1      |  0.003% | 
 | 550  | Archen             |  0.00216% | 1      |  0.002% | 1      |  0.003% | 
 | 551  | Misdreavus         |  0.00216% | 1      |  0.002% | 1      |  0.003% | 
 | 552  | Minccino           |  0.00216% | 1      |  0.002% | 1      |  0.003% | 
 | 553  | Aipom              |  0.00216% | 1      |  0.002% | 0      |  0.000% | 
 | 554  | Yanma              |  0.00216% | 1      |  0.002% | 1      |  0.003% | 
 | 555  | Whismur            |  0.00216% | 1      |  0.002% | 0      |  0.000% | 
 | 556  | Skiddo             |  0.00216% | 1      |  0.002% | 1      |  0.003% | 
 | 557  | Sealeo             |  0.00216% | 1      |  0.002% | 1      |  0.003% | 
 | 558  | Venonat            |  0.00216% | 1      |  0.002% | 1      |  0.003% | 
 | 559  | Scraggy            |  0.00216% | 1      |  0.002% | 1      |  0.003% | 
 | 560  | Phanpy             |  0.00216% | 1      |  0.002% | 1      |  0.003% | 
 | 561  | Gulpin             |  0.00216% | 1      |  0.002% | 1      |  0.003% | 
 | 562  | Wormadam-Sandy     |  0.00216% | 1      |  0.002% | 0      |  0.000% | 
 | 563  | Pidove             |  0.00216% | 1      |  0.002% | 1      |  0.003% | 
 | 564  | Omanyte            |  0.00216% | 1      |  0.002% | 1      |  0.003% | 
 | 565  | Slowpoke           |  0.00216% | 1      |  0.002% | 1      |  0.003% | 
 | 566  | Cherubi            |  0.00216% | 1      |  0.002% | 1      |  0.003% | 
 | 567  | Ralts              |  0.00216% | 1      |  0.002% | 1      |  0.003% | 
 | 568  | Duskull            |  0.00216% | 1      |  0.002% | 1      |  0.003% | 
 | 569  | Amaura             |  0.00216% | 1      |  0.002% | 1      |  0.003% | 
 | 570  | Wailmer            |  0.00216% | 1      |  0.002% | 1      |  0.003% | 
 | 571  | Dustox             |  0.00216% | 1      |  0.002% | 1      |  0.003% | 
 | 572  | Sandshrew          |  0.00216% | 1      |  0.002% | 1      |  0.003% | 
 | 573  | Finneon            |  0.00216% | 1      |  0.002% | 0      |  0.000% | 
 | 574  | Kakuna             |  0.00216% | 1      |  0.002% | 1      |  0.003% | 
 | 575  | Staravia           |  0.00216% | 1      |  0.002% | 1      |  0.003% | 
 | 576  | Foongus            |  0.00216% | 1      |  0.002% | 1      |  0.003% | 
 | 577  | Koffing            |  0.00216% | 1      |  0.002% | 1      |  0.003% | 
 | 578  | Shellder           |  0.00216% | 1      |  0.002% | 1      |  0.003% | 
 | 579  | Inkay              |  0.00216% | 1      |  0.002% | 1      |  0.003% | 
 | 580  | Croagunk           |  0.00216% | 1      |  0.002% | 1      |  0.003% | 
 | 581  | Grotle             |  0.00216% | 1      |  0.002% | 1      |  0.003% | 
 | 582  | Sandile            |  0.00216% | 1      |  0.002% | 1      |  0.003% | 
 | 583  | Voltorb            |  0.00216% | 1      |  0.002% | 1      |  0.003% | 
 | 584  | Lileep             |  0.00216% | 1      |  0.002% | 0      |  0.000% | 
 | 585  | Mothim             |  0.00216% | 1      |  0.002% | 1      |  0.003% | 
 | 586  | Tranquill          |  0.00216% | 1      |  0.002% | 1      |  0.003% | 
 | 587  | Swinub             |  0.00216% | 1      |  0.002% | 1      |  0.003% | 
 | 588  | Karrablast         |  0.00216% | 1      |  0.002% | 1      |  0.003% | 
 | 589  | Grovyle            |  0.00216% | 1      |  0.002% | 1      |  0.003% | 
 | 590  | Shinx              |  0.00216% | 1      |  0.002% | 1      |  0.003% | 
 | 591  | Bagon              |  0.00216% | 1      |  0.002% | 1      |  0.003% | 
 | 592  | Machop             |  0.00216% | 1      |  0.002% | 1      |  0.003% | 
 | 593  | Feebas             |  0.00216% | 1      |  0.002% | 0      |  0.000% | 
 | 594  | Tentacool          |  0.00216% | 1      |  0.002% | 1      |  0.003% | 
 | 595  | Dewott             |  0.00216% | 1      |  0.002% | 1      |  0.003% | 
 | 596  | Shieldon           |  0.00216% | 1      |  0.002% | 1      |  0.003% | 
 | 597  | Phione             |  0.00216% | 1      |  0.002% | 1      |  0.003% | 
 | 598  | Oshawott           |  0.00216% | 1      |  0.002% | 1      |  0.003% | 
 | 599  | Gourgeist-Large    |  0.00216% | 1      |  0.002% | 1      |  0.003% | 
 | 600  | Yamask             |  0.00216% | 1      |  0.002% | 1      |  0.003% | 
 | 601  | Meowth             |  0.00216% | 1      |  0.002% | 1      |  0.003% | 
 | 602  | Herdier            |  0.00216% | 1      |  0.002% | 1      |  0.003% | 
 | 603  | Pelipper           |  0.00216% | 1      |  0.002% | 1      |  0.003% | 
 | 604  | Beheeyem           |  0.00216% | 1      |  0.002% | 1      |  0.003% | 
 | 605  | Anorith            |  0.00216% | 1      |  0.002% | 1      |  0.003% | 
 | 606  | Patrat             |  0.00216% | 1      |  0.002% | 1      |  0.003% | 
 | 607  | Pupitar            |  0.00216% | 1      |  0.002% | 1      |  0.003% | 
 | 608  | Caterpie           |  0.00216% | 1      |  0.002% | 1      |  0.003% | 
 | 609  | Cacnea             |  0.00216% | 1      |  0.002% | 1      |  0.003% | 
 | 610  | Nidorina           |  0.00216% | 1      |  0.002% | 0      |  0.000% | 
 | 611  | Ledyba             |  0.00216% | 1      |  0.002% | 1      |  0.003% | 
 + ---- + ------------------ + --------- + ------ + ------- + ------ + ------- + 
