 Total battles: 622146
 Avg. weight/team: 0.112
 + ---- + ------------------ + --------- + ------ + ------- + ------ + ------- + 
 | Rank | Pokemon            | Usage %   | Raw    | %       | Real   | %       | 
 + ---- + ------------------ + --------- + ------ + ------- + ------ + ------- + 
 | 1    | Groudon-Primal     | 66.74330% | 413544 | 33.235% | 298349 | 36.356% | 
 | 2    | Xerneas            | 52.79256% | 333626 | 26.813% | 214644 | 26.156% | 
 | 3    | Arceus             | 32.05934% | 161631 | 12.990% | 103061 | 12.559% | 
 | 4    | Yveltal            | 23.00464% | 129779 | 10.430% | 87000  | 10.602% | 
 | 5    | Kyogre-Primal      | 22.73160% | 229728 | 18.463% | 147872 | 18.019% | 
 | 6    | Darkrai            | 22.68473% | 222809 | 17.906% | 150498 | 18.339% | 
 | 7    | Salamence-Mega     | 17.73042% | 102218 |  8.215% | 64319  |  7.838% | 
 | 8    | Lugia              | 17.01831% | 122107 |  9.813% | 78431  |  9.557% | 
 | 9    | Giratina-Origin    | 14.55722% | 99455  |  7.993% | 66589  |  8.114% | 
 | 10   | Ho-Oh              | 14.22356% | 82902  |  6.663% | 56230  |  6.852% | 
 | 11   | Deoxys-Attack      | 14.00225% | 75534  |  6.070% | 51125  |  6.230% | 
 | 12   | Rayquaza           | 12.00315% | 134534 | 10.812% | 84029  | 10.239% | 
 | 13   | Aegislash          | 11.83082% | 156027 | 12.539% | 100444 | 12.240% | 
 | 14   | Kangaskhan-Mega    | 11.75463% | 110475 |  8.879% | 78957  |  9.621% | 
 | 15   | Gengar-Mega        | 10.62987% | 109819 |  8.826% | 73145  |  8.913% | 
 | 16   | Greninja           | 10.34000% | 246803 | 19.835% | 173642 | 21.159% | 
 | 17   | Mewtwo-Mega-Y      |  9.12491% | 97071  |  7.801% | 61373  |  7.479% | 
 | 18   | Arceus-Ghost       |  8.55828% | 44660  |  3.589% | 28149  |  3.430% | 
 | 19   | Lucario-Mega       |  7.85289% | 100022 |  8.038% | 65818  |  8.020% | 
 | 20   | Genesect           |  7.60095% | 54954  |  4.416% | 38035  |  4.635% | 
 | 21   | Dialga             |  6.55971% | 67356  |  5.413% | 44196  |  5.386% | 
 | 22   | Deoxys-Speed       |  6.14427% | 38271  |  3.076% | 32289  |  3.935% | 
 | 23   | Mewtwo-Mega-X      |  6.02895% | 80624  |  6.480% | 53119  |  6.473% | 
 | 24   | Arceus-Water       |  5.96923% | 25052  |  2.013% | 17441  |  2.125% | 
 | 25   | Shaymin-Sky        |  5.84850% | 48082  |  3.864% | 29524  |  3.598% | 
 | 26   | Blaziken-Mega      |  5.60684% | 113029 |  9.084% | 76293  |  9.297% | 
 | 27   | Klefki             |  5.50394% | 28437  |  2.285% | 22764  |  2.774% | 
 | 28   | Arceus-Ground      |  5.08699% | 19933  |  1.602% | 13707  |  1.670% | 
 | 29   | Kyurem-White       |  4.98478% | 42674  |  3.430% | 25573  |  3.116% | 
 | 30   | Ferrothorn         |  4.57622% | 49128  |  3.948% | 37639  |  4.587% | 
 | 31   | Latios             |  4.51072% | 26639  |  2.141% | 16359  |  1.993% | 
 | 32   | Blaziken           |  4.35918% | 69738  |  5.605% | 49506  |  6.033% | 
 | 33   | Mewtwo             |  4.27152% | 44028  |  3.538% | 26929  |  3.281% | 
 | 34   | Zekrom             |  4.14844% | 49719  |  3.996% | 31045  |  3.783% | 
 | 35   | Giratina           |  3.91643% | 28679  |  2.305% | 18495  |  2.254% | 
 | 36   | Diancie-Mega       |  3.85529% | 25549  |  2.053% | 19259  |  2.347% | 
 | 37   | Latias             |  3.76400% | 20354  |  1.636% | 12472  |  1.520% | 
 | 38   | Arceus-Steel       |  3.52422% | 21166  |  1.701% | 13709  |  1.671% | 
 | 39   | Ditto              |  3.34909% | 23204  |  1.865% | 16234  |  1.978% | 
 | 40   | Scolipede          |  3.28235% | 33005  |  2.653% | 26663  |  3.249% | 
 | 41   | Palkia             |  3.23854% | 37479  |  3.012% | 23382  |  2.849% | 
 | 42   | Kyogre             |  2.96625% | 24328  |  1.955% | 16062  |  1.957% | 
 | 43   | Cloyster           |  2.83300% | 36332  |  2.920% | 25920  |  3.159% | 
 | 44   | Mawile-Mega        |  2.69099% | 31762  |  2.553% | 20871  |  2.543% | 
 | 45   | Arceus-Rock        |  2.68523% | 8473   |  0.681% | 5720   |  0.697% | 
 | 46   | Excadrill          |  2.66281% | 22403  |  1.800% | 15852  |  1.932% | 
 | 47   | Arceus-Fairy       |  2.52366% | 22946  |  1.844% | 14803  |  1.804% | 
 | 48   | Sableye-Mega       |  2.42540% | 22421  |  1.802% | 16913  |  2.061% | 
 | 49   | Smeargle           |  2.36248% | 31954  |  2.568% | 26044  |  3.174% | 
 | 50   | Landorus           |  2.31976% | 18669  |  1.500% | 12367  |  1.507% | 
 | 51   | Landorus-Therian   |  2.26614% | 19270  |  1.549% | 13990  |  1.705% | 
 | 52   | Chansey            |  2.22473% | 22890  |  1.840% | 15006  |  1.829% | 
 | 53   | Deoxys-Defense     |  2.13444% | 31136  |  2.502% | 22084  |  2.691% | 
 | 54   | Blissey            |  2.00123% | 25584  |  2.056% | 16446  |  2.004% | 
 | 55   | Hoopa-Unbound      |  1.97904% | 35153  |  2.825% | 21383  |  2.606% | 
 | 56   | Skarmory           |  1.96149% | 19728  |  1.585% | 15204  |  1.853% | 
 | 57   | Scizor-Mega        |  1.87005% | 18731  |  1.505% | 12771  |  1.556% | 
 | 58   | Talonflame         |  1.66158% | 61036  |  4.905% | 41170  |  5.017% | 
 | 59   | Shuckle            |  1.64381% | 21394  |  1.719% | 17157  |  2.091% | 
 | 60   | Jirachi            |  1.58675% | 15535  |  1.249% | 9769   |  1.190% | 
 | 61   | Arceus-Poison      |  1.57376% | 10479  |  0.842% | 6484   |  0.790% | 
 | 62   | Clefable           |  1.53074% | 20729  |  1.666% | 13259  |  1.616% | 
 | 63   | Arceus-Dragon      |  1.47745% | 16849  |  1.354% | 10370  |  1.264% | 
 | 64   | Bronzong           |  1.41860% | 8938   |  0.718% | 6700   |  0.816% | 
 | 65   | Gliscor            |  1.40985% | 52197  |  4.195% | 35079  |  4.275% | 
 | 66   | Dragonite          |  1.39563% | 61709  |  4.959% | 40234  |  4.903% | 
 | 67   | Tyranitar          |  1.38065% | 34810  |  2.798% | 24212  |  2.950% | 
 | 68   | Espeon             |  1.34266% | 22209  |  1.785% | 13698  |  1.669% | 
 | 69   | Gengar             |  1.29450% | 56422  |  4.534% | 36956  |  4.503% | 
 | 70   | Wobbuffet          |  1.22608% | 17462  |  1.403% | 12285  |  1.497% | 
 | 71   | Garchomp           |  1.12826% | 44522  |  3.578% | 29336  |  3.575% | 
 | 72   | Scizor             |  1.08746% | 20425  |  1.641% | 13068  |  1.592% | 
 | 73   | Metagross-Mega     |  1.00360% | 33223  |  2.670% | 21653  |  2.639% | 
 | 74   | Tyranitar-Mega     |  1.00145% | 24816  |  1.994% | 16468  |  2.007% | 
 | 75   | Groudon            |  0.98296% | 11181  |  0.899% | 7977   |  0.972% | 
 | 76   | Reshiram           |  0.91079% | 21193  |  1.703% | 12574  |  1.532% | 
 | 77   | Serperior          |  0.88653% | 39966  |  3.212% | 24198  |  2.949% | 
 | 78   | Forretress         |  0.87813% | 15408  |  1.238% | 12817  |  1.562% | 
 | 79   | Lopunny-Mega       |  0.80840% | 12594  |  1.012% | 8988   |  1.095% | 
 | 80   | Charizard-Mega-X   |  0.80292% | 79822  |  6.415% | 53895  |  6.567% | 
 | 81   | Mew                |  0.77181% | 23635  |  1.899% | 16259  |  1.981% | 
 | 82   | Whimsicott         |  0.76423% | 11109  |  0.893% | 7803   |  0.951% | 
 | 83   | Sylveon            |  0.74986% | 27643  |  2.222% | 17108  |  2.085% | 
 | 84   | Tentacruel         |  0.70794% | 9950   |  0.800% | 6969   |  0.849% | 
 | 85   | Thundurus          |  0.66888% | 8267   |  0.664% | 5747   |  0.700% | 
 | 86   | Umbreon            |  0.65700% | 24313  |  1.954% | 15828  |  1.929% | 
 | 87   | Breloom            |  0.65068% | 23343  |  1.876% | 15178  |  1.850% | 
 | 88   | Ninjask            |  0.64919% | 26738  |  2.149% | 21813  |  2.658% | 
 | 89   | Togekiss           |  0.63361% | 23783  |  1.911% | 15696  |  1.913% | 
 | 90   | Vaporeon           |  0.60382% | 12490  |  1.004% | 8199   |  0.999% | 
 | 91   | Weavile            |  0.56862% | 23102  |  1.857% | 15539  |  1.894% | 
 | 92   | Heatran            |  0.55648% | 12324  |  0.990% | 8516   |  1.038% | 
 | 93   | Rotom-Wash         |  0.53983% | 18543  |  1.490% | 12429  |  1.515% | 
 | 94   | Arceus-Electric    |  0.53902% | 9513   |  0.765% | 6026   |  0.734% | 
 | 95   | Arceus-Dark        |  0.52350% | 6939   |  0.558% | 4357   |  0.531% | 
 | 96   | Azumarill          |  0.50840% | 21023  |  1.690% | 13943  |  1.699% | 
 | 97   | Kyurem-Black       |  0.49514% | 18903  |  1.519% | 11322  |  1.380% | 
 | 98   | Galvantula         |  0.49481% | 11578  |  0.930% | 9519   |  1.160% | 
 | 99   | Cresselia          |  0.49104% | 6637   |  0.533% | 4155   |  0.506% | 
 | 100  | Charizard-Mega-Y   |  0.48779% | 39583  |  3.181% | 26334  |  3.209% | 
 | 101  | Shedinja           |  0.45270% | 10958  |  0.881% | 7213   |  0.879% | 
 | 102  | Sableye            |  0.44715% | 10104  |  0.812% | 7101   |  0.865% | 
 | 103  | Bisharp            |  0.44573% | 27220  |  2.188% | 17497  |  2.132% | 
 | 104  | Arceus-Ice         |  0.44048% | 4480   |  0.360% | 2628   |  0.320% | 
 | 105  | Infernape          |  0.43687% | 34134  |  2.743% | 23410  |  2.853% | 
 | 106  | Aerodactyl-Mega    |  0.43594% | 8266   |  0.664% | 5747   |  0.700% | 
 | 107  | Mr. Mime           |  0.42140% | 3379   |  0.272% | 2017   |  0.246% | 
 | 108  | Metagross          |  0.41883% | 20345  |  1.635% | 13026  |  1.587% | 
 | 109  | Volcarona          |  0.41879% | 20114  |  1.617% | 12052  |  1.469% | 
 | 110  | Snorlax            |  0.37508% | 33925  |  2.726% | 22860  |  2.786% | 
 | 111  | Zapdos             |  0.37299% | 15922  |  1.280% | 10360  |  1.262% | 
 | 112  | Venusaur-Mega      |  0.37263% | 21745  |  1.748% | 13719  |  1.672% | 
 | 113  | Salamence          |  0.36532% | 18617  |  1.496% | 11553  |  1.408% | 
 | 114  | Arceus-Grass       |  0.36118% | 4825   |  0.388% | 2847   |  0.347% | 
 | 115  | Gardevoir-Mega     |  0.35753% | 28054  |  2.255% | 17749  |  2.163% | 
 | 116  | Volcanion          |  0.35239% | 14978  |  1.204% | 9704   |  1.182% | 
 | 117  | Garchomp-Mega      |  0.34833% | 27592  |  2.217% | 18231  |  2.222% | 
 | 118  | Starmie            |  0.34184% | 9832   |  0.790% | 6098   |  0.743% | 
 | 119  | Amoonguss          |  0.34067% | 9082   |  0.730% | 5632   |  0.686% | 
 | 120  | Arceus-Fire        |  0.33607% | 5906   |  0.475% | 3640   |  0.444% | 
 | 121  | Arceus-Flying      |  0.33224% | 2814   |  0.226% | 1793   |  0.218% | 
 | 122  | Goodra             |  0.33101% | 30003  |  2.411% | 19699  |  2.400% | 
 | 123  | Victini            |  0.32273% | 11623  |  0.934% | 7442   |  0.907% | 
 | 124  | Hawlucha           |  0.31426% | 27285  |  2.193% | 18838  |  2.296% | 
 | 125  | Mamoswine          |  0.31376% | 7764   |  0.624% | 5315   |  0.648% | 
 | 126  | Hydreigon          |  0.31230% | 18381  |  1.477% | 11566  |  1.409% | 
 | 127  | Zoroark            |  0.30506% | 12052  |  0.969% | 5995   |  0.731% | 
 | 128  | Murkrow            |  0.27594% | 1837   |  0.148% | 1312   |  0.160% | 
 | 129  | Medicham-Mega      |  0.27508% | 6599   |  0.530% | 4323   |  0.527% | 
 | 130  | Jolteon            |  0.27094% | 20469  |  1.645% | 13991  |  1.705% | 
 | 131  | Staraptor          |  0.27091% | 17551  |  1.411% | 11741  |  1.431% | 
 | 132  | Sceptile-Mega      |  0.26953% | 36558  |  2.938% | 22935  |  2.795% | 
 | 133  | Chandelure         |  0.25950% | 16959  |  1.363% | 10906  |  1.329% | 
 | 134  | Lucario            |  0.25755% | 18701  |  1.503% | 11901  |  1.450% | 
 | 135  | Nosepass           |  0.25736% | 3787   |  0.304% | 2850   |  0.347% | 
 | 136  | Arcanine           |  0.25454% | 19034  |  1.530% | 12571  |  1.532% | 
 | 137  | Suicune            |  0.25314% | 8133   |  0.654% | 5239   |  0.638% | 
 | 138  | Crobat             |  0.24848% | 13589  |  1.092% | 9129   |  1.112% | 
 | 139  | Quagsire           |  0.24413% | 4927   |  0.396% | 3346   |  0.408% | 
 | 140  | Terrakion          |  0.23949% | 3417   |  0.275% | 2319   |  0.283% | 
 | 141  | Swampert-Mega      |  0.23640% | 17561  |  1.411% | 12013  |  1.464% | 
 | 142  | Pikachu            |  0.23506% | 28896  |  2.322% | 21273  |  2.592% | 
 | 143  | Cofagrigus         |  0.23505% | 6140   |  0.493% | 4525   |  0.551% | 
 | 144  | Nidoking           |  0.23143% | 10241  |  0.823% | 7039   |  0.858% | 
 | 145  | Alakazam           |  0.22963% | 13457  |  1.081% | 8227   |  1.003% | 
 | 146  | Noivern            |  0.22787% | 28419  |  2.284% | 18464  |  2.250% | 
 | 147  | Haxorus            |  0.21812% | 14862  |  1.194% | 9394   |  1.145% | 
 | 148  | Conkeldurr         |  0.21123% | 10159  |  0.816% | 6570   |  0.801% | 
 | 149  | Manaphy            |  0.21097% | 5272   |  0.424% | 3319   |  0.404% | 
 | 150  | Zygarde            |  0.20989% | 8807   |  0.708% | 5626   |  0.686% | 
 | 151  | Volbeat            |  0.20622% | 1762   |  0.142% | 1426   |  0.174% | 
 | 152  | Gyarados-Mega      |  0.20496% | 15548  |  1.250% | 10766  |  1.312% | 
 | 153  | Arceus-Fighting    |  0.20271% | 3198   |  0.257% | 1948   |  0.237% | 
 | 154  | Magnezone          |  0.20225% | 10400  |  0.836% | 6721   |  0.819% | 
 | 155  | Keldeo             |  0.20196% | 7645   |  0.614% | 5050   |  0.615% | 
 | 156  | Krookodile         |  0.20113% | 13799  |  1.109% | 9334   |  1.137% | 
 | 157  | Milotic            |  0.20107% | 12526  |  1.007% | 8207   |  1.000% | 
 | 158  | Flygon             |  0.19878% | 8009   |  0.644% | 5445   |  0.664% | 
 | 159  | Electivire         |  0.19596% | 20332  |  1.634% | 13322  |  1.623% | 
 | 160  | Alakazam-Mega      |  0.19528% | 15158  |  1.218% | 9471   |  1.154% | 
 | 161  | Xatu               |  0.19247% | 1977   |  0.159% | 1519   |  0.185% | 
 | 162  | Gyarados           |  0.19077% | 12887  |  1.036% | 8866   |  1.080% | 
 | 163  | Hippowdon          |  0.18949% | 6268   |  0.504% | 4691   |  0.572% | 
 | 164  | Aron               |  0.18720% | 6667   |  0.536% | 4478   |  0.546% | 
 | 165  | Dugtrio            |  0.18462% | 4346   |  0.349% | 3275   |  0.399% | 
 | 166  | Kingdra            |  0.18255% | 10474  |  0.842% | 6995   |  0.852% | 
 | 167  | Slowbro            |  0.18068% | 6902   |  0.555% | 4518   |  0.551% | 
 | 168  | Porygon2           |  0.17997% | 4359   |  0.350% | 2794   |  0.340% | 
 | 169  | Gardevoir          |  0.17972% | 16212  |  1.303% | 9750   |  1.188% | 
 | 170  | Thundurus-Therian  |  0.17706% | 7423   |  0.597% | 4859   |  0.592% | 
 | 171  | Solrock            |  0.17215% | 1096   |  0.088% | 757    |  0.092% | 
 | 172  | Heracross-Mega     |  0.17058% | 13985  |  1.124% | 8676   |  1.057% | 
 | 173  | Empoleon           |  0.17054% | 10955  |  0.880% | 7504   |  0.914% | 
 | 174  | Machamp            |  0.17025% | 10119  |  0.813% | 6817   |  0.831% | 
 | 175  | Porygon-Z          |  0.16879% | 8184   |  0.658% | 5445   |  0.664% | 
 | 176  | Deoxys             |  0.16761% | 4206   |  0.338% | 2747   |  0.335% | 
 | 177  | Azelf              |  0.16673% | 4098   |  0.329% | 2929   |  0.357% | 
 | 178  | Gallade-Mega       |  0.16577% | 14432  |  1.160% | 9415   |  1.147% | 
 | 179  | Heracross          |  0.16378% | 6871   |  0.552% | 4462   |  0.544% | 
 | 180  | Ambipom            |  0.16105% | 6331   |  0.509% | 4765   |  0.581% | 
 | 181  | Rattata            |  0.16030% | 13873  |  1.115% | 10670  |  1.300% | 
 | 182  | Slurpuff           |  0.15723% | 6677   |  0.537% | 4461   |  0.544% | 
 | 183  | Sceptile           |  0.15381% | 17181  |  1.381% | 10698  |  1.304% | 
 | 184  | Raikou             |  0.15327% | 9700   |  0.780% | 6253   |  0.762% | 
 | 185  | Swampert           |  0.15286% | 13158  |  1.057% | 9305   |  1.134% | 
 | 186  | Gothitelle         |  0.15269% | 3206   |  0.258% | 2016   |  0.246% | 
 | 187  | Aggron             |  0.14653% | 8099   |  0.651% | 5602   |  0.683% | 
 | 188  | Drifblim           |  0.14093% | 3125   |  0.251% | 2190   |  0.267% | 
 | 189  | Mandibuzz          |  0.13757% | 3568   |  0.287% | 2224   |  0.271% | 
 | 190  | Donphan            |  0.13656% | 4436   |  0.357% | 3259   |  0.397% | 
 | 191  | Venusaur           |  0.13194% | 12353  |  0.993% | 7540   |  0.919% | 
 | 192  | Golduck            |  0.13194% | 3178   |  0.255% | 2221   |  0.271% | 
 | 193  | Politoed           |  0.12751% | 5351   |  0.430% | 4174   |  0.509% | 
 | 194  | Florges            |  0.12710% | 6351   |  0.510% | 3899   |  0.475% | 
 | 195  | Aggron-Mega        |  0.12656% | 8828   |  0.709% | 5887   |  0.717% | 
 | 196  | Manectric-Mega     |  0.12369% | 7938   |  0.638% | 5204   |  0.634% | 
 | 197  | Latios-Mega        |  0.12172% | 7893   |  0.634% | 4939   |  0.602% | 
 | 198  | Blastoise-Mega     |  0.12014% | 16334  |  1.313% | 11345  |  1.382% | 
 | 199  | Beedrill-Mega      |  0.11916% | 6310   |  0.507% | 4289   |  0.523% | 
 | 200  | Malamar            |  0.11910% | 5859   |  0.471% | 3857   |  0.470% | 
 | 201  | Slaking            |  0.11868% | 5455   |  0.438% | 3738   |  0.456% | 
 | 202  | Steelix            |  0.11858% | 4253   |  0.342% | 3147   |  0.383% | 
 | 203  | Slowbro-Mega       |  0.11632% | 4199   |  0.337% | 2739   |  0.334% | 
 | 204  | Gastrodon          |  0.11620% | 3634   |  0.292% | 2583   |  0.315% | 
 | 205  | Sigilyph           |  0.11425% | 5455   |  0.438% | 3363   |  0.410% | 
 | 206  | Durant             |  0.11322% | 4426   |  0.356% | 3521   |  0.429% | 
 | 207  | Feraligatr         |  0.11290% | 12790  |  1.028% | 8516   |  1.038% | 
 | 208  | Blastoise          |  0.11178% | 8978   |  0.722% | 6030   |  0.735% | 
 | 209  | Ninetales          |  0.11003% | 8040   |  0.646% | 5194   |  0.633% | 
 | 210  | Trevenant          |  0.10989% | 6532   |  0.525% | 4001   |  0.488% | 
 | 211  | Eelektross         |  0.10977% | 7790   |  0.626% | 5350   |  0.652% | 
 | 212  | Cinccino           |  0.10697% | 3724   |  0.299% | 2469   |  0.301% | 
 | 213  | Altaria-Mega       |  0.10558% | 8535   |  0.686% | 5357   |  0.653% | 
 | 214  | Magnemite          |  0.10363% | 3489   |  0.280% | 2117   |  0.258% | 
 | 215  | Pidgeot-Mega       |  0.10315% | 7586   |  0.610% | 5050   |  0.615% | 
 | 216  | Pinsir-Mega        |  0.10163% | 4847   |  0.390% | 3170   |  0.386% | 
 | 217  | Ludicolo           |  0.10116% | 6022   |  0.484% | 4071   |  0.496% | 
 | 218  | Darmanitan         |  0.10022% | 5534   |  0.445% | 3502   |  0.427% | 
 | 219  | Charizard          |  0.09975% | 13621  |  1.095% | 9077   |  1.106% | 
 | 220  | Registeel          |  0.09901% | 2527   |  0.203% | 1716   |  0.209% | 
 | 221  | Chatot             |  0.09887% | 2544   |  0.204% | 1941   |  0.237% | 
 | 222  | Chesnaught         |  0.09878% | 8308   |  0.668% | 5333   |  0.650% | 
 | 223  | Lapras             |  0.09832% | 12679  |  1.019% | 8888   |  1.083% | 
 | 224  | Muk                |  0.09795% | 3500   |  0.281% | 2461   |  0.300% | 
 | 225  | Raichu             |  0.09693% | 12956  |  1.041% | 9064   |  1.105% | 
 | 226  | Typhlosion         |  0.09551% | 9986   |  0.803% | 6677   |  0.814% | 
 | 227  | Roserade           |  0.09315% | 6687   |  0.537% | 4377   |  0.533% | 
 | 228  | Absol-Mega         |  0.09191% | 7795   |  0.626% | 5134   |  0.626% | 
 | 229  | Hitmonlee          |  0.09098% | 4161   |  0.334% | 2940   |  0.358% | 
 | 230  | Honchkrow          |  0.08911% | 6119   |  0.492% | 3929   |  0.479% | 
 | 231  | Drapion            |  0.08907% | 7447   |  0.598% | 5298   |  0.646% | 
 | 232  | Liepard            |  0.08851% | 2519   |  0.202% | 1926   |  0.235% | 
 | 233  | Golem              |  0.08775% | 4878   |  0.392% | 3792   |  0.462% | 
 | 234  | Toxicroak          |  0.08764% | 6604   |  0.531% | 4464   |  0.544% | 
 | 235  | Froslass           |  0.08758% | 4895   |  0.393% | 3452   |  0.421% | 
 | 236  | Probopass          |  0.08639% | 1884   |  0.151% | 1286   |  0.157% | 
 | 237  | Scrafty            |  0.08574% | 4954   |  0.398% | 3440   |  0.419% | 
 | 238  | Arceus-Bug         |  0.08419% | 1603   |  0.129% | 943    |  0.115% | 
 | 239  | Rotom-Heat         |  0.08286% | 3351   |  0.269% | 2343   |  0.286% | 
 | 240  | Articuno           |  0.08280% | 8009   |  0.644% | 5086   |  0.620% | 
 | 241  | Glalie-Mega        |  0.08258% | 2356   |  0.189% | 1491   |  0.182% | 
 | 242  | Celebi             |  0.08165% | 4636   |  0.373% | 2985   |  0.364% | 
 | 243  | Weezing            |  0.08053% | 3486   |  0.280% | 2557   |  0.312% | 
 | 244  | Banette-Mega       |  0.07903% | 4574   |  0.368% | 3130   |  0.381% | 
 | 245  | Dusclops           |  0.07903% | 3032   |  0.244% | 2037   |  0.248% | 
 | 246  | Barbaracle         |  0.07851% | 2325   |  0.187% | 1538   |  0.187% | 
 | 247  | Luxray             |  0.07707% | 10303  |  0.828% | 7083   |  0.863% | 
 | 248  | Tyrantrum          |  0.07643% | 8279   |  0.665% | 5470   |  0.667% | 
 | 249  | Tornadus-Therian   |  0.07635% | 2505   |  0.201% | 1536   |  0.187% | 
 | 250  | Gallade            |  0.07509% | 6138   |  0.493% | 4068   |  0.496% | 
 | 251  | Diggersby          |  0.07448% | 2731   |  0.219% | 1807   |  0.220% | 
 | 252  | Rhyperior          |  0.07404% | 4990   |  0.401% | 3417   |  0.416% | 
 | 253  | Entei              |  0.07186% | 4039   |  0.325% | 2592   |  0.316% | 
 | 254  | Uxie               |  0.07105% | 1091   |  0.088% | 823    |  0.100% | 
 | 255  | Arceus-Psychic     |  0.07046% | 2622   |  0.211% | 1683   |  0.205% | 
 | 256  | Delphox            |  0.06963% | 8191   |  0.658% | 5240   |  0.639% | 
 | 257  | Latias-Mega        |  0.06949% | 3921   |  0.315% | 2469   |  0.301% | 
 | 258  | Mienshao           |  0.06923% | 2866   |  0.230% | 1988   |  0.242% | 
 | 259  | Aerodactyl         |  0.06823% | 3853   |  0.310% | 2778   |  0.339% | 
 | 260  | Regigigas          |  0.06799% | 4359   |  0.350% | 2925   |  0.356% | 
 | 261  | Alomomola          |  0.06773% | 1463   |  0.118% | 895    |  0.109% | 
 | 262  | Ampharos-Mega      |  0.06772% | 7324   |  0.589% | 4965   |  0.605% | 
 | 263  | Crawdaunt          |  0.06764% | 4310   |  0.346% | 2893   |  0.353% | 
 | 264  | Torterra           |  0.06697% | 9201   |  0.739% | 6208   |  0.756% | 
 | 265  | Exeggutor          |  0.06577% | 5164   |  0.415% | 3186   |  0.388% | 
 | 266  | Primeape           |  0.06553% | 2441   |  0.196% | 1514   |  0.184% | 
 | 267  | Heliolisk          |  0.06533% | 5224   |  0.420% | 3428   |  0.418% | 
 | 268  | Gorebyss           |  0.06432% | 2329   |  0.187% | 1804   |  0.220% | 
 | 269  | Masquerain         |  0.06217% | 868    |  0.070% | 672    |  0.082% | 
 | 270  | Dusknoir           |  0.06151% | 4446   |  0.357% | 3082   |  0.376% | 
 | 271  | Hitmontop          |  0.05992% | 2793   |  0.224% | 1918   |  0.234% | 
 | 272  | Venomoth           |  0.05933% | 2443   |  0.196% | 1774   |  0.216% | 
 | 273  | Doublade           |  0.05763% | 2163   |  0.174% | 1471   |  0.179% | 
 | 274  | Vivillon           |  0.05749% | 3392   |  0.273% | 2391   |  0.291% | 
 | 275  | Sharpedo           |  0.05640% | 2947   |  0.237% | 1971   |  0.240% | 
 | 276  | Escavalier         |  0.05575% | 2182   |  0.175% | 1377   |  0.168% | 
 | 277  | Sharpedo-Mega      |  0.05545% | 3702   |  0.298% | 2354   |  0.287% | 
 | 278  | Gigalith           |  0.05410% | 2487   |  0.200% | 1910   |  0.233% | 
 | 279  | Electrode          |  0.05350% | 1952   |  0.157% | 1402   |  0.171% | 
 | 280  | Reuniclus          |  0.05318% | 2980   |  0.239% | 1847   |  0.225% | 
 | 281  | Magmortar          |  0.05310% | 5213   |  0.419% | 3251   |  0.396% | 
 | 282  | Cottonee           |  0.05205% | 1699   |  0.137% | 1142   |  0.139% | 
 | 283  | Moltres            |  0.05159% | 5006   |  0.402% | 3210   |  0.391% | 
 | 284  | Yanmega            |  0.05103% | 2125   |  0.171% | 1385   |  0.169% | 
 | 285  | Spiritomb          |  0.05058% | 3570   |  0.287% | 2549   |  0.311% | 
 | 286  | Linoone            |  0.04882% | 2418   |  0.194% | 1552   |  0.189% | 
 | 287  | Houndoom-Mega      |  0.04868% | 5418   |  0.435% | 3509   |  0.428% | 
 | 288  | Absol              |  0.04859% | 3235   |  0.260% | 2081   |  0.254% | 
 | 289  | Regirock           |  0.04849% | 2057   |  0.165% | 1404   |  0.171% | 
 | 290  | Diancie            |  0.04848% | 2244   |  0.180% | 1471   |  0.179% | 
 | 291  | Cobalion           |  0.04821% | 2079   |  0.167% | 1253   |  0.153% | 
 | 292  | Mismagius          |  0.04793% | 3476   |  0.279% | 2252   |  0.274% | 
 | 293  | Tangrowth          |  0.04767% | 3241   |  0.260% | 1951   |  0.238% | 
 | 294  | Slowking           |  0.04743% | 3648   |  0.293% | 2439   |  0.297% | 
 | 295  | Regice             |  0.04735% | 2568   |  0.206% | 1698   |  0.207% | 
 | 296  | Tornadus           |  0.04645% | 788    |  0.063% | 484    |  0.059% | 
 | 297  | Ariados            |  0.04616% | 1624   |  0.131% | 1419   |  0.173% | 
 | 298  | Meloetta           |  0.04431% | 2583   |  0.208% | 1694   |  0.206% | 
 | 299  | Jellicent          |  0.04407% | 2969   |  0.239% | 1862   |  0.227% | 
 | 300  | Dragalge           |  0.04402% | 3911   |  0.314% | 2637   |  0.321% | 
 | 301  | Kabutops           |  0.04395% | 2468   |  0.198% | 1620   |  0.197% | 
 | 302  | Zangoose           |  0.04385% | 2270   |  0.182% | 1492   |  0.182% | 
 | 303  | Pineco             |  0.04373% | 2190   |  0.176% | 1632   |  0.199% | 
 | 304  | Meowstic           |  0.04316% | 3578   |  0.288% | 2772   |  0.338% | 
 | 305  | Bastiodon          |  0.04310% | 2278   |  0.183% | 1615   |  0.197% | 
 | 306  | Cradily            |  0.04236% | 3681   |  0.296% | 2442   |  0.298% | 
 | 307  | Miltank            |  0.04209% | 2633   |  0.212% | 1673   |  0.204% | 
 | 308  | Swellow            |  0.04208% | 3457   |  0.278% | 2258   |  0.275% | 
 | 309  | Golurk             |  0.04181% | 3889   |  0.313% | 2696   |  0.329% | 
 | 310  | Clawitzer          |  0.04013% | 4206   |  0.338% | 2693   |  0.328% | 
 | 311  | Lanturn            |  0.03954% | 3406   |  0.274% | 2295   |  0.280% | 
 | 312  | Flareon            |  0.03785% | 4509   |  0.362% | 2849   |  0.347% | 
 | 313  | Steelix-Mega       |  0.03712% | 5375   |  0.432% | 3798   |  0.463% | 
 | 314  | Accelgor           |  0.03689% | 2357   |  0.189% | 1639   |  0.200% | 
 | 315  | Exploud            |  0.03635% | 1749   |  0.141% | 1107   |  0.135% | 
 | 316  | Rampardos          |  0.03625% | 2694   |  0.217% | 1687   |  0.206% | 
 | 317  | Houndoom           |  0.03607% | 2946   |  0.237% | 1942   |  0.237% | 
 | 318  | Wynaut             |  0.03601% | 1095   |  0.088% | 842    |  0.103% | 
 | 319  | Virizion           |  0.03572% | 1792   |  0.144% | 1084   |  0.132% | 
 | 320  | Glaceon            |  0.03551% | 4136   |  0.332% | 2690   |  0.328% | 
 | 321  | Sawk               |  0.03517% | 1642   |  0.132% | 1122   |  0.137% | 
 | 322  | Omastar            |  0.03496% | 2122   |  0.171% | 1515   |  0.185% | 
 | 323  | Marowak            |  0.03441% | 3004   |  0.241% | 2069   |  0.252% | 
 | 324  | Scyther            |  0.03394% | 2546   |  0.205% | 1576   |  0.192% | 
 | 325  | Leafeon            |  0.03304% | 3888   |  0.312% | 2330   |  0.284% | 
 | 326  | Avalugg            |  0.03301% | 2623   |  0.211% | 1703   |  0.208% | 
 | 327  | Archeops           |  0.03198% | 2300   |  0.185% | 1579   |  0.192% | 
 | 328  | Emboar             |  0.03139% | 5151   |  0.414% | 3252   |  0.396% | 
 | 329  | Rotom-Mow          |  0.03119% | 1692   |  0.136% | 1076   |  0.131% | 
 | 330  | Audino-Mega        |  0.03051% | 1785   |  0.143% | 1098   |  0.134% | 
 | 331  | Carracosta         |  0.02875% | 2011   |  0.162% | 1379   |  0.168% | 
 | 332  | Crustle            |  0.02870% | 1511   |  0.121% | 1146   |  0.140% | 
 | 333  | Lickilicky         |  0.02849% | 1089   |  0.088% | 781    |  0.095% | 
 | 334  | Leavanny           |  0.02818% | 1448   |  0.116% | 1092   |  0.133% | 
 | 335  | Huntail            |  0.02784% | 1442   |  0.116% | 1125   |  0.137% | 
 | 336  | Hitmonchan         |  0.02760% | 2428   |  0.195% | 1681   |  0.205% | 
 | 337  | Illumise           |  0.02744% | 309    |  0.025% | 228    |  0.028% | 
 | 338  | Starly             |  0.02729% | 3203   |  0.257% | 2222   |  0.271% | 
 | 339  | Hariyama           |  0.02693% | 1449   |  0.116% | 984    |  0.120% | 
 | 340  | Seismitoad         |  0.02678% | 2354   |  0.189% | 1620   |  0.197% | 
 | 341  | Hoopa              |  0.02644% | 1434   |  0.115% | 932    |  0.114% | 
 | 342  | Wigglytuff         |  0.02640% | 1829   |  0.147% | 1166   |  0.142% | 
 | 343  | Abomasnow-Mega     |  0.02639% | 4041   |  0.325% | 2614   |  0.319% | 
 | 344  | Kyurem             |  0.02585% | 1895   |  0.152% | 1171   |  0.143% | 
 | 345  | Samurott           |  0.02573% | 5217   |  0.419% | 3430   |  0.418% | 
 | 346  | Gourgeist-Super    |  0.02528% | 1044   |  0.084% | 716    |  0.087% | 
 | 347  | Ampharos           |  0.02459% | 3288   |  0.264% | 2101   |  0.256% | 
 | 348  | Kecleon            |  0.02457% | 1345   |  0.108% | 891    |  0.109% | 
 | 349  | Magikarp           |  0.02408% | 3966   |  0.319% | 2420   |  0.295% | 
 | 350  | Cacturne           |  0.02387% | 1983   |  0.159% | 1285   |  0.157% | 
 | 351  | Medicham           |  0.02361% | 1354   |  0.109% | 942    |  0.115% | 
 | 352  | Tauros             |  0.02352% | 2223   |  0.179% | 1565   |  0.191% | 
 | 353  | Nidoqueen          |  0.02337% | 2220   |  0.178% | 1626   |  0.198% | 
 | 354  | Claydol            |  0.02333% | 1160   |  0.093% | 812    |  0.099% | 
 | 355  | Aurorus            |  0.02300% | 3294   |  0.265% | 2248   |  0.274% | 
 | 356  | Armaldo            |  0.02292% | 1331   |  0.107% | 931    |  0.113% | 
 | 357  | Stoutland          |  0.02281% | 1267   |  0.102% | 860    |  0.105% | 
 | 358  | Vileplume          |  0.02267% | 2113   |  0.170% | 1355   |  0.165% | 
 | 359  | Druddigon          |  0.02250% | 1639   |  0.132% | 1098   |  0.134% | 
 | 360  | Dunsparce          |  0.02187% | 1102   |  0.089% | 731    |  0.089% | 
 | 361  | Gothorita          |  0.02172% | 748    |  0.060% | 565    |  0.069% | 
 | 362  | Rhydon             |  0.02160% | 1848   |  0.149% | 1314   |  0.160% | 
 | 363  | Gligar             |  0.02140% | 477    |  0.038% | 330    |  0.040% | 
 | 364  | Torkoal            |  0.02132% | 1801   |  0.145% | 1351   |  0.165% | 
 | 365  | Dedenne            |  0.02124% | 2813   |  0.226% | 1991   |  0.243% | 
 | 366  | Lilligant          |  0.02123% | 2162   |  0.174% | 1240   |  0.151% | 
 | 367  | Carbink            |  0.02117% | 908    |  0.073% | 701    |  0.085% | 
 | 368  | Furfrou            |  0.02109% | 950    |  0.076% | 636    |  0.078% | 
 | 369  | Altaria            |  0.02094% | 1947   |  0.156% | 1197   |  0.146% | 
 | 370  | Pangoro            |  0.02087% | 3048   |  0.245% | 2121   |  0.258% | 
 | 371  | Taillow            |  0.02079% | 1807   |  0.145% | 948    |  0.116% | 
 | 372  | Braviary           |  0.02044% | 3223   |  0.259% | 2154   |  0.262% | 
 | 373  | Ursaring           |  0.02027% | 2118   |  0.170% | 1367   |  0.167% | 
 | 374  | Meganium           |  0.02018% | 3206   |  0.258% | 1987   |  0.242% | 
 | 375  | Diglett            |  0.02017% | 563    |  0.045% | 484    |  0.059% | 
 | 376  | Raticate           |  0.02013% | 2449   |  0.197% | 1482   |  0.181% | 
 | 377  | Butterfree         |  0.01993% | 1828   |  0.147% | 1188   |  0.145% | 
 | 378  | Tropius            |  0.01982% | 1336   |  0.107% | 819    |  0.100% | 
 | 379  | Treecko            |  0.01959% | 1619   |  0.130% | 970    |  0.118% | 
 | 380  | Mawile             |  0.01866% | 1261   |  0.101% | 782    |  0.095% | 
 | 381  | Persian            |  0.01852% | 1670   |  0.134% | 1159   |  0.141% | 
 | 382  | Lopunny            |  0.01831% | 1284   |  0.103% | 859    |  0.105% | 
 | 383  | Shiftry            |  0.01815% | 2145   |  0.172% | 1422   |  0.173% | 
 | 384  | Klinklang          |  0.01803% | 1381   |  0.111% | 911    |  0.111% | 
 | 385  | Manectric          |  0.01791% | 2378   |  0.191% | 1553   |  0.189% | 
 | 386  | Emolga             |  0.01716% | 1443   |  0.116% | 1118   |  0.136% | 
 | 387  | Abomasnow          |  0.01711% | 1670   |  0.134% | 1094   |  0.133% | 
 | 388  | Sandslash          |  0.01683% | 1339   |  0.108% | 911    |  0.111% | 
 | 389  | Arbok              |  0.01662% | 1484   |  0.119% | 999    |  0.122% | 
 | 390  | Wailord            |  0.01647% | 1865   |  0.150% | 1343   |  0.164% | 
 | 391  | Swoobat            |  0.01578% | 1133   |  0.091% | 591    |  0.072% | 
 | 392  | Jynx               |  0.01570% | 1150   |  0.092% | 733    |  0.089% | 
 | 393  | Camerupt-Mega      |  0.01504% | 1680   |  0.135% | 1145   |  0.140% | 
 | 394  | Walrein            |  0.01501% | 1523   |  0.122% | 1055   |  0.129% | 
 | 395  | Granbull           |  0.01450% | 810    |  0.065% | 550    |  0.067% | 
 | 396  | Kangaskhan         |  0.01435% | 1104   |  0.089% | 702    |  0.086% | 
 | 397  | Drowzee            |  0.01429% | 120    |  0.010% | 94     |  0.011% | 
 | 398  | Rapidash           |  0.01365% | 1814   |  0.146% | 1247   |  0.152% | 
 | 399  | Cryogonal          |  0.01339% | 486    |  0.039% | 336    |  0.041% | 
 | 400  | Noctowl            |  0.01334% | 1234   |  0.099% | 828    |  0.101% | 
 | 401  | Aromatisse         |  0.01289% | 777    |  0.062% | 480    |  0.058% | 
 | 402  | Mantine            |  0.01288% | 627    |  0.050% | 404    |  0.049% | 
 | 403  | Poliwrath          |  0.01269% | 2978   |  0.239% | 1990   |  0.242% | 
 | 404  | Dodrio             |  0.01259% | 2335   |  0.188% | 1479   |  0.180% | 
 | 405  | Pyroar             |  0.01238% | 2637   |  0.212% | 1778   |  0.217% | 
 | 406  | Tentacool          |  0.01234% | 87     |  0.007% | 74     |  0.009% | 
 | 407  | Combusken          |  0.01228% | 967    |  0.078% | 720    |  0.088% | 
 | 408  | Sudowoodo          |  0.01212% | 925    |  0.074% | 708    |  0.086% | 
 | 409  | Electabuzz         |  0.01181% | 786    |  0.063% | 530    |  0.065% | 
 | 410  | Bibarel            |  0.01140% | 524    |  0.042% | 349    |  0.043% | 
 | 411  | Tangela            |  0.01129% | 319    |  0.026% | 201    |  0.024% | 
 | 412  | Shaymin            |  0.01104% | 853    |  0.069% | 505    |  0.062% | 
 | 413  | Eevee              |  0.01064% | 1394   |  0.112% | 991    |  0.121% | 
 | 414  | Sawsbuck           |  0.01055% | 642    |  0.052% | 426    |  0.052% | 
 | 415  | Magneton           |  0.01040% | 948    |  0.076% | 644    |  0.078% | 
 | 416  | Mightyena          |  0.01031% | 1058   |  0.085% | 751    |  0.092% | 
 | 417  | Floatzel           |  0.01025% | 1916   |  0.154% | 1370   |  0.167% | 
 | 418  | Girafarig          |  0.01023% | 565    |  0.045% | 376    |  0.046% | 
 | 419  | Doduo              |  0.01013% | 1657   |  0.133% | 899    |  0.110% | 
 | 420  | Victreebel         |  0.01002% | 1596   |  0.128% | 1053   |  0.128% | 
 | 421  | Hypno              |  0.00994% | 1059   |  0.085% | 704    |  0.086% | 
 | 422  | Relicanth          |  0.00986% | 374    |  0.030% | 253    |  0.031% | 
 | 423  | Togetic            |  0.00985% | 876    |  0.070% | 599    |  0.073% | 
 | 424  | Rotom              |  0.00967% | 1192   |  0.096% | 844    |  0.103% | 
 | 425  | Rotom-Frost        |  0.00945% | 948    |  0.076% | 632    |  0.077% | 
 | 426  | Qwilfish           |  0.00908% | 473    |  0.038% | 391    |  0.048% | 
 | 427  | Bouffalant         |  0.00900% | 898    |  0.072% | 617    |  0.075% | 
 | 428  | Musharna           |  0.00884% | 649    |  0.052% | 443    |  0.054% | 
 | 429  | Garbodor           |  0.00876% | 705    |  0.057% | 496    |  0.060% | 
 | 430  | Skuntank           |  0.00858% | 574    |  0.046% | 389    |  0.047% | 
 | 431  | Mesprit            |  0.00858% | 596    |  0.048% | 386    |  0.047% | 
 | 432  | Octillery          |  0.00851% | 543    |  0.044% | 344    |  0.042% | 
 | 433  | Vespiquen          |  0.00840% | 856    |  0.069% | 507    |  0.062% | 
 | 434  | Swinub             |  0.00821% | 230    |  0.018% | 122    |  0.015% | 
 | 435  | Vanilluxe          |  0.00778% | 862    |  0.069% | 519    |  0.063% | 
 | 436  | Gogoat             |  0.00769% | 1715   |  0.138% | 1107   |  0.135% | 
 | 437  | Clefairy           |  0.00760% | 505    |  0.041% | 342    |  0.042% | 
 | 438  | Kingler            |  0.00757% | 1110   |  0.089% | 766    |  0.093% | 
 | 439  | Riolu              |  0.00751% | 684    |  0.055% | 521    |  0.063% | 
 | 440  | Banette            |  0.00747% | 898    |  0.072% | 627    |  0.076% | 
 | 441  | Unfezant           |  0.00735% | 1975   |  0.159% | 1318   |  0.161% | 
 | 442  | Jumpluff           |  0.00731% | 794    |  0.064% | 528    |  0.064% | 
 | 443  | Onix               |  0.00720% | 727    |  0.058% | 561    |  0.068% | 
 | 444  | Zebstrika          |  0.00717% | 914    |  0.073% | 616    |  0.075% | 
 | 445  | Carnivine          |  0.00713% | 274    |  0.022% | 187    |  0.023% | 
 | 446  | Staryu             |  0.00711% | 98     |  0.008% | 67     |  0.008% | 
 | 447  | Beartic            |  0.00706% | 796    |  0.064% | 501    |  0.061% | 
 | 448  | Abra               |  0.00691% | 318    |  0.026% | 235    |  0.029% | 
 | 449  | Magcargo           |  0.00684% | 555    |  0.045% | 360    |  0.044% | 
 | 450  | Archen             |  0.00675% | 638    |  0.051% | 268    |  0.033% | 
 | 451  | Drifloon           |  0.00668% | 96     |  0.008% | 68     |  0.008% | 
 | 452  | Pidgeot            |  0.00662% | 2418   |  0.194% | 1653   |  0.201% | 
 | 453  | Pachirisu          |  0.00651% | 867    |  0.070% | 594    |  0.072% | 
 | 454  | Hippopotas         |  0.00632% | 927    |  0.075% | 611    |  0.074% | 
 | 455  | Misdreavus         |  0.00626% | 429    |  0.034% | 312    |  0.038% | 
 | 456  | Yamask             |  0.00623% | 219    |  0.018% | 179    |  0.022% | 
 | 457  | Haunter            |  0.00601% | 882    |  0.071% | 674    |  0.082% | 
 | 458  | Purugly            |  0.00578% | 385    |  0.031% | 299    |  0.036% | 
 | 459  | Dragonair          |  0.00563% | 762    |  0.061% | 533    |  0.065% | 
 | 460  | Magmar             |  0.00562% | 485    |  0.039% | 344    |  0.042% | 
 | 461  | Grumpig            |  0.00546% | 308    |  0.025% | 212    |  0.026% | 
 | 462  | Golbat             |  0.00539% | 388    |  0.031% | 290    |  0.035% | 
 | 463  | Spinda             |  0.00538% | 839    |  0.067% | 570    |  0.069% | 
 | 464  | Delcatty           |  0.00520% | 462    |  0.037% | 339    |  0.041% | 
 | 465  | Delibird           |  0.00505% | 593    |  0.048% | 393    |  0.048% | 
 | 466  | Simisear           |  0.00488% | 319    |  0.026% | 197    |  0.024% | 
 | 467  | Swanna             |  0.00465% | 632    |  0.051% | 381    |  0.046% | 
 | 468  | Pelipper           |  0.00454% | 384    |  0.031% | 263    |  0.032% | 
 | 469  | Gothita            |  0.00452% | 223    |  0.018% | 125    |  0.015% | 
 | 470  | Camerupt           |  0.00448% | 619    |  0.050% | 410    |  0.050% | 
 | 471  | Dewgong            |  0.00448% | 699    |  0.056% | 492    |  0.060% | 
 | 472  | Beheeyem           |  0.00428% | 617    |  0.050% | 402    |  0.049% | 
 | 473  | Voltorb            |  0.00426% | 142    |  0.011% | 116    |  0.014% | 
 | 474  | Beedrill           |  0.00423% | 585    |  0.047% | 428    |  0.052% | 
 | 475  | Whiscash           |  0.00419% | 610    |  0.049% | 397    |  0.048% | 
 | 476  | Fletchinder        |  0.00406% | 388    |  0.031% | 274    |  0.033% | 
 | 477  | Castform           |  0.00396% | 608    |  0.049% | 419    |  0.051% | 
 | 478  | Gastly             |  0.00395% | 515    |  0.041% | 389    |  0.047% | 
 | 479  | Furret             |  0.00387% | 577    |  0.046% | 434    |  0.053% | 
 | 480  | Ferroseed          |  0.00384% | 275    |  0.022% | 215    |  0.026% | 
 | 481  | Squirtle           |  0.00380% | 886    |  0.071% | 657    |  0.080% | 
 | 482  | Stunfisk           |  0.00376% | 464    |  0.037% | 357    |  0.044% | 
 | 483  | Wartortle          |  0.00375% | 583    |  0.047% | 432    |  0.053% | 
 | 484  | Braixen            |  0.00372% | 756    |  0.061% | 531    |  0.065% | 
 | 485  | Bayleef            |  0.00366% | 657    |  0.053% | 430    |  0.052% | 
 | 486  | Seaking            |  0.00362% | 689    |  0.055% | 439    |  0.053% | 
 | 487  | Munchlax           |  0.00361% | 582    |  0.047% | 424    |  0.052% | 
 | 488  | Staravia           |  0.00353% | 879    |  0.071% | 443    |  0.054% | 
 | 489  | Ralts              |  0.00352% | 283    |  0.023% | 201    |  0.024% | 
 | 490  | Lunatone           |  0.00349% | 359    |  0.029% | 221    |  0.027% | 
 | 491  | Aipom              |  0.00346% | 237    |  0.019% | 157    |  0.019% | 
 | 492  | Vullaby            |  0.00345% | 62     |  0.005% | 31     |  0.004% | 
 | 493  | Lairon             |  0.00331% | 236    |  0.019% | 151    |  0.018% | 
 | 494  | Natu               |  0.00325% | 128    |  0.010% | 88     |  0.011% | 
 | 495  | Farfetch'd         |  0.00325% | 466    |  0.037% | 297    |  0.036% | 
 | 496  | Simisage           |  0.00324% | 409    |  0.033% | 264    |  0.032% | 
 | 497  | Throh              |  0.00320% | 498    |  0.040% | 324    |  0.039% | 
 | 498  | Audino             |  0.00319% | 526    |  0.042% | 265    |  0.032% | 
 | 499  | Machoke            |  0.00308% | 273    |  0.022% | 203    |  0.025% | 
 | 500  | Vigoroth           |  0.00308% | 259    |  0.021% | 194    |  0.024% | 
 | 501  | Jigglypuff         |  0.00306% | 454    |  0.036% | 302    |  0.037% | 
 | 502  | Buizel             |  0.00302% | 572    |  0.046% | 404    |  0.049% | 
 | 503  | Pancham            |  0.00300% | 184    |  0.015% | 145    |  0.018% | 
 | 504  | Piloswine          |  0.00298% | 143    |  0.011% | 109    |  0.013% | 
 | 505  | Fearow             |  0.00293% | 483    |  0.039% | 339    |  0.041% | 
 | 506  | Kricketune         |  0.00289% | 489    |  0.039% | 406    |  0.049% | 
 | 507  | Roselia            |  0.00287% | 164    |  0.013% | 125    |  0.015% | 
 | 508  | Prinplup           |  0.00283% | 68     |  0.005% | 55     |  0.007% | 
 | 509  | Gurdurr            |  0.00280% | 72     |  0.006% | 56     |  0.007% | 
 | 510  | Budew              |  0.00277% | 26     |  0.002% | 20     |  0.002% | 
 | 511  | Psyduck            |  0.00274% | 205    |  0.016% | 149    |  0.018% | 
 | 512  | Porygon            |  0.00271% | 258    |  0.021% | 193    |  0.024% | 
 | 513  | Bidoof             |  0.00268% | 451    |  0.036% | 313    |  0.038% | 
 | 514  | Ponyta             |  0.00266% | 111    |  0.009% | 72     |  0.009% | 
 | 515  | Sunkern            |  0.00265% | 265    |  0.021% | 165    |  0.020% | 
 | 516  | Buneary            |  0.00264% | 466    |  0.037% | 219    |  0.027% | 
 | 517  | Rotom-Fan          |  0.00261% | 620    |  0.050% | 435    |  0.053% | 
 | 518  | Solosis            |  0.00259% | 346    |  0.028% | 171    |  0.021% | 
 | 519  | Swalot             |  0.00259% | 276    |  0.022% | 188    |  0.023% | 
 | 520  | Mothim             |  0.00256% | 170    |  0.014% | 106    |  0.013% | 
 | 521  | Sewaddle           |  0.00250% | 76     |  0.006% | 60     |  0.007% | 
 | 522  | Plusle             |  0.00247% | 271    |  0.022% | 169    |  0.021% | 
 | 523  | Glalie             |  0.00246% | 870    |  0.070% | 609    |  0.074% | 
 | 524  | Yanma              |  0.00233% | 87     |  0.007% | 56     |  0.007% | 
 | 525  | Zubat              |  0.00229% | 365    |  0.029% | 263    |  0.032% | 
 | 526  | Mantyke            |  0.00226% | 52     |  0.004% | 42     |  0.005% | 
 | 527  | Geodude            |  0.00224% | 310    |  0.025% | 257    |  0.031% | 
 | 528  | Shroomish          |  0.00217% | 140    |  0.011% | 99     |  0.012% | 
 | 529  | Mudkip             |  0.00217% | 339    |  0.027% | 233    |  0.028% | 
 | 530  | Feebas             |  0.00216% | 241    |  0.019% | 170    |  0.021% | 
 | 531  | Bellossom          |  0.00212% | 380    |  0.031% | 223    |  0.027% | 
 | 532  | Frogadier          |  0.00212% | 468    |  0.038% | 352    |  0.043% | 
 | 533  | Watchog            |  0.00210% | 219    |  0.018% | 153    |  0.019% | 
 | 534  | Silcoon            |  0.00208% | 29     |  0.002% | 24     |  0.003% | 
 | 535  | Bulbasaur          |  0.00204% | 800    |  0.064% | 575    |  0.070% | 
 | 536  | Torchic            |  0.00203% | 448    |  0.036% | 360    |  0.044% | 
 | 537  | Bunnelby           |  0.00203% | 445    |  0.036% | 275    |  0.034% | 
 | 538  | Basculin           |  0.00203% | 195    |  0.016% | 136    |  0.017% | 
 | 539  | Gabite             |  0.00201% | 191    |  0.015% | 129    |  0.016% | 
 | 540  | Clamperl           |  0.00189% | 240    |  0.019% | 156    |  0.019% | 
 | 541  | Hoppip             |  0.00188% | 327    |  0.026% | 272    |  0.033% | 
 | 542  | Seviper            |  0.00188% | 498    |  0.040% | 319    |  0.039% | 
 | 543  | Nuzleaf            |  0.00181% | 60     |  0.005% | 48     |  0.006% | 
 | 544  | Minun              |  0.00176% | 492    |  0.040% | 352    |  0.043% | 
 | 545  | Carvanha           |  0.00175% | 116    |  0.009% | 80     |  0.010% | 
 | 546  | Whirlipede         |  0.00175% | 198    |  0.016% | 144    |  0.018% | 
 | 547  | Bonsly             |  0.00173% | 135    |  0.011% | 98     |  0.012% | 
 | 548  | Frillish           |  0.00173% | 98     |  0.008% | 69     |  0.008% | 
 | 549  | Drilbur            |  0.00171% | 114    |  0.009% | 74     |  0.009% | 
 | 550  | Charmander         |  0.00171% | 575    |  0.046% | 426    |  0.052% | 
 | 551  | Wormadam-Trash     |  0.00170% | 195    |  0.016% | 156    |  0.019% | 
 | 552  | Scraggy            |  0.00169% | 117    |  0.009% | 90     |  0.011% | 
 | 553  | Spinarak           |  0.00168% | 92     |  0.007% | 74     |  0.009% | 
 | 554  | Swadloon           |  0.00164% | 158    |  0.013% | 127    |  0.015% | 
 | 555  | Happiny            |  0.00164% | 92     |  0.007% | 68     |  0.008% | 
 | 556  | Corsola            |  0.00164% | 177    |  0.014% | 142    |  0.017% | 
 | 557  | Fletchling         |  0.00163% | 153    |  0.012% | 113    |  0.014% | 
 | 558  | Palpitoad          |  0.00160% | 195    |  0.016% | 103    |  0.013% | 
 | 559  | Ducklett           |  0.00159% | 138    |  0.011% | 98     |  0.012% | 
 | 560  | Ledian             |  0.00156% | 282    |  0.023% | 184    |  0.022% | 
 | 561  | Simipour           |  0.00155% | 248    |  0.020% | 168    |  0.020% | 
 | 562  | Snivy              |  0.00153% | 383    |  0.031% | 263    |  0.032% | 
 | 563  | Caterpie           |  0.00152% | 520    |  0.042% | 282    |  0.034% | 
 | 564  | Pichu              |  0.00151% | 773    |  0.062% | 520    |  0.063% | 
 | 565  | Stantler           |  0.00149% | 180    |  0.014% | 119    |  0.015% | 
 | 566  | Wormadam-Sandy     |  0.00148% | 140    |  0.011% | 108    |  0.013% | 
 | 567  | Metang             |  0.00148% | 160    |  0.013% | 124    |  0.015% | 
 | 568  | Shellder           |  0.00147% | 89     |  0.007% | 62     |  0.008% | 
 | 569  | Trapinch           |  0.00146% | 79     |  0.006% | 54     |  0.007% | 
 | 570  | Meditite           |  0.00145% | 93     |  0.007% | 67     |  0.008% | 
 | 571  | Froakie            |  0.00144% | 319    |  0.026% | 242    |  0.029% | 
 | 572  | Pinsir             |  0.00142% | 357    |  0.029% | 246    |  0.030% | 
 | 573  | Metapod            |  0.00139% | 338    |  0.027% | 278    |  0.034% | 
 | 574  | Tyrunt             |  0.00137% | 127    |  0.010% | 94     |  0.011% | 
 | 575  | Mankey             |  0.00136% | 123    |  0.010% | 82     |  0.010% | 
 | 576  | Gible              |  0.00134% | 215    |  0.017% | 152    |  0.019% | 
 | 577  | Luvdisc            |  0.00130% | 182    |  0.015% | 112    |  0.014% | 
 | 578  | Beautifly          |  0.00129% | 336    |  0.027% | 220    |  0.027% | 
 | 579  | Quilladin          |  0.00123% | 150    |  0.012% | 102    |  0.012% | 
 | 580  | Wailmer            |  0.00122% | 58     |  0.005% | 36     |  0.004% | 
 | 581  | Grovyle            |  0.00122% | 351    |  0.028% | 229    |  0.028% | 
 | 582  | Piplup             |  0.00121% | 219    |  0.018% | 171    |  0.021% | 
 | 583  | Omanyte            |  0.00121% | 175    |  0.014% | 154    |  0.019% | 
 | 584  | Lumineon           |  0.00120% | 157    |  0.013% | 110    |  0.013% | 
 | 585  | Maractus           |  0.00117% | 254    |  0.020% | 171    |  0.021% | 
 | 586  | Unown              |  0.00115% | 223    |  0.018% | 158    |  0.019% | 
 | 587  | Quilava            |  0.00112% | 438    |  0.035% | 308    |  0.038% | 
 | 588  | Lickitung          |  0.00111% | 250    |  0.020% | 168    |  0.020% | 
 | 589  | Parasect           |  0.00108% | 489    |  0.039% | 289    |  0.035% | 
 | 590  | Gourgeist-Small    |  0.00107% | 189    |  0.015% | 86     |  0.010% | 
 | 591  | Togepi             |  0.00107% | 204    |  0.016% | 142    |  0.017% | 
 | 592  | Sliggoo            |  0.00106% | 93     |  0.007% | 63     |  0.008% | 
 | 593  | Sneasel            |  0.00105% | 342    |  0.027% | 215    |  0.026% | 
 | 594  | Cleffa             |  0.00104% | 173    |  0.014% | 83     |  0.010% | 
 | 595  | Lotad              |  0.00103% | 50     |  0.004% | 40     |  0.005% | 
 | 596  | Wooper             |  0.00099% | 122    |  0.010% | 66     |  0.008% | 
 | 597  | Zigzagoon          |  0.00098% | 187    |  0.015% | 138    |  0.017% | 
 | 598  | Cherrim            |  0.00098% | 205    |  0.016% | 121    |  0.015% | 
 | 599  | Kirlia             |  0.00096% | 130    |  0.010% | 94     |  0.011% | 
 | 600  | Tirtouga           |  0.00096% | 68     |  0.005% | 51     |  0.006% | 
 | 601  | Meowth             |  0.00096% | 316    |  0.025% | 218    |  0.027% | 
 | 602  | Golett             |  0.00096% | 43     |  0.003% | 37     |  0.005% | 
 | 603  | Azurill            |  0.00095% | 92     |  0.007% | 69     |  0.008% | 
 | 604  | Totodile           |  0.00094% | 422    |  0.034% | 291    |  0.035% | 
 | 605  | Bergmite           |  0.00094% | 163    |  0.013% | 108    |  0.013% | 
 | 606  | Heatmor            |  0.00092% | 353    |  0.028% | 223    |  0.027% | 
 | 607  | Pidgey             |  0.00087% | 260    |  0.021% | 183    |  0.022% | 
 | 608  | Weedle             |  0.00087% | 246    |  0.020% | 187    |  0.023% | 
 | 609  | Dustox             |  0.00085% | 259    |  0.021% | 167    |  0.020% | 
 | 610  | Teddiursa          |  0.00083% | 69     |  0.006% | 44     |  0.005% | 
 | 611  | Numel              |  0.00082% | 77     |  0.006% | 54     |  0.007% | 
 | 612  | Gourgeist          |  0.00082% | 433    |  0.035% | 278    |  0.034% | 
 | 613  | Gulpin             |  0.00080% | 23     |  0.002% | 14     |  0.002% | 
 | 614  | Sunflora           |  0.00079% | 452    |  0.036% | 270    |  0.033% | 
 | 615  | Axew               |  0.00079% | 149    |  0.012% | 112    |  0.014% | 
 | 616  | Kadabra            |  0.00076% | 220    |  0.018% | 149    |  0.018% | 
 | 617  | Wurmple            |  0.00076% | 103    |  0.008% | 71     |  0.009% | 
 | 618  | Phanpy             |  0.00073% | 78     |  0.006% | 54     |  0.007% | 
 | 619  | Glameow            |  0.00073% | 85     |  0.007% | 72     |  0.009% | 
 | 620  | Corphish           |  0.00072% | 215    |  0.017% | 132    |  0.016% | 
 | 621  | Gloom              |  0.00071% | 61     |  0.005% | 50     |  0.006% | 
 | 622  | Lampent            |  0.00071% | 97     |  0.008% | 63     |  0.008% | 
 | 623  | Floette            |  0.00070% | 95     |  0.008% | 54     |  0.007% | 
 | 624  | Graveler           |  0.00070% | 220    |  0.018% | 169    |  0.021% | 
 | 625  | Monferno           |  0.00069% | 228    |  0.018% | 149    |  0.018% | 
 | 626  | Kakuna             |  0.00069% | 202    |  0.016% | 144    |  0.018% | 
 | 627  | Croconaw           |  0.00067% | 130    |  0.010% | 91     |  0.011% | 
 | 628  | Purrloin           |  0.00067% | 74     |  0.006% | 54     |  0.007% | 
 | 629  | Kricketot          |  0.00065% | 21     |  0.002% | 18     |  0.002% | 
 | 630  | Trubbish           |  0.00065% | 353    |  0.028% | 339    |  0.041% | 
 | 631  | Boldore            |  0.00065% | 210    |  0.017% | 182    |  0.022% | 
 | 632  | Krokorok           |  0.00062% | 91     |  0.007% | 65     |  0.008% | 
 | 633  | Bagon              |  0.00061% | 72     |  0.006% | 52     |  0.006% | 
 | 634  | Phantump           |  0.00061% | 66     |  0.005% | 42     |  0.005% | 
 | 635  | Rhyhorn            |  0.00060% | 399    |  0.032% | 220    |  0.027% | 
 | 636  | Seadra             |  0.00060% | 136    |  0.011% | 96     |  0.012% | 
 | 637  | Phione             |  0.00060% | 160    |  0.013% | 118    |  0.014% | 
 | 638  | Pumpkaboo-Super    |  0.00060% | 34     |  0.003% | 30     |  0.004% | 
 | 639  | Chikorita          |  0.00059% | 221    |  0.018% | 153    |  0.019% | 
 | 640  | Sandshrew          |  0.00058% | 73     |  0.006% | 50     |  0.006% | 
 | 641  | Duskull            |  0.00057% | 157    |  0.013% | 111    |  0.014% | 
 | 642  | Marshtomp          |  0.00056% | 188    |  0.015% | 128    |  0.016% | 
 | 643  | Chimecho           |  0.00056% | 157    |  0.013% | 94     |  0.011% | 
 | 644  | Fennekin           |  0.00056% | 168    |  0.014% | 126    |  0.015% | 
 | 645  | NidoranM           |  0.00055% | 47     |  0.004% | 38     |  0.005% | 
 | 646  | Mienfoo            |  0.00055% | 66     |  0.005% | 50     |  0.006% | 
 | 647  | Pawniard           |  0.00055% | 114    |  0.009% | 69     |  0.008% | 
 | 648  | Zorua              |  0.00055% | 204    |  0.016% | 79     |  0.010% | 
 | 649  | Pignite            |  0.00054% | 279    |  0.022% | 204    |  0.025% | 
 | 650  | Turtwig            |  0.00053% | 112    |  0.009% | 78     |  0.010% | 
 | 651  | Grimer             |  0.00052% | 63     |  0.005% | 51     |  0.006% | 
 | 652  | Lombre             |  0.00052% | 64     |  0.005% | 43     |  0.005% | 
 | 653  | Koffing            |  0.00051% | 129    |  0.010% | 106    |  0.013% | 
 | 654  | Servine            |  0.00050% | 254    |  0.020% | 198    |  0.024% | 
 | 655  | Loudred            |  0.00049% | 22     |  0.002% | 15     |  0.002% | 
 | 656  | Skorupi            |  0.00048% | 59     |  0.005% | 46     |  0.006% | 
 | 657  | Grotle             |  0.00048% | 74     |  0.006% | 54     |  0.007% | 
 | 658  | Herdier            |  0.00047% | 110    |  0.009% | 65     |  0.008% | 
 | 659  | Growlithe          |  0.00046% | 67     |  0.005% | 48     |  0.006% | 
 | 660  | Dwebble            |  0.00045% | 118    |  0.009% | 87     |  0.011% | 
 | 661  | Slowpoke           |  0.00045% | 77     |  0.006% | 61     |  0.007% | 
 | 662  | Tepig              |  0.00044% | 178    |  0.014% | 131    |  0.016% | 
 | 663  | Skitty             |  0.00043% | 44     |  0.004% | 31     |  0.004% | 
 | 664  | Cranidos           |  0.00043% | 73     |  0.006% | 45     |  0.005% | 
 | 665  | Oshawott           |  0.00042% | 299    |  0.024% | 227    |  0.028% | 
 | 666  | Surskit            |  0.00042% | 113    |  0.009% | 98     |  0.012% | 
 | 667  | Ivysaur            |  0.00041% | 365    |  0.029% | 258    |  0.031% | 
 | 668  | Spritzee           |  0.00041% | 74     |  0.006% | 48     |  0.006% | 
 | 669  | Roggenrola         |  0.00040% | 68     |  0.005% | 51     |  0.006% | 
 | 670  | Duosion            |  0.00038% | 73     |  0.006% | 53     |  0.006% | 
 | 671  | Nidorino           |  0.00037% | 84     |  0.007% | 62     |  0.008% | 
 | 672  | Cyndaquil          |  0.00037% | 174    |  0.014% | 123    |  0.015% | 
 | 673  | Lileep             |  0.00037% | 75     |  0.006% | 59     |  0.007% | 
 | 674  | Bellsprout         |  0.00036% | 81     |  0.007% | 62     |  0.008% | 
 | 675  | Pansage            |  0.00035% | 67     |  0.005% | 48     |  0.006% | 
 | 676  | Mime Jr.           |  0.00035% | 100    |  0.008% | 67     |  0.008% | 
 | 677  | Chespin            |  0.00034% | 212    |  0.017% | 152    |  0.019% | 
 | 678  | Minccino           |  0.00033% | 68     |  0.005% | 43     |  0.005% | 
 | 679  | Beldum             |  0.00032% | 82     |  0.007% | 70     |  0.009% | 
 | 680  | Charmeleon         |  0.00032% | 481    |  0.039% | 359    |  0.044% | 
 | 681  | Houndour           |  0.00032% | 44     |  0.004% | 27     |  0.003% | 
 | 682  | Larvitar           |  0.00031% | 46     |  0.004% | 33     |  0.004% | 
 | 683  | Shellos            |  0.00031% | 158    |  0.013% | 110    |  0.013% | 
 | 684  | Goomy              |  0.00030% | 84     |  0.007% | 54     |  0.007% | 
 | 685  | Gourgeist-Large    |  0.00029% | 105    |  0.008% | 57     |  0.007% | 
 | 686  | Sentret            |  0.00029% | 88     |  0.007% | 37     |  0.005% | 
 | 687  | Deino              |  0.00028% | 41     |  0.003% | 24     |  0.003% | 
 | 688  | Skiploom           |  0.00028% | 53     |  0.004% | 41     |  0.005% | 
 | 689  | Shieldon           |  0.00028% | 69     |  0.006% | 47     |  0.006% | 
 | 690  | Wormadam           |  0.00027% | 36     |  0.003% | 25     |  0.003% | 
 | 691  | Shuppet            |  0.00027% | 37     |  0.003% | 24     |  0.003% | 
 | 692  | Dratini            |  0.00027% | 106    |  0.009% | 81     |  0.010% | 
 | 693  | Honedge            |  0.00027% | 75     |  0.006% | 48     |  0.006% | 
 | 694  | Tyrogue            |  0.00026% | 57     |  0.005% | 44     |  0.005% | 
 | 695  | Inkay              |  0.00026% | 132    |  0.011% | 95     |  0.012% | 
 | 696  | Marill             |  0.00025% | 98     |  0.008% | 58     |  0.007% | 
 | 697  | Poochyena          |  0.00025% | 37     |  0.003% | 28     |  0.003% | 
 | 698  | Rufflet            |  0.00024% | 44     |  0.004% | 21     |  0.003% | 
 | 699  | Sealeo             |  0.00023% | 64     |  0.005% | 41     |  0.005% | 
 | 700  | Blitzle            |  0.00022% | 24     |  0.002% | 19     |  0.002% | 
 | 701  | Dewott             |  0.00022% | 325    |  0.026% | 181    |  0.022% | 
 | 702  | Larvesta           |  0.00021% | 36     |  0.003% | 21     |  0.003% | 
 | 703  | Chimchar           |  0.00020% | 222    |  0.018% | 159    |  0.019% | 
 | 704  | Cubone             |  0.00020% | 236    |  0.019% | 186    |  0.023% | 
 | 705  | Ekans              |  0.00020% | 88     |  0.007% | 71     |  0.009% | 
 | 706  | Exeggcute          |  0.00020% | 45     |  0.004% | 31     |  0.004% | 
 | 707  | Seedot             |  0.00018% | 41     |  0.003% | 29     |  0.004% | 
 | 708  | Whismur            |  0.00018% | 33     |  0.003% | 14     |  0.002% | 
 | 709  | Cascoon            |  0.00018% | 18     |  0.001% | 16     |  0.002% | 
 | 710  | Pidgeotto          |  0.00018% | 185    |  0.015% | 138    |  0.017% | 
 | 711  | Amaura             |  0.00018% | 60     |  0.005% | 39     |  0.005% | 
 | 712  | Darumaka           |  0.00017% | 41     |  0.003% | 28     |  0.003% | 
 | 713  | Spoink             |  0.00017% | 41     |  0.003% | 34     |  0.004% | 
 | 714  | Spheal             |  0.00017% | 26     |  0.002% | 18     |  0.002% | 
 | 715  | Foongus            |  0.00017% | 56     |  0.005% | 38     |  0.005% | 
 | 716  | Krabby             |  0.00017% | 51     |  0.004% | 34     |  0.004% | 
 | 717  | Flaaffy            |  0.00015% | 63     |  0.005% | 48     |  0.006% | 
 | 718  | Snover             |  0.00014% | 72     |  0.006% | 38     |  0.005% | 
 | 719  | Igglybuff          |  0.00014% | 78     |  0.006% | 59     |  0.007% | 
 | 720  | Fraxure            |  0.00014% | 158    |  0.013% | 106    |  0.013% | 
 | 721  | Snubbull           |  0.00013% | 30     |  0.002% | 24     |  0.003% | 
 | 722  | Pansear            |  0.00013% | 42     |  0.003% | 35     |  0.004% | 
 | 723  | Venonat            |  0.00012% | 26     |  0.002% | 21     |  0.003% | 
 | 724  | Smoochum           |  0.00011% | 29     |  0.002% | 21     |  0.003% | 
 | 725  | Paras              |  0.00011% | 41     |  0.003% | 25     |  0.003% | 
 | 726  | Skiddo             |  0.00011% | 49     |  0.004% | 25     |  0.003% | 
 | 727  | Skrelp             |  0.00011% | 26     |  0.002% | 19     |  0.002% | 
 | 728  | Barboach           |  0.00011% | 36     |  0.003% | 28     |  0.003% | 
 | 729  | Vulpix             |  0.00011% | 166    |  0.013% | 120    |  0.015% | 
 | 730  | Weepinbell         |  0.00011% | 62     |  0.005% | 42     |  0.005% | 
 | 731  | Oddish             |  0.00010% | 76     |  0.006% | 49     |  0.006% | 
 | 732  | Nidorina           |  0.00010% | 27     |  0.002% | 23     |  0.003% | 
 | 733  | Shelgon            |  0.00010% | 71     |  0.006% | 49     |  0.006% | 
 | 734  | Slugma             |  0.00010% | 34     |  0.003% | 25     |  0.003% | 
 | 735  | Patrat             |  0.00009% | 46     |  0.004% | 34     |  0.004% | 
 | 736  | Mareep             |  0.00009% | 35     |  0.003% | 26     |  0.003% | 
 | 737  | Elekid             |  0.00009% | 48     |  0.004% | 36     |  0.004% | 
 | 738  | Tynamo             |  0.00009% | 90     |  0.007% | 79     |  0.010% | 
 | 739  | Pumpkaboo-Large    |  0.00009% | 9      |  0.001% | 5      |  0.001% | 
 | 740  | Vibrava            |  0.00009% | 60     |  0.005% | 42     |  0.005% | 
 | 741  | Combee             |  0.00009% | 37     |  0.003% | 27     |  0.003% | 
 | 742  | Bronzor            |  0.00009% | 44     |  0.004% | 40     |  0.005% | 
 | 743  | Poliwag            |  0.00009% | 64     |  0.005% | 34     |  0.004% | 
 | 744  | Petilil            |  0.00009% | 44     |  0.004% | 23     |  0.003% | 
 | 745  | Flabebe            |  0.00008% | 45     |  0.004% | 33     |  0.004% | 
 | 746  | Swablu             |  0.00008% | 28     |  0.002% | 17     |  0.002% | 
 | 747  | Baltoy             |  0.00008% | 30     |  0.002% | 15     |  0.002% | 
 | 748  | Lillipup           |  0.00008% | 43     |  0.003% | 32     |  0.004% | 
 | 749  | Scatterbug         |  0.00008% | 24     |  0.002% | 10     |  0.001% | 
 | 750  | Cacnea             |  0.00008% | 52     |  0.004% | 35     |  0.004% | 
 | 751  | Kabuto             |  0.00008% | 56     |  0.005% | 40     |  0.005% | 
 | 752  | Litwick            |  0.00008% | 46     |  0.004% | 31     |  0.004% | 
 | 753  | Croagunk           |  0.00007% | 64     |  0.005% | 42     |  0.005% | 
 | 754  | Makuhita           |  0.00007% | 31     |  0.002% | 24     |  0.003% | 
 | 755  | Electrike          |  0.00007% | 34     |  0.003% | 22     |  0.003% | 
 | 756  | Pidove             |  0.00007% | 27     |  0.002% | 18     |  0.002% | 
 | 757  | Seel               |  0.00007% | 37     |  0.003% | 27     |  0.003% | 
 | 758  | Luxio              |  0.00007% | 71     |  0.006% | 53     |  0.006% | 
 | 759  | Zweilous           |  0.00006% | 51     |  0.004% | 34     |  0.004% | 
 | 760  | Vanillite          |  0.00006% | 54     |  0.004% | 30     |  0.004% | 
 | 761  | Snorunt            |  0.00006% | 25     |  0.002% | 19     |  0.002% | 
 | 762  | Pumpkaboo-Small    |  0.00006% | 18     |  0.001% | 12     |  0.001% | 
 | 763  | Magby              |  0.00005% | 112    |  0.009% | 72     |  0.009% | 
 | 764  | Anorith            |  0.00005% | 15     |  0.001% | 11     |  0.001% | 
 | 765  | Cubchoo            |  0.00005% | 15     |  0.001% | 8      |  0.001% | 
 | 766  | Wingull            |  0.00005% | 70     |  0.006% | 51     |  0.006% | 
 | 767  | Tympole            |  0.00005% | 19     |  0.002% | 14     |  0.002% | 
 | 768  | Spewpa             |  0.00004% | 21     |  0.002% | 17     |  0.002% | 
 | 769  | Joltik             |  0.00004% | 49     |  0.004% | 41     |  0.005% | 
 | 770  | Elgyem             |  0.00004% | 25     |  0.002% | 19     |  0.002% | 
 | 771  | Espurr             |  0.00004% | 45     |  0.004% | 39     |  0.005% | 
 | 772  | Klang              |  0.00004% | 47     |  0.004% | 31     |  0.004% | 
 | 773  | Pumpkaboo          |  0.00003% | 34     |  0.003% | 25     |  0.003% | 
 | 774  | Shinx              |  0.00003% | 63     |  0.005% | 48     |  0.006% | 
 | 775  | Remoraid           |  0.00003% | 31     |  0.002% | 22     |  0.003% | 
 | 776  | Shelmet            |  0.00003% | 19     |  0.002% | 16     |  0.002% | 
 | 777  | Noibat             |  0.00003% | 86     |  0.007% | 51     |  0.006% | 
 | 778  | Swirlix            |  0.00003% | 33     |  0.003% | 18     |  0.002% | 
 | 779  | Nincada            |  0.00003% | 28     |  0.002% | 21     |  0.003% | 
 | 780  | Litleo             |  0.00003% | 49     |  0.004% | 36     |  0.004% | 
 | 781  | Klink              |  0.00003% | 23     |  0.002% | 19     |  0.002% | 
 | 782  | Goldeen            |  0.00002% | 69     |  0.006% | 53     |  0.006% | 
 | 783  | Vanillish          |  0.00002% | 29     |  0.002% | 19     |  0.002% | 
 | 784  | Munna              |  0.00002% | 10     |  0.001% | 8      |  0.001% | 
 | 785  | Woobat             |  0.00002% | 46     |  0.004% | 28     |  0.003% | 
 | 786  | Deerling           |  0.00002% | 53     |  0.004% | 31     |  0.004% | 
 | 787  | Poliwhirl          |  0.00002% | 66     |  0.005% | 52     |  0.006% | 
 | 788  | Binacle            |  0.00002% | 151    |  0.012% | 111    |  0.014% | 
 | 789  | Chingling          |  0.00002% | 60     |  0.005% | 35     |  0.004% | 
 | 790  | Ledyba             |  0.00001% | 60     |  0.005% | 26     |  0.003% | 
 | 791  | Helioptile         |  0.00001% | 32     |  0.003% | 25     |  0.003% | 
 | 792  | Timburr            |  0.00001% | 37     |  0.003% | 23     |  0.003% | 
 | 793  | Finneon            |  0.00001% | 25     |  0.002% | 22     |  0.003% | 
 | 794  | Venipede           |  0.00001% | 47     |  0.004% | 36     |  0.004% | 
 | 795  | Sandile            |  0.00001% | 28     |  0.002% | 21     |  0.003% | 
 | 796  | Slakoth            |  0.00001% | 26     |  0.002% | 19     |  0.002% | 
 | 797  | Machop             |  0.00001% | 86     |  0.007% | 56     |  0.007% | 
 | 798  | Cherubi            |  0.00001% | 33     |  0.003% | 23     |  0.003% | 
 | 799  | Clauncher          |  0.00001% | 12     |  0.001% | 7      |  0.001% | 
 | 800  | Horsea             |  0.00001% | 38     |  0.003% | 27     |  0.003% | 
 | 801  | Hoothoot           |  0.00000% | 33     |  0.003% | 21     |  0.003% | 
 | 802  | Spearow            |  0.00000% | 57     |  0.005% | 35     |  0.004% | 
 | 803  | Tranquill          |  0.00000% | 39     |  0.003% | 27     |  0.003% | 
 | 804  | Stunky             |  0.00000% | 27     |  0.002% | 21     |  0.003% | 
 | 805  | Eelektrik          |  0.00000% | 61     |  0.005% | 50     |  0.006% | 
 | 806  | Pupitar            |  0.00000% | 42     |  0.003% | 29     |  0.004% | 
 | 807  | NidoranF           |  0.00000% | 16     |  0.001% | 14     |  0.002% | 
 | 808  | Panpour            |  0.00000% | 40     |  0.003% | 34     |  0.004% | 
 | 809  | Burmy              |  0.00000% | 12     |  0.001% | 11     |  0.001% | 
 | 810  | Chinchou           |  0.00000% | 59     |  0.005% | 50     |  0.006% | 
 | 811  | Karrablast         |  0.00000% | 8      |  0.001% | 5      |  0.001% | 
 + ---- + ------------------ + --------- + ------ + ------- + ------ + ------- + 
