 Total battles: 622146
 Avg. weight/team: 1.0
 + ---- + ------------------ + --------- + ------ + ------- + ------ + ------- + 
 | Rank | Pokemon            | Usage %   | Raw    | %       | Real   | %       | 
 + ---- + ------------------ + --------- + ------ + ------- + ------ + ------- + 
 | 1    | Groudon-Primal     | 33.23529% | 413544 | 33.235% | 298349 | 36.356% | 
 | 2    | Xerneas            | 26.81251% | 333626 | 26.813% | 214644 | 26.156% | 
 | 3    | Greninja           | 19.83496% | 246803 | 19.835% | 173642 | 21.159% | 
 | 4    | Kyogre-Primal      | 18.46249% | 229728 | 18.463% | 147872 | 18.019% | 
 | 5    | Darkrai            | 17.90640% | 222809 | 17.906% | 150498 | 18.339% | 
 | 6    | Arceus             | 12.98973% | 161631 | 12.990% | 103061 | 12.559% | 
 | 7    | Aegislash          | 12.53923% | 156027 | 12.539% | 100444 | 12.240% | 
 | 8    | Rayquaza           | 10.81214% | 134534 | 10.812% | 84029  | 10.239% | 
 | 9    | Yveltal            | 10.43003% | 129779 | 10.430% | 87000  | 10.602% | 
 | 10   | Lugia              |  9.81346% | 122107 |  9.813% | 78431  |  9.557% | 
 | 11   | Blaziken-Mega      |  9.08370% | 113029 |  9.084% | 76293  |  9.297% | 
 | 12   | Kangaskhan-Mega    |  8.87860% | 110475 |  8.879% | 78957  |  9.621% | 
 | 13   | Gengar-Mega        |  8.82586% | 109819 |  8.826% | 73145  |  8.913% | 
 | 14   | Salamence-Mega     |  8.21496% | 102218 |  8.215% | 64319  |  7.838% | 
 | 15   | Lucario-Mega       |  8.03834% | 100022 |  8.038% | 65818  |  8.020% | 
 | 16   | Giratina-Origin    |  7.99292% | 99455  |  7.993% | 66589  |  8.114% | 
 | 17   | Mewtwo-Mega-Y      |  7.80128% | 97071  |  7.801% | 61373  |  7.479% | 
 | 18   | Ho-Oh              |  6.66261% | 82902  |  6.663% | 56230  |  6.852% | 
 | 19   | Mewtwo-Mega-X      |  6.47943% | 80624  |  6.480% | 53119  |  6.473% | 
 | 20   | Charizard-Mega-X   |  6.41503% | 79822  |  6.415% | 53895  |  6.567% | 
 | 21   | Deoxys-Attack      |  6.07051% | 75534  |  6.070% | 51125  |  6.230% | 
 | 22   | Blaziken           |  5.60464% | 69738  |  5.605% | 49506  |  6.033% | 
 | 23   | Dialga             |  5.41328% | 67356  |  5.413% | 44196  |  5.386% | 
 | 24   | Dragonite          |  4.95934% | 61709  |  4.959% | 40234  |  4.903% | 
 | 25   | Talonflame         |  4.90532% | 61036  |  4.905% | 41170  |  5.017% | 
 | 26   | Gengar             |  4.53452% | 56422  |  4.534% | 36956  |  4.503% | 
 | 27   | Genesect           |  4.41647% | 54954  |  4.416% | 38035  |  4.635% | 
 | 28   | Gliscor            |  4.19494% | 52197  |  4.195% | 35079  |  4.275% | 
 | 29   | Zekrom             |  3.99575% | 49719  |  3.996% | 31045  |  3.783% | 
 | 30   | Ferrothorn         |  3.94827% | 49128  |  3.948% | 37639  |  4.587% | 
 | 31   | Shaymin-Sky        |  3.86423% | 48082  |  3.864% | 29524  |  3.598% | 
 | 32   | Arceus-Ghost       |  3.58918% | 44660  |  3.589% | 28149  |  3.430% | 
 | 33   | Garchomp           |  3.57803% | 44522  |  3.578% | 29336  |  3.575% | 
 | 34   | Mewtwo             |  3.53839% | 44028  |  3.538% | 26929  |  3.281% | 
 | 35   | Kyurem-White       |  3.42951% | 42674  |  3.430% | 25573  |  3.116% | 
 | 36   | Serperior          |  3.21193% | 39966  |  3.212% | 24198  |  2.949% | 
 | 37   | Charizard-Mega-Y   |  3.18120% | 39583  |  3.181% | 26334  |  3.209% | 
 | 38   | Deoxys-Speed       |  3.07577% | 38271  |  3.076% | 32289  |  3.935% | 
 | 39   | Palkia             |  3.01212% | 37479  |  3.012% | 23382  |  2.849% | 
 | 40   | Sceptile-Mega      |  2.93790% | 36558  |  2.938% | 22935  |  2.795% | 
 | 41   | Cloyster           |  2.91994% | 36332  |  2.920% | 25920  |  3.159% | 
 | 42   | Hoopa-Unbound      |  2.82518% | 35153  |  2.825% | 21383  |  2.606% | 
 | 43   | Tyranitar          |  2.79756% | 34810  |  2.798% | 24212  |  2.950% | 
 | 44   | Infernape          |  2.74317% | 34134  |  2.743% | 23410  |  2.853% | 
 | 45   | Snorlax            |  2.72637% | 33925  |  2.726% | 22860  |  2.786% | 
 | 46   | Metagross-Mega     |  2.67007% | 33223  |  2.670% | 21653  |  2.639% | 
 | 47   | Scolipede          |  2.65255% | 33005  |  2.653% | 26663  |  3.249% | 
 | 48   | Smeargle           |  2.56809% | 31954  |  2.568% | 26044  |  3.174% | 
 | 49   | Mawile-Mega        |  2.55264% | 31762  |  2.553% | 20871  |  2.543% | 
 | 50   | Deoxys-Defense     |  2.50234% | 31136  |  2.502% | 22084  |  2.691% | 
 | 51   | Goodra             |  2.41127% | 30003  |  2.411% | 19699  |  2.400% | 
 | 52   | Pikachu            |  2.32222% | 28896  |  2.322% | 21273  |  2.592% | 
 | 53   | Giratina           |  2.30486% | 28679  |  2.305% | 18495  |  2.254% | 
 | 54   | Klefki             |  2.28535% | 28437  |  2.285% | 22764  |  2.774% | 
 | 55   | Noivern            |  2.28397% | 28419  |  2.284% | 18464  |  2.250% | 
 | 56   | Gardevoir-Mega     |  2.25465% | 28054  |  2.255% | 17749  |  2.163% | 
 | 57   | Sylveon            |  2.22154% | 27643  |  2.222% | 17108  |  2.085% | 
 | 58   | Garchomp-Mega      |  2.21752% | 27592  |  2.217% | 18231  |  2.222% | 
 | 59   | Hawlucha           |  2.19283% | 27285  |  2.193% | 18838  |  2.296% | 
 | 60   | Bisharp            |  2.18754% | 27220  |  2.188% | 17497  |  2.132% | 
 | 61   | Ninjask            |  2.14889% | 26738  |  2.149% | 21813  |  2.658% | 
 | 62   | Latios             |  2.14093% | 26639  |  2.141% | 16359  |  1.993% | 
 | 63   | Blissey            |  2.05614% | 25584  |  2.056% | 16446  |  2.004% | 
 | 64   | Diancie-Mega       |  2.05327% | 25549  |  2.053% | 19259  |  2.347% | 
 | 65   | Arceus-Water       |  2.01332% | 25052  |  2.013% | 17441  |  2.125% | 
 | 66   | Tyranitar-Mega     |  1.99436% | 24816  |  1.994% | 16468  |  2.007% | 
 | 67   | Kyogre             |  1.95514% | 24328  |  1.955% | 16062  |  1.957% | 
 | 68   | Umbreon            |  1.95399% | 24313  |  1.954% | 15828  |  1.929% | 
 | 69   | Togekiss           |  1.91136% | 23783  |  1.911% | 15696  |  1.913% | 
 | 70   | Mew                |  1.89948% | 23635  |  1.899% | 16259  |  1.981% | 
 | 71   | Breloom            |  1.87604% | 23343  |  1.876% | 15178  |  1.850% | 
 | 72   | Ditto              |  1.86486% | 23204  |  1.865% | 16234  |  1.978% | 
 | 73   | Weavile            |  1.85667% | 23102  |  1.857% | 15539  |  1.894% | 
 | 74   | Arceus-Fairy       |  1.84403% | 22946  |  1.844% | 14803  |  1.804% | 
 | 75   | Chansey            |  1.83963% | 22890  |  1.840% | 15006  |  1.829% | 
 | 76   | Sableye-Mega       |  1.80192% | 22421  |  1.802% | 16913  |  2.061% | 
 | 77   | Excadrill          |  1.80043% | 22403  |  1.800% | 15852  |  1.932% | 
 | 78   | Espeon             |  1.78490% | 22209  |  1.785% | 13698  |  1.669% | 
 | 79   | Venusaur-Mega      |  1.74748% | 21745  |  1.748% | 13719  |  1.672% | 
 | 80   | Shuckle            |  1.71940% | 21394  |  1.719% | 17157  |  2.091% | 
 | 81   | Reshiram           |  1.70324% | 21193  |  1.703% | 12574  |  1.532% | 
 | 82   | Arceus-Steel       |  1.70107% | 21166  |  1.701% | 13709  |  1.671% | 
 | 83   | Azumarill          |  1.68958% | 21023  |  1.690% | 13943  |  1.699% | 
 | 84   | Clefable           |  1.66591% | 20729  |  1.666% | 13259  |  1.616% | 
 | 85   | Jolteon            |  1.64504% | 20469  |  1.645% | 13991  |  1.705% | 
 | 86   | Scizor             |  1.64152% | 20425  |  1.641% | 13068  |  1.592% | 
 | 87   | Latias             |  1.63581% | 20354  |  1.636% | 12472  |  1.520% | 
 | 88   | Metagross          |  1.63509% | 20345  |  1.635% | 13026  |  1.587% | 
 | 89   | Electivire         |  1.63405% | 20332  |  1.634% | 13322  |  1.623% | 
 | 90   | Volcarona          |  1.61653% | 20114  |  1.617% | 12052  |  1.469% | 
 | 91   | Arceus-Ground      |  1.60194% | 19933  |  1.602% | 13707  |  1.670% | 
 | 92   | Skarmory           |  1.58550% | 19728  |  1.585% | 15204  |  1.853% | 
 | 93   | Landorus-Therian   |  1.54870% | 19270  |  1.549% | 13990  |  1.705% | 
 | 94   | Arcanine           |  1.52971% | 19034  |  1.530% | 12571  |  1.532% | 
 | 95   | Kyurem-Black       |  1.51912% | 18903  |  1.519% | 11322  |  1.380% | 
 | 96   | Scizor-Mega        |  1.50538% | 18731  |  1.505% | 12771  |  1.556% | 
 | 97   | Lucario            |  1.50289% | 18701  |  1.503% | 11901  |  1.450% | 
 | 98   | Landorus           |  1.50038% | 18669  |  1.500% | 12367  |  1.507% | 
 | 99   | Salamence          |  1.49615% | 18617  |  1.496% | 11553  |  1.408% | 
 | 100  | Rotom-Wash         |  1.49025% | 18543  |  1.490% | 12429  |  1.515% | 
 | 101  | Hydreigon          |  1.47725% | 18381  |  1.477% | 11566  |  1.409% | 
 | 102  | Swampert-Mega      |  1.41135% | 17561  |  1.411% | 12013  |  1.464% | 
 | 103  | Staraptor          |  1.41048% | 17551  |  1.411% | 11741  |  1.431% | 
 | 104  | Wobbuffet          |  1.40333% | 17462  |  1.403% | 12285  |  1.497% | 
 | 105  | Sceptile           |  1.38068% | 17181  |  1.381% | 10698  |  1.304% | 
 | 106  | Chandelure         |  1.36295% | 16959  |  1.363% | 10906  |  1.329% | 
 | 107  | Arceus-Dragon      |  1.35411% | 16849  |  1.354% | 10370  |  1.264% | 
 | 108  | Blastoise-Mega     |  1.31273% | 16334  |  1.313% | 11345  |  1.382% | 
 | 109  | Gardevoir          |  1.30293% | 16212  |  1.303% | 9750   |  1.188% | 
 | 110  | Zapdos             |  1.27962% | 15922  |  1.280% | 10360  |  1.262% | 
 | 111  | Gyarados-Mega      |  1.24950% | 15548  |  1.250% | 10766  |  1.312% | 
 | 112  | Jirachi            |  1.24846% | 15535  |  1.249% | 9769   |  1.190% | 
 | 113  | Forretress         |  1.23829% | 15408  |  1.238% | 12817  |  1.562% | 
 | 114  | Alakazam-Mega      |  1.21816% | 15158  |  1.218% | 9471   |  1.154% | 
 | 115  | Volcanion          |  1.20367% | 14978  |  1.204% | 9704   |  1.182% | 
 | 116  | Haxorus            |  1.19443% | 14862  |  1.194% | 9394   |  1.145% | 
 | 117  | Gallade-Mega       |  1.15987% | 14432  |  1.160% | 9415   |  1.147% | 
 | 118  | Heracross-Mega     |  1.12395% | 13985  |  1.124% | 8676   |  1.057% | 
 | 119  | Rattata            |  1.11495% | 13873  |  1.115% | 10670  |  1.300% | 
 | 120  | Krookodile         |  1.10900% | 13799  |  1.109% | 9334   |  1.137% | 
 | 121  | Charizard          |  1.09470% | 13621  |  1.095% | 9077   |  1.106% | 
 | 122  | Crobat             |  1.09212% | 13589  |  1.092% | 9129   |  1.112% | 
 | 123  | Alakazam           |  1.08152% | 13457  |  1.081% | 8227   |  1.003% | 
 | 124  | Swampert           |  1.05748% | 13158  |  1.057% | 9305   |  1.134% | 
 | 125  | Raichu             |  1.04113% | 12956  |  1.041% | 9064   |  1.105% | 
 | 126  | Gyarados           |  1.03567% | 12887  |  1.036% | 8866   |  1.080% | 
 | 127  | Feraligatr         |  1.02791% | 12790  |  1.028% | 8516   |  1.038% | 
 | 128  | Lapras             |  1.01899% | 12679  |  1.019% | 8888   |  1.083% | 
 | 129  | Lopunny-Mega       |  1.01216% | 12594  |  1.012% | 8988   |  1.095% | 
 | 130  | Milotic            |  1.00669% | 12526  |  1.007% | 8207   |  1.000% | 
 | 131  | Vaporeon           |  1.00380% | 12490  |  1.004% | 8199   |  0.999% | 
 | 132  | Venusaur           |  0.99279% | 12353  |  0.993% | 7540   |  0.919% | 
 | 133  | Heatran            |  0.99046% | 12324  |  0.990% | 8516   |  1.038% | 
 | 134  | Zoroark            |  0.96860% | 12052  |  0.969% | 5995   |  0.731% | 
 | 135  | Victini            |  0.93410% | 11623  |  0.934% | 7442   |  0.907% | 
 | 136  | Galvantula         |  0.93044% | 11578  |  0.930% | 9519   |  1.160% | 
 | 137  | Groudon            |  0.89854% | 11181  |  0.899% | 7977   |  0.972% | 
 | 138  | Whimsicott         |  0.89281% | 11109  |  0.893% | 7803   |  0.951% | 
 | 139  | Shedinja           |  0.88067% | 10958  |  0.881% | 7213   |  0.879% | 
 | 140  | Empoleon           |  0.88043% | 10955  |  0.880% | 7504   |  0.914% | 
 | 141  | Arceus-Poison      |  0.84218% | 10479  |  0.842% | 6484   |  0.790% | 
 | 142  | Kingdra            |  0.84178% | 10474  |  0.842% | 6995   |  0.852% | 
 | 143  | Magnezone          |  0.83583% | 10400  |  0.836% | 6721   |  0.819% | 
 | 144  | Luxray             |  0.82797% | 10303  |  0.828% | 7083   |  0.863% | 
 | 145  | Nidoking           |  0.82305% | 10241  |  0.823% | 7039   |  0.858% | 
 | 146  | Conkeldurr         |  0.81644% | 10159  |  0.816% | 6570   |  0.801% | 
 | 147  | Machamp            |  0.81325% | 10119  |  0.813% | 6817   |  0.831% | 
 | 148  | Sableye            |  0.81202% | 10104  |  0.812% | 7101   |  0.865% | 
 | 149  | Typhlosion         |  0.80256% | 9986   |  0.803% | 6677   |  0.814% | 
 | 150  | Tentacruel         |  0.79966% | 9950   |  0.800% | 6969   |  0.849% | 
 | 151  | Starmie            |  0.79018% | 9832   |  0.790% | 6098   |  0.743% | 
 | 152  | Raikou             |  0.77957% | 9700   |  0.780% | 6253   |  0.762% | 
 | 153  | Arceus-Electric    |  0.76454% | 9513   |  0.765% | 6026   |  0.734% | 
 | 154  | Torterra           |  0.73941% | 9201   |  0.739% | 6208   |  0.756% | 
 | 155  | Amoonguss          |  0.72990% | 9082   |  0.730% | 5632   |  0.686% | 
 | 156  | Blastoise          |  0.72155% | 8978   |  0.722% | 6030   |  0.735% | 
 | 157  | Bronzong           |  0.71833% | 8938   |  0.718% | 6700   |  0.816% | 
 | 158  | Aggron-Mega        |  0.70949% | 8828   |  0.709% | 5887   |  0.717% | 
 | 159  | Zygarde            |  0.70780% | 8807   |  0.708% | 5626   |  0.686% | 
 | 160  | Altaria-Mega       |  0.68594% | 8535   |  0.686% | 5357   |  0.653% | 
 | 161  | Arceus-Rock        |  0.68096% | 8473   |  0.681% | 5720   |  0.697% | 
 | 162  | Chesnaught         |  0.66770% | 8308   |  0.668% | 5333   |  0.650% | 
 | 163  | Tyrantrum          |  0.66537% | 8279   |  0.665% | 5470   |  0.667% | 
 | 164  | Thundurus          |  0.66440% | 8267   |  0.664% | 5747   |  0.700% | 
 | 165  | Aerodactyl-Mega    |  0.66432% | 8266   |  0.664% | 5747   |  0.700% | 
 | 166  | Delphox            |  0.65830% | 8191   |  0.658% | 5240   |  0.639% | 
 | 167  | Porygon-Z          |  0.65773% | 8184   |  0.658% | 5445   |  0.664% | 
 | 168  | Suicune            |  0.65363% | 8133   |  0.654% | 5239   |  0.638% | 
 | 169  | Aggron             |  0.65084% | 8099   |  0.651% | 5602   |  0.683% | 
 | 170  | Ninetales          |  0.64610% | 8040   |  0.646% | 5194   |  0.633% | 
 | 171  | Flygon             |  0.64367% | 8009   |  0.644% | 5445   |  0.664% | 
 | 172  | Articuno           |  0.64367% | 8009   |  0.644% | 5086   |  0.620% | 
 | 173  | Manectric-Mega     |  0.63796% | 7938   |  0.638% | 5204   |  0.634% | 
 | 174  | Latios-Mega        |  0.63435% | 7893   |  0.634% | 4939   |  0.602% | 
 | 175  | Absol-Mega         |  0.62647% | 7795   |  0.626% | 5134   |  0.626% | 
 | 176  | Eelektross         |  0.62607% | 7790   |  0.626% | 5350   |  0.652% | 
 | 177  | Mamoswine          |  0.62398% | 7764   |  0.624% | 5315   |  0.648% | 
 | 178  | Keldeo             |  0.61442% | 7645   |  0.614% | 5050   |  0.615% | 
 | 179  | Pidgeot-Mega       |  0.60967% | 7586   |  0.610% | 5050   |  0.615% | 
 | 180  | Drapion            |  0.59850% | 7447   |  0.598% | 5298   |  0.646% | 
 | 181  | Thundurus-Therian  |  0.59655% | 7423   |  0.597% | 4859   |  0.592% | 
 | 182  | Ampharos-Mega      |  0.58862% | 7324   |  0.589% | 4965   |  0.605% | 
 | 183  | Arceus-Dark        |  0.55768% | 6939   |  0.558% | 4357   |  0.531% | 
 | 184  | Slowbro            |  0.55470% | 6902   |  0.555% | 4518   |  0.551% | 
 | 185  | Heracross          |  0.55221% | 6871   |  0.552% | 4462   |  0.544% | 
 | 186  | Roserade           |  0.53742% | 6687   |  0.537% | 4377   |  0.533% | 
 | 187  | Slurpuff           |  0.53662% | 6677   |  0.537% | 4461   |  0.544% | 
 | 188  | Aron               |  0.53581% | 6667   |  0.536% | 4478   |  0.546% | 
 | 189  | Cresselia          |  0.53340% | 6637   |  0.533% | 4155   |  0.506% | 
 | 190  | Toxicroak          |  0.53075% | 6604   |  0.531% | 4464   |  0.544% | 
 | 191  | Medicham-Mega      |  0.53035% | 6599   |  0.530% | 4323   |  0.527% | 
 | 192  | Trevenant          |  0.52497% | 6532   |  0.525% | 4001   |  0.488% | 
 | 193  | Florges            |  0.51042% | 6351   |  0.510% | 3899   |  0.475% | 
 | 194  | Ambipom            |  0.50881% | 6331   |  0.509% | 4765   |  0.581% | 
 | 195  | Beedrill-Mega      |  0.50712% | 6310   |  0.507% | 4289   |  0.523% | 
 | 196  | Hippowdon          |  0.50375% | 6268   |  0.504% | 4691   |  0.572% | 
 | 197  | Cofagrigus         |  0.49346% | 6140   |  0.493% | 4525   |  0.551% | 
 | 198  | Gallade            |  0.49330% | 6138   |  0.493% | 4068   |  0.496% | 
 | 199  | Honchkrow          |  0.49175% | 6119   |  0.492% | 3929   |  0.479% | 
 | 200  | Ludicolo           |  0.48398% | 6022   |  0.484% | 4071   |  0.496% | 
 | 201  | Arceus-Fire        |  0.47465% | 5906   |  0.475% | 3640   |  0.444% | 
 | 202  | Malamar            |  0.47088% | 5859   |  0.471% | 3857   |  0.470% | 
 | 203  | Darmanitan         |  0.44476% | 5534   |  0.445% | 3502   |  0.427% | 
 | 204  | Slaking            |  0.43841% | 5455   |  0.438% | 3738   |  0.456% | 
 | 205  | Sigilyph           |  0.43839% | 5455   |  0.438% | 3363   |  0.410% | 
 | 206  | Houndoom-Mega      |  0.43537% | 5418   |  0.435% | 3509   |  0.428% | 
 | 207  | Steelix-Mega       |  0.43198% | 5375   |  0.432% | 3798   |  0.463% | 
 | 208  | Politoed           |  0.43005% | 5351   |  0.430% | 4174   |  0.509% | 
 | 209  | Manaphy            |  0.42370% | 5272   |  0.424% | 3319   |  0.404% | 
 | 210  | Heliolisk          |  0.41984% | 5224   |  0.420% | 3428   |  0.418% | 
 | 211  | Samurott           |  0.41922% | 5217   |  0.419% | 3430   |  0.418% | 
 | 212  | Magmortar          |  0.41896% | 5213   |  0.419% | 3251   |  0.396% | 
 | 213  | Exeggutor          |  0.41502% | 5164   |  0.415% | 3186   |  0.388% | 
 | 214  | Emboar             |  0.41392% | 5151   |  0.414% | 3252   |  0.396% | 
 | 215  | Moltres            |  0.40232% | 5006   |  0.402% | 3210   |  0.391% | 
 | 216  | Rhyperior          |  0.40104% | 4990   |  0.401% | 3417   |  0.416% | 
 | 217  | Scrafty            |  0.39814% | 4954   |  0.398% | 3440   |  0.419% | 
 | 218  | Quagsire           |  0.39585% | 4927   |  0.396% | 3346   |  0.408% | 
 | 219  | Froslass           |  0.39340% | 4895   |  0.393% | 3452   |  0.421% | 
 | 220  | Golem              |  0.39204% | 4878   |  0.392% | 3792   |  0.462% | 
 | 221  | Pinsir-Mega        |  0.38954% | 4847   |  0.390% | 3170   |  0.386% | 
 | 222  | Arceus-Grass       |  0.38772% | 4825   |  0.388% | 2847   |  0.347% | 
 | 223  | Celebi             |  0.37259% | 4636   |  0.373% | 2985   |  0.364% | 
 | 224  | Banette-Mega       |  0.36760% | 4574   |  0.368% | 3130   |  0.381% | 
 | 225  | Flareon            |  0.36238% | 4509   |  0.362% | 2849   |  0.347% | 
 | 226  | Arceus-Ice         |  0.36005% | 4480   |  0.360% | 2628   |  0.320% | 
 | 227  | Dusknoir           |  0.35732% | 4446   |  0.357% | 3082   |  0.376% | 
 | 228  | Donphan            |  0.35651% | 4436   |  0.357% | 3259   |  0.397% | 
 | 229  | Durant             |  0.35571% | 4426   |  0.356% | 3521   |  0.429% | 
 | 230  | Regigigas          |  0.35033% | 4359   |  0.350% | 2925   |  0.356% | 
 | 231  | Porygon2           |  0.35031% | 4359   |  0.350% | 2794   |  0.340% | 
 | 232  | Dugtrio            |  0.34928% | 4346   |  0.349% | 3275   |  0.399% | 
 | 233  | Crawdaunt          |  0.34639% | 4310   |  0.346% | 2893   |  0.353% | 
 | 234  | Steelix            |  0.34174% | 4253   |  0.342% | 3147   |  0.383% | 
 | 235  | Deoxys             |  0.33803% | 4206   |  0.338% | 2747   |  0.335% | 
 | 236  | Clawitzer          |  0.33803% | 4206   |  0.338% | 2693   |  0.328% | 
 | 237  | Slowbro-Mega       |  0.33747% | 4199   |  0.337% | 2739   |  0.334% | 
 | 238  | Hitmonlee          |  0.33439% | 4161   |  0.334% | 2940   |  0.358% | 
 | 239  | Glaceon            |  0.33240% | 4136   |  0.332% | 2690   |  0.328% | 
 | 240  | Azelf              |  0.32935% | 4098   |  0.329% | 2929   |  0.357% | 
 | 241  | Abomasnow-Mega     |  0.32477% | 4041   |  0.325% | 2614   |  0.319% | 
 | 242  | Entei              |  0.32461% | 4039   |  0.325% | 2592   |  0.316% | 
 | 243  | Magikarp           |  0.31874% | 3966   |  0.319% | 2420   |  0.295% | 
 | 244  | Latias-Mega        |  0.31512% | 3921   |  0.315% | 2469   |  0.301% | 
 | 245  | Dragalge           |  0.31432% | 3911   |  0.314% | 2637   |  0.321% | 
 | 246  | Golurk             |  0.31255% | 3889   |  0.313% | 2696   |  0.329% | 
 | 247  | Leafeon            |  0.31247% | 3888   |  0.312% | 2330   |  0.284% | 
 | 248  | Aerodactyl         |  0.30966% | 3853   |  0.310% | 2778   |  0.339% | 
 | 249  | Nosepass           |  0.30435% | 3787   |  0.304% | 2850   |  0.347% | 
 | 250  | Cinccino           |  0.29929% | 3724   |  0.299% | 2469   |  0.301% | 
 | 251  | Sharpedo-Mega      |  0.29752% | 3702   |  0.298% | 2354   |  0.287% | 
 | 252  | Cradily            |  0.29584% | 3681   |  0.296% | 2442   |  0.298% | 
 | 253  | Slowking           |  0.29318% | 3648   |  0.293% | 2439   |  0.297% | 
 | 254  | Gastrodon          |  0.29206% | 3634   |  0.292% | 2583   |  0.315% | 
 | 255  | Meowstic           |  0.28756% | 3578   |  0.288% | 2772   |  0.338% | 
 | 256  | Spiritomb          |  0.28691% | 3570   |  0.287% | 2549   |  0.311% | 
 | 257  | Mandibuzz          |  0.28675% | 3568   |  0.287% | 2224   |  0.271% | 
 | 258  | Muk                |  0.28129% | 3500   |  0.281% | 2461   |  0.300% | 
 | 259  | Magnemite          |  0.28040% | 3489   |  0.280% | 2117   |  0.258% | 
 | 260  | Weezing            |  0.28016% | 3486   |  0.280% | 2557   |  0.312% | 
 | 261  | Mismagius          |  0.27936% | 3476   |  0.279% | 2252   |  0.274% | 
 | 262  | Swellow            |  0.27783% | 3457   |  0.278% | 2258   |  0.275% | 
 | 263  | Terrakion          |  0.27462% | 3417   |  0.275% | 2319   |  0.283% | 
 | 264  | Lanturn            |  0.27373% | 3406   |  0.274% | 2295   |  0.280% | 
 | 265  | Vivillon           |  0.27261% | 3392   |  0.273% | 2391   |  0.291% | 
 | 266  | Mr. Mime           |  0.27156% | 3379   |  0.272% | 2017   |  0.246% | 
 | 267  | Rotom-Heat         |  0.26931% | 3351   |  0.269% | 2343   |  0.286% | 
 | 268  | Aurorus            |  0.26473% | 3294   |  0.265% | 2248   |  0.274% | 
 | 269  | Ampharos           |  0.26425% | 3288   |  0.264% | 2101   |  0.256% | 
 | 270  | Tangrowth          |  0.26047% | 3241   |  0.260% | 1951   |  0.238% | 
 | 271  | Absol              |  0.25999% | 3235   |  0.260% | 2081   |  0.254% | 
 | 272  | Braviary           |  0.25903% | 3223   |  0.259% | 2154   |  0.262% | 
 | 273  | Gothitelle         |  0.25766% | 3206   |  0.258% | 2016   |  0.246% | 
 | 274  | Meganium           |  0.25766% | 3206   |  0.258% | 1987   |  0.242% | 
 | 275  | Starly             |  0.25742% | 3203   |  0.257% | 2222   |  0.271% | 
 | 276  | Arceus-Fighting    |  0.25702% | 3198   |  0.257% | 1948   |  0.237% | 
 | 277  | Golduck            |  0.25541% | 3178   |  0.255% | 2221   |  0.271% | 
 | 278  | Drifblim           |  0.25115% | 3125   |  0.251% | 2190   |  0.267% | 
 | 279  | Pangoro            |  0.24496% | 3048   |  0.245% | 2121   |  0.258% | 
 | 280  | Dusclops           |  0.24368% | 3032   |  0.244% | 2037   |  0.248% | 
 | 281  | Marowak            |  0.24143% | 3004   |  0.241% | 2069   |  0.252% | 
 | 282  | Reuniclus          |  0.23950% | 2980   |  0.239% | 1847   |  0.225% | 
 | 283  | Poliwrath          |  0.23934% | 2978   |  0.239% | 1990   |  0.242% | 
 | 284  | Jellicent          |  0.23861% | 2969   |  0.239% | 1862   |  0.227% | 
 | 285  | Sharpedo           |  0.23685% | 2947   |  0.237% | 1971   |  0.240% | 
 | 286  | Houndoom           |  0.23676% | 2946   |  0.237% | 1942   |  0.237% | 
 | 287  | Mienshao           |  0.23034% | 2866   |  0.230% | 1988   |  0.242% | 
 | 288  | Arceus-Flying      |  0.22616% | 2814   |  0.226% | 1793   |  0.218% | 
 | 289  | Dedenne            |  0.22608% | 2813   |  0.226% | 1991   |  0.243% | 
 | 290  | Hitmontop          |  0.22447% | 2793   |  0.224% | 1918   |  0.234% | 
 | 291  | Diggersby          |  0.21949% | 2731   |  0.219% | 1807   |  0.220% | 
 | 292  | Rampardos          |  0.21651% | 2694   |  0.217% | 1687   |  0.206% | 
 | 293  | Pyroar             |  0.21193% | 2637   |  0.212% | 1778   |  0.217% | 
 | 294  | Miltank            |  0.21161% | 2633   |  0.212% | 1673   |  0.204% | 
 | 295  | Avalugg            |  0.21081% | 2623   |  0.211% | 1703   |  0.208% | 
 | 296  | Arceus-Psychic     |  0.21073% | 2622   |  0.211% | 1683   |  0.205% | 
 | 297  | Meloetta           |  0.20759% | 2583   |  0.208% | 1694   |  0.206% | 
 | 298  | Regice             |  0.20639% | 2568   |  0.206% | 1698   |  0.207% | 
 | 299  | Scyther            |  0.20456% | 2546   |  0.205% | 1576   |  0.192% | 
 | 300  | Chatot             |  0.20446% | 2544   |  0.204% | 1941   |  0.237% | 
 | 301  | Registeel          |  0.20309% | 2527   |  0.203% | 1716   |  0.209% | 
 | 302  | Liepard            |  0.20245% | 2519   |  0.202% | 1926   |  0.235% | 
 | 303  | Tornadus-Therian   |  0.20132% | 2505   |  0.201% | 1536   |  0.187% | 
 | 304  | Gigalith           |  0.19986% | 2487   |  0.200% | 1910   |  0.233% | 
 | 305  | Kabutops           |  0.19835% | 2468   |  0.198% | 1620   |  0.197% | 
 | 306  | Raticate           |  0.19682% | 2449   |  0.197% | 1482   |  0.181% | 
 | 307  | Venomoth           |  0.19634% | 2443   |  0.196% | 1774   |  0.216% | 
 | 308  | Primeape           |  0.19618% | 2441   |  0.196% | 1514   |  0.184% | 
 | 309  | Hitmonchan         |  0.19513% | 2428   |  0.195% | 1681   |  0.205% | 
 | 310  | Linoone            |  0.19433% | 2418   |  0.194% | 1552   |  0.189% | 
 | 311  | Pidgeot            |  0.19427% | 2418   |  0.194% | 1653   |  0.201% | 
 | 312  | Manectric          |  0.19112% | 2378   |  0.191% | 1553   |  0.189% | 
 | 313  | Accelgor           |  0.18943% | 2357   |  0.189% | 1639   |  0.200% | 
 | 314  | Glalie-Mega        |  0.18935% | 2356   |  0.189% | 1491   |  0.182% | 
 | 315  | Seismitoad         |  0.18919% | 2354   |  0.189% | 1620   |  0.197% | 
 | 316  | Dodrio             |  0.18766% | 2335   |  0.188% | 1479   |  0.180% | 
 | 317  | Gorebyss           |  0.18718% | 2329   |  0.187% | 1804   |  0.220% | 
 | 318  | Barbaracle         |  0.18684% | 2325   |  0.187% | 1538   |  0.187% | 
 | 319  | Archeops           |  0.18485% | 2300   |  0.185% | 1579   |  0.192% | 
 | 320  | Bastiodon          |  0.18308% | 2278   |  0.183% | 1615   |  0.197% | 
 | 321  | Zangoose           |  0.18244% | 2270   |  0.182% | 1492   |  0.182% | 
 | 322  | Diancie            |  0.18035% | 2244   |  0.180% | 1471   |  0.179% | 
 | 323  | Tauros             |  0.17866% | 2223   |  0.179% | 1565   |  0.191% | 
 | 324  | Nidoqueen          |  0.17842% | 2220   |  0.178% | 1626   |  0.198% | 
 | 325  | Pineco             |  0.17601% | 2190   |  0.176% | 1632   |  0.199% | 
 | 326  | Escavalier         |  0.17536% | 2182   |  0.175% | 1377   |  0.168% | 
 | 327  | Doublade           |  0.17384% | 2163   |  0.174% | 1471   |  0.179% | 
 | 328  | Lilligant          |  0.17376% | 2162   |  0.174% | 1240   |  0.151% | 
 | 329  | Shiftry            |  0.17239% | 2145   |  0.172% | 1422   |  0.173% | 
 | 330  | Yanmega            |  0.17078% | 2125   |  0.171% | 1385   |  0.169% | 
 | 331  | Omastar            |  0.17054% | 2122   |  0.171% | 1515   |  0.185% | 
 | 332  | Ursaring           |  0.17022% | 2118   |  0.170% | 1367   |  0.167% | 
 | 333  | Vileplume          |  0.16982% | 2113   |  0.170% | 1355   |  0.165% | 
 | 334  | Cobalion           |  0.16709% | 2079   |  0.167% | 1253   |  0.153% | 
 | 335  | Regirock           |  0.16532% | 2057   |  0.165% | 1404   |  0.171% | 
 | 336  | Carracosta         |  0.16162% | 2011   |  0.162% | 1379   |  0.168% | 
 | 337  | Cacturne           |  0.15937% | 1983   |  0.159% | 1285   |  0.157% | 
 | 338  | Xatu               |  0.15889% | 1977   |  0.159% | 1519   |  0.185% | 
 | 339  | Unfezant           |  0.15873% | 1975   |  0.159% | 1318   |  0.161% | 
 | 340  | Electrode          |  0.15682% | 1952   |  0.157% | 1402   |  0.171% | 
 | 341  | Altaria            |  0.15648% | 1947   |  0.156% | 1197   |  0.146% | 
 | 342  | Floatzel           |  0.15399% | 1916   |  0.154% | 1370   |  0.167% | 
 | 343  | Kyurem             |  0.15230% | 1895   |  0.152% | 1171   |  0.143% | 
 | 344  | Probopass          |  0.15141% | 1884   |  0.151% | 1286   |  0.157% | 
 | 345  | Wailord            |  0.14989% | 1865   |  0.150% | 1343   |  0.164% | 
 | 346  | Rhydon             |  0.14852% | 1848   |  0.149% | 1314   |  0.160% | 
 | 347  | Murkrow            |  0.14764% | 1837   |  0.148% | 1312   |  0.160% | 
 | 348  | Wigglytuff         |  0.14699% | 1829   |  0.147% | 1166   |  0.142% | 
 | 349  | Butterfree         |  0.14691% | 1828   |  0.147% | 1188   |  0.145% | 
 | 350  | Rapidash           |  0.14579% | 1814   |  0.146% | 1247   |  0.152% | 
 | 351  | Taillow            |  0.14523% | 1807   |  0.145% | 948    |  0.116% | 
 | 352  | Torkoal            |  0.14474% | 1801   |  0.145% | 1351   |  0.165% | 
 | 353  | Virizion           |  0.14402% | 1792   |  0.144% | 1084   |  0.132% | 
 | 354  | Audino-Mega        |  0.14346% | 1785   |  0.143% | 1098   |  0.134% | 
 | 355  | Volbeat            |  0.14161% | 1762   |  0.142% | 1426   |  0.174% | 
 | 356  | Exploud            |  0.14056% | 1749   |  0.141% | 1107   |  0.135% | 
 | 357  | Gogoat             |  0.13783% | 1715   |  0.138% | 1107   |  0.135% | 
 | 358  | Cottonee           |  0.13655% | 1699   |  0.137% | 1142   |  0.139% | 
 | 359  | Rotom-Mow          |  0.13598% | 1692   |  0.136% | 1076   |  0.131% | 
 | 360  | Camerupt-Mega      |  0.13502% | 1680   |  0.135% | 1145   |  0.140% | 
 | 361  | Persian            |  0.13421% | 1670   |  0.134% | 1159   |  0.141% | 
 | 362  | Abomasnow          |  0.13421% | 1670   |  0.134% | 1094   |  0.133% | 
 | 363  | Doduo              |  0.13317% | 1657   |  0.133% | 899    |  0.110% | 
 | 364  | Sawk               |  0.13196% | 1642   |  0.132% | 1122   |  0.137% | 
 | 365  | Druddigon          |  0.13172% | 1639   |  0.132% | 1098   |  0.134% | 
 | 366  | Ariados            |  0.13052% | 1624   |  0.131% | 1419   |  0.173% | 
 | 367  | Treecko            |  0.13012% | 1619   |  0.130% | 970    |  0.118% | 
 | 368  | Arceus-Bug         |  0.12883% | 1603   |  0.129% | 943    |  0.115% | 
 | 369  | Victreebel         |  0.12827% | 1596   |  0.128% | 1053   |  0.128% | 
 | 370  | Walrein            |  0.12240% | 1523   |  0.122% | 1055   |  0.129% | 
 | 371  | Crustle            |  0.12144% | 1511   |  0.121% | 1146   |  0.140% | 
 | 372  | Arbok              |  0.11927% | 1484   |  0.119% | 999    |  0.122% | 
 | 373  | Alomomola          |  0.11758% | 1463   |  0.118% | 895    |  0.109% | 
 | 374  | Hariyama           |  0.11645% | 1449   |  0.116% | 984    |  0.120% | 
 | 375  | Leavanny           |  0.11637% | 1448   |  0.116% | 1092   |  0.133% | 
 | 376  | Emolga             |  0.11597% | 1443   |  0.116% | 1118   |  0.136% | 
 | 377  | Huntail            |  0.11589% | 1442   |  0.116% | 1125   |  0.137% | 
 | 378  | Hoopa              |  0.11525% | 1434   |  0.115% | 932    |  0.114% | 
 | 379  | Eevee              |  0.11197% | 1394   |  0.112% | 991    |  0.121% | 
 | 380  | Klinklang          |  0.11099% | 1381   |  0.111% | 911    |  0.111% | 
 | 381  | Medicham           |  0.10882% | 1354   |  0.109% | 942    |  0.115% | 
 | 382  | Kecleon            |  0.10810% | 1345   |  0.108% | 891    |  0.109% | 
 | 383  | Sandslash          |  0.10761% | 1339   |  0.108% | 911    |  0.111% | 
 | 384  | Tropius            |  0.10737% | 1336   |  0.107% | 819    |  0.100% | 
 | 385  | Armaldo            |  0.10697% | 1331   |  0.107% | 931    |  0.113% | 
 | 386  | Lopunny            |  0.10319% | 1284   |  0.103% | 859    |  0.105% | 
 | 387  | Stoutland          |  0.10183% | 1267   |  0.102% | 860    |  0.105% | 
 | 388  | Mawile             |  0.10134% | 1261   |  0.101% | 782    |  0.095% | 
 | 389  | Noctowl            |  0.09917% | 1234   |  0.099% | 828    |  0.101% | 
 | 390  | Rotom              |  0.09580% | 1192   |  0.096% | 844    |  0.103% | 
 | 391  | Claydol            |  0.09323% | 1160   |  0.093% | 812    |  0.099% | 
 | 392  | Jynx               |  0.09242% | 1150   |  0.092% | 733    |  0.089% | 
 | 393  | Swoobat            |  0.09106% | 1133   |  0.091% | 591    |  0.072% | 
 | 394  | Kingler            |  0.08921% | 1110   |  0.089% | 766    |  0.093% | 
 | 395  | Kangaskhan         |  0.08873% | 1104   |  0.089% | 702    |  0.086% | 
 | 396  | Dunsparce          |  0.08857% | 1102   |  0.089% | 731    |  0.089% | 
 | 397  | Solrock            |  0.08808% | 1096   |  0.088% | 757    |  0.092% | 
 | 398  | Wynaut             |  0.08800% | 1095   |  0.088% | 842    |  0.103% | 
 | 399  | Uxie               |  0.08768% | 1091   |  0.088% | 823    |  0.100% | 
 | 400  | Lickilicky         |  0.08752% | 1089   |  0.088% | 781    |  0.095% | 
 | 401  | Hypno              |  0.08511% | 1059   |  0.085% | 704    |  0.086% | 
 | 402  | Mightyena          |  0.08503% | 1058   |  0.085% | 751    |  0.092% | 
 | 403  | Gourgeist-Super    |  0.08390% | 1044   |  0.084% | 716    |  0.087% | 
 | 404  | Combusken          |  0.07772% | 967    |  0.078% | 720    |  0.088% | 
 | 405  | Furfrou            |  0.07635% | 950    |  0.076% | 636    |  0.078% | 
 | 406  | Rotom-Frost        |  0.07619% | 948    |  0.076% | 632    |  0.077% | 
 | 407  | Magneton           |  0.07619% | 948    |  0.076% | 644    |  0.078% | 
 | 408  | Hippopotas         |  0.07450% | 927    |  0.075% | 611    |  0.074% | 
 | 409  | Sudowoodo          |  0.07434% | 925    |  0.074% | 708    |  0.086% | 
 | 410  | Zebstrika          |  0.07346% | 914    |  0.073% | 616    |  0.075% | 
 | 411  | Carbink            |  0.07297% | 908    |  0.073% | 701    |  0.085% | 
 | 412  | Bouffalant         |  0.07217% | 898    |  0.072% | 617    |  0.075% | 
 | 413  | Banette            |  0.07215% | 898    |  0.072% | 627    |  0.076% | 
 | 414  | Squirtle           |  0.07121% | 886    |  0.071% | 657    |  0.080% | 
 | 415  | Haunter            |  0.07088% | 882    |  0.071% | 674    |  0.082% | 
 | 416  | Staravia           |  0.07064% | 879    |  0.071% | 443    |  0.054% | 
 | 417  | Togetic            |  0.07040% | 876    |  0.070% | 599    |  0.073% | 
 | 418  | Glalie             |  0.06992% | 870    |  0.070% | 609    |  0.074% | 
 | 419  | Masquerain         |  0.06976% | 868    |  0.070% | 672    |  0.082% | 
 | 420  | Pachirisu          |  0.06968% | 867    |  0.070% | 594    |  0.072% | 
 | 421  | Vanilluxe          |  0.06928% | 862    |  0.069% | 519    |  0.063% | 
 | 422  | Vespiquen          |  0.06880% | 856    |  0.069% | 507    |  0.062% | 
 | 423  | Shaymin            |  0.06855% | 853    |  0.069% | 505    |  0.062% | 
 | 424  | Spinda             |  0.06743% | 839    |  0.067% | 570    |  0.069% | 
 | 425  | Granbull           |  0.06510% | 810    |  0.065% | 550    |  0.067% | 
 | 426  | Bulbasaur          |  0.06429% | 800    |  0.064% | 575    |  0.070% | 
 | 427  | Beartic            |  0.06397% | 796    |  0.064% | 501    |  0.061% | 
 | 428  | Jumpluff           |  0.06381% | 794    |  0.064% | 528    |  0.064% | 
 | 429  | Tornadus           |  0.06333% | 788    |  0.063% | 484    |  0.059% | 
 | 430  | Electabuzz         |  0.06317% | 786    |  0.063% | 530    |  0.065% | 
 | 431  | Aromatisse         |  0.06245% | 777    |  0.062% | 480    |  0.058% | 
 | 432  | Pichu              |  0.06212% | 773    |  0.062% | 520    |  0.063% | 
 | 433  | Dragonair          |  0.06124% | 762    |  0.061% | 533    |  0.065% | 
 | 434  | Braixen            |  0.06076% | 756    |  0.061% | 531    |  0.065% | 
 | 435  | Gothorita          |  0.06012% | 748    |  0.060% | 565    |  0.069% | 
 | 436  | Onix               |  0.05843% | 727    |  0.058% | 561    |  0.068% | 
 | 437  | Garbodor           |  0.05666% | 705    |  0.057% | 496    |  0.060% | 
 | 438  | Dewgong            |  0.05618% | 699    |  0.056% | 492    |  0.060% | 
 | 439  | Seaking            |  0.05537% | 689    |  0.055% | 439    |  0.053% | 
 | 440  | Riolu              |  0.05497% | 684    |  0.055% | 521    |  0.063% | 
 | 441  | Bayleef            |  0.05280% | 657    |  0.053% | 430    |  0.052% | 
 | 442  | Musharna           |  0.05216% | 649    |  0.052% | 443    |  0.054% | 
 | 443  | Sawsbuck           |  0.05160% | 642    |  0.052% | 426    |  0.052% | 
 | 444  | Archen             |  0.05127% | 638    |  0.051% | 268    |  0.033% | 
 | 445  | Swanna             |  0.05079% | 632    |  0.051% | 381    |  0.046% | 
 | 446  | Mantine            |  0.05039% | 627    |  0.050% | 404    |  0.049% | 
 | 447  | Rotom-Fan          |  0.04983% | 620    |  0.050% | 435    |  0.053% | 
 | 448  | Camerupt           |  0.04975% | 619    |  0.050% | 410    |  0.050% | 
 | 449  | Beheeyem           |  0.04959% | 617    |  0.050% | 402    |  0.049% | 
 | 450  | Whiscash           |  0.04902% | 610    |  0.049% | 397    |  0.048% | 
 | 451  | Castform           |  0.04886% | 608    |  0.049% | 419    |  0.051% | 
 | 452  | Mesprit            |  0.04790% | 596    |  0.048% | 386    |  0.047% | 
 | 453  | Delibird           |  0.04766% | 593    |  0.048% | 393    |  0.048% | 
 | 454  | Beedrill           |  0.04702% | 585    |  0.047% | 428    |  0.052% | 
 | 455  | Wartortle          |  0.04685% | 583    |  0.047% | 432    |  0.053% | 
 | 456  | Munchlax           |  0.04677% | 582    |  0.047% | 424    |  0.052% | 
 | 457  | Furret             |  0.04637% | 577    |  0.046% | 434    |  0.053% | 
 | 458  | Charmander         |  0.04621% | 575    |  0.046% | 426    |  0.052% | 
 | 459  | Skuntank           |  0.04613% | 574    |  0.046% | 389    |  0.047% | 
 | 460  | Buizel             |  0.04597% | 572    |  0.046% | 404    |  0.049% | 
 | 461  | Girafarig          |  0.04541% | 565    |  0.045% | 376    |  0.046% | 
 | 462  | Diglett            |  0.04525% | 563    |  0.045% | 484    |  0.059% | 
 | 463  | Magcargo           |  0.04460% | 555    |  0.045% | 360    |  0.044% | 
 | 464  | Octillery          |  0.04364% | 543    |  0.044% | 344    |  0.042% | 
 | 465  | Audino             |  0.04227% | 526    |  0.042% | 265    |  0.032% | 
 | 466  | Bibarel            |  0.04211% | 524    |  0.042% | 349    |  0.043% | 
 | 467  | Caterpie           |  0.04179% | 520    |  0.042% | 282    |  0.034% | 
 | 468  | Gastly             |  0.04139% | 515    |  0.041% | 389    |  0.047% | 
 | 469  | Clefairy           |  0.04059% | 505    |  0.041% | 342    |  0.042% | 
 | 470  | Seviper            |  0.04002% | 498    |  0.040% | 319    |  0.039% | 
 | 471  | Throh              |  0.04002% | 498    |  0.040% | 324    |  0.039% | 
 | 472  | Minun              |  0.03954% | 492    |  0.040% | 352    |  0.043% | 
 | 473  | Parasect           |  0.03930% | 489    |  0.039% | 289    |  0.035% | 
 | 474  | Kricketune         |  0.03930% | 489    |  0.039% | 406    |  0.049% | 
 | 475  | Cryogonal          |  0.03906% | 486    |  0.039% | 336    |  0.041% | 
 | 476  | Magmar             |  0.03898% | 485    |  0.039% | 344    |  0.042% | 
 | 477  | Fearow             |  0.03882% | 483    |  0.039% | 339    |  0.041% | 
 | 478  | Charmeleon         |  0.03866% | 481    |  0.039% | 359    |  0.044% | 
 | 479  | Gligar             |  0.03834% | 477    |  0.038% | 330    |  0.040% | 
 | 480  | Qwilfish           |  0.03801% | 473    |  0.038% | 391    |  0.048% | 
 | 481  | Frogadier          |  0.03761% | 468    |  0.038% | 352    |  0.043% | 
 | 482  | Buneary            |  0.03745% | 466    |  0.037% | 219    |  0.027% | 
 | 483  | Farfetch'd         |  0.03745% | 466    |  0.037% | 297    |  0.036% | 
 | 484  | Stunfisk           |  0.03729% | 464    |  0.037% | 357    |  0.044% | 
 | 485  | Delcatty           |  0.03713% | 462    |  0.037% | 339    |  0.041% | 
 | 486  | Jigglypuff         |  0.03649% | 454    |  0.036% | 302    |  0.037% | 
 | 487  | Sunflora           |  0.03633% | 452    |  0.036% | 270    |  0.033% | 
 | 488  | Bidoof             |  0.03625% | 451    |  0.036% | 313    |  0.038% | 
 | 489  | Torchic            |  0.03600% | 448    |  0.036% | 360    |  0.044% | 
 | 490  | Bunnelby           |  0.03576% | 445    |  0.036% | 275    |  0.034% | 
 | 491  | Quilava            |  0.03520% | 438    |  0.035% | 308    |  0.038% | 
 | 492  | Gourgeist          |  0.03480% | 433    |  0.035% | 278    |  0.034% | 
 | 493  | Misdreavus         |  0.03448% | 429    |  0.034% | 312    |  0.038% | 
 | 494  | Totodile           |  0.03392% | 422    |  0.034% | 291    |  0.035% | 
 | 495  | Simisage           |  0.03287% | 409    |  0.033% | 264    |  0.032% | 
 | 496  | Rhyhorn            |  0.03207% | 399    |  0.032% | 220    |  0.027% | 
 | 497  | Fletchinder        |  0.03118% | 388    |  0.031% | 274    |  0.033% | 
 | 498  | Golbat             |  0.03118% | 388    |  0.031% | 290    |  0.035% | 
 | 499  | Purugly            |  0.03094% | 385    |  0.031% | 299    |  0.036% | 
 | 500  | Pelipper           |  0.03086% | 384    |  0.031% | 263    |  0.032% | 
 | 501  | Snivy              |  0.03078% | 383    |  0.031% | 263    |  0.032% | 
 | 502  | Bellossom          |  0.03054% | 380    |  0.031% | 223    |  0.027% | 
 | 503  | Relicanth          |  0.03006% | 374    |  0.030% | 253    |  0.031% | 
 | 504  | Ivysaur            |  0.02933% | 365    |  0.029% | 258    |  0.031% | 
 | 505  | Zubat              |  0.02933% | 365    |  0.029% | 263    |  0.032% | 
 | 506  | Lunatone           |  0.02885% | 359    |  0.029% | 221    |  0.027% | 
 | 507  | Pinsir             |  0.02869% | 357    |  0.029% | 246    |  0.030% | 
 | 508  | Trubbish           |  0.02837% | 353    |  0.028% | 339    |  0.041% | 
 | 509  | Heatmor            |  0.02837% | 353    |  0.028% | 223    |  0.027% | 
 | 510  | Grovyle            |  0.02821% | 351    |  0.028% | 229    |  0.028% | 
 | 511  | Solosis            |  0.02781% | 346    |  0.028% | 171    |  0.021% | 
 | 512  | Sneasel            |  0.02749% | 342    |  0.027% | 215    |  0.026% | 
 | 513  | Mudkip             |  0.02724% | 339    |  0.027% | 233    |  0.028% | 
 | 514  | Metapod            |  0.02716% | 338    |  0.027% | 278    |  0.034% | 
 | 515  | Beautifly          |  0.02700% | 336    |  0.027% | 220    |  0.027% | 
 | 516  | Hoppip             |  0.02628% | 327    |  0.026% | 272    |  0.033% | 
 | 517  | Dewott             |  0.02612% | 325    |  0.026% | 181    |  0.022% | 
 | 518  | Tangela            |  0.02564% | 319    |  0.026% | 201    |  0.024% | 
 | 519  | Froakie            |  0.02564% | 319    |  0.026% | 242    |  0.029% | 
 | 520  | Simisear           |  0.02564% | 319    |  0.026% | 197    |  0.024% | 
 | 521  | Abra               |  0.02556% | 318    |  0.026% | 235    |  0.029% | 
 | 522  | Meowth             |  0.02540% | 316    |  0.025% | 218    |  0.027% | 
 | 523  | Geodude            |  0.02491% | 310    |  0.025% | 257    |  0.031% | 
 | 524  | Illumise           |  0.02483% | 309    |  0.025% | 228    |  0.028% | 
 | 525  | Grumpig            |  0.02475% | 308    |  0.025% | 212    |  0.026% | 
 | 526  | Oshawott           |  0.02403% | 299    |  0.024% | 227    |  0.028% | 
 | 527  | Ralts              |  0.02274% | 283    |  0.023% | 201    |  0.024% | 
 | 528  | Ledian             |  0.02266% | 282    |  0.023% | 184    |  0.022% | 
 | 529  | Pignite            |  0.02242% | 279    |  0.022% | 204    |  0.025% | 
 | 530  | Swalot             |  0.02218% | 276    |  0.022% | 188    |  0.023% | 
 | 531  | Ferroseed          |  0.02210% | 275    |  0.022% | 215    |  0.026% | 
 | 532  | Carnivine          |  0.02202% | 274    |  0.022% | 187    |  0.023% | 
 | 533  | Machoke            |  0.02194% | 273    |  0.022% | 203    |  0.025% | 
 | 534  | Plusle             |  0.02178% | 271    |  0.022% | 169    |  0.021% | 
 | 535  | Sunkern            |  0.02130% | 265    |  0.021% | 165    |  0.020% | 
 | 536  | Pidgey             |  0.02090% | 260    |  0.021% | 183    |  0.022% | 
 | 537  | Vigoroth           |  0.02082% | 259    |  0.021% | 194    |  0.024% | 
 | 538  | Dustox             |  0.02082% | 259    |  0.021% | 167    |  0.020% | 
 | 539  | Porygon            |  0.02073% | 258    |  0.021% | 193    |  0.024% | 
 | 540  | Maractus           |  0.02041% | 254    |  0.020% | 171    |  0.021% | 
 | 541  | Servine            |  0.02041% | 254    |  0.020% | 198    |  0.024% | 
 | 542  | Lickitung          |  0.02009% | 250    |  0.020% | 168    |  0.020% | 
 | 543  | Simipour           |  0.01993% | 248    |  0.020% | 168    |  0.020% | 
 | 544  | Weedle             |  0.01977% | 246    |  0.020% | 187    |  0.023% | 
 | 545  | Feebas             |  0.01937% | 241    |  0.019% | 170    |  0.021% | 
 | 546  | Clamperl           |  0.01929% | 240    |  0.019% | 156    |  0.019% | 
 | 547  | Aipom              |  0.01905% | 237    |  0.019% | 157    |  0.019% | 
 | 548  | Lairon             |  0.01897% | 236    |  0.019% | 151    |  0.018% | 
 | 549  | Cubone             |  0.01897% | 236    |  0.019% | 186    |  0.023% | 
 | 550  | Swinub             |  0.01848% | 230    |  0.018% | 122    |  0.015% | 
 | 551  | Monferno           |  0.01832% | 228    |  0.018% | 149    |  0.018% | 
 | 552  | Gothita            |  0.01792% | 223    |  0.018% | 125    |  0.015% | 
 | 553  | Unown              |  0.01792% | 223    |  0.018% | 158    |  0.019% | 
 | 554  | Chimchar           |  0.01784% | 222    |  0.018% | 159    |  0.019% | 
 | 555  | Chikorita          |  0.01776% | 221    |  0.018% | 153    |  0.019% | 
 | 556  | Kadabra            |  0.01768% | 220    |  0.018% | 149    |  0.018% | 
 | 557  | Graveler           |  0.01768% | 220    |  0.018% | 169    |  0.021% | 
 | 558  | Piplup             |  0.01760% | 219    |  0.018% | 171    |  0.021% | 
 | 559  | Watchog            |  0.01760% | 219    |  0.018% | 153    |  0.019% | 
 | 560  | Yamask             |  0.01760% | 219    |  0.018% | 179    |  0.022% | 
 | 561  | Corphish           |  0.01728% | 215    |  0.017% | 132    |  0.016% | 
 | 562  | Gible              |  0.01728% | 215    |  0.017% | 152    |  0.019% | 
 | 563  | Chespin            |  0.01704% | 212    |  0.017% | 152    |  0.019% | 
 | 564  | Boldore            |  0.01688% | 210    |  0.017% | 182    |  0.022% | 
 | 565  | Psyduck            |  0.01648% | 205    |  0.016% | 149    |  0.018% | 
 | 566  | Cherrim            |  0.01648% | 205    |  0.016% | 121    |  0.015% | 
 | 567  | Zorua              |  0.01640% | 204    |  0.016% | 79     |  0.010% | 
 | 568  | Togepi             |  0.01640% | 204    |  0.016% | 142    |  0.017% | 
 | 569  | Kakuna             |  0.01623% | 202    |  0.016% | 144    |  0.018% | 
 | 570  | Whirlipede         |  0.01591% | 198    |  0.016% | 144    |  0.018% | 
 | 571  | Basculin           |  0.01567% | 195    |  0.016% | 136    |  0.017% | 
 | 572  | Palpitoad          |  0.01567% | 195    |  0.016% | 103    |  0.013% | 
 | 573  | Wormadam-Trash     |  0.01567% | 195    |  0.016% | 156    |  0.019% | 
 | 574  | Gabite             |  0.01535% | 191    |  0.015% | 129    |  0.016% | 
 | 575  | Gourgeist-Small    |  0.01519% | 189    |  0.015% | 86     |  0.010% | 
 | 576  | Marshtomp          |  0.01511% | 188    |  0.015% | 128    |  0.016% | 
 | 577  | Zigzagoon          |  0.01503% | 187    |  0.015% | 138    |  0.017% | 
 | 578  | Pidgeotto          |  0.01487% | 185    |  0.015% | 138    |  0.017% | 
 | 579  | Pancham            |  0.01479% | 184    |  0.015% | 145    |  0.018% | 
 | 580  | Luvdisc            |  0.01463% | 182    |  0.015% | 112    |  0.014% | 
 | 581  | Stantler           |  0.01447% | 180    |  0.014% | 119    |  0.015% | 
 | 582  | Tepig              |  0.01431% | 178    |  0.014% | 131    |  0.016% | 
 | 583  | Corsola            |  0.01423% | 177    |  0.014% | 142    |  0.017% | 
 | 584  | Omanyte            |  0.01406% | 175    |  0.014% | 154    |  0.019% | 
 | 585  | Cyndaquil          |  0.01398% | 174    |  0.014% | 123    |  0.015% | 
 | 586  | Cleffa             |  0.01390% | 173    |  0.014% | 83     |  0.010% | 
 | 587  | Mothim             |  0.01366% | 170    |  0.014% | 106    |  0.013% | 
 | 588  | Fennekin           |  0.01350% | 168    |  0.014% | 126    |  0.015% | 
 | 589  | Vulpix             |  0.01334% | 166    |  0.013% | 120    |  0.015% | 
 | 590  | Roselia            |  0.01318% | 164    |  0.013% | 125    |  0.015% | 
 | 591  | Bergmite           |  0.01310% | 163    |  0.013% | 108    |  0.013% | 
 | 592  | Phione             |  0.01286% | 160    |  0.013% | 118    |  0.014% | 
 | 593  | Metang             |  0.01286% | 160    |  0.013% | 124    |  0.015% | 
 | 594  | Shellos            |  0.01270% | 158    |  0.013% | 110    |  0.013% | 
 | 595  | Fraxure            |  0.01270% | 158    |  0.013% | 106    |  0.013% | 
 | 596  | Swadloon           |  0.01270% | 158    |  0.013% | 127    |  0.015% | 
 | 597  | Duskull            |  0.01262% | 157    |  0.013% | 111    |  0.014% | 
 | 598  | Chimecho           |  0.01262% | 157    |  0.013% | 94     |  0.011% | 
 | 599  | Lumineon           |  0.01262% | 157    |  0.013% | 110    |  0.013% | 
 | 600  | Fletchling         |  0.01230% | 153    |  0.012% | 113    |  0.014% | 
 | 601  | Binacle            |  0.01214% | 151    |  0.012% | 111    |  0.014% | 
 | 602  | Quilladin          |  0.01206% | 150    |  0.012% | 102    |  0.012% | 
 | 603  | Axew               |  0.01197% | 149    |  0.012% | 112    |  0.014% | 
 | 604  | Piloswine          |  0.01149% | 143    |  0.011% | 109    |  0.013% | 
 | 605  | Voltorb            |  0.01141% | 142    |  0.011% | 116    |  0.014% | 
 | 606  | Wormadam-Sandy     |  0.01125% | 140    |  0.011% | 108    |  0.013% | 
 | 607  | Shroomish          |  0.01125% | 140    |  0.011% | 99     |  0.012% | 
 | 608  | Ducklett           |  0.01109% | 138    |  0.011% | 98     |  0.012% | 
 | 609  | Seadra             |  0.01093% | 136    |  0.011% | 96     |  0.012% | 
 | 610  | Bonsly             |  0.01085% | 135    |  0.011% | 98     |  0.012% | 
 | 611  | Inkay              |  0.01061% | 132    |  0.011% | 95     |  0.012% | 
 | 612  | Kirlia             |  0.01045% | 130    |  0.010% | 94     |  0.011% | 
 | 613  | Croconaw           |  0.01045% | 130    |  0.010% | 91     |  0.011% | 
 | 614  | Koffing            |  0.01037% | 129    |  0.010% | 106    |  0.013% | 
 | 615  | Natu               |  0.01029% | 128    |  0.010% | 88     |  0.011% | 
 | 616  | Tyrunt             |  0.01021% | 127    |  0.010% | 94     |  0.011% | 
 | 617  | Mankey             |  0.00989% | 123    |  0.010% | 82     |  0.010% | 
 | 618  | Wooper             |  0.00980% | 122    |  0.010% | 66     |  0.008% | 
 | 619  | Drowzee            |  0.00964% | 120    |  0.010% | 94     |  0.011% | 
 | 620  | Dwebble            |  0.00948% | 118    |  0.009% | 87     |  0.011% | 
 | 621  | Scraggy            |  0.00940% | 117    |  0.009% | 90     |  0.011% | 
 | 622  | Carvanha           |  0.00932% | 116    |  0.009% | 80     |  0.010% | 
 | 623  | Pawniard           |  0.00916% | 114    |  0.009% | 69     |  0.008% | 
 | 624  | Drilbur            |  0.00916% | 114    |  0.009% | 74     |  0.009% | 
 | 625  | Surskit            |  0.00908% | 113    |  0.009% | 98     |  0.012% | 
 | 626  | Magby              |  0.00900% | 112    |  0.009% | 72     |  0.009% | 
 | 627  | Turtwig            |  0.00900% | 112    |  0.009% | 78     |  0.010% | 
 | 628  | Ponyta             |  0.00892% | 111    |  0.009% | 72     |  0.009% | 
 | 629  | Herdier            |  0.00884% | 110    |  0.009% | 65     |  0.008% | 
 | 630  | Dratini            |  0.00852% | 106    |  0.009% | 81     |  0.010% | 
 | 631  | Gourgeist-Large    |  0.00844% | 105    |  0.008% | 57     |  0.007% | 
 | 632  | Wurmple            |  0.00828% | 103    |  0.008% | 71     |  0.009% | 
 | 633  | Mime Jr.           |  0.00804% | 100    |  0.008% | 67     |  0.008% | 
 | 634  | Marill             |  0.00788% | 98     |  0.008% | 58     |  0.007% | 
 | 635  | Staryu             |  0.00788% | 98     |  0.008% | 67     |  0.008% | 
 | 636  | Frillish           |  0.00788% | 98     |  0.008% | 69     |  0.008% | 
 | 637  | Lampent            |  0.00780% | 97     |  0.008% | 63     |  0.008% | 
 | 638  | Drifloon           |  0.00772% | 96     |  0.008% | 68     |  0.008% | 
 | 639  | Floette            |  0.00763% | 95     |  0.008% | 54     |  0.007% | 
 | 640  | Sliggoo            |  0.00747% | 93     |  0.007% | 63     |  0.008% | 
 | 641  | Meditite           |  0.00747% | 93     |  0.007% | 67     |  0.008% | 
 | 642  | Azurill            |  0.00739% | 92     |  0.007% | 69     |  0.008% | 
 | 643  | Spinarak           |  0.00739% | 92     |  0.007% | 74     |  0.009% | 
 | 644  | Happiny            |  0.00739% | 92     |  0.007% | 68     |  0.008% | 
 | 645  | Krokorok           |  0.00731% | 91     |  0.007% | 65     |  0.008% | 
 | 646  | Tynamo             |  0.00723% | 90     |  0.007% | 79     |  0.010% | 
 | 647  | Shellder           |  0.00715% | 89     |  0.007% | 62     |  0.008% | 
 | 648  | Ekans              |  0.00707% | 88     |  0.007% | 71     |  0.009% | 
 | 649  | Sentret            |  0.00707% | 88     |  0.007% | 37     |  0.005% | 
 | 650  | Yanma              |  0.00699% | 87     |  0.007% | 56     |  0.007% | 
 | 651  | Tentacool          |  0.00699% | 87     |  0.007% | 74     |  0.009% | 
 | 652  | Noibat             |  0.00691% | 86     |  0.007% | 51     |  0.006% | 
 | 653  | Machop             |  0.00691% | 86     |  0.007% | 56     |  0.007% | 
 | 654  | Glameow            |  0.00683% | 85     |  0.007% | 72     |  0.009% | 
 | 655  | Goomy              |  0.00675% | 84     |  0.007% | 54     |  0.007% | 
 | 656  | Nidorino           |  0.00675% | 84     |  0.007% | 62     |  0.008% | 
 | 657  | Beldum             |  0.00659% | 82     |  0.007% | 70     |  0.009% | 
 | 658  | Bellsprout         |  0.00651% | 81     |  0.007% | 62     |  0.008% | 
 | 659  | Trapinch           |  0.00635% | 79     |  0.006% | 54     |  0.007% | 
 | 660  | Phanpy             |  0.00627% | 78     |  0.006% | 54     |  0.007% | 
 | 661  | Igglybuff          |  0.00627% | 78     |  0.006% | 59     |  0.007% | 
 | 662  | Numel              |  0.00619% | 77     |  0.006% | 54     |  0.007% | 
 | 663  | Slowpoke           |  0.00619% | 77     |  0.006% | 61     |  0.007% | 
 | 664  | Oddish             |  0.00611% | 76     |  0.006% | 49     |  0.006% | 
 | 665  | Sewaddle           |  0.00611% | 76     |  0.006% | 60     |  0.007% | 
 | 666  | Lileep             |  0.00603% | 75     |  0.006% | 59     |  0.007% | 
 | 667  | Honedge            |  0.00603% | 75     |  0.006% | 48     |  0.006% | 
 | 668  | Spritzee           |  0.00595% | 74     |  0.006% | 48     |  0.006% | 
 | 669  | Purrloin           |  0.00595% | 74     |  0.006% | 54     |  0.007% | 
 | 670  | Grotle             |  0.00595% | 74     |  0.006% | 54     |  0.007% | 
 | 671  | Duosion            |  0.00587% | 73     |  0.006% | 53     |  0.006% | 
 | 672  | Sandshrew          |  0.00587% | 73     |  0.006% | 50     |  0.006% | 
 | 673  | Cranidos           |  0.00587% | 73     |  0.006% | 45     |  0.005% | 
 | 674  | Gurdurr            |  0.00579% | 72     |  0.006% | 56     |  0.007% | 
 | 675  | Snover             |  0.00579% | 72     |  0.006% | 38     |  0.005% | 
 | 676  | Bagon              |  0.00579% | 72     |  0.006% | 52     |  0.006% | 
 | 677  | Luxio              |  0.00571% | 71     |  0.006% | 53     |  0.006% | 
 | 678  | Shelgon            |  0.00571% | 71     |  0.006% | 49     |  0.006% | 
 | 679  | Wingull            |  0.00563% | 70     |  0.006% | 51     |  0.006% | 
 | 680  | Goldeen            |  0.00555% | 69     |  0.006% | 53     |  0.006% | 
 | 681  | Teddiursa          |  0.00555% | 69     |  0.006% | 44     |  0.005% | 
 | 682  | Shieldon           |  0.00555% | 69     |  0.006% | 47     |  0.006% | 
 | 683  | Roggenrola         |  0.00547% | 68     |  0.005% | 51     |  0.006% | 
 | 684  | Minccino           |  0.00547% | 68     |  0.005% | 43     |  0.005% | 
 | 685  | Prinplup           |  0.00547% | 68     |  0.005% | 55     |  0.007% | 
 | 686  | Tirtouga           |  0.00547% | 68     |  0.005% | 51     |  0.006% | 
 | 687  | Pansage            |  0.00538% | 67     |  0.005% | 48     |  0.006% | 
 | 688  | Growlithe          |  0.00538% | 67     |  0.005% | 48     |  0.006% | 
 | 689  | Phantump           |  0.00530% | 66     |  0.005% | 42     |  0.005% | 
 | 690  | Poliwhirl          |  0.00530% | 66     |  0.005% | 52     |  0.006% | 
 | 691  | Mienfoo            |  0.00530% | 66     |  0.005% | 50     |  0.006% | 
 | 692  | Lombre             |  0.00514% | 64     |  0.005% | 43     |  0.005% | 
 | 693  | Poliwag            |  0.00514% | 64     |  0.005% | 34     |  0.004% | 
 | 694  | Sealeo             |  0.00514% | 64     |  0.005% | 41     |  0.005% | 
 | 695  | Croagunk           |  0.00514% | 64     |  0.005% | 42     |  0.005% | 
 | 696  | Flaaffy            |  0.00506% | 63     |  0.005% | 48     |  0.006% | 
 | 697  | Shinx              |  0.00506% | 63     |  0.005% | 48     |  0.006% | 
 | 698  | Grimer             |  0.00506% | 63     |  0.005% | 51     |  0.006% | 
 | 699  | Weepinbell         |  0.00498% | 62     |  0.005% | 42     |  0.005% | 
 | 700  | Vullaby            |  0.00498% | 62     |  0.005% | 31     |  0.004% | 
 | 701  | Eelektrik          |  0.00490% | 61     |  0.005% | 50     |  0.006% | 
 | 702  | Gloom              |  0.00490% | 61     |  0.005% | 50     |  0.006% | 
 | 703  | Amaura             |  0.00482% | 60     |  0.005% | 39     |  0.005% | 
 | 704  | Chingling          |  0.00482% | 60     |  0.005% | 35     |  0.004% | 
 | 705  | Vibrava            |  0.00482% | 60     |  0.005% | 42     |  0.005% | 
 | 706  | Nuzleaf            |  0.00482% | 60     |  0.005% | 48     |  0.006% | 
 | 707  | Ledyba             |  0.00482% | 60     |  0.005% | 26     |  0.003% | 
 | 708  | Chinchou           |  0.00474% | 59     |  0.005% | 50     |  0.006% | 
 | 709  | Skorupi            |  0.00474% | 59     |  0.005% | 46     |  0.006% | 
 | 710  | Wailmer            |  0.00466% | 58     |  0.005% | 36     |  0.004% | 
 | 711  | Spearow            |  0.00458% | 57     |  0.005% | 35     |  0.004% | 
 | 712  | Tyrogue            |  0.00458% | 57     |  0.005% | 44     |  0.005% | 
 | 713  | Foongus            |  0.00450% | 56     |  0.005% | 38     |  0.005% | 
 | 714  | Kabuto             |  0.00450% | 56     |  0.005% | 40     |  0.005% | 
 | 715  | Vanillite          |  0.00434% | 54     |  0.004% | 30     |  0.004% | 
 | 716  | Skiploom           |  0.00426% | 53     |  0.004% | 41     |  0.005% | 
 | 717  | Deerling           |  0.00426% | 53     |  0.004% | 31     |  0.004% | 
 | 718  | Mantyke            |  0.00418% | 52     |  0.004% | 42     |  0.005% | 
 | 719  | Cacnea             |  0.00418% | 52     |  0.004% | 35     |  0.004% | 
 | 720  | Zweilous           |  0.00410% | 51     |  0.004% | 34     |  0.004% | 
 | 721  | Krabby             |  0.00410% | 51     |  0.004% | 34     |  0.004% | 
 | 722  | Lotad              |  0.00402% | 50     |  0.004% | 40     |  0.005% | 
 | 723  | Skiddo             |  0.00394% | 49     |  0.004% | 25     |  0.003% | 
 | 724  | Joltik             |  0.00394% | 49     |  0.004% | 41     |  0.005% | 
 | 725  | Litleo             |  0.00394% | 49     |  0.004% | 36     |  0.004% | 
 | 726  | Elekid             |  0.00386% | 48     |  0.004% | 36     |  0.004% | 
 | 727  | Klang              |  0.00378% | 47     |  0.004% | 31     |  0.004% | 
 | 728  | NidoranM           |  0.00378% | 47     |  0.004% | 38     |  0.005% | 
 | 729  | Venipede           |  0.00378% | 47     |  0.004% | 36     |  0.004% | 
 | 730  | Larvitar           |  0.00370% | 46     |  0.004% | 33     |  0.004% | 
 | 731  | Woobat             |  0.00370% | 46     |  0.004% | 28     |  0.003% | 
 | 732  | Patrat             |  0.00370% | 46     |  0.004% | 34     |  0.004% | 
 | 733  | Litwick            |  0.00370% | 46     |  0.004% | 31     |  0.004% | 
 | 734  | Exeggcute          |  0.00362% | 45     |  0.004% | 31     |  0.004% | 
 | 735  | Espurr             |  0.00362% | 45     |  0.004% | 39     |  0.005% | 
 | 736  | Flabebe            |  0.00362% | 45     |  0.004% | 33     |  0.004% | 
 | 737  | Rufflet            |  0.00354% | 44     |  0.004% | 21     |  0.003% | 
 | 738  | Bronzor            |  0.00354% | 44     |  0.004% | 40     |  0.005% | 
 | 739  | Petilil            |  0.00354% | 44     |  0.004% | 23     |  0.003% | 
 | 740  | Skitty             |  0.00354% | 44     |  0.004% | 31     |  0.004% | 
 | 741  | Houndour           |  0.00354% | 44     |  0.004% | 27     |  0.003% | 
 | 742  | Lillipup           |  0.00346% | 43     |  0.003% | 32     |  0.004% | 
 | 743  | Golett             |  0.00346% | 43     |  0.003% | 37     |  0.005% | 
 | 744  | Pansear            |  0.00338% | 42     |  0.003% | 35     |  0.004% | 
 | 745  | Pupitar            |  0.00338% | 42     |  0.003% | 29     |  0.004% | 
 | 746  | Seedot             |  0.00330% | 41     |  0.003% | 29     |  0.004% | 
 | 747  | Deino              |  0.00330% | 41     |  0.003% | 24     |  0.003% | 
 | 748  | Paras              |  0.00330% | 41     |  0.003% | 25     |  0.003% | 
 | 749  | Spoink             |  0.00330% | 41     |  0.003% | 34     |  0.004% | 
 | 750  | Darumaka           |  0.00330% | 41     |  0.003% | 28     |  0.003% | 
 | 751  | Panpour            |  0.00321% | 40     |  0.003% | 34     |  0.004% | 
 | 752  | Tranquill          |  0.00313% | 39     |  0.003% | 27     |  0.003% | 
 | 753  | Horsea             |  0.00305% | 38     |  0.003% | 27     |  0.003% | 
 | 754  | Seel               |  0.00297% | 37     |  0.003% | 27     |  0.003% | 
 | 755  | Shuppet            |  0.00297% | 37     |  0.003% | 24     |  0.003% | 
 | 756  | Poochyena          |  0.00297% | 37     |  0.003% | 28     |  0.003% | 
 | 757  | Combee             |  0.00297% | 37     |  0.003% | 27     |  0.003% | 
 | 758  | Timburr            |  0.00297% | 37     |  0.003% | 23     |  0.003% | 
 | 759  | Larvesta           |  0.00289% | 36     |  0.003% | 21     |  0.003% | 
 | 760  | Barboach           |  0.00289% | 36     |  0.003% | 28     |  0.003% | 
 | 761  | Wormadam           |  0.00289% | 36     |  0.003% | 25     |  0.003% | 
 | 762  | Mareep             |  0.00281% | 35     |  0.003% | 26     |  0.003% | 
 | 763  | Pumpkaboo          |  0.00273% | 34     |  0.003% | 25     |  0.003% | 
 | 764  | Pumpkaboo-Super    |  0.00273% | 34     |  0.003% | 30     |  0.004% | 
 | 765  | Electrike          |  0.00273% | 34     |  0.003% | 22     |  0.003% | 
 | 766  | Slugma             |  0.00273% | 34     |  0.003% | 25     |  0.003% | 
 | 767  | Swirlix            |  0.00265% | 33     |  0.003% | 18     |  0.002% | 
 | 768  | Whismur            |  0.00265% | 33     |  0.003% | 14     |  0.002% | 
 | 769  | Cherubi            |  0.00265% | 33     |  0.003% | 23     |  0.003% | 
 | 770  | Hoothoot           |  0.00265% | 33     |  0.003% | 21     |  0.003% | 
 | 771  | Helioptile         |  0.00257% | 32     |  0.003% | 25     |  0.003% | 
 | 772  | Remoraid           |  0.00249% | 31     |  0.002% | 22     |  0.003% | 
 | 773  | Makuhita           |  0.00249% | 31     |  0.002% | 24     |  0.003% | 
 | 774  | Snubbull           |  0.00241% | 30     |  0.002% | 24     |  0.003% | 
 | 775  | Baltoy             |  0.00241% | 30     |  0.002% | 15     |  0.002% | 
 | 776  | Vanillish          |  0.00233% | 29     |  0.002% | 19     |  0.002% | 
 | 777  | Silcoon            |  0.00233% | 29     |  0.002% | 24     |  0.003% | 
 | 778  | Smoochum           |  0.00233% | 29     |  0.002% | 21     |  0.003% | 
 | 779  | Swablu             |  0.00225% | 28     |  0.002% | 17     |  0.002% | 
 | 780  | Sandile            |  0.00225% | 28     |  0.002% | 21     |  0.003% | 
 | 781  | Nincada            |  0.00225% | 28     |  0.002% | 21     |  0.003% | 
 | 782  | Pidove             |  0.00217% | 27     |  0.002% | 18     |  0.002% | 
 | 783  | Stunky             |  0.00217% | 27     |  0.002% | 21     |  0.003% | 
 | 784  | Nidorina           |  0.00217% | 27     |  0.002% | 23     |  0.003% | 
 | 785  | Slakoth            |  0.00209% | 26     |  0.002% | 19     |  0.002% | 
 | 786  | Skrelp             |  0.00209% | 26     |  0.002% | 19     |  0.002% | 
 | 787  | Venonat            |  0.00209% | 26     |  0.002% | 21     |  0.003% | 
 | 788  | Budew              |  0.00209% | 26     |  0.002% | 20     |  0.002% | 
 | 789  | Spheal             |  0.00209% | 26     |  0.002% | 18     |  0.002% | 
 | 790  | Elgyem             |  0.00201% | 25     |  0.002% | 19     |  0.002% | 
 | 791  | Finneon            |  0.00201% | 25     |  0.002% | 22     |  0.003% | 
 | 792  | Snorunt            |  0.00201% | 25     |  0.002% | 19     |  0.002% | 
 | 793  | Blitzle            |  0.00193% | 24     |  0.002% | 19     |  0.002% | 
 | 794  | Scatterbug         |  0.00193% | 24     |  0.002% | 10     |  0.001% | 
 | 795  | Gulpin             |  0.00185% | 23     |  0.002% | 14     |  0.002% | 
 | 796  | Klink              |  0.00185% | 23     |  0.002% | 19     |  0.002% | 
 | 797  | Loudred            |  0.00177% | 22     |  0.002% | 15     |  0.002% | 
 | 798  | Spewpa             |  0.00169% | 21     |  0.002% | 17     |  0.002% | 
 | 799  | Kricketot          |  0.00169% | 21     |  0.002% | 18     |  0.002% | 
 | 800  | Tympole            |  0.00153% | 19     |  0.002% | 14     |  0.002% | 
 | 801  | Shelmet            |  0.00153% | 19     |  0.002% | 16     |  0.002% | 
 | 802  | Cascoon            |  0.00145% | 18     |  0.001% | 16     |  0.002% | 
 | 803  | Pumpkaboo-Small    |  0.00145% | 18     |  0.001% | 12     |  0.001% | 
 | 804  | NidoranF           |  0.00129% | 16     |  0.001% | 14     |  0.002% | 
 | 805  | Cubchoo            |  0.00121% | 15     |  0.001% | 8      |  0.001% | 
 | 806  | Anorith            |  0.00121% | 15     |  0.001% | 11     |  0.001% | 
 | 807  | Clauncher          |  0.00096% | 12     |  0.001% | 7      |  0.001% | 
 | 808  | Burmy              |  0.00096% | 12     |  0.001% | 11     |  0.001% | 
 | 809  | Munna              |  0.00080% | 10     |  0.001% | 8      |  0.001% | 
 | 810  | Pumpkaboo-Large    |  0.00072% | 9      |  0.001% | 5      |  0.001% | 
 | 811  | Karrablast         |  0.00064% | 8      |  0.001% | 5      |  0.001% | 
 + ---- + ------------------ + --------- + ------ + ------- + ------ + ------- + 
